{
  "$type": "Comindware.Platform.Contracts.AttributeModel, Comindware.Platform.Contracts",
  "GlobalAlias": {
    "$type": "Comindware.Platform.Contracts.GlobalAlias, Comindware.Platform.Contracts",
    "Type": "Attribute",
    "Owner": "Mediaplany",
    "Alias": "Itogovayasumma"
  },
  "Type": "Decimal",
  "Format": "Undefined",
  "Name": "Итоговая сумма",
  "Description": "Без НДС",
  "IsSystem": false,
  "IsDisabled": false,
  "IsUnique": false,
  "IsIndexed": false,
  "IsTracked": false,
  "IsDigitGrouping": true,
  "IsMultiValue": false,
  "IsTitle": false,
  "IsMandatory": false,
  "IsOwnership": false,
  "IsCalculated": true,
  "Expression": "@prefix object: <http://comindware.com/ontology/object#>.\n@prefix math: <http://www.w3.org/2000/10/swap/math#>.\n@prefix w3math: <http://www.w3.org/2000/10/swap/math#>.\n@prefix cmwmath: <http://comindware.com/logics/math#>.\n\n{\n    (\"Mediaplany\" \"Detalizatsiyamediaplana\") object:findProperty ?ProjectPlansProperty.\n    (\"Detalizatsiimediaplanov\" \"ItogovayaSummaRub\") object:findProperty ?ProdolzhitelnostProperty.\n    (\"Detalizatsiimediaplanov\" \"_isDisabled\") object:findProperty ?_isDisabled.\n\n   \n                from {\n                ?item ?ProjectPlansProperty ?ProjectPlansVal.\n                ?ProjectPlansVal ?ProdolzhitelnostProperty ?ProdolzhitelnostVal.\n                not{?ProdolzhitelnostVal ?_isDisabled true.}.\n                                         }select ?ProdolzhitelnostVal -> ?durationList.\n                ?durationList cmwmath:sum  ?value.           \n                }",
  "InstanceGlobalAlias": {
    "$type": "Comindware.Platform.Contracts.GlobalAlias, Comindware.Platform.Contracts",
    "Type": "Undefined"
  },
  "ImageColorType": "Original",
  "ImagePreserveAspectRatio": false,
  "DecimalPlaces": 2
}