{
  "$type": "Comindware.Platform.Contracts.TaskActivityModel, Comindware.Platform.Contracts",
  "GlobalAlias": {
    "$type": "Comindware.Platform.Contracts.GlobalAlias, Comindware.Platform.Contracts",
    "Type": "ClientActivity",
    "Owner": "Zaprostekhnicheskikhtrebovanii",
    "Alias": "userTask1"
  },
  "Kind": "User",
  "UserDefinition": {
    "$type": "Comindware.Platform.Contracts.UserTaskDefinitionModel, Comindware.Platform.Contracts",
    "Modifiers": {
      "$type": "Comindware.Platform.Contracts.ModificationRuleModel[], Comindware.Platform.Contracts",
      "$values": [
        {
          "$type": "Comindware.Platform.Contracts.ModificationRuleModel, Comindware.Platform.Contracts",
          "Action": {
            "$type": "Comindware.Platform.Contracts.ModificationActionModel, Comindware.Platform.Contracts",
            "PropertyPath": {
              "$type": "Comindware.Platform.Contracts.GlobalAlias[], Comindware.Platform.Contracts",
              "$values": [
                {
                  "$type": "Comindware.Platform.Contracts.GlobalAlias, Comindware.Platform.Contracts",
                  "Type": "Attribute",
                  "Alias": "title"
                }
              ]
            },
            "PropertyAction": "Replace"
          },
          "Type": "Modification",
          "Definition": {
            "$type": "Comindware.Platform.Contracts.ValuesRuleDefinitionModel, Comindware.Platform.Contracts",
            "Values": {
              "$type": "System.Object[], mscorlib",
              "$values": [
                "Предоставить технические требования"
              ]
            },
            "Type": "Values"
          }
        },
        {
          "$type": "Comindware.Platform.Contracts.MemberValuesModificationRuleModel, Comindware.Platform.Contracts",
          "Action": {
            "$type": "Comindware.Platform.Contracts.ModificationActionModel, Comindware.Platform.Contracts",
            "PropertyPath": {
              "$type": "Comindware.Platform.Contracts.GlobalAlias[], Comindware.Platform.Contracts",
              "$values": [
                {
                  "$type": "Comindware.Platform.Contracts.GlobalAlias, Comindware.Platform.Contracts",
                  "Type": "Attribute",
                  "Alias": "possibleAssignee"
                }
              ]
            },
            "PropertyAction": "Replace"
          },
          "Type": "Modification",
          "Definition": {
            "$type": "Comindware.Platform.Contracts.ValuesRuleDefinitionModel, Comindware.Platform.Contracts",
            "Type": "Values"
          }
        },
        {
          "$type": "Comindware.Platform.Contracts.ModificationRuleModel, Comindware.Platform.Contracts",
          "Action": {
            "$type": "Comindware.Platform.Contracts.ModificationActionModel, Comindware.Platform.Contracts",
            "PropertyPath": {
              "$type": "Comindware.Platform.Contracts.GlobalAlias[], Comindware.Platform.Contracts",
              "$values": [
                {
                  "$type": "Comindware.Platform.Contracts.GlobalAlias, Comindware.Platform.Contracts",
                  "Type": "Attribute",
                  "Owner": "_UserTask",
                  "Alias": "isReassignProhibited"
                }
              ]
            },
            "PropertyAction": "Replace"
          },
          "Type": "Modification",
          "Definition": {
            "$type": "Comindware.Platform.Contracts.ValuesRuleDefinitionModel, Comindware.Platform.Contracts",
            "Values": {
              "$type": "System.Object[], mscorlib",
              "$values": [
                false
              ]
            },
            "Type": "Values"
          }
        },
        {
          "$type": "Comindware.Platform.Contracts.ModificationRuleModel, Comindware.Platform.Contracts",
          "Action": {
            "$type": "Comindware.Platform.Contracts.ModificationActionModel, Comindware.Platform.Contracts",
            "PropertyPath": {
              "$type": "Comindware.Platform.Contracts.GlobalAlias[], Comindware.Platform.Contracts",
              "$values": [
                {
                  "$type": "Comindware.Platform.Contracts.GlobalAlias, Comindware.Platform.Contracts",
                  "Type": "Attribute",
                  "Alias": "dueDate"
                }
              ]
            },
            "PropertyAction": "Replace"
          },
          "Type": "Modification",
          "Definition": {
            "$type": "Comindware.Platform.Contracts.ValuesRuleDefinitionModel, Comindware.Platform.Contracts",
            "Values": {
              "$type": "System.Object[], mscorlib",
              "$values": [
                "P0D"
              ]
            },
            "Type": "Values"
          }
        },
        {
          "$type": "Comindware.Platform.Contracts.ModificationRuleModel, Comindware.Platform.Contracts",
          "Action": {
            "$type": "Comindware.Platform.Contracts.ModificationActionModel, Comindware.Platform.Contracts",
            "PropertyPath": {
              "$type": "Comindware.Platform.Contracts.GlobalAlias[], Comindware.Platform.Contracts",
              "$values": [
                {
                  "$type": "Comindware.Platform.Contracts.GlobalAlias, Comindware.Platform.Contracts",
                  "Type": "Attribute",
                  "Owner": "_Case",
                  "Alias": "description"
                }
              ]
            },
            "PropertyAction": "Replace"
          },
          "Type": "Modification",
          "Definition": {
            "$type": "Comindware.Platform.Contracts.ValuesRuleDefinitionModel, Comindware.Platform.Contracts",
            "Type": "Values"
          }
        }
      ]
    },
    "MessageMapping": {
      "$type": "Comindware.Platform.Contracts.MessagePayloadDefinitionModel, Comindware.Platform.Contracts",
      "MessageType": {
        "$type": "Comindware.Platform.Contracts.GlobalAlias, Comindware.Platform.Contracts",
        "Type": "Undefined"
      },
      "Data": {
        "$type": "Comindware.Platform.Contracts.MakeMessageRuleModel, Comindware.Platform.Contracts",
        "MessageType": {
          "$type": "Comindware.Platform.Contracts.GlobalAlias, Comindware.Platform.Contracts",
          "Type": "Undefined"
        },
        "ContextObject": "task",
        "Type": "MakeMessage"
      }
    }
  },
  "FormAlias": {
    "$type": "Comindware.Platform.Contracts.GlobalAlias, Comindware.Platform.Contracts",
    "Type": "ProcessForm",
    "Owner": "Zaprostekhnicheskikhtrebovanii",
    "Alias": "form76b798109f054ebca6664c99640ded65"
  },
  "BehaviourState": "Undefined",
  "Title": "Предоставить технические требования",
  "IsTitleSet": false,
  "Position": {
    "$type": "Comindware.Platform.Contracts.VectorModel, Comindware.Platform.Contracts",
    "X": 400.0,
    "Y": 465.0
  },
  "Size": {
    "$type": "Comindware.Platform.Contracts.DimensionsModel, Comindware.Platform.Contracts",
    "Width": 120.0,
    "Height": 70.0
  },
  "Owner": {
    "$type": "Comindware.Platform.Contracts.GlobalAlias, Comindware.Platform.Contracts",
    "Type": "ClientActivity",
    "Owner": "Zaprostekhnicheskikhtrebovanii",
    "Alias": "lane3"
  },
  "OwnerEmbeddedProcessActivityAlias": {
    "$type": "Comindware.Platform.Contracts.GlobalAlias, Comindware.Platform.Contracts",
    "Type": "Undefined"
  },
  "MountedOnAlias": {
    "$type": "Comindware.Platform.Contracts.GlobalAlias, Comindware.Platform.Contracts",
    "Type": "Undefined"
  },
  "Type": "Task",
  "OnEnterTrigger": {
    "$type": "Comindware.Platform.Contracts.GlobalAlias, Comindware.Platform.Contracts",
    "Type": "Undefined"
  },
  "OnExitTrigger": {
    "$type": "Comindware.Platform.Contracts.GlobalAlias, Comindware.Platform.Contracts",
    "Type": "Undefined"
  }
}