{
  "$type": "Comindware.Platform.Contracts.DatasetModel, Comindware.Platform.Contracts",
  "GlobalAlias": {
    "$type": "Comindware.Platform.Contracts.GlobalAlias, Comindware.Platform.Contracts",
    "Type": "Dataset",
    "Owner": "Aktysverok",
    "Alias": "defaultList"
  },
  "IsLazyLoading": false,
  "Name": "Акты сверки",
  "Columns": {
    "$type": "System.Collections.Generic.List`1[[Comindware.Platform.Contracts.ColumnConfigurationModel, Comindware.Platform.Contracts]], mscorlib",
    "$values": [
      {
        "$type": "Comindware.Platform.Contracts.ColumnConfigurationModel, Comindware.Platform.Contracts",
        "PropertyPath": {
          "$type": "Comindware.Platform.Contracts.GlobalAlias[], Comindware.Platform.Contracts",
          "$values": [
            {
              "$type": "Comindware.Platform.Contracts.GlobalAlias, Comindware.Platform.Contracts",
              "Type": "Attribute",
              "Owner": "Aktysverok",
              "Alias": "Klient"
            }
          ]
        },
        "Name": "Клиент",
        "Layout": {
          "$type": "Comindware.Platform.Contracts.ColumnLayoutModel, Comindware.Platform.Contracts",
          "Flex": 1.0
        },
        "IsHidden": false
      },
      {
        "$type": "Comindware.Platform.Contracts.ColumnConfigurationModel, Comindware.Platform.Contracts",
        "PropertyPath": {
          "$type": "Comindware.Platform.Contracts.GlobalAlias[], Comindware.Platform.Contracts",
          "$values": [
            {
              "$type": "Comindware.Platform.Contracts.GlobalAlias, Comindware.Platform.Contracts",
              "Type": "Attribute",
              "Owner": "Aktysverok",
              "Alias": "Yurlitsoklienta"
            }
          ]
        },
        "Name": "Юр. лицо клиента",
        "Layout": {
          "$type": "Comindware.Platform.Contracts.ColumnLayoutModel, Comindware.Platform.Contracts",
          "Flex": 1.0
        },
        "IsHidden": false
      },
      {
        "$type": "Comindware.Platform.Contracts.ColumnConfigurationModel, Comindware.Platform.Contracts",
        "PropertyPath": {
          "$type": "Comindware.Platform.Contracts.GlobalAlias[], Comindware.Platform.Contracts",
          "$values": [
            {
              "$type": "Comindware.Platform.Contracts.GlobalAlias, Comindware.Platform.Contracts",
              "Type": "Attribute",
              "Owner": "Aktysverok",
              "Alias": "Period"
            }
          ]
        },
        "Name": "Период, с:",
        "Layout": {
          "$type": "Comindware.Platform.Contracts.ColumnLayoutModel, Comindware.Platform.Contracts",
          "Flex": 1.0
        },
        "IsHidden": false
      },
      {
        "$type": "Comindware.Platform.Contracts.ColumnConfigurationModel, Comindware.Platform.Contracts",
        "PropertyPath": {
          "$type": "Comindware.Platform.Contracts.GlobalAlias[], Comindware.Platform.Contracts",
          "$values": [
            {
              "$type": "Comindware.Platform.Contracts.GlobalAlias, Comindware.Platform.Contracts",
              "Type": "Attribute",
              "Owner": "Aktysverok",
              "Alias": "Periodpo"
            }
          ]
        },
        "Name": "Период, по:",
        "Layout": {
          "$type": "Comindware.Platform.Contracts.ColumnLayoutModel, Comindware.Platform.Contracts",
          "Flex": 1.0
        },
        "IsHidden": false
      },
      {
        "$type": "Comindware.Platform.Contracts.ColumnConfigurationModel, Comindware.Platform.Contracts",
        "PropertyPath": {
          "$type": "Comindware.Platform.Contracts.GlobalAlias[], Comindware.Platform.Contracts",
          "$values": [
            {
              "$type": "Comindware.Platform.Contracts.GlobalAlias, Comindware.Platform.Contracts",
              "Type": "Attribute",
              "Owner": "Aktysverok",
              "Alias": "Statusaktasverki"
            }
          ]
        },
        "Name": "Статус акта сверки",
        "Layout": {
          "$type": "Comindware.Platform.Contracts.ColumnLayoutModel, Comindware.Platform.Contracts",
          "Flex": 1.0
        },
        "IsHidden": false
      },
      {
        "$type": "Comindware.Platform.Contracts.ColumnConfigurationModel, Comindware.Platform.Contracts",
        "PropertyPath": {
          "$type": "Comindware.Platform.Contracts.GlobalAlias[], Comindware.Platform.Contracts",
          "$values": [
            {
              "$type": "Comindware.Platform.Contracts.GlobalAlias, Comindware.Platform.Contracts",
              "Type": "Attribute",
              "Alias": "creationDate"
            }
          ]
        },
        "Name": "Дата создания запроса",
        "Layout": {
          "$type": "Comindware.Platform.Contracts.ColumnLayoutModel, Comindware.Platform.Contracts",
          "Flex": 1.0
        },
        "IsHidden": false
      }
    ]
  },
  "Paging": {
    "$type": "Comindware.Platform.Contracts.PagingConfigurationModel, Comindware.Platform.Contracts",
    "Page": 0,
    "Size": 1000
  },
  "Sorting": {
    "$type": "System.Collections.Generic.List`1[[Comindware.Platform.Contracts.SortingConfigurationModel, Comindware.Platform.Contracts]], mscorlib",
    "$values": []
  },
  "ViewType": "General",
  "Grouping": {
    "$type": "System.Collections.Generic.List`1[[Comindware.Platform.Contracts.GroupingConfigurationModel, Comindware.Platform.Contracts]], mscorlib",
    "$values": [
      {
        "$type": "Comindware.Platform.Contracts.GroupingConfigurationModel, Comindware.Platform.Contracts",
        "Level": 1,
        "Name": "Клиент",
        "PropertyPath": {
          "$type": "Comindware.Platform.Contracts.GlobalAlias[], Comindware.Platform.Contracts",
          "$values": [
            {
              "$type": "Comindware.Platform.Contracts.GlobalAlias, Comindware.Platform.Contracts",
              "Type": "Attribute",
              "Owner": "Aktysverok",
              "Alias": "Klient"
            }
          ]
        },
        "Direction": "Asc"
      }
    ]
  }
}