{
  "$type": "Comindware.Platform.Contracts.RoleWorkspaceConfigurationModel, Comindware.Platform.Contracts",
  "GlobalAlias": {
    "$type": "Comindware.Platform.Contracts.GlobalAlias, Comindware.Platform.Contracts",
    "Type": "RoleWorkspace",
    "Alias": "Rabochiystoltrafikov"
  },
  "Name": "Рабочий стол трафиков",
  "Description": "Для внутренних сотрудников",
  "Roles": {
    "$type": "Comindware.Platform.Contracts.GlobalAlias[], Comindware.Platform.Contracts",
    "$values": [
      {
        "$type": "Comindware.Platform.Contracts.GlobalAlias, Comindware.Platform.Contracts",
        "Type": "RoleConfiguration",
        "Alias": "TrafficIII"
      },
      {
        "$type": "Comindware.Platform.Contracts.GlobalAlias, Comindware.Platform.Contracts",
        "Type": "RoleConfiguration",
        "Alias": "TrafikNavigatsiya"
      }
    ]
  },
  "NavigationItems": {
    "$type": "Comindware.Platform.Contracts.NavigationItemModel[], Comindware.Platform.Contracts",
    "$values": [
      {
        "$type": "Comindware.Platform.Contracts.NavigationItemModel, Comindware.Platform.Contracts",
        "Name": "Мои задачи",
        "Description": "",
        "Priority": 9,
        "ItemType": "MyTasks",
        "IconClass": "tasks",
        "Severity": "None"
      },
      {
        "$type": "Comindware.Platform.Contracts.NavigationItemModel, Comindware.Platform.Contracts",
        "Name": "Клиенты",
        "Description": "",
        "Container": "Kontragenty",
        "Priority": 8,
        "ItemType": "RecordTemplateList",
        "IconClass": "building",
        "Target": "AllClients",
        "Severity": "None"
      },
      {
        "$type": "Comindware.Platform.Contracts.NavigationItemModel, Comindware.Platform.Contracts",
        "Name": "Проекты",
        "Description": "",
        "Priority": 7,
        "ItemType": "RecordTemplate",
        "IconClass": "project-diagram",
        "Target": "Proekty",
        "Severity": "None"
      },
      {
        "$type": "Comindware.Platform.Contracts.NavigationItemModel, Comindware.Platform.Contracts",
        "Name": "Медиапланы",
        "Description": "",
        "Priority": 6,
        "ItemType": "RecordTemplate",
        "IconClass": "chart-line",
        "Target": "Mediaplany",
        "Severity": "None"
      },
      {
        "$type": "Comindware.Platform.Contracts.NavigationItemModel, Comindware.Platform.Contracts",
        "Name": "Основная документация",
        "Description": "",
        "Priority": 5,
        "ItemType": "Group",
        "IconClass": "folder",
        "Severity": "None",
        "ChildrenItems": {
          "$type": "Comindware.Platform.Contracts.NavigationItemModel[], Comindware.Platform.Contracts",
          "$values": [
            {
              "$type": "Comindware.Platform.Contracts.NavigationItemModel, Comindware.Platform.Contracts",
              "Name": "Договоры",
              "Description": "",
              "Priority": 2,
              "ItemType": "RecordTemplate",
              "IconClass": "file-alt",
              "Target": "Dogovory",
              "Severity": "None"
            },
            {
              "$type": "Comindware.Platform.Contracts.NavigationItemModel, Comindware.Platform.Contracts",
              "Name": "ДС к договорам",
              "Description": "",
              "Priority": 1,
              "ItemType": "RecordTemplate",
              "IconClass": "list-alt",
              "Target": "Dopsoglasheniya",
              "Severity": "None"
            }
          ]
        }
      },
      {
        "$type": "Comindware.Platform.Contracts.NavigationItemModel, Comindware.Platform.Contracts",
        "Name": "Сопроводительная документация",
        "Description": "",
        "Priority": 4,
        "ItemType": "Group",
        "IconClass": "file-certificate",
        "Severity": "None",
        "ChildrenItems": {
          "$type": "Comindware.Platform.Contracts.NavigationItemModel[], Comindware.Platform.Contracts",
          "$values": [
            {
              "$type": "Comindware.Platform.Contracts.NavigationItemModel, Comindware.Platform.Contracts",
              "Name": "Приложения и ДС",
              "Description": "",
              "Priority": 4,
              "ItemType": "RecordTemplate",
              "IconClass": "list-alt",
              "Target": "Prilozheniyakdogovoram",
              "Severity": "None"
            },
            {
              "$type": "Comindware.Platform.Contracts.NavigationItemModel, Comindware.Platform.Contracts",
              "Name": "Счета",
              "Description": "",
              "Priority": 3,
              "ItemType": "RecordTemplate",
              "IconClass": "list-alt",
              "Target": "Scheta",
              "Severity": "None"
            },
            {
              "$type": "Comindware.Platform.Contracts.NavigationItemModel, Comindware.Platform.Contracts",
              "Name": "УПД",
              "Description": "",
              "Priority": 2,
              "ItemType": "RecordTemplate",
              "IconClass": "list-alt",
              "Target": "Akty",
              "Severity": "None"
            },
            {
              "$type": "Comindware.Platform.Contracts.NavigationItemModel, Comindware.Platform.Contracts",
              "Name": "Акты сверки",
              "Description": "",
              "Priority": 1,
              "ItemType": "RecordTemplate",
              "IconClass": "abacus",
              "Target": "Aktysverok",
              "Severity": "None"
            }
          ]
        }
      },
      {
        "$type": "Comindware.Platform.Contracts.NavigationItemModel, Comindware.Platform.Contracts",
        "Name": "Заявки на доставку документов",
        "Description": "",
        "Priority": 3,
        "ItemType": "RecordTemplate",
        "IconClass": "mail-bulk",
        "Target": "Zayavkinadostavkudokumentov",
        "Severity": "None"
      },
      {
        "$type": "Comindware.Platform.Contracts.NavigationItemModel, Comindware.Platform.Contracts",
        "Name": "Шаблоны документов",
        "Description": "",
        "Priority": 2,
        "ItemType": "RecordTemplate",
        "IconClass": "passport",
        "Target": "Shablonydokumentov",
        "Severity": "None"
      },
      {
        "$type": "Comindware.Platform.Contracts.NavigationItemModel, Comindware.Platform.Contracts",
        "Name": "Справочники К2",
        "Description": "",
        "Priority": 1,
        "ItemType": "Group",
        "IconClass": "folder",
        "Severity": "None",
        "ChildrenItems": {
          "$type": "Comindware.Platform.Contracts.NavigationItemModel[], Comindware.Platform.Contracts",
          "$values": [
            {
              "$type": "Comindware.Platform.Contracts.NavigationItemModel, Comindware.Platform.Contracts",
              "Name": "К2 - Бренды",
              "Description": "",
              "Container": "K2Brendy",
              "Priority": 20,
              "ItemType": "RecordTemplateList",
              "IconClass": "list-alt",
              "Target": "defaultList",
              "Severity": "None"
            },
            {
              "$type": "Comindware.Platform.Contracts.NavigationItemModel, Comindware.Platform.Contracts",
              "Name": "К2 - Виды медиа",
              "Description": "",
              "Container": "K2Vidymedia",
              "Priority": 19,
              "ItemType": "RecordTemplateList",
              "IconClass": "list-alt",
              "Target": "defaultList",
              "Severity": "None"
            },
            {
              "$type": "Comindware.Platform.Contracts.NavigationItemModel, Comindware.Platform.Contracts",
              "Name": "К2 - Виды наценок",
              "Description": "",
              "Container": "K2Vidynatsenok",
              "Priority": 18,
              "ItemType": "RecordTemplateList",
              "IconClass": "list-alt",
              "Target": "defaultList",
              "Severity": "None"
            },
            {
              "$type": "Comindware.Platform.Contracts.NavigationItemModel, Comindware.Platform.Contracts",
              "Name": "К2 - Города",
              "Description": "",
              "Container": "K2Goroda",
              "Priority": 17,
              "ItemType": "RecordTemplateList",
              "IconClass": "list-alt",
              "Target": "defaultList",
              "Severity": "None"
            },
            {
              "$type": "Comindware.Platform.Contracts.NavigationItemModel, Comindware.Platform.Contracts",
              "Name": "К2 – Департаменты",
              "Description": "",
              "Container": "K2Departamenty",
              "Priority": 16,
              "ItemType": "RecordTemplateList",
              "IconClass": "list-alt",
              "Target": "defaultList",
              "Severity": "None"
            },
            {
              "$type": "Comindware.Platform.Contracts.NavigationItemModel, Comindware.Platform.Contracts",
              "Name": "К2 - Медианосители",
              "Description": "",
              "Container": "K2Medianositeli",
              "Priority": 15,
              "ItemType": "RecordTemplateList",
              "IconClass": "list-alt",
              "Target": "defaultList",
              "Severity": "None"
            },
            {
              "$type": "Comindware.Platform.Contracts.NavigationItemModel, Comindware.Platform.Contracts",
              "Name": "К2 - Места размещения",
              "Description": "",
              "Container": "K2Mestarazmescheniya",
              "Priority": 14,
              "ItemType": "RecordTemplateList",
              "IconClass": "list-alt",
              "Target": "defaultList",
              "Severity": "None"
            },
            {
              "$type": "Comindware.Platform.Contracts.NavigationItemModel, Comindware.Platform.Contracts",
              "Name": "К2 - Модели закупок",
              "Description": "",
              "Container": "K2Modelizakupok",
              "Priority": 13,
              "ItemType": "RecordTemplateList",
              "IconClass": "list-alt",
              "Target": "defaultList",
              "Severity": "None"
            },
            {
              "$type": "Comindware.Platform.Contracts.NavigationItemModel, Comindware.Platform.Contracts",
              "Name": "К2 - НДС",
              "Description": "",
              "Container": "K2NDS",
              "Priority": 12,
              "ItemType": "RecordTemplateList",
              "IconClass": "list-alt",
              "Target": "defaultList",
              "Severity": "None"
            },
            {
              "$type": "Comindware.Platform.Contracts.NavigationItemModel, Comindware.Platform.Contracts",
              "Name": "К2 - Партнёрское агентство",
              "Description": "",
              "Container": "K2Partnyorskoeagenstvo",
              "Priority": 11,
              "ItemType": "RecordTemplateList",
              "IconClass": "list-alt",
              "Target": "defaultList",
              "Severity": "None"
            },
            {
              "$type": "Comindware.Platform.Contracts.NavigationItemModel, Comindware.Platform.Contracts",
              "Name": "К2 - Размеры, формат",
              "Description": "",
              "Container": "K2Razmeryformat",
              "Priority": 10,
              "ItemType": "RecordTemplateList",
              "IconClass": "list-alt",
              "Target": "defaultList",
              "Severity": "None"
            },
            {
              "$type": "Comindware.Platform.Contracts.NavigationItemModel, Comindware.Platform.Contracts",
              "Name": "К2 - СМИ",
              "Description": "",
              "Container": "K2SMI",
              "Priority": 9,
              "ItemType": "RecordTemplateList",
              "IconClass": "list-alt",
              "Target": "defaultList",
              "Severity": "None"
            },
            {
              "$type": "Comindware.Platform.Contracts.NavigationItemModel, Comindware.Platform.Contracts",
              "Name": "К2 - Страны",
              "Description": "",
              "Container": "K2Strany",
              "Priority": 8,
              "ItemType": "RecordTemplateList",
              "IconClass": "list-alt",
              "Target": "defaultList",
              "Severity": "None"
            },
            {
              "$type": "Comindware.Platform.Contracts.NavigationItemModel, Comindware.Platform.Contracts",
              "Name": "К2 - Типы ТВ контрактов",
              "Description": "",
              "Container": "K2TipyTVkontraktov",
              "Priority": 7,
              "ItemType": "RecordTemplateList",
              "IconClass": "list-alt",
              "Target": "defaultList",
              "Severity": "None"
            },
            {
              "$type": "Comindware.Platform.Contracts.NavigationItemModel, Comindware.Platform.Contracts",
              "Name": "К2 - Услуги",
              "Description": "",
              "Container": "K2Uslugi",
              "Priority": 6,
              "ItemType": "RecordTemplateList",
              "IconClass": "list-alt",
              "Target": "defaultList",
              "Severity": "None"
            },
            {
              "$type": "Comindware.Platform.Contracts.NavigationItemModel, Comindware.Platform.Contracts",
              "Name": "К2 - Устройства",
              "Description": "",
              "Container": "K2Ustroystva",
              "Priority": 5,
              "ItemType": "RecordTemplateList",
              "IconClass": "list-alt",
              "Target": "defaultList",
              "Severity": "None"
            },
            {
              "$type": "Comindware.Platform.Contracts.NavigationItemModel, Comindware.Platform.Contracts",
              "Name": "К2 - Форматы креативов Digital",
              "Description": "",
              "Container": "K2FormatykreativovDigital",
              "Priority": 4,
              "ItemType": "RecordTemplateList",
              "IconClass": "list-alt",
              "Target": "defaultList",
              "Severity": "None"
            },
            {
              "$type": "Comindware.Platform.Contracts.NavigationItemModel, Comindware.Platform.Contracts",
              "Name": "К2 - Вид проекта",
              "Description": "",
              "Priority": 3,
              "ItemType": "RecordTemplate",
              "IconClass": "list-alt",
              "Target": "K2Vidproekta",
              "Severity": "None"
            },
            {
              "$type": "Comindware.Platform.Contracts.NavigationItemModel, Comindware.Platform.Contracts",
              "Name": "К2 - Приоритет проекта",
              "Description": "",
              "Priority": 2,
              "ItemType": "RecordTemplate",
              "IconClass": "list-alt",
              "Target": "K2Prioritetproekta",
              "Severity": "None"
            },
            {
              "$type": "Comindware.Platform.Contracts.NavigationItemModel, Comindware.Platform.Contracts",
              "Name": "К2 - Причина (проект)",
              "Description": "",
              "Priority": 1,
              "ItemType": "RecordTemplate",
              "IconClass": "list-alt",
              "Target": "K2Prichinaproekt",
              "Severity": "None"
            }
          ]
        }
      }
    ]
  },
  "Pages": {
    "$type": "Comindware.Platform.Contracts.Desktop.PageModel[], Comindware.Platform.Contracts",
    "$values": [
      {
        "$type": "Comindware.Platform.Contracts.Desktop.PageModel, Comindware.Platform.Contracts",
        "Name": "Новая страница",
        "GlobalAlias": {
          "$type": "Comindware.Platform.Contracts.GlobalAlias, Comindware.Platform.Contracts",
          "Type": "SimplePage",
          "Owner": "Rabochiystoltrafikov",
          "Alias": "systemPage_workspace.8"
        },
        "Main": true,
        "Root": {
          "$type": "Comindware.Platform.Contracts.Desktop.VerticalLayoutComponentModel, Comindware.Platform.Contracts",
          "Rows": {
            "$type": "System.Collections.Generic.List`1[[Comindware.Platform.Contracts.Desktop.ComponentModel, Comindware.Platform.Contracts]], mscorlib",
            "$values": []
          },
          "Type": "VerticalLayout",
          "AccessType": "Undefined",
          "GlobalAlias": {
            "$type": "Comindware.Platform.Contracts.GlobalAlias, Comindware.Platform.Contracts",
            "Type": "DesktopComponent",
            "Owner": "systemPage_workspace.8",
            "Alias": "Component_c7afbf63-e63c-41ca-8d9d-fd6fb24a39f8"
          },
          "WidgetConfigId": {
            "$type": "Comindware.Platform.Contracts.GlobalAlias, Comindware.Platform.Contracts",
            "Type": "Undefined"
          },
          "Order": 1
        }
      }
    ]
  }
}