{
  "$type": "Comindware.Platform.Contracts.RoleWorkspaceConfigurationModel, Comindware.Platform.Contracts",
  "GlobalAlias": {
    "$type": "Comindware.Platform.Contracts.GlobalAlias, Comindware.Platform.Contracts",
    "Type": "RoleWorkspace",
    "Alias": "workspace0"
  },
  "Name": "Рабочий стол клиента",
  "Description": "Для сотрудников контрагентов",
  "Roles": {
    "$type": "Comindware.Platform.Contracts.GlobalAlias[], Comindware.Platform.Contracts",
    "$values": [
      {
        "$type": "Comindware.Platform.Contracts.GlobalAlias, Comindware.Platform.Contracts",
        "Type": "RoleConfiguration",
        "Alias": "Sotrudnikkontragenta"
      }
    ]
  },
  "NavigationItems": {
    "$type": "Comindware.Platform.Contracts.NavigationItemModel[], Comindware.Platform.Contracts",
    "$values": [
      {
        "$type": "Comindware.Platform.Contracts.NavigationItemModel, Comindware.Platform.Contracts",
        "Name": "Аналитика (клиентская)",
        "Description": "",
        "Priority": 10,
        "ItemType": "SimplePage",
        "IconClass": "chart-pie",
        "Target": "systemPage_workspace.3",
        "Severity": "None"
      },
      {
        "$type": "Comindware.Platform.Contracts.NavigationItemModel, Comindware.Platform.Contracts",
        "Name": "Мои задачи",
        "Description": "",
        "Priority": 9,
        "ItemType": "MyTasks",
        "IconClass": "tasks",
        "Severity": "None"
      },
      {
        "$type": "Comindware.Platform.Contracts.NavigationItemModel, Comindware.Platform.Contracts",
        "Name": "Моя компания",
        "Description": "",
        "Container": "Kontragenty",
        "Priority": 8,
        "ItemType": "Action",
        "IconClass": "users",
        "Target": "Moyakompaniya",
        "Severity": "None"
      },
      {
        "$type": "Comindware.Platform.Contracts.NavigationItemModel, Comindware.Platform.Contracts",
        "Name": "Брифы",
        "Description": "",
        "Container": "Brify",
        "Priority": 7,
        "ItemType": "RecordTemplateList",
        "IconClass": "business-time",
        "Target": "Moibrify",
        "Severity": "None"
      },
      {
        "$type": "Comindware.Platform.Contracts.NavigationItemModel, Comindware.Platform.Contracts",
        "Name": "Проекты",
        "Description": "",
        "Container": "Proekty",
        "Priority": 6,
        "ItemType": "RecordTemplateList",
        "IconClass": "project-diagram",
        "Target": "Moiproekty",
        "Severity": "None"
      },
      {
        "$type": "Comindware.Platform.Contracts.NavigationItemModel, Comindware.Platform.Contracts",
        "Name": "Медиапланы ",
        "Description": "",
        "Container": "Mediaplany",
        "Priority": 5,
        "ItemType": "RecordTemplateList",
        "IconClass": "chart-line",
        "Target": "Mediaplanyklienta",
        "Severity": "None"
      },
      {
        "$type": "Comindware.Platform.Contracts.NavigationItemModel, Comindware.Platform.Contracts",
        "Name": "Договоры",
        "Description": "",
        "Priority": 4,
        "ItemType": "RecordTemplate",
        "IconClass": "file-alt",
        "Target": "Dogovory",
        "Severity": "None"
      },
      {
        "$type": "Comindware.Platform.Contracts.NavigationItemModel, Comindware.Platform.Contracts",
        "Name": "Мои задачи",
        "Description": "",
        "Priority": 3,
        "ItemType": "MyTasks",
        "IconClass": "tasks",
        "Severity": "None"
      },
      {
        "$type": "Comindware.Platform.Contracts.NavigationItemModel, Comindware.Platform.Contracts",
        "Name": "Задачи",
        "Description": "",
        "Priority": 2,
        "ItemType": "RecordTemplate",
        "IconClass": "list-alt",
        "Target": "Zadachi",
        "Severity": "None"
      },
      {
        "$type": "Comindware.Platform.Contracts.NavigationItemModel, Comindware.Platform.Contracts",
        "Name": "Экосистема рекламного рынка",
        "Description": "",
        "Priority": 1,
        "ItemType": "Solution",
        "IconClass": "cubes",
        "Target": "Ekosistemareklamnogorynka",
        "Severity": "None"
      }
    ]
  },
  "Pages": {
    "$type": "Comindware.Platform.Contracts.Desktop.PageModel[], Comindware.Platform.Contracts",
    "$values": [
      {
        "$type": "Comindware.Platform.Contracts.Desktop.PageModel, Comindware.Platform.Contracts",
        "Name": "Аналитика (клиентская)",
        "GlobalAlias": {
          "$type": "Comindware.Platform.Contracts.GlobalAlias, Comindware.Platform.Contracts",
          "Type": "SimplePage",
          "Owner": "workspace0",
          "Alias": "systemPage_workspace.3"
        },
        "Main": true,
        "Root": {
          "$type": "Comindware.Platform.Contracts.Desktop.VerticalLayoutComponentModel, Comindware.Platform.Contracts",
          "Rows": {
            "$type": "System.Collections.Generic.List`1[[Comindware.Platform.Contracts.Desktop.ComponentModel, Comindware.Platform.Contracts]], mscorlib",
            "$values": [
              {
                "$type": "Comindware.Platform.Contracts.Desktop.GroupPanelComponentModel, Comindware.Platform.Contracts",
                "Rows": {
                  "$type": "System.Collections.Generic.List`1[[Comindware.Platform.Contracts.Desktop.ComponentModel, Comindware.Platform.Contracts]], mscorlib",
                  "$values": [
                    {
                      "$type": "Comindware.Platform.Contracts.Desktop.VerticalLayoutComponentModel, Comindware.Platform.Contracts",
                      "Rows": {
                        "$type": "System.Collections.Generic.List`1[[Comindware.Platform.Contracts.Desktop.ComponentModel, Comindware.Platform.Contracts]], mscorlib",
                        "$values": [
                          {
                            "$type": "Comindware.Platform.Contracts.Desktop.FieldComponentModel, Comindware.Platform.Contracts",
                            "Type": "FieldComponent",
                            "FieldType": "Chart",
                            "Label": {
                              "$type": "Comindware.Platform.Contracts.Desktop.Label, Comindware.Platform.Contracts",
                              "Hidden": false,
                              "Text": {
                                "$type": "Comindware.Platform.Contracts.Desktop.LocalizedText, Comindware.Platform.Contracts",
                                "En": "Статусы медиапланов",
                                "De": "Статусы медиапланов",
                                "Ru": "Статусы медиапланов"
                              },
                              "Alignment": "Undefined"
                            },
                            "TemplateId": {
                              "$type": "Comindware.Platform.Contracts.GlobalAlias, Comindware.Platform.Contracts",
                              "Type": "RecordTemplate",
                              "Alias": "Mediaplany"
                            },
                            "Children": {
                              "$type": "System.Collections.Generic.List`1[[Comindware.Platform.Contracts.Desktop.ComponentModel, Comindware.Platform.Contracts]], mscorlib",
                              "$values": []
                            },
                            "Name": "Статусы медиапланов",
                            "AccessType": "Undefined",
                            "GlobalAlias": {
                              "$type": "Comindware.Platform.Contracts.GlobalAlias, Comindware.Platform.Contracts",
                              "Type": "DesktopComponent",
                              "Owner": "Component_61f64b7e-702c-4ac1-a662-2470067b5ce3",
                              "Alias": "Component_cdea3ac5-d8b8-4465-9126-e76cd8897674"
                            },
                            "WidgetConfigId": {
                              "$type": "Comindware.Platform.Contracts.GlobalAlias, Comindware.Platform.Contracts",
                              "Type": "DesktopWidgetConfig",
                              "Alias": "WidgetConfig_823f1b3d-05dd-4210-96e4-025497e3ba8e"
                            },
                            "Order": 1
                          },
                          {
                            "$type": "Comindware.Platform.Contracts.Desktop.FieldComponentModel, Comindware.Platform.Contracts",
                            "Type": "FieldComponent",
                            "FieldType": "Chart",
                            "Label": {
                              "$type": "Comindware.Platform.Contracts.Desktop.Label, Comindware.Platform.Contracts",
                              "Hidden": false,
                              "Text": {
                                "$type": "Comindware.Platform.Contracts.Desktop.LocalizedText, Comindware.Platform.Contracts",
                                "En": "Статусы договоров",
                                "De": "Статусы договоров",
                                "Ru": "Статусы договоров"
                              },
                              "Alignment": "Undefined"
                            },
                            "TemplateId": {
                              "$type": "Comindware.Platform.Contracts.GlobalAlias, Comindware.Platform.Contracts",
                              "Type": "RecordTemplate",
                              "Alias": "Dogovory"
                            },
                            "Children": {
                              "$type": "System.Collections.Generic.List`1[[Comindware.Platform.Contracts.Desktop.ComponentModel, Comindware.Platform.Contracts]], mscorlib",
                              "$values": []
                            },
                            "Name": "Статусы договоров",
                            "AccessType": "Undefined",
                            "GlobalAlias": {
                              "$type": "Comindware.Platform.Contracts.GlobalAlias, Comindware.Platform.Contracts",
                              "Type": "DesktopComponent",
                              "Owner": "Component_61f64b7e-702c-4ac1-a662-2470067b5ce3",
                              "Alias": "Component_391036ae-81ac-4c90-92b2-4fe2c8cf5960"
                            },
                            "WidgetConfigId": {
                              "$type": "Comindware.Platform.Contracts.GlobalAlias, Comindware.Platform.Contracts",
                              "Type": "DesktopWidgetConfig",
                              "Alias": "WidgetConfig_6db02192-bd03-48ef-98d1-d88f88561cb2"
                            },
                            "Order": 2
                          }
                        ]
                      },
                      "Type": "VerticalLayout",
                      "AccessType": "Undefined",
                      "GlobalAlias": {
                        "$type": "Comindware.Platform.Contracts.GlobalAlias, Comindware.Platform.Contracts",
                        "Type": "DesktopComponent",
                        "Owner": "Component_935067a3-26c6-4548-9adc-70ec53f7641d",
                        "Alias": "Component_61f64b7e-702c-4ac1-a662-2470067b5ce3"
                      },
                      "Width": "100",
                      "WidgetConfigId": {
                        "$type": "Comindware.Platform.Contracts.GlobalAlias, Comindware.Platform.Contracts",
                        "Type": "Undefined"
                      },
                      "Order": 1
                    }
                  ]
                },
                "Text": {
                  "$type": "Comindware.Platform.Contracts.Desktop.LocalizedText, Comindware.Platform.Contracts"
                },
                "Type": "GroupPanel",
                "Name": "Область",
                "AccessType": "Editable",
                "GlobalAlias": {
                  "$type": "Comindware.Platform.Contracts.GlobalAlias, Comindware.Platform.Contracts",
                  "Type": "DesktopComponent",
                  "Owner": "Component_299c5c88-e095-44e5-8c0b-4ab7aa2466f3",
                  "Alias": "Component_935067a3-26c6-4548-9adc-70ec53f7641d"
                },
                "Width": "100",
                "WidgetConfigId": {
                  "$type": "Comindware.Platform.Contracts.GlobalAlias, Comindware.Platform.Contracts",
                  "Type": "Undefined"
                },
                "Order": 1
              }
            ]
          },
          "Type": "VerticalLayout",
          "AccessType": "Undefined",
          "GlobalAlias": {
            "$type": "Comindware.Platform.Contracts.GlobalAlias, Comindware.Platform.Contracts",
            "Type": "DesktopComponent",
            "Owner": "systemPage_workspace.3",
            "Alias": "Component_299c5c88-e095-44e5-8c0b-4ab7aa2466f3"
          },
          "WidgetConfigId": {
            "$type": "Comindware.Platform.Contracts.GlobalAlias, Comindware.Platform.Contracts",
            "Type": "Undefined"
          },
          "Order": 1
        }
      }
    ]
  }
}