{
  "$type": "Comindware.Platform.Contracts.RoleWorkspaceConfigurationModel, Comindware.Platform.Contracts",
  "GlobalAlias": {
    "$type": "Comindware.Platform.Contracts.GlobalAlias, Comindware.Platform.Contracts",
    "Type": "RoleWorkspace",
    "Alias": "workspace3"
  },
  "Name": "Рабочий стол секретаря",
  "Roles": {
    "$type": "Comindware.Platform.Contracts.GlobalAlias[], Comindware.Platform.Contracts",
    "$values": [
      {
        "$type": "Comindware.Platform.Contracts.GlobalAlias, Comindware.Platform.Contracts",
        "Type": "RoleConfiguration",
        "Alias": "SekretarNavigatsiyaprava"
      }
    ]
  },
  "NavigationItems": {
    "$type": "Comindware.Platform.Contracts.NavigationItemModel[], Comindware.Platform.Contracts",
    "$values": [
      {
        "$type": "Comindware.Platform.Contracts.NavigationItemModel, Comindware.Platform.Contracts",
        "Name": "Мои задачи",
        "Priority": 2,
        "ItemType": "MyTasks",
        "IconClass": "tasks",
        "Severity": "None"
      },
      {
        "$type": "Comindware.Platform.Contracts.NavigationItemModel, Comindware.Platform.Contracts",
        "Name": "Заявки на доставку документов",
        "Priority": 1,
        "ItemType": "RecordTemplate",
        "IconClass": "hand-holding-box",
        "Target": "Zayavkinadostavkudokumentov",
        "Severity": "None"
      }
    ]
  },
  "Pages": {
    "$type": "Comindware.Platform.Contracts.Desktop.PageModel[], Comindware.Platform.Contracts",
    "$values": [
      {
        "$type": "Comindware.Platform.Contracts.Desktop.PageModel, Comindware.Platform.Contracts",
        "Name": "Новая страница",
        "GlobalAlias": {
          "$type": "Comindware.Platform.Contracts.GlobalAlias, Comindware.Platform.Contracts",
          "Type": "SimplePage",
          "Owner": "workspace3",
          "Alias": "systemPage_workspace.14"
        },
        "Main": true,
        "Root": {
          "$type": "Comindware.Platform.Contracts.Desktop.VerticalLayoutComponentModel, Comindware.Platform.Contracts",
          "Rows": {
            "$type": "System.Collections.Generic.List`1[[Comindware.Platform.Contracts.Desktop.ComponentModel, Comindware.Platform.Contracts]], mscorlib",
            "$values": []
          },
          "Type": "VerticalLayout",
          "AccessType": "Undefined",
          "GlobalAlias": {
            "$type": "Comindware.Platform.Contracts.GlobalAlias, Comindware.Platform.Contracts",
            "Type": "DesktopComponent",
            "Owner": "systemPage_workspace.14",
            "Alias": "Component_758b251b-ea58-4b9b-af45-a986266ad54c"
          },
          "WidgetConfigId": {
            "$type": "Comindware.Platform.Contracts.GlobalAlias, Comindware.Platform.Contracts",
            "Type": "Undefined"
          },
          "Order": 1
        }
      }
    ]
  }
}