{
  "$type": "Comindware.Platform.Contracts.ToolbarModel, Comindware.Platform.Contracts",
  "GlobalAlias": {
    "$type": "Comindware.Platform.Contracts.GlobalAlias, Comindware.Platform.Contracts",
    "Type": "Toolbar",
    "Owner": "Kontragenty",
    "Alias": "defaultListToolbar"
  },
  "Name": "Панель инструментов для списков",
  "IsDefaultForLists": true,
  "IsDefaultForForms": false,
  "IsDefaultForProcess": false,
  "IsDefaultForProcessDesigner": false,
  "IsDefaultForTaskLists": false,
  "Items": {
    "$type": "System.Collections.Generic.List`1[[Comindware.Platform.Contracts.ToolbarItemModel, Comindware.Platform.Contracts]], mscorlib",
    "$values": [
      {
        "$type": "Comindware.Platform.Contracts.ToolbarItemModel, Comindware.Platform.Contracts",
        "Action": {
          "$type": "System.Nullable`1[[Comindware.Platform.Contracts.GlobalAlias, Comindware.Platform.Contracts]], mscorlib",
          "Type": "UserCommand",
          "Owner": "Kontragenty",
          "Alias": "Noviykontragent"
        },
        "Name": "Новый клиент",
        "Description": "Новый контрагент",
        "Order": 0,
        "Type": "Action",
        "IconType": "Undefined",
        "IconClass": "plus",
        "Severity": "None"
      },
      {
        "$type": "Comindware.Platform.Contracts.ToolbarItemModel, Comindware.Platform.Contracts",
        "Action": {
          "$type": "System.Nullable`1[[Comindware.Platform.Contracts.GlobalAlias, Comindware.Platform.Contracts]], mscorlib",
          "Type": "UserCommand",
          "Owner": "Kontragenty",
          "Alias": "Novoeyurlitso"
        },
        "Name": "Новое юр.лицо",
        "Description": "список",
        "Order": 1,
        "Type": "Action",
        "IconType": "Undefined",
        "IconClass": "plus",
        "Severity": "None"
      },
      {
        "$type": "Comindware.Platform.Contracts.ToolbarItemModel, Comindware.Platform.Contracts",
        "Action": {
          "$type": "System.Nullable`1[[Comindware.Platform.Contracts.GlobalAlias, Comindware.Platform.Contracts]], mscorlib",
          "Type": "UserCommand",
          "Owner": "Kontragenty",
          "Alias": "Novoeagentstvo"
        },
        "Name": "Новое агентство",
        "Description": "Новое агентство",
        "Order": 2,
        "Type": "Action",
        "IconType": "Undefined",
        "IconClass": "plus",
        "Severity": "None"
      },
      {
        "$type": "Comindware.Platform.Contracts.ToolbarItemModel, Comindware.Platform.Contracts",
        "Action": {
          "$type": "System.Nullable`1[[Comindware.Platform.Contracts.GlobalAlias, Comindware.Platform.Contracts]], mscorlib",
          "Type": "UserCommand",
          "Owner": "Kontragenty",
          "Alias": "Udalit"
        },
        "Name": "Удалить",
        "Description": "Удалить",
        "Order": 3,
        "Type": "Action",
        "IconType": "Undefined",
        "IconClass": "trash-alt",
        "Severity": "Fatal"
      },
      {
        "$type": "Comindware.Platform.Contracts.ToolbarItemModel, Comindware.Platform.Contracts",
        "Action": {
          "$type": "System.Nullable`1[[Comindware.Platform.Contracts.GlobalAlias, Comindware.Platform.Contracts]], mscorlib",
          "Type": "UserCommand",
          "Owner": "Kontragenty",
          "Alias": "Novyyklientadmin"
        },
        "Name": "Новый клиент (админ)",
        "Description": "Новый клиент (админ)",
        "Order": 4,
        "Type": "Action",
        "IconType": "Undefined",
        "IconClass": "users",
        "Severity": "Critical"
      },
      {
        "$type": "Comindware.Platform.Contracts.ToolbarItemModel, Comindware.Platform.Contracts",
        "Action": {
          "$type": "System.Nullable`1[[Comindware.Platform.Contracts.GlobalAlias, Comindware.Platform.Contracts]], mscorlib",
          "Type": "UserCommand",
          "Owner": "Kontragenty",
          "Alias": "Novoeyurlitsoadmin"
        },
        "Name": "Новое юр.лицо (админ)",
        "Description": "Новое юр.лицо (админ)",
        "Order": 5,
        "Type": "Action",
        "IconType": "Undefined",
        "IconClass": "users-crown",
        "Severity": "Critical"
      },
      {
        "$type": "Comindware.Platform.Contracts.ToolbarItemModel, Comindware.Platform.Contracts",
        "Action": {
          "$type": "System.Nullable`1[[Comindware.Platform.Contracts.GlobalAlias, Comindware.Platform.Contracts]], mscorlib",
          "Type": "UserCommand",
          "Owner": "Kontragenty",
          "Alias": "Novoeagentstvoadmin"
        },
        "Name": "Новое агентство (админ)",
        "Description": "Новое агентство (админ)",
        "Order": 6,
        "Type": "Action",
        "IconType": "Undefined",
        "IconClass": "users-class",
        "Severity": "Critical"
      }
    ]
  }
}