{
  "$type": "Comindware.Platform.Contracts.ToolbarModel, Comindware.Platform.Contracts",
  "GlobalAlias": {
    "$type": "Comindware.Platform.Contracts.GlobalAlias, Comindware.Platform.Contracts",
    "Type": "Toolbar",
    "Owner": "Kontragenty",
    "Alias": "toolbar4e8f51be"
  },
  "Name": "toolbar",
  "IsDefaultForLists": false,
  "IsDefaultForForms": false,
  "IsDefaultForProcess": false,
  "IsDefaultForProcessDesigner": false,
  "IsDefaultForTaskLists": false,
  "Items": {
    "$type": "System.Collections.Generic.List`1[[Comindware.Platform.Contracts.ToolbarItemModel, Comindware.Platform.Contracts]], mscorlib",
    "$values": [
      {
        "$type": "Comindware.Platform.Contracts.ToolbarItemModel, Comindware.Platform.Contracts",
        "CollectionAction": {
          "$type": "Comindware.Platform.Contracts.CollectionActionModel, Comindware.Platform.Contracts",
          "Type": "Create",
          "ExecutionFormat": "InForm",
          "Form": {
            "$type": "System.Nullable`1[[Comindware.Platform.Contracts.GlobalAlias, Comindware.Platform.Contracts]], mscorlib",
            "Type": "Form",
            "Owner": "Kontragenty",
            "Alias": "Formasozdaniyayurlitsaadminskaya"
          }
        },
        "Name": "Создать",
        "Order": 0,
        "Type": "Action",
        "IconType": "Undefined",
        "IconClass": "plus",
        "Severity": "None"
      },
      {
        "$type": "Comindware.Platform.Contracts.ToolbarItemModel, Comindware.Platform.Contracts",
        "CollectionAction": {
          "$type": "Comindware.Platform.Contracts.CollectionActionModel, Comindware.Platform.Contracts",
          "Type": "Copy",
          "ExecutionFormat": "Undefined"
        },
        "Name": "Копировать",
        "Order": 1,
        "Type": "Action",
        "IconType": "Undefined",
        "IconClass": "plus",
        "Severity": "None"
      },
      {
        "$type": "Comindware.Platform.Contracts.ToolbarItemModel, Comindware.Platform.Contracts",
        "CollectionAction": {
          "$type": "Comindware.Platform.Contracts.CollectionActionModel, Comindware.Platform.Contracts",
          "Type": "AddExisting",
          "ExecutionFormat": "Undefined"
        },
        "Name": "Добавить",
        "Order": 2,
        "Type": "Action",
        "IconType": "Undefined",
        "IconClass": "file-plus",
        "Severity": "None"
      },
      {
        "$type": "Comindware.Platform.Contracts.ToolbarItemModel, Comindware.Platform.Contracts",
        "CollectionAction": {
          "$type": "Comindware.Platform.Contracts.CollectionActionModel, Comindware.Platform.Contracts",
          "Type": "Exclude",
          "ExecutionFormat": "Undefined"
        },
        "Name": "Исключить",
        "Order": 3,
        "Type": "Action",
        "IconType": "Undefined",
        "IconClass": "times",
        "Severity": "None"
      },
      {
        "$type": "Comindware.Platform.Contracts.ToolbarItemModel, Comindware.Platform.Contracts",
        "CollectionAction": {
          "$type": "Comindware.Platform.Contracts.CollectionActionModel, Comindware.Platform.Contracts",
          "Type": "FormEdit",
          "ExecutionFormat": "InForm",
          "Form": {
            "$type": "System.Nullable`1[[Comindware.Platform.Contracts.GlobalAlias, Comindware.Platform.Contracts]], mscorlib",
            "Type": "Form",
            "Owner": "Kontragenty",
            "Alias": "Formasozdaniyayurlitsaadminskaya"
          }
        },
        "Name": "Редактировать",
        "Order": 4,
        "Type": "Action",
        "IconType": "Undefined",
        "IconClass": "pen-square",
        "Severity": "None"
      }
    ]
  }
}