{
  "$type": "Comindware.Platform.Contracts.AttributeModel, Comindware.Platform.Contracts",
  "GlobalAlias": {
    "$type": "Comindware.Platform.Contracts.GlobalAlias, Comindware.Platform.Contracts",
    "Type": "Attribute",
    "Owner": "Podborpersonala",
    "Alias": "Neposredstvennyyrukovoditel"
  },
  "Type": "Account",
  "Format": "Undefined",
  "Name": "Непосредственный руководитель",
  "IsSystem": false,
  "IsDisabled": false,
  "IsUnique": false,
  "IsIndexed": false,
  "IsTracked": false,
  "IsMultiValue": false,
  "IsTitle": false,
  "IsMandatory": false,
  "IsOwnership": false,
  "IsCalculated": false,
  "InstanceGlobalAlias": {
    "$type": "Comindware.Platform.Contracts.GlobalAlias, Comindware.Platform.Contracts",
    "Type": "AccountTemplate",
    "Alias": "Sotrudnikikontragentov"
  },
  "ImageColorType": "Original",
  "ImagePreserveAspectRatio": false
}