{
  "$type": "Comindware.Platform.Contracts.ToolbarModel, Comindware.Platform.Contracts",
  "GlobalAlias": {
    "$type": "Comindware.Platform.Contracts.GlobalAlias, Comindware.Platform.Contracts",
    "Type": "Toolbar",
    "Owner": "Statusypodborapersonala",
    "Alias": "toolbar75e4e77d506d44b4bdc2c29ba1e7461e"
  },
  "Name": "Область кнопок для «Статусы подбора персонала - Основная форма»",
  "IsDefaultForLists": false,
  "IsDefaultForForms": false,
  "IsDefaultForProcess": false,
  "IsDefaultForProcessDesigner": false,
  "IsDefaultForTaskLists": false,
  "Items": {
    "$type": "System.Collections.Generic.List`1[[Comindware.Platform.Contracts.ToolbarItemModel, Comindware.Platform.Contracts]], mscorlib",
    "$values": [
      {
        "$type": "Comindware.Platform.Contracts.ToolbarItemModel, Comindware.Platform.Contracts",
        "Action": {
          "$type": "System.Nullable`1[[Comindware.Platform.Contracts.GlobalAlias, Comindware.Platform.Contracts]], mscorlib",
          "Type": "UserCommand",
          "Owner": "Statusypodborapersonala",
          "Alias": "edit"
        },
        "Name": "Сохранить",
        "Order": 0,
        "Type": "Action",
        "IconType": "Undefined",
        "Severity": "None"
      }
    ]
  }
}