{
  "$type": "Comindware.Platform.Contracts.TemplateInfoModel, Comindware.Platform.Contracts",
  "Name": "Отмена приложения",
  "GlobalAlias": {
    "$type": "Comindware.Platform.Contracts.GlobalAlias, Comindware.Platform.Contracts",
    "Type": "RecordTemplate",
    "Alias": "Otmenaprilozheniya"
  },
  "IsDisabled": false,
  "IsReferenceData": false,
  "IsTransferable": false,
  "ConversationDisplayConfig": {
    "$type": "Comindware.Platform.Contracts.ObjectConversationDisplayConfigModel, Comindware.Platform.Contracts",
    "DisableSidePanelConversations": false,
    "DisableWidgetConversations": false,
    "ProhibitedReferenceTypes": {
      "$type": "System.Collections.Generic.List`1[[Comindware.Platform.Contracts.ConversationReferenceTypes, Comindware.Platform.Contracts]], mscorlib",
      "$values": []
    },
    "HideArchivedMessages": false
  }
}