{
  "$type": "Comindware.Platform.Contracts.ToolbarModel, Comindware.Platform.Contracts",
  "GlobalAlias": {
    "$type": "Comindware.Platform.Contracts.GlobalAlias, Comindware.Platform.Contracts",
    "Type": "Toolbar",
    "Owner": "Brify",
    "Alias": "toolbar00df8b4a1f5d4a1bab4be126e8604d45"
  },
  "Name": "Область кнопок для «Стартовая форма из проекта»",
  "IsDefaultForLists": false,
  "IsDefaultForForms": false,
  "IsDefaultForProcess": false,
  "IsDefaultForProcessDesigner": false,
  "IsDefaultForTaskLists": false,
  "Items": {
    "$type": "System.Collections.Generic.List`1[[Comindware.Platform.Contracts.ToolbarItemModel, Comindware.Platform.Contracts]], mscorlib",
    "$values": [
      {
        "$type": "Comindware.Platform.Contracts.ToolbarItemModel, Comindware.Platform.Contracts",
        "Action": {
          "$type": "System.Nullable`1[[Comindware.Platform.Contracts.GlobalAlias, Comindware.Platform.Contracts]], mscorlib",
          "Type": "UserCommand",
          "Owner": "Brify",
          "Alias": "Sokhranitkakchernovik"
        },
        "Name": "Сохранить как черновик",
        "Description": "Сохранить как черновик",
        "Order": 0,
        "Type": "Action",
        "IconType": "Undefined",
        "IconClass": "align-justify",
        "Severity": "None"
      },
      {
        "$type": "Comindware.Platform.Contracts.ToolbarItemModel, Comindware.Platform.Contracts",
        "Action": {
          "$type": "System.Nullable`1[[Comindware.Platform.Contracts.GlobalAlias, Comindware.Platform.Contracts]], mscorlib",
          "Type": "UserCommand",
          "Owner": "Brify",
          "Alias": "edit"
        },
        "Name": "Сохранить",
        "Order": 1,
        "Type": "Action",
        "IconType": "Undefined",
        "Severity": "None"
      },
      {
        "$type": "Comindware.Platform.Contracts.ToolbarItemModel, Comindware.Platform.Contracts",
        "Action": {
          "$type": "System.Nullable`1[[Comindware.Platform.Contracts.GlobalAlias, Comindware.Platform.Contracts]], mscorlib",
          "Type": "UserCommand",
          "Owner": "Brify",
          "Alias": "create"
        },
        "Name": "Отправить на согласование",
        "Description": "Отправить на согласование",
        "Order": 2,
        "Type": "Action",
        "IconType": "Undefined",
        "IconClass": "arrow-alt-right",
        "Severity": "Normal"
      },
      {
        "$type": "Comindware.Platform.Contracts.ToolbarItemModel, Comindware.Platform.Contracts",
        "Action": {
          "$type": "System.Nullable`1[[Comindware.Platform.Contracts.GlobalAlias, Comindware.Platform.Contracts]], mscorlib",
          "Type": "UserCommand",
          "Owner": "Brify",
          "Alias": "Initsiirovatproekt"
        },
        "Name": "Инициировать проект",
        "Description": "Инициировать проект",
        "Order": 3,
        "Type": "Action",
        "IconType": "Undefined",
        "Severity": "None"
      },
      {
        "$type": "Comindware.Platform.Contracts.ToolbarItemModel, Comindware.Platform.Contracts",
        "Action": {
          "$type": "System.Nullable`1[[Comindware.Platform.Contracts.GlobalAlias, Comindware.Platform.Contracts]], mscorlib",
          "Type": "UserCommand",
          "Owner": "Brify",
          "Alias": "archive"
        },
        "Name": "Архивировать",
        "Description": "Архивировать",
        "Order": 4,
        "Type": "Action",
        "IconType": "Undefined",
        "IconClass": "align-justify",
        "Severity": "None"
      },
      {
        "$type": "Comindware.Platform.Contracts.ToolbarItemModel, Comindware.Platform.Contracts",
        "Action": {
          "$type": "System.Nullable`1[[Comindware.Platform.Contracts.GlobalAlias, Comindware.Platform.Contracts]], mscorlib",
          "Type": "UserCommand",
          "Owner": "Brify",
          "Alias": "Razarkhivirovat"
        },
        "Name": "Восстановить из архива",
        "Description": "Восстановить из архива",
        "Order": 5,
        "Type": "Action",
        "IconType": "Undefined",
        "IconClass": "align-justify",
        "Severity": "None"
      }
    ]
  }
}