{
  "$type": "Comindware.Platform.Contracts.FormModel, Comindware.Platform.Contracts",
  "GlobalAlias": {
    "$type": "Comindware.Platform.Contracts.GlobalAlias, Comindware.Platform.Contracts",
    "Type": "Form",
    "Owner": "Brify",
    "Alias": "Formadlyaklienta"
  },
  "Type": "InternalForm",
  "IsDefault": false,
  "Root": {
    "$type": "Comindware.Platform.Contracts.VerticalLayoutModel, Comindware.Platform.Contracts",
    "Rows": {
      "$type": "System.Collections.Generic.List`1[[Comindware.Platform.Contracts.FormComponentModel, Comindware.Platform.Contracts]], mscorlib",
      "$values": [
        {
          "$type": "Comindware.Platform.Contracts.LayoutModel, Comindware.Platform.Contracts",
          "Components": {
            "$type": "System.Collections.Generic.List`1[[Comindware.Platform.Contracts.FormComponentModel, Comindware.Platform.Contracts]], mscorlib",
            "$values": [
              {
                "$type": "Comindware.Platform.Contracts.PanelModel, Comindware.Platform.Contracts",
                "Text": {
                  "$type": "Comindware.Platform.Contracts.LocalizedTextModel, Comindware.Platform.Contracts",
                  "En": "Основная информация по брифу",
                  "De": "Основная информация по брифу",
                  "Ru": "Основная информация по брифу"
                },
                "OriginalType": "GroupPanel",
                "Rows": {
                  "$type": "System.Collections.Generic.List`1[[Comindware.Platform.Contracts.FormComponentModel, Comindware.Platform.Contracts]], mscorlib",
                  "$values": [
                    {
                      "$type": "Comindware.Platform.Contracts.VerticalLayoutModel, Comindware.Platform.Contracts",
                      "Rows": {
                        "$type": "System.Collections.Generic.List`1[[Comindware.Platform.Contracts.FormComponentModel, Comindware.Platform.Contracts]], mscorlib",
                        "$values": [
                          {
                            "$type": "Comindware.Platform.Contracts.LayoutModel, Comindware.Platform.Contracts",
                            "Components": {
                              "$type": "System.Collections.Generic.List`1[[Comindware.Platform.Contracts.FormComponentModel, Comindware.Platform.Contracts]], mscorlib",
                              "$values": [
                                {
                                  "$type": "Comindware.Platform.Contracts.VerticalLayoutModel, Comindware.Platform.Contracts",
                                  "Rows": {
                                    "$type": "System.Collections.Generic.List`1[[Comindware.Platform.Contracts.FormComponentModel, Comindware.Platform.Contracts]], mscorlib",
                                    "$values": [
                                      {
                                        "$type": "Comindware.Platform.Contracts.LayoutModel, Comindware.Platform.Contracts",
                                        "Components": {
                                          "$type": "System.Collections.Generic.List`1[[Comindware.Platform.Contracts.FormComponentModel, Comindware.Platform.Contracts]], mscorlib",
                                          "$values": [
                                            {
                                              "$type": "Comindware.Platform.Contracts.VerticalLayoutModel, Comindware.Platform.Contracts",
                                              "Rows": {
                                                "$type": "System.Collections.Generic.List`1[[Comindware.Platform.Contracts.FormComponentModel, Comindware.Platform.Contracts]], mscorlib",
                                                "$values": [
                                                  {
                                                    "$type": "Comindware.Platform.Contracts.FieldComponentModel, Comindware.Platform.Contracts",
                                                    "Label": {
                                                      "$type": "Comindware.Platform.Contracts.LabelModel, Comindware.Platform.Contracts",
                                                      "Hidden": false,
                                                      "Alignment": "Top",
                                                      "Text": {
                                                        "$type": "Comindware.Platform.Contracts.LocalizedTextModel, Comindware.Platform.Contracts",
                                                        "En": "Название брифа",
                                                        "De": "Название брифа",
                                                        "Ru": "Название брифа"
                                                      }
                                                    },
                                                    "FieldType": "Text",
                                                    "Placeholder": {
                                                      "$type": "Comindware.Platform.Contracts.LocalizedTextModel, Comindware.Platform.Contracts"
                                                    },
                                                    "HelpText": {
                                                      "$type": "Comindware.Platform.Contracts.LocalizedTextModel, Comindware.Platform.Contracts"
                                                    },
                                                    "PropertyPath": {
                                                      "$type": "Comindware.Platform.Contracts.GlobalAlias[], Comindware.Platform.Contracts",
                                                      "$values": [
                                                        {
                                                          "$type": "Comindware.Platform.Contracts.GlobalAlias, Comindware.Platform.Contracts",
                                                          "Type": "Attribute",
                                                          "Owner": "Brify",
                                                          "Alias": "Nazvanie"
                                                        }
                                                      ]
                                                    },
                                                    "TextHeight": 0,
                                                    "TextHeightAuto": false,
                                                    "MaxLength": 0,
                                                    "EditorType": "Simple",
                                                    "CreationType": "None",
                                                    "RemovalType": "None",
                                                    "EditType": "None",
                                                    "ChildPropertyAlias": {
                                                      "$type": "Comindware.Platform.Contracts.GlobalAlias, Comindware.Platform.Contracts",
                                                      "Type": "Undefined"
                                                    },
                                                    "OrderPropertyAlias": {
                                                      "$type": "Comindware.Platform.Contracts.GlobalAlias, Comindware.Platform.Contracts",
                                                      "Type": "Undefined"
                                                    },
                                                    "NumberPropertyAlias": {
                                                      "$type": "Comindware.Platform.Contracts.GlobalAlias, Comindware.Platform.Contracts",
                                                      "Type": "Undefined"
                                                    },
                                                    "PrecedentPropertyAlias": {
                                                      "$type": "Comindware.Platform.Contracts.GlobalAlias, Comindware.Platform.Contracts",
                                                      "Type": "Undefined"
                                                    },
                                                    "SortingDirection": "Asc",
                                                    "PopupFormAlias": {
                                                      "$type": "Comindware.Platform.Contracts.GlobalAlias, Comindware.Platform.Contracts",
                                                      "Type": "Undefined"
                                                    },
                                                    "DisplayFormat": "ShowAsPicture",
                                                    "GlobalAlias": {
                                                      "$type": "Comindware.Platform.Contracts.GlobalAlias, Comindware.Platform.Contracts",
                                                      "Type": "FormComponent",
                                                      "Alias": "Nazvanie"
                                                    },
                                                    "AccessType": "Required",
                                                    "Width": 0,
                                                    "Type": "FieldComponent"
                                                  },
                                                  {
                                                    "$type": "Comindware.Platform.Contracts.FieldComponentModel, Comindware.Platform.Contracts",
                                                    "Label": {
                                                      "$type": "Comindware.Platform.Contracts.LabelModel, Comindware.Platform.Contracts",
                                                      "Hidden": false,
                                                      "Alignment": "Top",
                                                      "Text": {
                                                        "$type": "Comindware.Platform.Contracts.LocalizedTextModel, Comindware.Platform.Contracts",
                                                        "En": "Статус",
                                                        "De": "Статус",
                                                        "Ru": "Статус"
                                                      }
                                                    },
                                                    "FieldType": "Reference",
                                                    "Placeholder": {
                                                      "$type": "Comindware.Platform.Contracts.LocalizedTextModel, Comindware.Platform.Contracts"
                                                    },
                                                    "HelpText": {
                                                      "$type": "Comindware.Platform.Contracts.LocalizedTextModel, Comindware.Platform.Contracts"
                                                    },
                                                    "PropertyPath": {
                                                      "$type": "Comindware.Platform.Contracts.GlobalAlias[], Comindware.Platform.Contracts",
                                                      "$values": [
                                                        {
                                                          "$type": "Comindware.Platform.Contracts.GlobalAlias, Comindware.Platform.Contracts",
                                                          "Type": "Attribute",
                                                          "Owner": "Brify",
                                                          "Alias": "Status"
                                                        }
                                                      ]
                                                    },
                                                    "EditorType": "Radio",
                                                    "CreationType": "None",
                                                    "RemovalType": "None",
                                                    "EditType": "None",
                                                    "HideSearchBar": false,
                                                    "ShowAsLink": false,
                                                    "ChildPropertyAlias": {
                                                      "$type": "Comindware.Platform.Contracts.GlobalAlias, Comindware.Platform.Contracts",
                                                      "Type": "Undefined"
                                                    },
                                                    "OrderPropertyAlias": {
                                                      "$type": "Comindware.Platform.Contracts.GlobalAlias, Comindware.Platform.Contracts",
                                                      "Type": "Undefined"
                                                    },
                                                    "NumberPropertyAlias": {
                                                      "$type": "Comindware.Platform.Contracts.GlobalAlias, Comindware.Platform.Contracts",
                                                      "Type": "Undefined"
                                                    },
                                                    "PrecedentPropertyAlias": {
                                                      "$type": "Comindware.Platform.Contracts.GlobalAlias, Comindware.Platform.Contracts",
                                                      "Type": "Undefined"
                                                    },
                                                    "SortingDirection": "Asc",
                                                    "PopupFormAlias": {
                                                      "$type": "Comindware.Platform.Contracts.GlobalAlias, Comindware.Platform.Contracts",
                                                      "Type": "Undefined"
                                                    },
                                                    "AllowEdit": false,
                                                    "DisplayFormat": "ShowAsPicture",
                                                    "GlobalAlias": {
                                                      "$type": "Comindware.Platform.Contracts.GlobalAlias, Comindware.Platform.Contracts",
                                                      "Type": "FormComponent",
                                                      "Alias": "Status"
                                                    },
                                                    "AccessType": "Editable",
                                                    "Width": 0,
                                                    "Type": "FieldComponent"
                                                  },
                                                  {
                                                    "$type": "Comindware.Platform.Contracts.FieldComponentModel, Comindware.Platform.Contracts",
                                                    "Label": {
                                                      "$type": "Comindware.Platform.Contracts.LabelModel, Comindware.Platform.Contracts",
                                                      "Hidden": false,
                                                      "Alignment": "Top",
                                                      "Text": {
                                                        "$type": "Comindware.Platform.Contracts.LocalizedTextModel, Comindware.Platform.Contracts",
                                                        "En": "Период проведения кампании, с",
                                                        "De": "Период проведения кампании, с",
                                                        "Ru": "Период проведения кампании, с"
                                                      }
                                                    },
                                                    "FieldType": "Date",
                                                    "Placeholder": {
                                                      "$type": "Comindware.Platform.Contracts.LocalizedTextModel, Comindware.Platform.Contracts"
                                                    },
                                                    "HelpText": {
                                                      "$type": "Comindware.Platform.Contracts.LocalizedTextModel, Comindware.Platform.Contracts"
                                                    },
                                                    "PropertyPath": {
                                                      "$type": "Comindware.Platform.Contracts.GlobalAlias[], Comindware.Platform.Contracts",
                                                      "$values": [
                                                        {
                                                          "$type": "Comindware.Platform.Contracts.GlobalAlias, Comindware.Platform.Contracts",
                                                          "Type": "Attribute",
                                                          "Owner": "Brify",
                                                          "Alias": "Period_S"
                                                        }
                                                      ]
                                                    },
                                                    "EditorType": "Radio",
                                                    "CreationType": "None",
                                                    "RemovalType": "None",
                                                    "EditType": "None",
                                                    "DisplayTime": false,
                                                    "ChildPropertyAlias": {
                                                      "$type": "Comindware.Platform.Contracts.GlobalAlias, Comindware.Platform.Contracts",
                                                      "Type": "Undefined"
                                                    },
                                                    "OrderPropertyAlias": {
                                                      "$type": "Comindware.Platform.Contracts.GlobalAlias, Comindware.Platform.Contracts",
                                                      "Type": "Undefined"
                                                    },
                                                    "NumberPropertyAlias": {
                                                      "$type": "Comindware.Platform.Contracts.GlobalAlias, Comindware.Platform.Contracts",
                                                      "Type": "Undefined"
                                                    },
                                                    "PrecedentPropertyAlias": {
                                                      "$type": "Comindware.Platform.Contracts.GlobalAlias, Comindware.Platform.Contracts",
                                                      "Type": "Undefined"
                                                    },
                                                    "SortingDirection": "Asc",
                                                    "PopupFormAlias": {
                                                      "$type": "Comindware.Platform.Contracts.GlobalAlias, Comindware.Platform.Contracts",
                                                      "Type": "Undefined"
                                                    },
                                                    "DisplayFormat": "ShowAsPicture",
                                                    "GlobalAlias": {
                                                      "$type": "Comindware.Platform.Contracts.GlobalAlias, Comindware.Platform.Contracts",
                                                      "Type": "FormComponent",
                                                      "Alias": "Period_S"
                                                    },
                                                    "AccessType": "Editable",
                                                    "Width": 0,
                                                    "Type": "FieldComponent"
                                                  },
                                                  {
                                                    "$type": "Comindware.Platform.Contracts.FieldComponentModel, Comindware.Platform.Contracts",
                                                    "Label": {
                                                      "$type": "Comindware.Platform.Contracts.LabelModel, Comindware.Platform.Contracts",
                                                      "Hidden": false,
                                                      "Alignment": "Top",
                                                      "Text": {
                                                        "$type": "Comindware.Platform.Contracts.LocalizedTextModel, Comindware.Platform.Contracts",
                                                        "En": "Период проведения кампании, по",
                                                        "De": "Период проведения кампании, по",
                                                        "Ru": "Период проведения кампании, по"
                                                      }
                                                    },
                                                    "FieldType": "Date",
                                                    "Placeholder": {
                                                      "$type": "Comindware.Platform.Contracts.LocalizedTextModel, Comindware.Platform.Contracts"
                                                    },
                                                    "HelpText": {
                                                      "$type": "Comindware.Platform.Contracts.LocalizedTextModel, Comindware.Platform.Contracts"
                                                    },
                                                    "PropertyPath": {
                                                      "$type": "Comindware.Platform.Contracts.GlobalAlias[], Comindware.Platform.Contracts",
                                                      "$values": [
                                                        {
                                                          "$type": "Comindware.Platform.Contracts.GlobalAlias, Comindware.Platform.Contracts",
                                                          "Type": "Attribute",
                                                          "Owner": "Brify",
                                                          "Alias": "Period_Po"
                                                        }
                                                      ]
                                                    },
                                                    "EditorType": "Radio",
                                                    "CreationType": "None",
                                                    "RemovalType": "None",
                                                    "EditType": "None",
                                                    "DisplayTime": false,
                                                    "ChildPropertyAlias": {
                                                      "$type": "Comindware.Platform.Contracts.GlobalAlias, Comindware.Platform.Contracts",
                                                      "Type": "Undefined"
                                                    },
                                                    "OrderPropertyAlias": {
                                                      "$type": "Comindware.Platform.Contracts.GlobalAlias, Comindware.Platform.Contracts",
                                                      "Type": "Undefined"
                                                    },
                                                    "NumberPropertyAlias": {
                                                      "$type": "Comindware.Platform.Contracts.GlobalAlias, Comindware.Platform.Contracts",
                                                      "Type": "Undefined"
                                                    },
                                                    "PrecedentPropertyAlias": {
                                                      "$type": "Comindware.Platform.Contracts.GlobalAlias, Comindware.Platform.Contracts",
                                                      "Type": "Undefined"
                                                    },
                                                    "SortingDirection": "Asc",
                                                    "PopupFormAlias": {
                                                      "$type": "Comindware.Platform.Contracts.GlobalAlias, Comindware.Platform.Contracts",
                                                      "Type": "Undefined"
                                                    },
                                                    "DisplayFormat": "ShowAsPicture",
                                                    "GlobalAlias": {
                                                      "$type": "Comindware.Platform.Contracts.GlobalAlias, Comindware.Platform.Contracts",
                                                      "Type": "FormComponent",
                                                      "Alias": "Period_Po"
                                                    },
                                                    "AccessType": "Editable",
                                                    "Width": 0,
                                                    "Type": "FieldComponent"
                                                  }
                                                ]
                                              },
                                              "GlobalAlias": {
                                                "$type": "Comindware.Platform.Contracts.GlobalAlias, Comindware.Platform.Contracts",
                                                "Type": "FormComponent",
                                                "Alias": "VerticalLayout4"
                                              },
                                              "AccessType": "Undefined",
                                              "Width": 50,
                                              "Type": "VerticalLayout"
                                            },
                                            {
                                              "$type": "Comindware.Platform.Contracts.VerticalLayoutModel, Comindware.Platform.Contracts",
                                              "Rows": {
                                                "$type": "System.Collections.Generic.List`1[[Comindware.Platform.Contracts.FormComponentModel, Comindware.Platform.Contracts]], mscorlib",
                                                "$values": [
                                                  {
                                                    "$type": "Comindware.Platform.Contracts.FieldComponentModel, Comindware.Platform.Contracts",
                                                    "Label": {
                                                      "$type": "Comindware.Platform.Contracts.LabelModel, Comindware.Platform.Contracts",
                                                      "Hidden": false,
                                                      "Alignment": "Top",
                                                      "Text": {
                                                        "$type": "Comindware.Platform.Contracts.LocalizedTextModel, Comindware.Platform.Contracts",
                                                        "En": "Клиент",
                                                        "De": "Клиент",
                                                        "Ru": "Клиент"
                                                      }
                                                    },
                                                    "FieldType": "Reference",
                                                    "Placeholder": {
                                                      "$type": "Comindware.Platform.Contracts.LocalizedTextModel, Comindware.Platform.Contracts"
                                                    },
                                                    "HelpText": {
                                                      "$type": "Comindware.Platform.Contracts.LocalizedTextModel, Comindware.Platform.Contracts"
                                                    },
                                                    "PropertyPath": {
                                                      "$type": "Comindware.Platform.Contracts.GlobalAlias[], Comindware.Platform.Contracts",
                                                      "$values": [
                                                        {
                                                          "$type": "Comindware.Platform.Contracts.GlobalAlias, Comindware.Platform.Contracts",
                                                          "Type": "Attribute",
                                                          "Owner": "Brify",
                                                          "Alias": "Kontragent"
                                                        }
                                                      ]
                                                    },
                                                    "EditorType": "Radio",
                                                    "CreationType": "None",
                                                    "RemovalType": "None",
                                                    "EditType": "None",
                                                    "ValueFilterExpression": "from a in db->Kontragenty where NOT(EMPTY(a->type)) && a->typeRef->Kod == \"1\" select a->id",
                                                    "HideSearchBar": false,
                                                    "ShowAsLink": false,
                                                    "ChildPropertyAlias": {
                                                      "$type": "Comindware.Platform.Contracts.GlobalAlias, Comindware.Platform.Contracts",
                                                      "Type": "Undefined"
                                                    },
                                                    "OrderPropertyAlias": {
                                                      "$type": "Comindware.Platform.Contracts.GlobalAlias, Comindware.Platform.Contracts",
                                                      "Type": "Undefined"
                                                    },
                                                    "NumberPropertyAlias": {
                                                      "$type": "Comindware.Platform.Contracts.GlobalAlias, Comindware.Platform.Contracts",
                                                      "Type": "Undefined"
                                                    },
                                                    "PrecedentPropertyAlias": {
                                                      "$type": "Comindware.Platform.Contracts.GlobalAlias, Comindware.Platform.Contracts",
                                                      "Type": "Undefined"
                                                    },
                                                    "SortingDirection": "Asc",
                                                    "PopupFormAlias": {
                                                      "$type": "Comindware.Platform.Contracts.GlobalAlias, Comindware.Platform.Contracts",
                                                      "Type": "Undefined"
                                                    },
                                                    "AllowEdit": false,
                                                    "DisplayFormat": "ShowAsPicture",
                                                    "GlobalAlias": {
                                                      "$type": "Comindware.Platform.Contracts.GlobalAlias, Comindware.Platform.Contracts",
                                                      "Type": "FormComponent",
                                                      "Alias": "Kontragent"
                                                    },
                                                    "AccessType": "Hidden",
                                                    "Width": 0,
                                                    "Type": "FieldComponent"
                                                  },
                                                  {
                                                    "$type": "Comindware.Platform.Contracts.FieldComponentModel, Comindware.Platform.Contracts",
                                                    "Label": {
                                                      "$type": "Comindware.Platform.Contracts.LabelModel, Comindware.Platform.Contracts",
                                                      "Hidden": false,
                                                      "Alignment": "Top",
                                                      "Text": {
                                                        "$type": "Comindware.Platform.Contracts.LocalizedTextModel, Comindware.Platform.Contracts",
                                                        "En": "Проект",
                                                        "De": "Проект",
                                                        "Ru": "Проект"
                                                      }
                                                    },
                                                    "FieldType": "Reference",
                                                    "Placeholder": {
                                                      "$type": "Comindware.Platform.Contracts.LocalizedTextModel, Comindware.Platform.Contracts"
                                                    },
                                                    "HelpText": {
                                                      "$type": "Comindware.Platform.Contracts.LocalizedTextModel, Comindware.Platform.Contracts"
                                                    },
                                                    "PropertyPath": {
                                                      "$type": "Comindware.Platform.Contracts.GlobalAlias[], Comindware.Platform.Contracts",
                                                      "$values": [
                                                        {
                                                          "$type": "Comindware.Platform.Contracts.GlobalAlias, Comindware.Platform.Contracts",
                                                          "Type": "Attribute",
                                                          "Owner": "Brify",
                                                          "Alias": "Proekty"
                                                        }
                                                      ]
                                                    },
                                                    "EditorType": "Radio",
                                                    "CreationType": "None",
                                                    "RemovalType": "None",
                                                    "EditType": "None",
                                                    "ValueFilterExpression": "from a in db->Proekty where AND(NOT(EMPTY(a->Kontragent)),AND(NOT(EMPTY($Kontragent)),a->Kontragent == $Kontragent)) select a->id",
                                                    "HideSearchBar": false,
                                                    "ShowAsLink": false,
                                                    "ChildPropertyAlias": {
                                                      "$type": "Comindware.Platform.Contracts.GlobalAlias, Comindware.Platform.Contracts",
                                                      "Type": "Undefined"
                                                    },
                                                    "OrderPropertyAlias": {
                                                      "$type": "Comindware.Platform.Contracts.GlobalAlias, Comindware.Platform.Contracts",
                                                      "Type": "Undefined"
                                                    },
                                                    "NumberPropertyAlias": {
                                                      "$type": "Comindware.Platform.Contracts.GlobalAlias, Comindware.Platform.Contracts",
                                                      "Type": "Undefined"
                                                    },
                                                    "PrecedentPropertyAlias": {
                                                      "$type": "Comindware.Platform.Contracts.GlobalAlias, Comindware.Platform.Contracts",
                                                      "Type": "Undefined"
                                                    },
                                                    "SortingDirection": "Asc",
                                                    "PopupFormAlias": {
                                                      "$type": "Comindware.Platform.Contracts.GlobalAlias, Comindware.Platform.Contracts",
                                                      "Type": "Undefined"
                                                    },
                                                    "AllowEdit": false,
                                                    "DisplayFormat": "ShowAsPicture",
                                                    "GlobalAlias": {
                                                      "$type": "Comindware.Platform.Contracts.GlobalAlias, Comindware.Platform.Contracts",
                                                      "Type": "FormComponent",
                                                      "Alias": "Proekty"
                                                    },
                                                    "AccessType": "Hidden",
                                                    "Width": 0,
                                                    "Type": "FieldComponent"
                                                  },
                                                  {
                                                    "$type": "Comindware.Platform.Contracts.FieldComponentModel, Comindware.Platform.Contracts",
                                                    "Label": {
                                                      "$type": "Comindware.Platform.Contracts.LabelModel, Comindware.Platform.Contracts",
                                                      "Hidden": false,
                                                      "Alignment": "Top",
                                                      "Text": {
                                                        "$type": "Comindware.Platform.Contracts.LocalizedTextModel, Comindware.Platform.Contracts",
                                                        "En": "Бюджет NET, руб.",
                                                        "De": "Бюджет NET, руб.",
                                                        "Ru": "Бюджет NET, руб."
                                                      }
                                                    },
                                                    "FieldType": "Number",
                                                    "Placeholder": {
                                                      "$type": "Comindware.Platform.Contracts.LocalizedTextModel, Comindware.Platform.Contracts"
                                                    },
                                                    "HelpText": {
                                                      "$type": "Comindware.Platform.Contracts.LocalizedTextModel, Comindware.Platform.Contracts"
                                                    },
                                                    "PropertyPath": {
                                                      "$type": "Comindware.Platform.Contracts.GlobalAlias[], Comindware.Platform.Contracts",
                                                      "$values": [
                                                        {
                                                          "$type": "Comindware.Platform.Contracts.GlobalAlias, Comindware.Platform.Contracts",
                                                          "Type": "Attribute",
                                                          "Owner": "Brify",
                                                          "Alias": "Byudzhet"
                                                        }
                                                      ]
                                                    },
                                                    "EditorType": "Radio",
                                                    "CreationType": "None",
                                                    "RemovalType": "None",
                                                    "EditType": "None",
                                                    "AllowDecimal": false,
                                                    "ChildPropertyAlias": {
                                                      "$type": "Comindware.Platform.Contracts.GlobalAlias, Comindware.Platform.Contracts",
                                                      "Type": "Undefined"
                                                    },
                                                    "OrderPropertyAlias": {
                                                      "$type": "Comindware.Platform.Contracts.GlobalAlias, Comindware.Platform.Contracts",
                                                      "Type": "Undefined"
                                                    },
                                                    "NumberPropertyAlias": {
                                                      "$type": "Comindware.Platform.Contracts.GlobalAlias, Comindware.Platform.Contracts",
                                                      "Type": "Undefined"
                                                    },
                                                    "PrecedentPropertyAlias": {
                                                      "$type": "Comindware.Platform.Contracts.GlobalAlias, Comindware.Platform.Contracts",
                                                      "Type": "Undefined"
                                                    },
                                                    "SortingDirection": "Asc",
                                                    "PopupFormAlias": {
                                                      "$type": "Comindware.Platform.Contracts.GlobalAlias, Comindware.Platform.Contracts",
                                                      "Type": "Undefined"
                                                    },
                                                    "DisplayFormat": "ShowAsPicture",
                                                    "GlobalAlias": {
                                                      "$type": "Comindware.Platform.Contracts.GlobalAlias, Comindware.Platform.Contracts",
                                                      "Type": "FormComponent",
                                                      "Alias": "Byudzhet"
                                                    },
                                                    "AccessType": "Editable",
                                                    "Width": 0,
                                                    "Type": "FieldComponent"
                                                  },
                                                  {
                                                    "$type": "Comindware.Platform.Contracts.FieldComponentModel, Comindware.Platform.Contracts",
                                                    "Label": {
                                                      "$type": "Comindware.Platform.Contracts.LabelModel, Comindware.Platform.Contracts",
                                                      "Hidden": false,
                                                      "Alignment": "Top",
                                                      "Text": {
                                                        "$type": "Comindware.Platform.Contracts.LocalizedTextModel, Comindware.Platform.Contracts",
                                                        "En": "Предоставить предложение до:",
                                                        "De": "Предоставить предложение до:",
                                                        "Ru": "Предоставить предложение до:"
                                                      }
                                                    },
                                                    "FieldType": "Date",
                                                    "Placeholder": {
                                                      "$type": "Comindware.Platform.Contracts.LocalizedTextModel, Comindware.Platform.Contracts"
                                                    },
                                                    "HelpText": {
                                                      "$type": "Comindware.Platform.Contracts.LocalizedTextModel, Comindware.Platform.Contracts"
                                                    },
                                                    "PropertyPath": {
                                                      "$type": "Comindware.Platform.Contracts.GlobalAlias[], Comindware.Platform.Contracts",
                                                      "$values": [
                                                        {
                                                          "$type": "Comindware.Platform.Contracts.GlobalAlias, Comindware.Platform.Contracts",
                                                          "Type": "Attribute",
                                                          "Owner": "Brify",
                                                          "Alias": "Srokpredostavleniyapredlozheniya"
                                                        }
                                                      ]
                                                    },
                                                    "EditorType": "Radio",
                                                    "CreationType": "None",
                                                    "RemovalType": "None",
                                                    "EditType": "None",
                                                    "DisplayTime": false,
                                                    "ChildPropertyAlias": {
                                                      "$type": "Comindware.Platform.Contracts.GlobalAlias, Comindware.Platform.Contracts",
                                                      "Type": "Undefined"
                                                    },
                                                    "OrderPropertyAlias": {
                                                      "$type": "Comindware.Platform.Contracts.GlobalAlias, Comindware.Platform.Contracts",
                                                      "Type": "Undefined"
                                                    },
                                                    "NumberPropertyAlias": {
                                                      "$type": "Comindware.Platform.Contracts.GlobalAlias, Comindware.Platform.Contracts",
                                                      "Type": "Undefined"
                                                    },
                                                    "PrecedentPropertyAlias": {
                                                      "$type": "Comindware.Platform.Contracts.GlobalAlias, Comindware.Platform.Contracts",
                                                      "Type": "Undefined"
                                                    },
                                                    "SortingDirection": "Asc",
                                                    "PopupFormAlias": {
                                                      "$type": "Comindware.Platform.Contracts.GlobalAlias, Comindware.Platform.Contracts",
                                                      "Type": "Undefined"
                                                    },
                                                    "DisplayFormat": "ShowAsPicture",
                                                    "GlobalAlias": {
                                                      "$type": "Comindware.Platform.Contracts.GlobalAlias, Comindware.Platform.Contracts",
                                                      "Type": "FormComponent",
                                                      "Alias": "Srokpredostavleniyapredlozheniya"
                                                    },
                                                    "AccessType": "Required",
                                                    "Width": 0,
                                                    "Type": "FieldComponent"
                                                  }
                                                ]
                                              },
                                              "GlobalAlias": {
                                                "$type": "Comindware.Platform.Contracts.GlobalAlias, Comindware.Platform.Contracts",
                                                "Type": "FormComponent",
                                                "Alias": "VerticalLayout3"
                                              },
                                              "AccessType": "Undefined",
                                              "Width": 50,
                                              "Type": "VerticalLayout"
                                            }
                                          ]
                                        },
                                        "OriginalType": "HorizontalLayout",
                                        "GlobalAlias": {
                                          "$type": "Comindware.Platform.Contracts.GlobalAlias, Comindware.Platform.Contracts",
                                          "Type": "FormComponent",
                                          "Alias": "HorizontalLayout"
                                        },
                                        "AccessType": "Undefined",
                                        "Width": 0,
                                        "Type": "LayoutModel"
                                      }
                                    ]
                                  },
                                  "GlobalAlias": {
                                    "$type": "Comindware.Platform.Contracts.GlobalAlias, Comindware.Platform.Contracts",
                                    "Type": "FormComponent",
                                    "Alias": "VerticalLayout5"
                                  },
                                  "AccessType": "Undefined",
                                  "Width": 70,
                                  "Type": "VerticalLayout"
                                },
                                {
                                  "$type": "Comindware.Platform.Contracts.VerticalLayoutModel, Comindware.Platform.Contracts",
                                  "Rows": {
                                    "$type": "System.Collections.Generic.List`1[[Comindware.Platform.Contracts.FormComponentModel, Comindware.Platform.Contracts]], mscorlib",
                                    "$values": [
                                      {
                                        "$type": "Comindware.Platform.Contracts.FieldComponentModel, Comindware.Platform.Contracts",
                                        "Label": {
                                          "$type": "Comindware.Platform.Contracts.LabelModel, Comindware.Platform.Contracts",
                                          "Hidden": false,
                                          "Alignment": "Top",
                                          "Text": {
                                            "$type": "Comindware.Platform.Contracts.LocalizedTextModel, Comindware.Platform.Contracts",
                                            "En": "Бренд",
                                            "De": "Бренд",
                                            "Ru": "Бренд"
                                          }
                                        },
                                        "FieldType": "Reference",
                                        "Placeholder": {
                                          "$type": "Comindware.Platform.Contracts.LocalizedTextModel, Comindware.Platform.Contracts"
                                        },
                                        "HelpText": {
                                          "$type": "Comindware.Platform.Contracts.LocalizedTextModel, Comindware.Platform.Contracts"
                                        },
                                        "PropertyPath": {
                                          "$type": "Comindware.Platform.Contracts.GlobalAlias[], Comindware.Platform.Contracts",
                                          "$values": [
                                            {
                                              "$type": "Comindware.Platform.Contracts.GlobalAlias, Comindware.Platform.Contracts",
                                              "Type": "Attribute",
                                              "Owner": "Brify",
                                              "Alias": "Brend"
                                            }
                                          ]
                                        },
                                        "EditorType": "Radio",
                                        "CreationType": "None",
                                        "RemovalType": "None",
                                        "EditType": "None",
                                        "ValueFilterExpression": "from a in db->K2Brendy where NOT(EMPTY(a->Kontragent)) && NOT(EMPTY($Kontragent)) && a->Kontragent == $Kontragent select a->id",
                                        "HideSearchBar": false,
                                        "ShowAsLink": false,
                                        "ChildPropertyAlias": {
                                          "$type": "Comindware.Platform.Contracts.GlobalAlias, Comindware.Platform.Contracts",
                                          "Type": "Undefined"
                                        },
                                        "OrderPropertyAlias": {
                                          "$type": "Comindware.Platform.Contracts.GlobalAlias, Comindware.Platform.Contracts",
                                          "Type": "Undefined"
                                        },
                                        "NumberPropertyAlias": {
                                          "$type": "Comindware.Platform.Contracts.GlobalAlias, Comindware.Platform.Contracts",
                                          "Type": "Undefined"
                                        },
                                        "PrecedentPropertyAlias": {
                                          "$type": "Comindware.Platform.Contracts.GlobalAlias, Comindware.Platform.Contracts",
                                          "Type": "Undefined"
                                        },
                                        "SortingDirection": "Asc",
                                        "PopupFormAlias": {
                                          "$type": "Comindware.Platform.Contracts.GlobalAlias, Comindware.Platform.Contracts",
                                          "Type": "Undefined"
                                        },
                                        "AllowEdit": false,
                                        "DisplayFormat": "ShowAsPicture",
                                        "GlobalAlias": {
                                          "$type": "Comindware.Platform.Contracts.GlobalAlias, Comindware.Platform.Contracts",
                                          "Type": "FormComponent",
                                          "Alias": "Brend"
                                        },
                                        "AccessType": "Editable",
                                        "Width": 0,
                                        "Type": "FieldComponent"
                                      },
                                      {
                                        "$type": "Comindware.Platform.Contracts.FieldComponentModel, Comindware.Platform.Contracts",
                                        "Label": {
                                          "$type": "Comindware.Platform.Contracts.LabelModel, Comindware.Platform.Contracts",
                                          "Hidden": false,
                                          "Alignment": "Top",
                                          "Text": {
                                            "$type": "Comindware.Platform.Contracts.LocalizedTextModel, Comindware.Platform.Contracts",
                                            "En": "О продукте / бренде / услуге",
                                            "De": "О продукте / бренде / услуге",
                                            "Ru": "О продукте / бренде / услуге"
                                          }
                                        },
                                        "FieldType": "Text",
                                        "Placeholder": {
                                          "$type": "Comindware.Platform.Contracts.LocalizedTextModel, Comindware.Platform.Contracts"
                                        },
                                        "HelpText": {
                                          "$type": "Comindware.Platform.Contracts.LocalizedTextModel, Comindware.Platform.Contracts"
                                        },
                                        "PropertyPath": {
                                          "$type": "Comindware.Platform.Contracts.GlobalAlias[], Comindware.Platform.Contracts",
                                          "$values": [
                                            {
                                              "$type": "Comindware.Platform.Contracts.GlobalAlias, Comindware.Platform.Contracts",
                                              "Type": "Attribute",
                                              "Owner": "Brify",
                                              "Alias": "Opisanieobektareklamy"
                                            }
                                          ]
                                        },
                                        "TextHeight": 5,
                                        "TextHeightAuto": false,
                                        "MaxLength": 0,
                                        "EditorType": "Multiline",
                                        "CreationType": "None",
                                        "RemovalType": "None",
                                        "EditType": "None",
                                        "ChildPropertyAlias": {
                                          "$type": "Comindware.Platform.Contracts.GlobalAlias, Comindware.Platform.Contracts",
                                          "Type": "Undefined"
                                        },
                                        "OrderPropertyAlias": {
                                          "$type": "Comindware.Platform.Contracts.GlobalAlias, Comindware.Platform.Contracts",
                                          "Type": "Undefined"
                                        },
                                        "NumberPropertyAlias": {
                                          "$type": "Comindware.Platform.Contracts.GlobalAlias, Comindware.Platform.Contracts",
                                          "Type": "Undefined"
                                        },
                                        "PrecedentPropertyAlias": {
                                          "$type": "Comindware.Platform.Contracts.GlobalAlias, Comindware.Platform.Contracts",
                                          "Type": "Undefined"
                                        },
                                        "SortingDirection": "Asc",
                                        "PopupFormAlias": {
                                          "$type": "Comindware.Platform.Contracts.GlobalAlias, Comindware.Platform.Contracts",
                                          "Type": "Undefined"
                                        },
                                        "DisplayFormat": "ShowAsPicture",
                                        "GlobalAlias": {
                                          "$type": "Comindware.Platform.Contracts.GlobalAlias, Comindware.Platform.Contracts",
                                          "Type": "FormComponent",
                                          "Alias": "Opisanieobektareklamy"
                                        },
                                        "AccessType": "Editable",
                                        "Width": 0,
                                        "Type": "FieldComponent"
                                      },
                                      {
                                        "$type": "Comindware.Platform.Contracts.FieldComponentModel, Comindware.Platform.Contracts",
                                        "Label": {
                                          "$type": "Comindware.Platform.Contracts.LabelModel, Comindware.Platform.Contracts",
                                          "Hidden": false,
                                          "Alignment": "Top",
                                          "Text": {
                                            "$type": "Comindware.Platform.Contracts.LocalizedTextModel, Comindware.Platform.Contracts",
                                            "En": "Комментарий",
                                            "De": "Комментарий",
                                            "Ru": "Комментарий"
                                          }
                                        },
                                        "FieldType": "Text",
                                        "Placeholder": {
                                          "$type": "Comindware.Platform.Contracts.LocalizedTextModel, Comindware.Platform.Contracts"
                                        },
                                        "HelpText": {
                                          "$type": "Comindware.Platform.Contracts.LocalizedTextModel, Comindware.Platform.Contracts"
                                        },
                                        "PropertyPath": {
                                          "$type": "Comindware.Platform.Contracts.GlobalAlias[], Comindware.Platform.Contracts",
                                          "$values": [
                                            {
                                              "$type": "Comindware.Platform.Contracts.GlobalAlias, Comindware.Platform.Contracts",
                                              "Type": "Attribute",
                                              "Owner": "Brify",
                                              "Alias": "Kommentariy"
                                            }
                                          ]
                                        },
                                        "TextHeight": 0,
                                        "TextHeightAuto": false,
                                        "MaxLength": 0,
                                        "EditorType": "Multiline",
                                        "CreationType": "None",
                                        "RemovalType": "None",
                                        "EditType": "None",
                                        "ChildPropertyAlias": {
                                          "$type": "Comindware.Platform.Contracts.GlobalAlias, Comindware.Platform.Contracts",
                                          "Type": "Undefined"
                                        },
                                        "OrderPropertyAlias": {
                                          "$type": "Comindware.Platform.Contracts.GlobalAlias, Comindware.Platform.Contracts",
                                          "Type": "Undefined"
                                        },
                                        "NumberPropertyAlias": {
                                          "$type": "Comindware.Platform.Contracts.GlobalAlias, Comindware.Platform.Contracts",
                                          "Type": "Undefined"
                                        },
                                        "PrecedentPropertyAlias": {
                                          "$type": "Comindware.Platform.Contracts.GlobalAlias, Comindware.Platform.Contracts",
                                          "Type": "Undefined"
                                        },
                                        "SortingDirection": "Asc",
                                        "PopupFormAlias": {
                                          "$type": "Comindware.Platform.Contracts.GlobalAlias, Comindware.Platform.Contracts",
                                          "Type": "Undefined"
                                        },
                                        "DisplayFormat": "ShowAsPicture",
                                        "GlobalAlias": {
                                          "$type": "Comindware.Platform.Contracts.GlobalAlias, Comindware.Platform.Contracts",
                                          "Type": "FormComponent",
                                          "Alias": "Kommentariy"
                                        },
                                        "AccessType": "Editable",
                                        "Width": 0,
                                        "Type": "FieldComponent"
                                      }
                                    ]
                                  },
                                  "GlobalAlias": {
                                    "$type": "Comindware.Platform.Contracts.GlobalAlias, Comindware.Platform.Contracts",
                                    "Type": "FormComponent",
                                    "Alias": "VerticalLayout6"
                                  },
                                  "AccessType": "Undefined",
                                  "Width": 30,
                                  "Type": "VerticalLayout"
                                }
                              ]
                            },
                            "OriginalType": "HorizontalLayout",
                            "GlobalAlias": {
                              "$type": "Comindware.Platform.Contracts.GlobalAlias, Comindware.Platform.Contracts",
                              "Type": "FormComponent",
                              "Alias": "HorizontalLayout2"
                            },
                            "AccessType": "Undefined",
                            "Width": 0,
                            "Type": "LayoutModel"
                          }
                        ]
                      },
                      "GlobalAlias": {
                        "$type": "Comindware.Platform.Contracts.GlobalAlias, Comindware.Platform.Contracts",
                        "Type": "FormComponent",
                        "Alias": "VerticalLayout"
                      },
                      "AccessType": "Undefined",
                      "Width": 0,
                      "Type": "VerticalLayout"
                    }
                  ]
                },
                "GlobalAlias": {
                  "$type": "Comindware.Platform.Contracts.GlobalAlias, Comindware.Platform.Contracts",
                  "Type": "FormComponent",
                  "Alias": "GroupPanelComponent"
                },
                "AccessType": "Readonly",
                "Width": 80,
                "Type": "PanelModel",
                "Toolbar": {
                  "$type": "System.Nullable`1[[Comindware.Platform.Contracts.GlobalAlias, Comindware.Platform.Contracts]], mscorlib",
                  "Type": "Toolbar",
                  "Owner": "Brify",
                  "Alias": "toolbar11c388e7167b4cafab441b3a66f699d0"
                }
              },
              {
                "$type": "Comindware.Platform.Contracts.PanelModel, Comindware.Platform.Contracts",
                "Text": {
                  "$type": "Comindware.Platform.Contracts.LocalizedTextModel, Comindware.Platform.Contracts",
                  "En": "Вложения",
                  "De": "Вложения",
                  "Ru": "Вложения"
                },
                "OriginalType": "GroupPanel",
                "Rows": {
                  "$type": "System.Collections.Generic.List`1[[Comindware.Platform.Contracts.FormComponentModel, Comindware.Platform.Contracts]], mscorlib",
                  "$values": [
                    {
                      "$type": "Comindware.Platform.Contracts.VerticalLayoutModel, Comindware.Platform.Contracts",
                      "Rows": {
                        "$type": "System.Collections.Generic.List`1[[Comindware.Platform.Contracts.FormComponentModel, Comindware.Platform.Contracts]], mscorlib",
                        "$values": [
                          {
                            "$type": "Comindware.Platform.Contracts.FieldComponentModel, Comindware.Platform.Contracts",
                            "Label": {
                              "$type": "Comindware.Platform.Contracts.LabelModel, Comindware.Platform.Contracts",
                              "Hidden": false,
                              "Alignment": "Top",
                              "Text": {
                                "$type": "Comindware.Platform.Contracts.LocalizedTextModel, Comindware.Platform.Contracts",
                                "En": "Материалы к брифу",
                                "De": "Материалы к брифу",
                                "Ru": "Материалы к брифу"
                              }
                            },
                            "FieldType": "Document",
                            "Placeholder": {
                              "$type": "Comindware.Platform.Contracts.LocalizedTextModel, Comindware.Platform.Contracts"
                            },
                            "HelpText": {
                              "$type": "Comindware.Platform.Contracts.LocalizedTextModel, Comindware.Platform.Contracts"
                            },
                            "PropertyPath": {
                              "$type": "Comindware.Platform.Contracts.GlobalAlias[], Comindware.Platform.Contracts",
                              "$values": [
                                {
                                  "$type": "Comindware.Platform.Contracts.GlobalAlias, Comindware.Platform.Contracts",
                                  "Type": "Attribute",
                                  "Owner": "Brify",
                                  "Alias": "Vlozheniya"
                                }
                              ]
                            },
                            "EditorType": "Radio",
                            "CreationType": "None",
                            "RemovalType": "Delete",
                            "EditType": "None",
                            "ChildPropertyAlias": {
                              "$type": "Comindware.Platform.Contracts.GlobalAlias, Comindware.Platform.Contracts",
                              "Type": "Undefined"
                            },
                            "OrderPropertyAlias": {
                              "$type": "Comindware.Platform.Contracts.GlobalAlias, Comindware.Platform.Contracts",
                              "Type": "Undefined"
                            },
                            "NumberPropertyAlias": {
                              "$type": "Comindware.Platform.Contracts.GlobalAlias, Comindware.Platform.Contracts",
                              "Type": "Undefined"
                            },
                            "PrecedentPropertyAlias": {
                              "$type": "Comindware.Platform.Contracts.GlobalAlias, Comindware.Platform.Contracts",
                              "Type": "Undefined"
                            },
                            "SortingDirection": "Asc",
                            "MaxCount": 0,
                            "PopupFormAlias": {
                              "$type": "Comindware.Platform.Contracts.GlobalAlias, Comindware.Platform.Contracts",
                              "Type": "Undefined"
                            },
                            "DisplayFormat": "ShowAsPicture",
                            "GlobalAlias": {
                              "$type": "Comindware.Platform.Contracts.GlobalAlias, Comindware.Platform.Contracts",
                              "Type": "FormComponent",
                              "Alias": "Vlozheniya"
                            },
                            "AccessType": "Editable",
                            "Width": 0,
                            "Type": "FieldComponent"
                          }
                        ]
                      },
                      "GlobalAlias": {
                        "$type": "Comindware.Platform.Contracts.GlobalAlias, Comindware.Platform.Contracts",
                        "Type": "FormComponent",
                        "Alias": "VerticalLayout2"
                      },
                      "AccessType": "Undefined",
                      "Width": 0,
                      "Type": "VerticalLayout"
                    }
                  ]
                },
                "GlobalAlias": {
                  "$type": "Comindware.Platform.Contracts.GlobalAlias, Comindware.Platform.Contracts",
                  "Type": "FormComponent",
                  "Alias": "GroupPanelComponent3"
                },
                "AccessType": "Readonly",
                "Width": 20,
                "Type": "PanelModel",
                "Toolbar": {
                  "$type": "System.Nullable`1[[Comindware.Platform.Contracts.GlobalAlias, Comindware.Platform.Contracts]], mscorlib",
                  "Type": "Toolbar",
                  "Owner": "Brify",
                  "Alias": "toolbar54cac2429e034d959a44976e1e7c6697"
                }
              }
            ]
          },
          "OriginalType": "HorizontalLayout",
          "GlobalAlias": {
            "$type": "Comindware.Platform.Contracts.GlobalAlias, Comindware.Platform.Contracts",
            "Type": "FormComponent",
            "Alias": "HorizontalLayout4"
          },
          "AccessType": "Undefined",
          "Width": 0,
          "Type": "LayoutModel"
        },
        {
          "$type": "Comindware.Platform.Contracts.SubFormModel, Comindware.Platform.Contracts",
          "Name": "Дополнительная информация",
          "DataSourcePropertyPath": {
            "$type": "Comindware.Platform.Contracts.GlobalAlias[], Comindware.Platform.Contracts",
            "$values": [
              {
                "$type": "Comindware.Platform.Contracts.GlobalAlias, Comindware.Platform.Contracts",
                "Type": "Form",
                "Owner": "Brify",
                "Alias": "Dopolnitelnayainformatsiya"
              }
            ]
          },
          "GlobalAlias": {
            "$type": "Comindware.Platform.Contracts.GlobalAlias, Comindware.Platform.Contracts",
            "Type": "FormComponent",
            "Alias": "Dopolnitelnayainformatsiya"
          },
          "AccessType": "Readonly",
          "Width": 0,
          "Type": "SubForm"
        },
        {
          "$type": "Comindware.Platform.Contracts.PanelModel, Comindware.Platform.Contracts",
          "Text": {
            "$type": "Comindware.Platform.Contracts.LocalizedTextModel, Comindware.Platform.Contracts",
            "En": "Скрытая область",
            "De": "Скрытая область",
            "Ru": "Скрытая область"
          },
          "OriginalType": "GroupPanel",
          "Rows": {
            "$type": "System.Collections.Generic.List`1[[Comindware.Platform.Contracts.FormComponentModel, Comindware.Platform.Contracts]], mscorlib",
            "$values": [
              {
                "$type": "Comindware.Platform.Contracts.VerticalLayoutModel, Comindware.Platform.Contracts",
                "Rows": {
                  "$type": "System.Collections.Generic.List`1[[Comindware.Platform.Contracts.FormComponentModel, Comindware.Platform.Contracts]], mscorlib",
                  "$values": [
                    {
                      "$type": "Comindware.Platform.Contracts.LayoutModel, Comindware.Platform.Contracts",
                      "Components": {
                        "$type": "System.Collections.Generic.List`1[[Comindware.Platform.Contracts.FormComponentModel, Comindware.Platform.Contracts]], mscorlib",
                        "$values": [
                          {
                            "$type": "Comindware.Platform.Contracts.VerticalLayoutModel, Comindware.Platform.Contracts",
                            "Rows": {
                              "$type": "System.Collections.Generic.List`1[[Comindware.Platform.Contracts.FormComponentModel, Comindware.Platform.Contracts]], mscorlib",
                              "$values": [
                                {
                                  "$type": "Comindware.Platform.Contracts.FieldComponentModel, Comindware.Platform.Contracts",
                                  "Label": {
                                    "$type": "Comindware.Platform.Contracts.LabelModel, Comindware.Platform.Contracts",
                                    "Hidden": false,
                                    "Alignment": "Top",
                                    "Text": {
                                      "$type": "Comindware.Platform.Contracts.LocalizedTextModel, Comindware.Platform.Contracts",
                                      "En": "Создан сотрудником?",
                                      "De": "Создан сотрудником?",
                                      "Ru": "Создан сотрудником?"
                                    }
                                  },
                                  "FieldType": "Boolean",
                                  "Placeholder": {
                                    "$type": "Comindware.Platform.Contracts.LocalizedTextModel, Comindware.Platform.Contracts"
                                  },
                                  "HelpText": {
                                    "$type": "Comindware.Platform.Contracts.LocalizedTextModel, Comindware.Platform.Contracts"
                                  },
                                  "PropertyPath": {
                                    "$type": "Comindware.Platform.Contracts.GlobalAlias[], Comindware.Platform.Contracts",
                                    "$values": [
                                      {
                                        "$type": "Comindware.Platform.Contracts.GlobalAlias, Comindware.Platform.Contracts",
                                        "Type": "Attribute",
                                        "Owner": "Brify",
                                        "Alias": "Sozdansotrudnikom"
                                      }
                                    ]
                                  },
                                  "TrueText": {
                                    "$type": "Comindware.Platform.Contracts.LocalizedTextModel, Comindware.Platform.Contracts"
                                  },
                                  "FalseText": {
                                    "$type": "Comindware.Platform.Contracts.LocalizedTextModel, Comindware.Platform.Contracts"
                                  },
                                  "UseTrueFalseText": false,
                                  "EditorType": "Radio",
                                  "CreationType": "None",
                                  "RemovalType": "None",
                                  "EditType": "None",
                                  "ChildPropertyAlias": {
                                    "$type": "Comindware.Platform.Contracts.GlobalAlias, Comindware.Platform.Contracts",
                                    "Type": "Undefined"
                                  },
                                  "OrderPropertyAlias": {
                                    "$type": "Comindware.Platform.Contracts.GlobalAlias, Comindware.Platform.Contracts",
                                    "Type": "Undefined"
                                  },
                                  "NumberPropertyAlias": {
                                    "$type": "Comindware.Platform.Contracts.GlobalAlias, Comindware.Platform.Contracts",
                                    "Type": "Undefined"
                                  },
                                  "PrecedentPropertyAlias": {
                                    "$type": "Comindware.Platform.Contracts.GlobalAlias, Comindware.Platform.Contracts",
                                    "Type": "Undefined"
                                  },
                                  "SortingDirection": "Asc",
                                  "PopupFormAlias": {
                                    "$type": "Comindware.Platform.Contracts.GlobalAlias, Comindware.Platform.Contracts",
                                    "Type": "Undefined"
                                  },
                                  "DisplayFormat": "ShowAsPicture",
                                  "GlobalAlias": {
                                    "$type": "Comindware.Platform.Contracts.GlobalAlias, Comindware.Platform.Contracts",
                                    "Type": "FormComponent",
                                    "Alias": "Sozdansotrudnikom"
                                  },
                                  "AccessType": "Editable",
                                  "Width": 0,
                                  "Type": "FieldComponent"
                                }
                              ]
                            },
                            "GlobalAlias": {
                              "$type": "Comindware.Platform.Contracts.GlobalAlias, Comindware.Platform.Contracts",
                              "Type": "FormComponent",
                              "Alias": "VerticalLayout8"
                            },
                            "AccessType": "Undefined",
                            "Width": 50,
                            "Type": "VerticalLayout"
                          },
                          {
                            "$type": "Comindware.Platform.Contracts.VerticalLayoutModel, Comindware.Platform.Contracts",
                            "GlobalAlias": {
                              "$type": "Comindware.Platform.Contracts.GlobalAlias, Comindware.Platform.Contracts",
                              "Type": "FormComponent",
                              "Alias": "VerticalLayout9"
                            },
                            "AccessType": "Undefined",
                            "Width": 50,
                            "Type": "VerticalLayout"
                          }
                        ]
                      },
                      "OriginalType": "HorizontalLayout",
                      "GlobalAlias": {
                        "$type": "Comindware.Platform.Contracts.GlobalAlias, Comindware.Platform.Contracts",
                        "Type": "FormComponent",
                        "Alias": "HorizontalLayout3"
                      },
                      "AccessType": "Undefined",
                      "Width": 0,
                      "Type": "LayoutModel"
                    }
                  ]
                },
                "GlobalAlias": {
                  "$type": "Comindware.Platform.Contracts.GlobalAlias, Comindware.Platform.Contracts",
                  "Type": "FormComponent",
                  "Alias": "VerticalLayout7"
                },
                "AccessType": "Undefined",
                "Width": 0,
                "Type": "VerticalLayout"
              }
            ]
          },
          "GlobalAlias": {
            "$type": "Comindware.Platform.Contracts.GlobalAlias, Comindware.Platform.Contracts",
            "Type": "FormComponent",
            "Alias": "GroupPanelComponent2"
          },
          "AccessType": "Editable",
          "Width": 100,
          "Type": "PanelModel",
          "Toolbar": {
            "$type": "System.Nullable`1[[Comindware.Platform.Contracts.GlobalAlias, Comindware.Platform.Contracts]], mscorlib",
            "Type": "Toolbar",
            "Owner": "Brify",
            "Alias": "toolbar0214cb34282f4ec79d036f27ee0d2fec"
          }
        }
      ]
    },
    "GlobalAlias": {
      "$type": "Comindware.Platform.Contracts.GlobalAlias, Comindware.Platform.Contracts",
      "Type": "FormComponent",
      "Alias": "root"
    },
    "AccessType": "Undefined",
    "Width": 0,
    "Type": "VerticalLayout"
  },
  "Name": "Форма для клиента",
  "FormRules": {
    "$type": "System.Collections.Generic.List`1[[Comindware.Platform.Contracts.FormRuleModel, Comindware.Platform.Contracts]], mscorlib",
    "$values": [
      {
        "$type": "Comindware.Platform.Contracts.FormRuleModel, Comindware.Platform.Contracts",
        "RuleName": "Внутренний сотрудник",
        "ConditionExpression": "@prefix cmw: <http://comindware.com/logics#>.\n@prefix account: <http://comindware.com/ontology/account#>.\n{\n#Выбираем текущего пользователя\ncmw:securityContext cmw:currentUser ?user.\n\n#Выбираем группу Сотрудники контрагентов\n?g account:groupName \"Клиенты (для навигации и прав)\".\n\n#Проверяем, что выбранный пользователь - член выбранной группы\nif{?user account:userGroupMembership ?g.} \nthen {false -> ?value.}\nelse {true -> ?value.}.\n}",
        "Actions": {
          "$type": "System.Collections.Generic.List`1[[Comindware.Platform.Contracts.RuleActionModel, Comindware.Platform.Contracts]], mscorlib",
          "$values": [
            {
              "$type": "Comindware.Platform.Contracts.RuleActionModel, Comindware.Platform.Contracts",
              "GlobalAlias": {
                "$type": "Comindware.Platform.Contracts.GlobalAlias, Comindware.Platform.Contracts",
                "Type": "FormComponent",
                "Owner": "Formadlyaklienta",
                "Alias": "Kontragent"
              },
              "Type": "SetAccessType",
              "ValueExpression": "ID('Required')",
              "ConditionExpression": "",
              "Severity": "Error"
            },
            {
              "$type": "Comindware.Platform.Contracts.RuleActionModel, Comindware.Platform.Contracts",
              "GlobalAlias": {
                "$type": "Comindware.Platform.Contracts.GlobalAlias, Comindware.Platform.Contracts",
                "Type": "FormComponent",
                "Owner": "Formadlyaklienta",
                "Alias": "Proekty"
              },
              "Type": "SetAccessType",
              "ValueExpression": "ID('Editable')",
              "ConditionExpression": "",
              "Severity": "Error"
            },
            {
              "$type": "Comindware.Platform.Contracts.RuleActionModel, Comindware.Platform.Contracts",
              "GlobalAlias": {
                "$type": "Comindware.Platform.Contracts.GlobalAlias, Comindware.Platform.Contracts",
                "Type": "FormComponent",
                "Owner": "Formadlyaklienta",
                "Alias": "Status"
              },
              "Type": "SetValue",
              "ValueExpression": "ID('58579')",
              "ConditionExpression": "EMPTY($Status)",
              "Severity": "Error"
            },
            {
              "$type": "Comindware.Platform.Contracts.RuleActionModel, Comindware.Platform.Contracts",
              "GlobalAlias": {
                "$type": "Comindware.Platform.Contracts.GlobalAlias, Comindware.Platform.Contracts",
                "Type": "FormComponent",
                "Owner": "Formadlyaklienta",
                "Alias": "Sozdansotrudnikom"
              },
              "Type": "SetValue",
              "ValueExpression": "true",
              "ConditionExpression": "EMPTY($Sozdansotrudnikom)",
              "Severity": "Error"
            }
          ]
        }
      },
      {
        "$type": "Comindware.Platform.Contracts.FormRuleModel, Comindware.Platform.Contracts",
        "RuleName": "Клиент",
        "ConditionExpression": "@prefix cmw: <http://comindware.com/logics#>.\n@prefix account: <http://comindware.com/ontology/account#>.\n{\n#Выбираем текущего пользователя\ncmw:securityContext cmw:currentUser ?user.\n\n#Выбираем группу Сотрудники контрагентов\n?g account:groupName \"Клиенты (для навигации и прав)\".\n\n#Проверяем, что выбранный пользователь - член выбранной группы\nif{?user account:userGroupMembership ?g.} \nthen {true -> ?value.}\nelse {false -> ?value.}.\n}",
        "Actions": {
          "$type": "System.Collections.Generic.List`1[[Comindware.Platform.Contracts.RuleActionModel, Comindware.Platform.Contracts]], mscorlib",
          "$values": [
            {
              "$type": "Comindware.Platform.Contracts.RuleActionModel, Comindware.Platform.Contracts",
              "GlobalAlias": {
                "$type": "Comindware.Platform.Contracts.GlobalAlias, Comindware.Platform.Contracts",
                "Type": "FormComponent",
                "Owner": "Formadlyaklienta",
                "Alias": "Status"
              },
              "Type": "SetValue",
              "ValueExpression": "ID('58579')",
              "ConditionExpression": "EMPTY($Status)",
              "Severity": "Error"
            },
            {
              "$type": "Comindware.Platform.Contracts.RuleActionModel, Comindware.Platform.Contracts",
              "GlobalAlias": {
                "$type": "Comindware.Platform.Contracts.GlobalAlias, Comindware.Platform.Contracts",
                "Type": "FormComponent",
                "Owner": "Formadlyaklienta",
                "Alias": "Sozdansotrudnikom"
              },
              "Type": "SetValue",
              "ValueExpression": "false",
              "ConditionExpression": "EMPTY($Sozdansotrudnikom)",
              "Severity": "Error"
            },
            {
              "$type": "Comindware.Platform.Contracts.RuleActionModel, Comindware.Platform.Contracts",
              "GlobalAlias": {
                "$type": "Comindware.Platform.Contracts.GlobalAlias, Comindware.Platform.Contracts",
                "Type": "FormComponent",
                "Owner": "Formadlyaklienta",
                "Alias": "Kontragent"
              },
              "Type": "SetValue",
              "ValueExpression": "@prefix account: <http://comindware.com/ontology/account#>.\n@prefix object: <http://comindware.com/ontology/object#>.\n@prefix container: <http://comindware.com/ontology/container#>.\n@prefix cmw: <http://comindware.com/logics#>.\n\n{\n\t(\"Sotrudnikikontragentov\" \"Kontragent\") object:findProperty ?kaOP.\n\n\tcmw:securityContext cmw:currentUser ?user.\n\t?users container:alias \"Sotrudnikikontragentov\".\n    ?user account:extendedBy ?users.\n    ?user ?kaOP ?value.\n\n}",
              "ConditionExpression": "AND(EMPTY($Kontragent),EMPTY($Proekty))",
              "Severity": "Error"
            }
          ]
        }
      },
      {
        "$type": "Comindware.Platform.Contracts.FormRuleModel, Comindware.Platform.Contracts",
        "RuleName": "Правило",
        "ConditionExpression": "",
        "Actions": {
          "$type": "System.Collections.Generic.List`1[[Comindware.Platform.Contracts.RuleActionModel, Comindware.Platform.Contracts]], mscorlib",
          "$values": [
            {
              "$type": "Comindware.Platform.Contracts.RuleActionModel, Comindware.Platform.Contracts",
              "GlobalAlias": {
                "$type": "Comindware.Platform.Contracts.GlobalAlias, Comindware.Platform.Contracts",
                "Type": "FormComponent",
                "Owner": "Formadlyaklienta",
                "Alias": "Kontragent"
              },
              "Type": "SetValue",
              "ValueExpression": "$Proekty->Kontragent",
              "ConditionExpression": "AND(EMPTY($Kontragent),NOT(EMPTY($Proekty)))",
              "Severity": "Error"
            },
            {
              "$type": "Comindware.Platform.Contracts.RuleActionModel, Comindware.Platform.Contracts",
              "GlobalAlias": {
                "$type": "Comindware.Platform.Contracts.GlobalAlias, Comindware.Platform.Contracts",
                "Type": "FormComponent",
                "Owner": "Formadlyaklienta",
                "Alias": "GroupPanelComponent2"
              },
              "Type": "SetAccessType",
              "ValueExpression": "CONST('Hidden')",
              "ConditionExpression": "",
              "Severity": "Error"
            }
          ]
        }
      },
      {
        "$type": "Comindware.Platform.Contracts.FormRuleModel, Comindware.Platform.Contracts",
        "RuleName": "Если бриф черновик",
        "ConditionExpression": "$Status->Kod == \"4\"",
        "Actions": {
          "$type": "System.Collections.Generic.List`1[[Comindware.Platform.Contracts.RuleActionModel, Comindware.Platform.Contracts]], mscorlib",
          "$values": [
            {
              "$type": "Comindware.Platform.Contracts.RuleActionModel, Comindware.Platform.Contracts",
              "GlobalAlias": {
                "$type": "Comindware.Platform.Contracts.GlobalAlias, Comindware.Platform.Contracts",
                "Type": "FormComponent",
                "Owner": "Formadlyaklienta",
                "Alias": "Dopolnitelnayainformatsiya"
              },
              "Type": "SetAccessType",
              "ValueExpression": "CONST('Editable')",
              "ConditionExpression": "",
              "Severity": "Error"
            },
            {
              "$type": "Comindware.Platform.Contracts.RuleActionModel, Comindware.Platform.Contracts",
              "GlobalAlias": {
                "$type": "Comindware.Platform.Contracts.GlobalAlias, Comindware.Platform.Contracts",
                "Type": "FormComponent",
                "Owner": "Formadlyaklienta",
                "Alias": "Period_S"
              },
              "Type": "SetAccessType",
              "ValueExpression": "CONST('Editable')",
              "ConditionExpression": "",
              "Severity": "Error"
            }
          ]
        }
      }
    ]
  },
  "Origination": "Undefined"
}