{
  "$type": "Comindware.Platform.Contracts.ToolbarModel, Comindware.Platform.Contracts",
  "GlobalAlias": {
    "$type": "Comindware.Platform.Contracts.GlobalAlias, Comindware.Platform.Contracts",
    "Type": "Toolbar",
    "Owner": "Dogovory",
    "Alias": "defaultListToolbar"
  },
  "Name": "Панель инструментов для списков",
  "IsDefaultForLists": true,
  "IsDefaultForForms": false,
  "IsDefaultForProcess": false,
  "IsDefaultForProcessDesigner": false,
  "IsDefaultForTaskLists": false,
  "Items": {
    "$type": "System.Collections.Generic.List`1[[Comindware.Platform.Contracts.ToolbarItemModel, Comindware.Platform.Contracts]], mscorlib",
    "$values": [
      {
        "$type": "Comindware.Platform.Contracts.ToolbarItemModel, Comindware.Platform.Contracts",
        "Action": {
          "$type": "System.Nullable`1[[Comindware.Platform.Contracts.GlobalAlias, Comindware.Platform.Contracts]], mscorlib",
          "Type": "UserCommand",
          "Owner": "Dogovory",
          "Alias": "Udalit"
        },
        "Name": "Удалить",
        "Description": "Удалить",
        "Order": 0,
        "Type": "Action",
        "IconType": "Undefined",
        "IconClass": "trash-alt",
        "Severity": "Fatal"
      },
      {
        "$type": "Comindware.Platform.Contracts.ToolbarItemModel, Comindware.Platform.Contracts",
        "Action": {
          "$type": "System.Nullable`1[[Comindware.Platform.Contracts.GlobalAlias, Comindware.Platform.Contracts]], mscorlib",
          "Type": "UserCommand",
          "Owner": "Dogovory",
          "Alias": "Podpisaniedogovora"
        },
        "Name": "Подписание договора",
        "Description": "Подписать договор",
        "Order": 1,
        "Type": "Action",
        "IconType": "Undefined",
        "IconClass": "marker",
        "Severity": "Normal"
      },
      {
        "$type": "Comindware.Platform.Contracts.ToolbarItemModel, Comindware.Platform.Contracts",
        "Action": {
          "$type": "System.Nullable`1[[Comindware.Platform.Contracts.GlobalAlias, Comindware.Platform.Contracts]], mscorlib",
          "Type": "UserCommand",
          "Owner": "Dogovory",
          "Alias": "Dobavitdogovoradmin"
        },
        "Name": "Добавить договор (админ)",
        "Description": "Добавить договор (админ)",
        "Order": 2,
        "Type": "Action",
        "IconType": "Undefined",
        "IconClass": "file-alt",
        "Severity": "Critical"
      }
    ]
  }
}