{
  "$type": "Comindware.Platform.Contracts.ToolbarModel, Comindware.Platform.Contracts",
  "GlobalAlias": {
    "$type": "Comindware.Platform.Contracts.GlobalAlias, Comindware.Platform.Contracts",
    "Type": "Toolbar",
    "Owner": "Dogovory",
    "Alias": "toolbar795b37df4e1c41f59630a93dc72df112"
  },
  "Name": "Область кнопок",
  "IsDefaultForLists": false,
  "IsDefaultForForms": false,
  "IsDefaultForProcess": false,
  "IsDefaultForProcessDesigner": false,
  "IsDefaultForTaskLists": false
}