{
  "$type": "Comindware.Platform.Contracts.ToolbarModel, Comindware.Platform.Contracts",
  "GlobalAlias": {
    "$type": "Comindware.Platform.Contracts.GlobalAlias, Comindware.Platform.Contracts",
    "Type": "Toolbar",
    "Owner": "Dogovory",
    "Alias": "toolbarb27fb85c235e48a09ab40202fb99a940"
  },
  "Name": "Область кнопок",
  "IsDefaultForLists": false,
  "IsDefaultForForms": false,
  "IsDefaultForProcess": false,
  "IsDefaultForProcessDesigner": false,
  "IsDefaultForTaskLists": false
}