{
  "$type": "Comindware.Platform.Contracts.TaskActivityModel, Comindware.Platform.Contracts",
  "GlobalAlias": {
    "$type": "Comindware.Platform.Contracts.GlobalAlias, Comindware.Platform.Contracts",
    "Type": "ClientActivity",
    "Owner": "ProvedeniezakupkiAKhO",
    "Alias": "userTask2"
  },
  "Kind": "User",
  "UserDefinition": {
    "$type": "Comindware.Platform.Contracts.UserTaskDefinitionModel, Comindware.Platform.Contracts",
    "Modifiers": {
      "$type": "Comindware.Platform.Contracts.ModificationRuleModel[], Comindware.Platform.Contracts",
      "$values": [
        {
          "$type": "Comindware.Platform.Contracts.ModificationRuleModel, Comindware.Platform.Contracts",
          "Action": {
            "$type": "Comindware.Platform.Contracts.ModificationActionModel, Comindware.Platform.Contracts",
            "PropertyPath": {
              "$type": "Comindware.Platform.Contracts.GlobalAlias[], Comindware.Platform.Contracts",
              "$values": [
                {
                  "$type": "Comindware.Platform.Contracts.GlobalAlias, Comindware.Platform.Contracts",
                  "Type": "Attribute",
                  "Owner": "_Case",
                  "Alias": "description"
                }
              ]
            },
            "PropertyAction": "Replace"
          },
          "Type": "Modification",
          "Definition": {
            "$type": "Comindware.Platform.Contracts.ValuesRuleDefinitionModel, Comindware.Platform.Contracts",
            "Type": "Values"
          }
        },
        {
          "$type": "Comindware.Platform.Contracts.ModificationRuleModel, Comindware.Platform.Contracts",
          "Action": {
            "$type": "Comindware.Platform.Contracts.ModificationActionModel, Comindware.Platform.Contracts",
            "PropertyPath": {
              "$type": "Comindware.Platform.Contracts.GlobalAlias[], Comindware.Platform.Contracts",
              "$values": [
                {
                  "$type": "Comindware.Platform.Contracts.GlobalAlias, Comindware.Platform.Contracts",
                  "Type": "Attribute",
                  "Alias": "dueDate"
                }
              ]
            },
            "PropertyAction": "Replace"
          },
          "Type": "Modification",
          "Definition": {
            "$type": "Comindware.Platform.Contracts.ValuesRuleDefinitionModel, Comindware.Platform.Contracts",
            "Type": "Values"
          }
        },
        {
          "$type": "Comindware.Platform.Contracts.ModificationRuleModel, Comindware.Platform.Contracts",
          "Action": {
            "$type": "Comindware.Platform.Contracts.ModificationActionModel, Comindware.Platform.Contracts",
            "PropertyPath": {
              "$type": "Comindware.Platform.Contracts.GlobalAlias[], Comindware.Platform.Contracts",
              "$values": [
                {
                  "$type": "Comindware.Platform.Contracts.GlobalAlias, Comindware.Platform.Contracts",
                  "Type": "Attribute",
                  "Owner": "_UserTask",
                  "Alias": "isReassignProhibited"
                }
              ]
            },
            "PropertyAction": "Replace"
          },
          "Type": "Modification",
          "Definition": {
            "$type": "Comindware.Platform.Contracts.ValuesRuleDefinitionModel, Comindware.Platform.Contracts",
            "Values": {
              "$type": "System.Object[], mscorlib",
              "$values": [
                false
              ]
            },
            "Type": "Values"
          }
        },
        {
          "$type": "Comindware.Platform.Contracts.MemberValuesModificationRuleModel, Comindware.Platform.Contracts",
          "Action": {
            "$type": "Comindware.Platform.Contracts.ModificationActionModel, Comindware.Platform.Contracts",
            "PropertyPath": {
              "$type": "Comindware.Platform.Contracts.GlobalAlias[], Comindware.Platform.Contracts",
              "$values": [
                {
                  "$type": "Comindware.Platform.Contracts.GlobalAlias, Comindware.Platform.Contracts",
                  "Type": "Attribute",
                  "Alias": "possibleAssignee"
                }
              ]
            },
            "PropertyAction": "Replace"
          },
          "Type": "Modification",
          "Definition": {
            "$type": "Comindware.Platform.Contracts.ValuesRuleDefinitionModel, Comindware.Platform.Contracts",
            "Values": {
              "$type": "System.Object[], mscorlib",
              "$values": [
                {
                  "$type": "Comindware.Platform.Contracts.GlobalAlias, Comindware.Platform.Contracts",
                  "Type": "Account",
                  "Alias": "olga.ustyushina"
                },
                {
                  "$type": "Comindware.Platform.Contracts.GlobalAlias, Comindware.Platform.Contracts",
                  "Type": "Account",
                  "Alias": "adorozhkina"
                },
                {
                  "$type": "Comindware.Platform.Contracts.GlobalAlias, Comindware.Platform.Contracts",
                  "Type": "Account",
                  "Alias": "inessa.filippova"
                }
              ]
            },
            "Type": "Values"
          }
        },
        {
          "$type": "Comindware.Platform.Contracts.ModificationRuleModel, Comindware.Platform.Contracts",
          "Action": {
            "$type": "Comindware.Platform.Contracts.ModificationActionModel, Comindware.Platform.Contracts",
            "PropertyPath": {
              "$type": "Comindware.Platform.Contracts.GlobalAlias[], Comindware.Platform.Contracts",
              "$values": [
                {
                  "$type": "Comindware.Platform.Contracts.GlobalAlias, Comindware.Platform.Contracts",
                  "Type": "Attribute",
                  "Alias": "title"
                }
              ]
            },
            "PropertyAction": "Replace"
          },
          "Type": "Modification",
          "Definition": {
            "$type": "Comindware.Platform.Contracts.ValuesRuleDefinitionModel, Comindware.Platform.Contracts",
            "Values": {
              "$type": "System.Object[], mscorlib",
              "$values": [
                "Проведение закупки АХО - Оплатить счет"
              ]
            },
            "Type": "Values"
          }
        }
      ]
    }
  },
  "FormAlias": {
    "$type": "Comindware.Platform.Contracts.GlobalAlias, Comindware.Platform.Contracts",
    "Type": "ProcessForm",
    "Owner": "ProvedeniezakupkiAKhO",
    "Alias": "form37f35129c92c4439ab2c53a131a9ee75"
  },
  "BehaviourState": "Active",
  "Title": "Оплатить счет",
  "IsTitleSet": false,
  "Position": {
    "$type": "Comindware.Platform.Contracts.VectorModel, Comindware.Platform.Contracts",
    "X": 520.0,
    "Y": 730.0
  },
  "Size": {
    "$type": "Comindware.Platform.Contracts.DimensionsModel, Comindware.Platform.Contracts",
    "Width": 120.0,
    "Height": 70.0
  },
  "Owner": {
    "$type": "Comindware.Platform.Contracts.GlobalAlias, Comindware.Platform.Contracts",
    "Type": "ClientActivity",
    "Owner": "ProvedeniezakupkiAKhO",
    "Alias": "lane3"
  },
  "OwnerEmbeddedProcessActivityAlias": {
    "$type": "Comindware.Platform.Contracts.GlobalAlias, Comindware.Platform.Contracts",
    "Type": "Undefined"
  },
  "MountedOnAlias": {
    "$type": "Comindware.Platform.Contracts.GlobalAlias, Comindware.Platform.Contracts",
    "Type": "Undefined"
  },
  "Type": "Task",
  "OnEnterTrigger": {
    "$type": "Comindware.Platform.Contracts.GlobalAlias, Comindware.Platform.Contracts",
    "Type": "Trigger",
    "Alias": "TokenEnters_userTask2_Process_ProvedeniezakupkiAKhO_V1_1_0565db"
  },
  "OnExitTrigger": {
    "$type": "Comindware.Platform.Contracts.GlobalAlias, Comindware.Platform.Contracts",
    "Type": "Trigger",
    "Alias": "TokenLeaves_userTask2_Process_ProvedeniezakupkiAKhO_V1_1_48ad92"
  }
}