{
  "$type": "Comindware.Platform.Contracts.IntermediateEventActivityModel, Comindware.Platform.Contracts",
  "GlobalAlias": {
    "$type": "Comindware.Platform.Contracts.GlobalAlias, Comindware.Platform.Contracts",
    "Type": "ClientActivity",
    "Owner": "Obraschenievtekhpodderzhku",
    "Alias": "noneIntermediateEvent4"
  },
  "Kind": "ThrowingMessage",
  "IsInterrupting": false,
  "MessageDefinition": {
    "$type": "Comindware.Platform.Contracts.MessageEventDefinitionModel, Comindware.Platform.Contracts",
    "IsThrowing": true,
    "MessageType": {
      "$type": "Comindware.Platform.Contracts.GlobalAlias, Comindware.Platform.Contracts",
      "Type": "MessageTemplate",
      "Alias": "Otpravka_soobscheniya_v_DBS32d4"
    },
    "MessageName": "Отправка сообщения в DBS",
    "MessageReceiver": {
      "$type": "Comindware.Platform.Contracts.MessageReceiverExternalSocketDefinitionModel, Comindware.Platform.Contracts",
      "ReceiverAddressType": "ExternalSocket",
      "Type": "ExternalSocket"
    },
    "InputMapping": {
      "$type": "Comindware.Platform.Contracts.MessagePayloadDefinitionModel, Comindware.Platform.Contracts",
      "MessageType": {
        "$type": "Comindware.Platform.Contracts.GlobalAlias, Comindware.Platform.Contracts",
        "Type": "MessageTemplate",
        "Alias": "Otpravka_soobscheniya_v_DBS32d4"
      },
      "Data": {
        "$type": "Comindware.Platform.Contracts.MakeMessageRuleModel, Comindware.Platform.Contracts",
        "MessageType": {
          "$type": "Comindware.Platform.Contracts.GlobalAlias, Comindware.Platform.Contracts",
          "Type": "MessageTemplate",
          "Alias": "Otpravka_soobscheniya_v_DBS32d4"
        },
        "PropertyMap": {
          "$type": "Comindware.Platform.Contracts.PropertyMapKeyValueModel[], Comindware.Platform.Contracts",
          "$values": [
            {
              "$type": "Comindware.Platform.Contracts.PropertyMapKeyValueModel, Comindware.Platform.Contracts",
              "Key": {
                "$type": "Comindware.Platform.Contracts.ModificationActionModel, Comindware.Platform.Contracts",
                "PropertyPath": {
                  "$type": "Comindware.Platform.Contracts.GlobalAlias[], Comindware.Platform.Contracts",
                  "$values": [
                    {
                      "$type": "Comindware.Platform.Contracts.GlobalAlias, Comindware.Platform.Contracts",
                      "Type": "MessageTemplateProperty",
                      "Owner": "Otpravka_soobscheniya_v_DBS32d4",
                      "Alias": "Prichinaobrascheniya"
                    }
                  ]
                },
                "PropertyAction": "Replace"
              },
              "Value": {
                "$type": "Comindware.Platform.Contracts.CalculationRuleModel, Comindware.Platform.Contracts",
                "Type": "Calculation",
                "Definition": {
                  "$type": "Comindware.Platform.Contracts.PropertyRuleDefinitionModel, Comindware.Platform.Contracts",
                  "PropertyPath": {
                    "$type": "Comindware.Platform.Contracts.GlobalAlias[], Comindware.Platform.Contracts",
                    "$values": [
                      {
                        "$type": "Comindware.Platform.Contracts.GlobalAlias, Comindware.Platform.Contracts",
                        "Type": "Attribute",
                        "Owner": "Obrascheniyavtekhpodderzhku",
                        "Alias": "Prichinaobrascheniya"
                      }
                    ]
                  },
                  "Type": "Property"
                }
              }
            },
            {
              "$type": "Comindware.Platform.Contracts.PropertyMapKeyValueModel, Comindware.Platform.Contracts",
              "Key": {
                "$type": "Comindware.Platform.Contracts.ModificationActionModel, Comindware.Platform.Contracts",
                "PropertyPath": {
                  "$type": "Comindware.Platform.Contracts.GlobalAlias[], Comindware.Platform.Contracts",
                  "$values": [
                    {
                      "$type": "Comindware.Platform.Contracts.GlobalAlias, Comindware.Platform.Contracts",
                      "Type": "MessageTemplateProperty",
                      "Owner": "Otpravka_soobscheniya_v_DBS32d4",
                      "Alias": "ID"
                    }
                  ]
                },
                "PropertyAction": "Replace"
              },
              "Value": {
                "$type": "Comindware.Platform.Contracts.CalculationRuleModel, Comindware.Platform.Contracts",
                "Type": "Calculation",
                "Definition": {
                  "$type": "Comindware.Platform.Contracts.PropertyRuleDefinitionModel, Comindware.Platform.Contracts",
                  "PropertyPath": {
                    "$type": "Comindware.Platform.Contracts.GlobalAlias[], Comindware.Platform.Contracts",
                    "$values": [
                      {
                        "$type": "Comindware.Platform.Contracts.GlobalAlias, Comindware.Platform.Contracts",
                        "Type": "Attribute",
                        "Alias": "id"
                      }
                    ]
                  },
                  "Type": "Property"
                }
              }
            },
            {
              "$type": "Comindware.Platform.Contracts.PropertyMapKeyValueModel, Comindware.Platform.Contracts",
              "Key": {
                "$type": "Comindware.Platform.Contracts.ModificationActionModel, Comindware.Platform.Contracts",
                "PropertyPath": {
                  "$type": "Comindware.Platform.Contracts.GlobalAlias[], Comindware.Platform.Contracts",
                  "$values": [
                    {
                      "$type": "Comindware.Platform.Contracts.GlobalAlias, Comindware.Platform.Contracts",
                      "Type": "MessageTemplateProperty",
                      "Owner": "Otpravka_soobscheniya_v_DBS32d4",
                      "Alias": "Attach"
                    }
                  ]
                },
                "PropertyAction": "Replace"
              },
              "Value": {
                "$type": "Comindware.Platform.Contracts.CalculationRuleModel, Comindware.Platform.Contracts",
                "Type": "Calculation",
                "Definition": {
                  "$type": "Comindware.Platform.Contracts.PropertyRuleDefinitionModel, Comindware.Platform.Contracts",
                  "PropertyPath": {
                    "$type": "Comindware.Platform.Contracts.GlobalAlias[], Comindware.Platform.Contracts",
                    "$values": [
                      {
                        "$type": "Comindware.Platform.Contracts.GlobalAlias, Comindware.Platform.Contracts",
                        "Type": "Attribute",
                        "Owner": "Obrascheniyavtekhpodderzhku",
                        "Alias": "Vlozhenie"
                      }
                    ]
                  },
                  "Type": "Property"
                }
              }
            },
            {
              "$type": "Comindware.Platform.Contracts.PropertyMapKeyValueModel, Comindware.Platform.Contracts",
              "Key": {
                "$type": "Comindware.Platform.Contracts.ModificationActionModel, Comindware.Platform.Contracts",
                "PropertyPath": {
                  "$type": "Comindware.Platform.Contracts.GlobalAlias[], Comindware.Platform.Contracts",
                  "$values": [
                    {
                      "$type": "Comindware.Platform.Contracts.GlobalAlias, Comindware.Platform.Contracts",
                      "Type": "MessageTemplateProperty",
                      "Owner": "Otpravka_soobscheniya_v_DBS32d4",
                      "Alias": "Dataobrascheniya"
                    }
                  ]
                },
                "PropertyAction": "Replace"
              },
              "Value": {
                "$type": "Comindware.Platform.Contracts.CalculationRuleModel, Comindware.Platform.Contracts",
                "Type": "Calculation",
                "Definition": {
                  "$type": "Comindware.Platform.Contracts.PropertyRuleDefinitionModel, Comindware.Platform.Contracts",
                  "PropertyPath": {
                    "$type": "Comindware.Platform.Contracts.GlobalAlias[], Comindware.Platform.Contracts",
                    "$values": [
                      {
                        "$type": "Comindware.Platform.Contracts.GlobalAlias, Comindware.Platform.Contracts",
                        "Type": "Attribute",
                        "Alias": "creationDate"
                      }
                    ]
                  },
                  "Type": "Property"
                }
              }
            },
            {
              "$type": "Comindware.Platform.Contracts.PropertyMapKeyValueModel, Comindware.Platform.Contracts",
              "Key": {
                "$type": "Comindware.Platform.Contracts.ModificationActionModel, Comindware.Platform.Contracts",
                "PropertyPath": {
                  "$type": "Comindware.Platform.Contracts.GlobalAlias[], Comindware.Platform.Contracts",
                  "$values": [
                    {
                      "$type": "Comindware.Platform.Contracts.GlobalAlias, Comindware.Platform.Contracts",
                      "Type": "MessageTemplateProperty",
                      "Owner": "Otpravka_soobscheniya_v_DBS32d4",
                      "Alias": "Nomerobrascheniya"
                    }
                  ]
                },
                "PropertyAction": "Replace"
              },
              "Value": {
                "$type": "Comindware.Platform.Contracts.CalculationRuleModel, Comindware.Platform.Contracts",
                "Type": "Calculation",
                "Definition": {
                  "$type": "Comindware.Platform.Contracts.PropertyRuleDefinitionModel, Comindware.Platform.Contracts",
                  "PropertyPath": {
                    "$type": "Comindware.Platform.Contracts.GlobalAlias[], Comindware.Platform.Contracts",
                    "$values": [
                      {
                        "$type": "Comindware.Platform.Contracts.GlobalAlias, Comindware.Platform.Contracts",
                        "Type": "Attribute",
                        "Owner": "Obrascheniyavtekhpodderzhku",
                        "Alias": "Nomerobrascheniya"
                      }
                    ]
                  },
                  "Type": "Property"
                }
              }
            },
            {
              "$type": "Comindware.Platform.Contracts.PropertyMapKeyValueModel, Comindware.Platform.Contracts",
              "Key": {
                "$type": "Comindware.Platform.Contracts.ModificationActionModel, Comindware.Platform.Contracts",
                "PropertyPath": {
                  "$type": "Comindware.Platform.Contracts.GlobalAlias[], Comindware.Platform.Contracts",
                  "$values": [
                    {
                      "$type": "Comindware.Platform.Contracts.GlobalAlias, Comindware.Platform.Contracts",
                      "Type": "MessageTemplateProperty",
                      "Owner": "Otpravka_soobscheniya_v_DBS32d4",
                      "Alias": "Initsiator"
                    }
                  ]
                },
                "PropertyAction": "Replace"
              },
              "Value": {
                "$type": "Comindware.Platform.Contracts.CalculationRuleModel, Comindware.Platform.Contracts",
                "Type": "Calculation",
                "Definition": {
                  "$type": "Comindware.Platform.Contracts.PropertyRuleDefinitionModel, Comindware.Platform.Contracts",
                  "PropertyPath": {
                    "$type": "Comindware.Platform.Contracts.GlobalAlias[], Comindware.Platform.Contracts",
                    "$values": [
                      {
                        "$type": "Comindware.Platform.Contracts.GlobalAlias, Comindware.Platform.Contracts",
                        "Type": "Attribute",
                        "Alias": "creator"
                      }
                    ]
                  },
                  "Type": "Property"
                }
              }
            },
            {
              "$type": "Comindware.Platform.Contracts.PropertyMapKeyValueModel, Comindware.Platform.Contracts",
              "Key": {
                "$type": "Comindware.Platform.Contracts.ModificationActionModel, Comindware.Platform.Contracts",
                "PropertyPath": {
                  "$type": "Comindware.Platform.Contracts.GlobalAlias[], Comindware.Platform.Contracts",
                  "$values": [
                    {
                      "$type": "Comindware.Platform.Contracts.GlobalAlias, Comindware.Platform.Contracts",
                      "Type": "MessageTemplateProperty",
                      "Owner": "Otpravka_soobscheniya_v_DBS32d4",
                      "Alias": "Zayavkavypolnena"
                    }
                  ]
                },
                "PropertyAction": "Replace"
              },
              "Value": {
                "$type": "Comindware.Platform.Contracts.CalculationRuleModel, Comindware.Platform.Contracts",
                "Type": "Calculation",
                "Definition": {
                  "$type": "Comindware.Platform.Contracts.PropertyRuleDefinitionModel, Comindware.Platform.Contracts",
                  "PropertyPath": {
                    "$type": "Comindware.Platform.Contracts.GlobalAlias[], Comindware.Platform.Contracts",
                    "$values": [
                      {
                        "$type": "Comindware.Platform.Contracts.GlobalAlias, Comindware.Platform.Contracts",
                        "Type": "Attribute",
                        "Owner": "Obrascheniyavtekhpodderzhku",
                        "Alias": "Zayavkavypolnena"
                      }
                    ]
                  },
                  "Type": "Property"
                }
              }
            },
            {
              "$type": "Comindware.Platform.Contracts.PropertyMapKeyValueModel, Comindware.Platform.Contracts",
              "Key": {
                "$type": "Comindware.Platform.Contracts.ModificationActionModel, Comindware.Platform.Contracts",
                "PropertyPath": {
                  "$type": "Comindware.Platform.Contracts.GlobalAlias[], Comindware.Platform.Contracts",
                  "$values": [
                    {
                      "$type": "Comindware.Platform.Contracts.GlobalAlias, Comindware.Platform.Contracts",
                      "Type": "MessageTemplateProperty",
                      "Owner": "Otpravka_soobscheniya_v_DBS32d4",
                      "Alias": "Kommentariypolzovatelya"
                    }
                  ]
                },
                "PropertyAction": "Replace"
              },
              "Value": {
                "$type": "Comindware.Platform.Contracts.CalculationRuleModel, Comindware.Platform.Contracts",
                "Type": "Calculation",
                "Definition": {
                  "$type": "Comindware.Platform.Contracts.PropertyRuleDefinitionModel, Comindware.Platform.Contracts",
                  "PropertyPath": {
                    "$type": "Comindware.Platform.Contracts.GlobalAlias[], Comindware.Platform.Contracts",
                    "$values": [
                      {
                        "$type": "Comindware.Platform.Contracts.GlobalAlias, Comindware.Platform.Contracts",
                        "Type": "Attribute",
                        "Owner": "Obrascheniyavtekhpodderzhku",
                        "Alias": "Kommentariy"
                      }
                    ]
                  },
                  "Type": "Property"
                }
              }
            },
            {
              "$type": "Comindware.Platform.Contracts.PropertyMapKeyValueModel, Comindware.Platform.Contracts",
              "Key": {
                "$type": "Comindware.Platform.Contracts.ModificationActionModel, Comindware.Platform.Contracts",
                "PropertyPath": {
                  "$type": "Comindware.Platform.Contracts.GlobalAlias[], Comindware.Platform.Contracts",
                  "$values": [
                    {
                      "$type": "Comindware.Platform.Contracts.GlobalAlias, Comindware.Platform.Contracts",
                      "Type": "MessageTemplateProperty",
                      "Owner": "Otpravka_soobscheniya_v_DBS32d4",
                      "Alias": "Status"
                    }
                  ]
                },
                "PropertyAction": "Replace"
              },
              "Value": {
                "$type": "Comindware.Platform.Contracts.CalculationRuleModel, Comindware.Platform.Contracts",
                "Type": "Calculation",
                "Definition": {
                  "$type": "Comindware.Platform.Contracts.PropertyRuleDefinitionModel, Comindware.Platform.Contracts",
                  "PropertyPath": {
                    "$type": "Comindware.Platform.Contracts.GlobalAlias[], Comindware.Platform.Contracts",
                    "$values": [
                      {
                        "$type": "Comindware.Platform.Contracts.GlobalAlias, Comindware.Platform.Contracts",
                        "Type": "Attribute",
                        "Owner": "Obrascheniyavtekhpodderzhku",
                        "Alias": "Statusobrascheniya"
                      },
                      {
                        "$type": "Comindware.Platform.Contracts.GlobalAlias, Comindware.Platform.Contracts",
                        "Type": "Attribute",
                        "Owner": "Statusyobrascheniy",
                        "Alias": "Nazvanie"
                      }
                    ]
                  },
                  "Type": "Property"
                }
              }
            }
          ]
        },
        "Type": "MakeMessage"
      }
    }
  },
  "BehaviourState": "Active",
  "Title": "Отправка данных в DBS",
  "IsTitleSet": false,
  "Position": {
    "$type": "Comindware.Platform.Contracts.VectorModel, Comindware.Platform.Contracts",
    "X": 1280.0,
    "Y": 500.0
  },
  "Size": {
    "$type": "Comindware.Platform.Contracts.DimensionsModel, Comindware.Platform.Contracts",
    "Width": 40.0,
    "Height": 40.0
  },
  "Owner": {
    "$type": "Comindware.Platform.Contracts.GlobalAlias, Comindware.Platform.Contracts",
    "Type": "ClientActivity",
    "Owner": "Obraschenievtekhpodderzhku",
    "Alias": "pool1"
  },
  "OwnerEmbeddedProcessActivityAlias": {
    "$type": "Comindware.Platform.Contracts.GlobalAlias, Comindware.Platform.Contracts",
    "Type": "Undefined"
  },
  "MountedOnAlias": {
    "$type": "Comindware.Platform.Contracts.GlobalAlias, Comindware.Platform.Contracts",
    "Type": "Undefined"
  },
  "Type": "IntermediateEvent",
  "OnEnterTrigger": {
    "$type": "Comindware.Platform.Contracts.GlobalAlias, Comindware.Platform.Contracts",
    "Type": "Undefined"
  },
  "OnExitTrigger": {
    "$type": "Comindware.Platform.Contracts.GlobalAlias, Comindware.Platform.Contracts",
    "Type": "Undefined"
  }
}