{
  "$type": "Comindware.Platform.Contracts.DocumentExportTemplateModel, Comindware.Platform.Contracts",
  "GlobalAlias": {
    "$type": "Comindware.Platform.Contracts.GlobalAlias, Comindware.Platform.Contracts",
    "Type": "ExportTemplate",
    "Owner": "Prilozheniyakdogovoram",
    "Alias": "Prilozhenieradio"
  },
  "Name": "Приложение радио.xls",
  "ExportSourceTemplate": {
    "$type": "Comindware.Platform.Contracts.ExportSourceTemplateFromDocument, Comindware.Platform.Contracts",
    "Type": "Document",
    "FileName": "Приложение радио.xls",
    "FileType": "Excel",
    "StreamId": "cmw.xmlns:.stream:///.825d904a-2aad-4869-b134-9d06fb7dde67"
  },
  "OutputFileNameTemplate": {
    "$type": "Comindware.Platform.Contracts.OutputFileNameTemplateFromAttribute, Comindware.Platform.Contracts",
    "Type": "Attribute",
    "PropertyPath": {
      "$type": "Comindware.Platform.Contracts.GlobalAlias[], Comindware.Platform.Contracts",
      "$values": [
        {
          "$type": "Comindware.Platform.Contracts.GlobalAlias, Comindware.Platform.Contracts",
          "Type": "Attribute",
          "Alias": "Nomer"
        }
      ]
    }
  },
  "ExportAsPdf": false
}