{
  "$type": "Comindware.Platform.Contracts.MessageTypeConfigurationModel, Comindware.Platform.Contracts",
  "Name": "Отправка сообщения в баинг для доработки",
  "GlobalAlias": {
    "$type": "Comindware.Platform.Contracts.GlobalAlias, Comindware.Platform.Contracts",
    "Type": "MessageTemplate",
    "Alias": "Podtverzhdeniesrokov"
  },
  "Kind": "ReadableKind"
}