{
  "$type": "Comindware.Platform.Contracts.ToolbarModel, Comindware.Platform.Contracts",
  "GlobalAlias": {
    "$type": "Comindware.Platform.Contracts.GlobalAlias, Comindware.Platform.Contracts",
    "Type": "Toolbar",
    "Owner": "Akty",
    "Alias": "toolbar3043adc9"
  },
  "Name": "УПДtoolbar",
  "IsDefaultForLists": false,
  "IsDefaultForForms": false,
  "IsDefaultForProcess": false,
  "IsDefaultForProcessDesigner": false,
  "IsDefaultForTaskLists": false,
  "Items": {
    "$type": "System.Collections.Generic.List`1[[Comindware.Platform.Contracts.ToolbarItemModel, Comindware.Platform.Contracts]], mscorlib",
    "$values": [
      {
        "$type": "Comindware.Platform.Contracts.ToolbarItemModel, Comindware.Platform.Contracts",
        "CollectionAction": {
          "$type": "Comindware.Platform.Contracts.CollectionActionModel, Comindware.Platform.Contracts",
          "Type": "Create",
          "ExecutionFormat": "InForm",
          "Form": {
            "$type": "System.Nullable`1[[Comindware.Platform.Contracts.GlobalAlias, Comindware.Platform.Contracts]], mscorlib",
            "Type": "Form",
            "Owner": "Akty",
            "Alias": "defaultForm"
          }
        },
        "Name": "Создать",
        "Order": 0,
        "Type": "Action",
        "IconType": "Undefined",
        "IconClass": "plus",
        "Severity": "None"
      },
      {
        "$type": "Comindware.Platform.Contracts.ToolbarItemModel, Comindware.Platform.Contracts",
        "CollectionAction": {
          "$type": "Comindware.Platform.Contracts.CollectionActionModel, Comindware.Platform.Contracts",
          "Type": "Copy",
          "ExecutionFormat": "Undefined"
        },
        "Name": "Копировать",
        "Order": 1,
        "Type": "Action",
        "IconType": "Undefined",
        "IconClass": "plus",
        "Severity": "None"
      },
      {
        "$type": "Comindware.Platform.Contracts.ToolbarItemModel, Comindware.Platform.Contracts",
        "Action": {
          "$type": "System.Nullable`1[[Comindware.Platform.Contracts.GlobalAlias, Comindware.Platform.Contracts]], mscorlib",
          "Type": "UserCommand",
          "Owner": "Akty",
          "Alias": "Udalit"
        },
        "Name": "Удалить",
        "Order": 2,
        "Type": "Action",
        "IconType": "Undefined",
        "Severity": "None"
      }
    ]
  }
}