{
  "$type": "Comindware.Platform.Contracts.ToolbarModel, Comindware.Platform.Contracts",
  "GlobalAlias": {
    "$type": "Comindware.Platform.Contracts.GlobalAlias, Comindware.Platform.Contracts",
    "Type": "Toolbar",
    "Owner": "Mediaplany",
    "Alias": "defaultFormToolbar"
  },
  "Name": "Панель инструментов для формы",
  "IsDefaultForLists": false,
  "IsDefaultForForms": true,
  "IsDefaultForProcess": false,
  "IsDefaultForProcessDesigner": false,
  "IsDefaultForTaskLists": false,
  "Items": {
    "$type": "System.Collections.Generic.List`1[[Comindware.Platform.Contracts.ToolbarItemModel, Comindware.Platform.Contracts]], mscorlib",
    "$values": [
      {
        "$type": "Comindware.Platform.Contracts.ToolbarItemModel, Comindware.Platform.Contracts",
        "Action": {
          "$type": "System.Nullable`1[[Comindware.Platform.Contracts.GlobalAlias, Comindware.Platform.Contracts]], mscorlib",
          "Type": "UserCommand",
          "Owner": "Mediaplany",
          "Alias": "edit"
        },
        "Name": "Сохранить",
        "Order": 0,
        "Type": "Action",
        "IconType": "Undefined",
        "Severity": "None"
      },
      {
        "$type": "Comindware.Platform.Contracts.ToolbarItemModel, Comindware.Platform.Contracts",
        "Action": {
          "$type": "System.Nullable`1[[Comindware.Platform.Contracts.GlobalAlias, Comindware.Platform.Contracts]], mscorlib",
          "Type": "UserCommand",
          "Owner": "Mediaplany",
          "Alias": "Parsingv2"
        },
        "Name": "Parsing v.2",
        "Description": "Parsing v.2",
        "Order": 1,
        "Type": "Action",
        "IconType": "Undefined",
        "IconClass": "spider",
        "Severity": "Normal"
      },
      {
        "$type": "Comindware.Platform.Contracts.ToolbarItemModel, Comindware.Platform.Contracts",
        "Action": {
          "$type": "System.Nullable`1[[Comindware.Platform.Contracts.GlobalAlias, Comindware.Platform.Contracts]], mscorlib",
          "Type": "UserCommand",
          "Owner": "Mediaplany",
          "Alias": "Pereparsing2"
        },
        "Name": "Pereparsing ver.2",
        "Description": "Pereparsing ver.2",
        "Order": 2,
        "Type": "Action",
        "IconType": "Undefined",
        "IconClass": "rabbit",
        "Severity": "Major"
      },
      {
        "$type": "Comindware.Platform.Contracts.ToolbarItemModel, Comindware.Platform.Contracts",
        "Action": {
          "$type": "System.Nullable`1[[Comindware.Platform.Contracts.GlobalAlias, Comindware.Platform.Contracts]], mscorlib",
          "Type": "UserCommand",
          "Owner": "Mediaplany",
          "Alias": "Parsingv4"
        },
        "Name": "Parsing v.4",
        "Description": "Parsing v.4",
        "Order": 3,
        "Type": "Action",
        "IconType": "Undefined",
        "IconClass": "arrow-alt-right",
        "Severity": "None"
      },
      {
        "$type": "Comindware.Platform.Contracts.ToolbarItemModel, Comindware.Platform.Contracts",
        "Action": {
          "$type": "System.Nullable`1[[Comindware.Platform.Contracts.GlobalAlias, Comindware.Platform.Contracts]], mscorlib",
          "Type": "UserCommand",
          "Owner": "Mediaplany",
          "Alias": "Pereparsingv4"
        },
        "Name": "Pereparsing v.4",
        "Description": "Pereparsing v.4",
        "Order": 4,
        "Type": "Action",
        "IconType": "Undefined",
        "IconClass": "arrow-alt-to-right",
        "Severity": "None"
      },
      {
        "$type": "Comindware.Platform.Contracts.ToolbarItemModel, Comindware.Platform.Contracts",
        "Action": {
          "$type": "System.Nullable`1[[Comindware.Platform.Contracts.GlobalAlias, Comindware.Platform.Contracts]], mscorlib",
          "Type": "UserCommand",
          "Owner": "Mediaplany",
          "Alias": "ZapustitRPA"
        },
        "Name": "Запустить RPA",
        "Description": "Запустить RPA",
        "Order": 5,
        "Type": "Action",
        "IconType": "Undefined",
        "IconClass": "align-justify",
        "Severity": "None"
      },
      {
        "$type": "Comindware.Platform.Contracts.ToolbarItemModel, Comindware.Platform.Contracts",
        "Action": {
          "$type": "System.Nullable`1[[Comindware.Platform.Contracts.GlobalAlias, Comindware.Platform.Contracts]], mscorlib",
          "Type": "UserCommand",
          "Owner": "Mediaplany",
          "Alias": "K2"
        },
        "Name": "K2",
        "Description": "K2",
        "Order": 6,
        "Type": "Action",
        "IconType": "Undefined",
        "IconClass": "align-justify",
        "Severity": "None"
      },
      {
        "$type": "Comindware.Platform.Contracts.ToolbarItemModel, Comindware.Platform.Contracts",
        "Action": {
          "$type": "System.Nullable`1[[Comindware.Platform.Contracts.GlobalAlias, Comindware.Platform.Contracts]], mscorlib",
          "Type": "UserCommand",
          "Owner": "Mediaplany",
          "Alias": "Izmenitmediaplan"
        },
        "Name": "Изменить медиаплан",
        "Description": "Изменить медиаплан",
        "Order": 7,
        "Type": "Action",
        "IconType": "Undefined",
        "IconClass": "duck",
        "Severity": "Major"
      },
      {
        "$type": "Comindware.Platform.Contracts.ToolbarItemModel, Comindware.Platform.Contracts",
        "Action": {
          "$type": "System.Nullable`1[[Comindware.Platform.Contracts.GlobalAlias, Comindware.Platform.Contracts]], mscorlib",
          "Type": "UserCommand",
          "Owner": "Mediaplany",
          "Alias": "Parsingmediaplanavdetalizatsiyu"
        },
        "Name": "Парсинг медиаплана в детализацию",
        "Description": "Парсинг медиаплана в детализацию",
        "Order": 8,
        "Type": "Action",
        "IconType": "Undefined",
        "IconClass": "align-justify",
        "Severity": "Normal"
      },
      {
        "$type": "Comindware.Platform.Contracts.ToolbarItemModel, Comindware.Platform.Contracts",
        "Action": {
          "$type": "System.Nullable`1[[Comindware.Platform.Contracts.GlobalAlias, Comindware.Platform.Contracts]], mscorlib",
          "Type": "UserCommand",
          "Owner": "Mediaplany",
          "Alias": "Pereparsingpressy"
        },
        "Name": "Перепарсинг прессы",
        "Description": "Перепарсинг прессы",
        "Order": 9,
        "Type": "Action",
        "IconType": "Undefined",
        "IconClass": "otter",
        "Severity": "Critical"
      },
      {
        "$type": "Comindware.Platform.Contracts.ToolbarItemModel, Comindware.Platform.Contracts",
        "Action": {
          "$type": "System.Nullable`1[[Comindware.Platform.Contracts.GlobalAlias, Comindware.Platform.Contracts]], mscorlib",
          "Type": "UserCommand",
          "Owner": "Mediaplany",
          "Alias": "Zakrytperiod"
        },
        "Name": "Закрыть период",
        "Description": "Закрыть период",
        "Order": 10,
        "Type": "Action",
        "IconType": "Undefined",
        "IconClass": "align-justify",
        "Severity": "Critical"
      },
      {
        "$type": "Comindware.Platform.Contracts.ToolbarItemModel, Comindware.Platform.Contracts",
        "Action": {
          "$type": "System.Nullable`1[[Comindware.Platform.Contracts.GlobalAlias, Comindware.Platform.Contracts]], mscorlib",
          "Type": "UserCommand",
          "Owner": "Mediaplany",
          "Alias": "SkachatpozitsiipoMPvexcel"
        },
        "Name": "Скачать позиции по МП в excel",
        "Description": "Скачать позиции по МП в excel",
        "Order": 11,
        "Type": "Action",
        "IconType": "Undefined",
        "IconClass": "file",
        "Severity": "Low"
      }
    ]
  }
}