{
  "$type": "Comindware.Platform.Contracts.ToolbarModel, Comindware.Platform.Contracts",
  "GlobalAlias": {
    "$type": "Comindware.Platform.Contracts.GlobalAlias, Comindware.Platform.Contracts",
    "Type": "Toolbar",
    "Owner": "Mediaplany",
    "Alias": "toolbarf57ae92e77624ba5bd6e0406669812e3"
  },
  "Name": "Область кнопок для «Digital / Интернет - Детализация»",
  "IsDefaultForLists": false,
  "IsDefaultForForms": false,
  "IsDefaultForProcess": false,
  "IsDefaultForProcessDesigner": false,
  "IsDefaultForTaskLists": false,
  "Items": {
    "$type": "System.Collections.Generic.List`1[[Comindware.Platform.Contracts.ToolbarItemModel, Comindware.Platform.Contracts]], mscorlib",
    "$values": [
      {
        "$type": "Comindware.Platform.Contracts.ToolbarItemModel, Comindware.Platform.Contracts",
        "Action": {
          "$type": "System.Nullable`1[[Comindware.Platform.Contracts.GlobalAlias, Comindware.Platform.Contracts]], mscorlib",
          "Type": "UserCommand",
          "Owner": "Mediaplany",
          "Alias": "Pereparsing2"
        },
        "Name": "Перепарсинг 2",
        "Description": "Перепарсинг 2",
        "Order": 1,
        "Type": "Action",
        "IconType": "Undefined",
        "IconClass": "narwhal",
        "Severity": "Critical"
      },
      {
        "$type": "Comindware.Platform.Contracts.ToolbarItemModel, Comindware.Platform.Contracts",
        "Action": {
          "$type": "System.Nullable`1[[Comindware.Platform.Contracts.GlobalAlias, Comindware.Platform.Contracts]], mscorlib",
          "Type": "UserCommand",
          "Owner": "Mediaplany",
          "Alias": "edit"
        },
        "Name": "Сохранить",
        "Order": 2,
        "Type": "Action",
        "IconType": "Undefined",
        "Severity": "None"
      },
      {
        "$type": "Comindware.Platform.Contracts.ToolbarItemModel, Comindware.Platform.Contracts",
        "Action": {
          "$type": "System.Nullable`1[[Comindware.Platform.Contracts.GlobalAlias, Comindware.Platform.Contracts]], mscorlib",
          "Type": "UserCommand",
          "Owner": "Mediaplany",
          "Alias": "ZapustitRPA"
        },
        "Name": "Запустить RPA",
        "Description": "Запустить RPA",
        "Order": 3,
        "Type": "Action",
        "IconType": "Undefined",
        "IconClass": "align-justify",
        "Severity": "None"
      },
      {
        "$type": "Comindware.Platform.Contracts.ToolbarItemModel, Comindware.Platform.Contracts",
        "Action": {
          "$type": "System.Nullable`1[[Comindware.Platform.Contracts.GlobalAlias, Comindware.Platform.Contracts]], mscorlib",
          "Type": "UserCommand",
          "Owner": "Mediaplany",
          "Alias": "K2"
        },
        "Name": "K2",
        "Description": "K2",
        "Order": 4,
        "Type": "Action",
        "IconType": "Undefined",
        "IconClass": "align-justify",
        "Severity": "None"
      },
      {
        "$type": "Comindware.Platform.Contracts.ToolbarItemModel, Comindware.Platform.Contracts",
        "Action": {
          "$type": "System.Nullable`1[[Comindware.Platform.Contracts.GlobalAlias, Comindware.Platform.Contracts]], mscorlib",
          "Type": "UserCommand",
          "Owner": "Mediaplany",
          "Alias": "Izmenitmediaplan"
        },
        "Name": "Изменить медиаплан",
        "Description": "Изменить медиаплан",
        "Order": 5,
        "Type": "Action",
        "IconType": "Undefined",
        "IconClass": "duck",
        "Severity": "Major"
      },
      {
        "$type": "Comindware.Platform.Contracts.ToolbarItemModel, Comindware.Platform.Contracts",
        "Action": {
          "$type": "System.Nullable`1[[Comindware.Platform.Contracts.GlobalAlias, Comindware.Platform.Contracts]], mscorlib",
          "Type": "UserCommand",
          "Owner": "Mediaplany",
          "Alias": "Parsingmediaplanavdetalizatsiyu"
        },
        "Name": "Парсинг медиаплана в детализацию",
        "Description": "Парсинг медиаплана в детализацию",
        "Order": 6,
        "Type": "Action",
        "IconType": "Undefined",
        "IconClass": "align-justify",
        "Severity": "Normal"
      },
      {
        "$type": "Comindware.Platform.Contracts.ToolbarItemModel, Comindware.Platform.Contracts",
        "Action": {
          "$type": "System.Nullable`1[[Comindware.Platform.Contracts.GlobalAlias, Comindware.Platform.Contracts]], mscorlib",
          "Type": "UserCommand",
          "Owner": "Mediaplany",
          "Alias": "Parsingpressy"
        },
        "Name": "Парсинг прессы ",
        "Description": "Парсинг прессы ",
        "Order": 7,
        "Type": "Action",
        "IconType": "Undefined",
        "IconClass": "sync",
        "Severity": "Low"
      },
      {
        "$type": "Comindware.Platform.Contracts.ToolbarItemModel, Comindware.Platform.Contracts",
        "Action": {
          "$type": "System.Nullable`1[[Comindware.Platform.Contracts.GlobalAlias, Comindware.Platform.Contracts]], mscorlib",
          "Type": "UserCommand",
          "Owner": "Mediaplany",
          "Alias": "Pereparsingpressy"
        },
        "Name": "Перепарсинг прессы",
        "Description": "Перепарсинг прессы",
        "Order": 8,
        "Type": "Action",
        "IconType": "Undefined",
        "IconClass": "otter",
        "Severity": "Critical"
      },
      {
        "$type": "Comindware.Platform.Contracts.ToolbarItemModel, Comindware.Platform.Contracts",
        "Action": {
          "$type": "System.Nullable`1[[Comindware.Platform.Contracts.GlobalAlias, Comindware.Platform.Contracts]], mscorlib",
          "Type": "UserCommand",
          "Owner": "Mediaplany",
          "Alias": "Zakrytperiod"
        },
        "Name": "Закрыть период",
        "Description": "Закрыть период",
        "Order": 9,
        "Type": "Action",
        "IconType": "Undefined",
        "IconClass": "align-justify",
        "Severity": "Critical"
      },
      {
        "$type": "Comindware.Platform.Contracts.ToolbarItemModel, Comindware.Platform.Contracts",
        "Action": {
          "$type": "System.Nullable`1[[Comindware.Platform.Contracts.GlobalAlias, Comindware.Platform.Contracts]], mscorlib",
          "Type": "UserCommand",
          "Owner": "Mediaplany",
          "Alias": "ParsingTVfed"
        },
        "Name": "Парсинг ТВ (фед.)",
        "Description": "Парсинг ТВ (фед.)",
        "Order": 10,
        "Type": "Action",
        "IconType": "Undefined",
        "IconClass": "sync",
        "Severity": "Low"
      },
      {
        "$type": "Comindware.Platform.Contracts.ToolbarItemModel, Comindware.Platform.Contracts",
        "Action": {
          "$type": "System.Nullable`1[[Comindware.Platform.Contracts.GlobalAlias, Comindware.Platform.Contracts]], mscorlib",
          "Type": "UserCommand",
          "Owner": "Mediaplany",
          "Alias": "ParsingFUSE"
        },
        "Name": "Парсинг FUSE",
        "Description": "Парсинг FUSE",
        "Order": 11,
        "Type": "Action",
        "IconType": "Undefined",
        "IconClass": "sync",
        "Severity": "Low"
      },
      {
        "$type": "Comindware.Platform.Contracts.ToolbarItemModel, Comindware.Platform.Contracts",
        "Action": {
          "$type": "System.Nullable`1[[Comindware.Platform.Contracts.GlobalAlias, Comindware.Platform.Contracts]], mscorlib",
          "Type": "UserCommand",
          "Owner": "Mediaplany",
          "Alias": "ParsingnaruzhkaOOH"
        },
        "Name": "Парсинг наружка (OOH)",
        "Description": "Парсинг наружка (OOH)",
        "Order": 12,
        "Type": "Action",
        "IconType": "Undefined",
        "IconClass": "sync",
        "Severity": "Low"
      },
      {
        "$type": "Comindware.Platform.Contracts.ToolbarItemModel, Comindware.Platform.Contracts",
        "Action": {
          "$type": "System.Nullable`1[[Comindware.Platform.Contracts.GlobalAlias, Comindware.Platform.Contracts]], mscorlib",
          "Type": "UserCommand",
          "Owner": "Mediaplany",
          "Alias": "Parsingradio"
        },
        "Name": "Парсинг радио",
        "Description": "Парсинг радио",
        "Order": 13,
        "Type": "Action",
        "IconType": "Undefined",
        "IconClass": "sync",
        "Severity": "Low"
      },
      {
        "$type": "Comindware.Platform.Contracts.ToolbarItemModel, Comindware.Platform.Contracts",
        "Action": {
          "$type": "System.Nullable`1[[Comindware.Platform.Contracts.GlobalAlias, Comindware.Platform.Contracts]], mscorlib",
          "Type": "UserCommand",
          "Owner": "Mediaplany",
          "Alias": "ParsingDigital"
        },
        "Name": "Парсинг Digital",
        "Description": "Парсинг Digital",
        "Order": 14,
        "Type": "Action",
        "IconType": "Undefined",
        "IconClass": "sync",
        "Severity": "Low"
      },
      {
        "$type": "Comindware.Platform.Contracts.ToolbarItemModel, Comindware.Platform.Contracts",
        "Action": {
          "$type": "System.Nullable`1[[Comindware.Platform.Contracts.GlobalAlias, Comindware.Platform.Contracts]], mscorlib",
          "Type": "UserCommand",
          "Owner": "Mediaplany",
          "Alias": "Digital"
        },
        "Name": "Скачать в Excel Позиции К2",
        "Description": "Digital",
        "Order": 15,
        "Type": "Action",
        "IconType": "Undefined",
        "IconClass": "download",
        "Severity": "Major"
      },
      {
        "$type": "Comindware.Platform.Contracts.ToolbarItemModel, Comindware.Platform.Contracts",
        "Action": {
          "$type": "System.Nullable`1[[Comindware.Platform.Contracts.GlobalAlias, Comindware.Platform.Contracts]], mscorlib",
          "Type": "UserCommand",
          "Owner": "Mediaplany",
          "Alias": "FUSE"
        },
        "Name": "Скачать в Excel Позиции К2",
        "Description": "FUSE",
        "Order": 16,
        "Type": "Action",
        "IconType": "Undefined",
        "IconClass": "download",
        "Severity": "Major"
      },
      {
        "$type": "Comindware.Platform.Contracts.ToolbarItemModel, Comindware.Platform.Contracts",
        "Action": {
          "$type": "System.Nullable`1[[Comindware.Platform.Contracts.GlobalAlias, Comindware.Platform.Contracts]], mscorlib",
          "Type": "UserCommand",
          "Owner": "Mediaplany",
          "Alias": "TV"
        },
        "Name": "Скачать в Excel Позиции К2",
        "Description": "ТВ",
        "Order": 17,
        "Type": "Action",
        "IconType": "Undefined",
        "IconClass": "download",
        "Severity": "Major"
      },
      {
        "$type": "Comindware.Platform.Contracts.ToolbarItemModel, Comindware.Platform.Contracts",
        "Action": {
          "$type": "System.Nullable`1[[Comindware.Platform.Contracts.GlobalAlias, Comindware.Platform.Contracts]], mscorlib",
          "Type": "UserCommand",
          "Owner": "Mediaplany",
          "Alias": "Radio"
        },
        "Name": "Скачать в Excel Позиции К2",
        "Description": "Радио",
        "Order": 18,
        "Type": "Action",
        "IconType": "Undefined",
        "IconClass": "download",
        "Severity": "Major"
      },
      {
        "$type": "Comindware.Platform.Contracts.ToolbarItemModel, Comindware.Platform.Contracts",
        "Action": {
          "$type": "System.Nullable`1[[Comindware.Platform.Contracts.GlobalAlias, Comindware.Platform.Contracts]], mscorlib",
          "Type": "UserCommand",
          "Owner": "Mediaplany",
          "Alias": "Naruzhka"
        },
        "Name": "Скачать в Excel Позиции К2",
        "Description": "Наружка",
        "Order": 19,
        "Type": "Action",
        "IconType": "Undefined",
        "IconClass": "download",
        "Severity": "Major"
      },
      {
        "$type": "Comindware.Platform.Contracts.ToolbarItemModel, Comindware.Platform.Contracts",
        "Action": {
          "$type": "System.Nullable`1[[Comindware.Platform.Contracts.GlobalAlias, Comindware.Platform.Contracts]], mscorlib",
          "Type": "UserCommand",
          "Owner": "Mediaplany",
          "Alias": "Press"
        },
        "Name": "Скачать в Excel Позиции К2",
        "Description": "Press",
        "Order": 20,
        "Type": "Action",
        "IconType": "Undefined",
        "IconClass": "download",
        "Severity": "Major"
      }
    ]
  }
}