{
  "$type": "Comindware.Platform.Contracts.ToolbarModel, Comindware.Platform.Contracts",
  "GlobalAlias": {
    "$type": "Comindware.Platform.Contracts.GlobalAlias, Comindware.Platform.Contracts",
    "Type": "Toolbar",
    "Owner": "Mediaplany",
    "Alias": "toolbar251e2a95"
  },
  "Name": " toolbar",
  "IsDefaultForLists": false,
  "IsDefaultForForms": false,
  "IsDefaultForProcess": false,
  "IsDefaultForProcessDesigner": false,
  "IsDefaultForTaskLists": false,
  "Items": {
    "$type": "System.Collections.Generic.List`1[[Comindware.Platform.Contracts.ToolbarItemModel, Comindware.Platform.Contracts]], mscorlib",
    "$values": [
      {
        "$type": "Comindware.Platform.Contracts.ToolbarItemModel, Comindware.Platform.Contracts",
        "CollectionAction": {
          "$type": "Comindware.Platform.Contracts.CollectionActionModel, Comindware.Platform.Contracts",
          "Type": "FormEdit",
          "ExecutionFormat": "InForm",
          "Form": {
            "$type": "System.Nullable`1[[Comindware.Platform.Contracts.GlobalAlias, Comindware.Platform.Contracts]], mscorlib",
            "Type": "Form",
            "Owner": "Mediaplany",
            "Alias": "form265212"
          }
        },
        "Name": "Редактировать",
        "Order": 0,
        "Type": "Action",
        "IconType": "Undefined",
        "IconClass": "pen-square",
        "Severity": "None"
      },
      {
        "$type": "Comindware.Platform.Contracts.ToolbarItemModel, Comindware.Platform.Contracts",
        "CollectionAction": {
          "$type": "Comindware.Platform.Contracts.CollectionActionModel, Comindware.Platform.Contracts",
          "Type": "Navigate",
          "ExecutionFormat": "Undefined"
        },
        "Name": "Перейти",
        "Order": 1,
        "Type": "Action",
        "IconType": "Undefined",
        "IconClass": "external-link-square-alt",
        "Severity": "None"
      }
    ]
  }
}