{
  "$type": "Comindware.Platform.Contracts.ToolbarModel, Comindware.Platform.Contracts",
  "GlobalAlias": {
    "$type": "Comindware.Platform.Contracts.GlobalAlias, Comindware.Platform.Contracts",
    "Type": "Toolbar",
    "Owner": "Baingovyepodrazdeleniya",
    "Alias": "defaultListToolbar"
  },
  "Name": "Панель инструментов для списков",
  "IsDefaultForLists": true,
  "IsDefaultForForms": false,
  "IsDefaultForProcess": false,
  "IsDefaultForProcessDesigner": false,
  "IsDefaultForTaskLists": false,
  "Items": {
    "$type": "System.Collections.Generic.List`1[[Comindware.Platform.Contracts.ToolbarItemModel, Comindware.Platform.Contracts]], mscorlib",
    "$values": [
      {
        "$type": "Comindware.Platform.Contracts.ToolbarItemModel, Comindware.Platform.Contracts",
        "Action": {
          "$type": "System.Nullable`1[[Comindware.Platform.Contracts.GlobalAlias, Comindware.Platform.Contracts]], mscorlib",
          "Type": "UserCommand",
          "Owner": "Baingovyepodrazdeleniya",
          "Alias": "create"
        },
        "Name": "Новое баинговое подразделение",
        "Order": 0,
        "Type": "Action",
        "IconType": "Undefined",
        "IconClass": "plus",
        "Severity": "None"
      },
      {
        "$type": "Comindware.Platform.Contracts.ToolbarItemModel, Comindware.Platform.Contracts",
        "Action": {
          "$type": "System.Nullable`1[[Comindware.Platform.Contracts.GlobalAlias, Comindware.Platform.Contracts]], mscorlib",
          "Type": "UserCommand",
          "Owner": "Baingovyepodrazdeleniya",
          "Alias": "SkachatvExcel"
        },
        "Name": "Скачать в Excel",
        "Description": "Скачать в Excel",
        "Order": 1,
        "Type": "Action",
        "IconType": "Undefined",
        "IconClass": "arrow-alt-to-bottom",
        "Severity": "None"
      },
      {
        "$type": "Comindware.Platform.Contracts.ToolbarItemModel, Comindware.Platform.Contracts",
        "Action": {
          "$type": "System.Nullable`1[[Comindware.Platform.Contracts.GlobalAlias, Comindware.Platform.Contracts]], mscorlib",
          "Type": "UserCommand",
          "Owner": "Baingovyepodrazdeleniya",
          "Alias": "Udalit"
        },
        "Name": "Удалить",
        "Description": "Удалить",
        "Order": 2,
        "Type": "Action",
        "IconType": "Undefined",
        "Severity": "Fatal"
      }
    ]
  }
}