{
  "$type": "Comindware.Platform.Contracts.AttributeModel, Comindware.Platform.Contracts",
  "GlobalAlias": {
    "$type": "Comindware.Platform.Contracts.GlobalAlias, Comindware.Platform.Contracts",
    "Type": "Attribute",
    "Owner": "Dopsoglasheniya",
    "Alias": "Dopsoglasheniepodpisanosobeikhstoron"
  },
  "Type": "Document",
  "Format": "Attachment",
  "Name": "Доп.соглашение (подписано с обеих сторон)",
  "IsSystem": false,
  "IsDisabled": false,
  "IsUnique": false,
  "IsIndexed": false,
  "IsTracked": true,
  "IsMultiValue": true,
  "IsTitle": false,
  "IsMandatory": false,
  "IsOwnership": false,
  "IsCalculated": false,
  "InstanceGlobalAlias": {
    "$type": "Comindware.Platform.Contracts.GlobalAlias, Comindware.Platform.Contracts",
    "Type": "Undefined"
  },
  "ImageColorType": "Original",
  "ImagePreserveAspectRatio": false
}