{
  "$type": "Comindware.Platform.Contracts.ToolbarModel, Comindware.Platform.Contracts",
  "GlobalAlias": {
    "$type": "Comindware.Platform.Contracts.GlobalAlias, Comindware.Platform.Contracts",
    "Type": "Toolbar",
    "Owner": "Kontaktnyelitsayul",
    "Alias": "defaultListToolbar"
  },
  "Name": "Панель инструментов для списков",
  "IsDefaultForLists": true,
  "IsDefaultForForms": false,
  "IsDefaultForProcess": false,
  "IsDefaultForProcessDesigner": false,
  "IsDefaultForTaskLists": false,
  "Items": {
    "$type": "System.Collections.Generic.List`1[[Comindware.Platform.Contracts.ToolbarItemModel, Comindware.Platform.Contracts]], mscorlib",
    "$values": [
      {
        "$type": "Comindware.Platform.Contracts.ToolbarItemModel, Comindware.Platform.Contracts",
        "Action": {
          "$type": "System.Nullable`1[[Comindware.Platform.Contracts.GlobalAlias, Comindware.Platform.Contracts]], mscorlib",
          "Type": "UserCommand",
          "Owner": "Kontaktnyelitsayul",
          "Alias": "include"
        },
        "Name": "Добавить в шаблон",
        "Order": 0,
        "Type": "Action",
        "IconType": "Plus",
        "Severity": "None"
      },
      {
        "$type": "Comindware.Platform.Contracts.ToolbarItemModel, Comindware.Platform.Contracts",
        "Action": {
          "$type": "System.Nullable`1[[Comindware.Platform.Contracts.GlobalAlias, Comindware.Platform.Contracts]], mscorlib",
          "Type": "UserCommand",
          "Owner": "Kontaktnyelitsayul",
          "Alias": "create"
        },
        "Name": "Создать",
        "Order": 1,
        "Type": "Action",
        "IconType": "Plus",
        "Severity": "None"
      },
      {
        "$type": "Comindware.Platform.Contracts.ToolbarItemModel, Comindware.Platform.Contracts",
        "Action": {
          "$type": "System.Nullable`1[[Comindware.Platform.Contracts.GlobalAlias, Comindware.Platform.Contracts]], mscorlib",
          "Type": "UserCommand",
          "Owner": "Kontaktnyelitsayul",
          "Alias": "excludeAccount"
        },
        "Name": "Удалить из шаблона",
        "Order": 2,
        "Type": "Action",
        "IconType": "Minus",
        "Severity": "Major"
      },
      {
        "$type": "Comindware.Platform.Contracts.ToolbarItemModel, Comindware.Platform.Contracts",
        "Action": {
          "$type": "System.Nullable`1[[Comindware.Platform.Contracts.GlobalAlias, Comindware.Platform.Contracts]], mscorlib",
          "Type": "UserCommand",
          "Owner": "Kontaktnyelitsayul",
          "Alias": "deleteAccount"
        },
        "Name": "Удалить",
        "Order": 3,
        "Type": "Action",
        "IconType": "Remove",
        "Severity": "Fatal"
      }
    ]
  }
}