{
  "$type": "Comindware.Platform.Contracts.FormModel, Comindware.Platform.Contracts",
  "GlobalAlias": {
    "$type": "Comindware.Platform.Contracts.GlobalAlias, Comindware.Platform.Contracts",
    "Type": "Form",
    "Owner": "Strategies",
    "Alias": "form744257"
  },
  "Type": "PublicForm",
  "IsDefault": false,
  "Root": {
    "$type": "Comindware.Platform.Contracts.VerticalLayoutModel, Comindware.Platform.Contracts",
    "Rows": {
      "$type": "System.Collections.Generic.List`1[[Comindware.Platform.Contracts.FormComponentModel, Comindware.Platform.Contracts]], mscorlib",
      "$values": [
        {
          "$type": "Comindware.Platform.Contracts.PanelModel, Comindware.Platform.Contracts",
          "Text": {
            "$type": "Comindware.Platform.Contracts.LocalizedTextModel, Comindware.Platform.Contracts",
            "En": "Информация для Стратега",
            "De": "Информация для Стратега",
            "Ru": "Информация для Стратега"
          },
          "OriginalType": "GroupPanel",
          "Rows": {
            "$type": "System.Collections.Generic.List`1[[Comindware.Platform.Contracts.FormComponentModel, Comindware.Platform.Contracts]], mscorlib",
            "$values": [
              {
                "$type": "Comindware.Platform.Contracts.VerticalLayoutModel, Comindware.Platform.Contracts",
                "Rows": {
                  "$type": "System.Collections.Generic.List`1[[Comindware.Platform.Contracts.FormComponentModel, Comindware.Platform.Contracts]], mscorlib",
                  "$values": [
                    {
                      "$type": "Comindware.Platform.Contracts.StaticContentModel, Comindware.Platform.Contracts",
                      "Content": {
                        "$type": "Comindware.Platform.Contracts.LocalizedTextModel, Comindware.Platform.Contracts",
                        "En": "<p><span style=\"font-size:11pt\"><span><span style=\"font-family:Calibri,sans-serif\"><span style=\"font-size:12.0pt\"><span style=\"font-family:&quot;Times New Roman&quot;,serif\">Вам пришла задача для разработки стратегии.</span></span></span></span></span></p> <p><span style=\"font-size:11pt\"><span><span style=\"font-family:Calibri,sans-serif\"><span style=\"font-size:12.0pt\"><span style=\"font-family:&quot;Times New Roman&quot;,serif\">Ознакомьтесь с информацией, предоставленной менеджером КС, на форме, а также с информацией по брифу в области &quot;Основная информация&quot;, во вкладке &quot;Бриф&quot;.<br/>\nПожалуйста, заполните все необходимые и обязательные поля:</span></span></span></span></span></p> <ul> <li><span style=\"font-size:11pt\"><span><span><span style=\"font-family:Calibri,sans-serif\"><span style=\"font-size:12.0pt\"><span style=\"font-family:&quot;Times New Roman&quot;,serif\">ответ на вопрос: &quot;Срок подтвержден?&quot;</span></span></span></span></span></span></li> <li><span style=\"font-size:11pt\"><span><span><span style=\"font-family:Calibri,sans-serif\"><span style=\"font-size:12.0pt\"><span style=\"font-family:&quot;Times New Roman&quot;,serif\">Ответственный за финальную сборку.</span></span></span></span></span></span></li>\n</ul> <p><span style=\"font-size:11pt\"><span><span style=\"font-family:Calibri,sans-serif\"><span style=\"font-size:12.0pt\"><span style=\"font-family:&quot;Times New Roman&quot;,serif\">На форме задачи Вы можете запросить тактическую часть с помощью кнопки &quot;Запросить тактическую&nbsp;часть&quot;.</span></span></span></span></span></p> <p><span style=\"font-size:11pt\"><span><span style=\"font-family:Calibri,sans-serif\"><u><span style=\"font-size:12.0pt\"><span style=\"font-family:&quot;Times New Roman&quot;,serif\">Примечание 1:</span></span></u><span style=\"font-size:12.0pt\"><span style=\"font-family:&quot;Times New Roman&quot;,serif\">&nbsp;при запросе тактической части - не завершайте задачу, т.к. Вы отправили запрос и необходимо дождаться ответа, который будет в этой форме.&nbsp;Вы можете сохранить задачу и вернуться к ней позднее.</span></span></span></span></span></p> <p><span style=\"font-size:11pt\"><span><span style=\"font-family:Calibri,sans-serif\"><span style=\"font-size:12.0pt\"><span style=\"font-family:&quot;Times New Roman&quot;,serif\">После выполнения всех необходимых действий, нажмите на кнопку &quot;Завершить задачу&quot;, которая находится сверху формы.</span></span></span></span></span></p> <p><span style=\"font-size:11pt\"><span><span style=\"font-family:Calibri,sans-serif\"><u><span style=\"font-size:12.0pt\"><span style=\"font-family:&quot;Times New Roman&quot;,serif\">Примечание 2:</span></span></u><span style=\"font-size:12.0pt\"><span style=\"font-family:&quot;Times New Roman&quot;,serif\"> при нажатии на кнопку &ldquo;Сохранить&rdquo; &ndash; Вы сохраните данные на форме, но Ваша задача останется незавершенной, процесс&nbsp;не пойдет дальше. ​​​​​​​</span></span></span></span></span></p>\n",
                        "De": "<p><span style=\"font-size:11pt\"><span><span style=\"font-family:Calibri,sans-serif\"><span style=\"font-size:12.0pt\"><span style=\"font-family:&quot;Times New Roman&quot;,serif\">Вам пришла задача для разработки стратегии.</span></span></span></span></span></p> <p><span style=\"font-size:11pt\"><span><span style=\"font-family:Calibri,sans-serif\"><span style=\"font-size:12.0pt\"><span style=\"font-family:&quot;Times New Roman&quot;,serif\">Ознакомьтесь с информацией, предоставленной менеджером КС, на форме, а также с информацией по брифу в области &quot;Основная информация&quot;, во вкладке &quot;Бриф&quot;.<br/>\nПожалуйста, заполните все необходимые и обязательные поля:</span></span></span></span></span></p> <ul> <li><span style=\"font-size:11pt\"><span><span><span style=\"font-family:Calibri,sans-serif\"><span style=\"font-size:12.0pt\"><span style=\"font-family:&quot;Times New Roman&quot;,serif\">ответ на вопрос: &quot;Срок подтвержден?&quot;</span></span></span></span></span></span></li> <li><span style=\"font-size:11pt\"><span><span><span style=\"font-family:Calibri,sans-serif\"><span style=\"font-size:12.0pt\"><span style=\"font-family:&quot;Times New Roman&quot;,serif\">Ответственный за финальную сборку.</span></span></span></span></span></span></li>\n</ul> <p><span style=\"font-size:11pt\"><span><span style=\"font-family:Calibri,sans-serif\"><span style=\"font-size:12.0pt\"><span style=\"font-family:&quot;Times New Roman&quot;,serif\">На форме задачи Вы можете запросить тактическую часть с помощью кнопки &quot;Запросить тактическую&nbsp;часть&quot;.</span></span></span></span></span></p> <p><span style=\"font-size:11pt\"><span><span style=\"font-family:Calibri,sans-serif\"><u><span style=\"font-size:12.0pt\"><span style=\"font-family:&quot;Times New Roman&quot;,serif\">Примечание 1:</span></span></u><span style=\"font-size:12.0pt\"><span style=\"font-family:&quot;Times New Roman&quot;,serif\">&nbsp;при запросе тактической части - не завершайте задачу, т.к. Вы отправили запрос и необходимо дождаться ответа, который будет в этой форме.&nbsp;Вы можете сохранить задачу и вернуться к ней позднее.</span></span></span></span></span></p> <p><span style=\"font-size:11pt\"><span><span style=\"font-family:Calibri,sans-serif\"><span style=\"font-size:12.0pt\"><span style=\"font-family:&quot;Times New Roman&quot;,serif\">После выполнения всех необходимых действий, нажмите на кнопку &quot;Завершить задачу&quot;, которая находится сверху формы.</span></span></span></span></span></p> <p><span style=\"font-size:11pt\"><span><span style=\"font-family:Calibri,sans-serif\"><u><span style=\"font-size:12.0pt\"><span style=\"font-family:&quot;Times New Roman&quot;,serif\">Примечание 2:</span></span></u><span style=\"font-size:12.0pt\"><span style=\"font-family:&quot;Times New Roman&quot;,serif\"> при нажатии на кнопку &ldquo;Сохранить&rdquo; &ndash; Вы сохраните данные на форме, но Ваша задача останется незавершенной, процесс&nbsp;не пойдет дальше. ​​​​​​​</span></span></span></span></span></p>\n",
                        "Ru": "<p><span style=\"font-size:11pt\"><span><span style=\"font-family:Calibri,sans-serif\"><span style=\"font-size:12.0pt\"><span style=\"font-family:&quot;Times New Roman&quot;,serif\">Вам пришла задача для разработки стратегии.</span></span></span></span></span></p> <p><span style=\"font-size:11pt\"><span><span style=\"font-family:Calibri,sans-serif\"><span style=\"font-size:12.0pt\"><span style=\"font-family:&quot;Times New Roman&quot;,serif\">Ознакомьтесь с информацией, предоставленной менеджером КС, на форме, а также с информацией по брифу в области &quot;Основная информация&quot;, во вкладке &quot;Бриф&quot;.<br/>\nПожалуйста, заполните все необходимые и обязательные поля:</span></span></span></span></span></p> <ul> <li><span style=\"font-size:11pt\"><span><span><span style=\"font-family:Calibri,sans-serif\"><span style=\"font-size:12.0pt\"><span style=\"font-family:&quot;Times New Roman&quot;,serif\">ответ на вопрос: &quot;Срок подтвержден?&quot;</span></span></span></span></span></span></li> <li><span style=\"font-size:11pt\"><span><span><span style=\"font-family:Calibri,sans-serif\"><span style=\"font-size:12.0pt\"><span style=\"font-family:&quot;Times New Roman&quot;,serif\">Ответственный за финальную сборку.</span></span></span></span></span></span></li>\n</ul> <p><span style=\"font-size:11pt\"><span><span style=\"font-family:Calibri,sans-serif\"><span style=\"font-size:12.0pt\"><span style=\"font-family:&quot;Times New Roman&quot;,serif\">На форме задачи Вы можете запросить тактическую часть с помощью кнопки &quot;Запросить тактическую&nbsp;часть&quot;.</span></span></span></span></span></p> <p><span style=\"font-size:11pt\"><span><span style=\"font-family:Calibri,sans-serif\"><u><span style=\"font-size:12.0pt\"><span style=\"font-family:&quot;Times New Roman&quot;,serif\">Примечание 1:</span></span></u><span style=\"font-size:12.0pt\"><span style=\"font-family:&quot;Times New Roman&quot;,serif\">&nbsp;при запросе тактической части - не завершайте задачу, т.к. Вы отправили запрос и необходимо дождаться ответа, который будет в этой форме.&nbsp;Вы можете сохранить задачу и вернуться к ней позднее.</span></span></span></span></span></p> <p><span style=\"font-size:11pt\"><span><span style=\"font-family:Calibri,sans-serif\"><span style=\"font-size:12.0pt\"><span style=\"font-family:&quot;Times New Roman&quot;,serif\">После выполнения всех необходимых действий, нажмите на кнопку &quot;Завершить задачу&quot;, которая находится сверху формы.</span></span></span></span></span></p> <p><span style=\"font-size:11pt\"><span><span style=\"font-family:Calibri,sans-serif\"><u><span style=\"font-size:12.0pt\"><span style=\"font-family:&quot;Times New Roman&quot;,serif\">Примечание 2:</span></span></u><span style=\"font-size:12.0pt\"><span style=\"font-family:&quot;Times New Roman&quot;,serif\"> при нажатии на кнопку &ldquo;Сохранить&rdquo; &ndash; Вы сохраните данные на форме, но Ваша задача останется незавершенной, процесс&nbsp;не пойдет дальше. ​​​​​​​</span></span></span></span></span></p>\n"
                      },
                      "GlobalAlias": {
                        "$type": "Comindware.Platform.Contracts.GlobalAlias, Comindware.Platform.Contracts",
                        "Type": "FormComponent",
                        "Alias": "StaticContentComponent"
                      },
                      "AccessType": "Undefined",
                      "Width": 0,
                      "Type": "StaticContent"
                    }
                  ]
                },
                "GlobalAlias": {
                  "$type": "Comindware.Platform.Contracts.GlobalAlias, Comindware.Platform.Contracts",
                  "Type": "FormComponent",
                  "Alias": "VerticalLayout"
                },
                "AccessType": "Undefined",
                "Width": 0,
                "Type": "VerticalLayout"
              }
            ]
          },
          "GlobalAlias": {
            "$type": "Comindware.Platform.Contracts.GlobalAlias, Comindware.Platform.Contracts",
            "Type": "FormComponent",
            "Alias": "GroupPanelComponent"
          },
          "AccessType": "Editable",
          "Width": 100,
          "Type": "PanelModel"
        }
      ]
    },
    "GlobalAlias": {
      "$type": "Comindware.Platform.Contracts.GlobalAlias, Comindware.Platform.Contracts",
      "Type": "FormComponent",
      "Alias": "root"
    },
    "AccessType": "Undefined",
    "Width": 0,
    "Type": "VerticalLayout"
  },
  "Name": "Форма-инструкция для ПЗ Разработать стратегию",
  "Origination": "Undefined"
}