{
  "$type": "Comindware.Platform.Contracts.FormModel, Comindware.Platform.Contracts",
  "GlobalAlias": {
    "$type": "Comindware.Platform.Contracts.GlobalAlias, Comindware.Platform.Contracts",
    "Type": "Form",
    "Owner": "Mediaplany",
    "Alias": "Formadlyaproverkifinalnogomediaplanatrafikom"
  },
  "Type": "InternalForm",
  "IsDefault": false,
  "Root": {
    "$type": "Comindware.Platform.Contracts.VerticalLayoutModel, Comindware.Platform.Contracts",
    "Rows": {
      "$type": "System.Collections.Generic.List`1[[Comindware.Platform.Contracts.FormComponentModel, Comindware.Platform.Contracts]], mscorlib",
      "$values": [
        {
          "$type": "Comindware.Platform.Contracts.PanelModel, Comindware.Platform.Contracts",
          "Text": {
            "$type": "Comindware.Platform.Contracts.LocalizedTextModel, Comindware.Platform.Contracts",
            "En": "Информация для Трафика",
            "De": "Информация для Трафика",
            "Ru": "Информация для Трафика"
          },
          "OriginalType": "GroupPanel",
          "Rows": {
            "$type": "System.Collections.Generic.List`1[[Comindware.Platform.Contracts.FormComponentModel, Comindware.Platform.Contracts]], mscorlib",
            "$values": [
              {
                "$type": "Comindware.Platform.Contracts.VerticalLayoutModel, Comindware.Platform.Contracts",
                "Rows": {
                  "$type": "System.Collections.Generic.List`1[[Comindware.Platform.Contracts.FormComponentModel, Comindware.Platform.Contracts]], mscorlib",
                  "$values": [
                    {
                      "$type": "Comindware.Platform.Contracts.StaticContentModel, Comindware.Platform.Contracts",
                      "Content": {
                        "$type": "Comindware.Platform.Contracts.LocalizedTextModel, Comindware.Platform.Contracts",
                        "En": "<p>Вам пришла задача для проверки финального медиаплана,</p> <p>Ознакомьтесь с финальным медиапланом и нажмите рядом с файлом на кнопку &quot;Проверить медиаплан&quot;.</p> <p><strong>ВАЖНО</strong>: перед нажатием на кнопку &quot;Проверить медиаплан&quot; сохраните форму, нажав на&nbsp;кнопку &quot;Сохранить&quot; сверху слева.</p> <p>При обнаружении системой ошибок - Вы увидите&nbsp;&quot;Ошибки при проверке МП&quot; в правом нижнем углу странице&nbsp;в небольшом зеленом поле.</p> <p>После выполнения всех необходимых действий, нажмите на кнопку &quot;Завершить задачу&quot;, которая находится сверху формы.</p>\n",
                        "De": "<p>Вам пришла задача для проверки финального медиаплана,</p> <p>Ознакомьтесь с финальным медиапланом и нажмите рядом с файлом на кнопку &quot;Проверить медиаплан&quot;.</p> <p><strong>ВАЖНО</strong>: перед нажатием на кнопку &quot;Проверить медиаплан&quot; сохраните форму, нажав на&nbsp;кнопку &quot;Сохранить&quot; сверху слева.</p> <p>При обнаружении системой ошибок - Вы увидите&nbsp;&quot;Ошибки при проверке МП&quot; в правом нижнем углу странице&nbsp;в небольшом зеленом поле.</p> <p>После выполнения всех необходимых действий, нажмите на кнопку &quot;Завершить задачу&quot;, которая находится сверху формы.</p>\n",
                        "Ru": "<p>Вам пришла задача для проверки финального медиаплана,</p> <p>Ознакомьтесь с финальным медиапланом и нажмите рядом с файлом на кнопку &quot;Проверить медиаплан&quot;.</p> <p><strong>ВАЖНО</strong>: перед нажатием на кнопку &quot;Проверить медиаплан&quot; сохраните форму, нажав на&nbsp;кнопку &quot;Сохранить&quot; сверху слева.</p> <p>При обнаружении системой ошибок - Вы увидите&nbsp;&quot;Ошибки при проверке МП&quot; в правом нижнем углу странице&nbsp;в небольшом зеленом поле.</p> <p>После выполнения всех необходимых действий, нажмите на кнопку &quot;Завершить задачу&quot;, которая находится сверху формы.</p>\n"
                      },
                      "GlobalAlias": {
                        "$type": "Comindware.Platform.Contracts.GlobalAlias, Comindware.Platform.Contracts",
                        "Type": "FormComponent",
                        "Alias": "StaticContentComponent"
                      },
                      "AccessType": "Undefined",
                      "Width": 0,
                      "Type": "StaticContent"
                    }
                  ]
                },
                "GlobalAlias": {
                  "$type": "Comindware.Platform.Contracts.GlobalAlias, Comindware.Platform.Contracts",
                  "Type": "FormComponent",
                  "Alias": "VerticalLayout2"
                },
                "AccessType": "Undefined",
                "Width": 0,
                "Type": "VerticalLayout"
              }
            ]
          },
          "GlobalAlias": {
            "$type": "Comindware.Platform.Contracts.GlobalAlias, Comindware.Platform.Contracts",
            "Type": "FormComponent",
            "Alias": "GroupPanelComponent2"
          },
          "AccessType": "Editable",
          "Width": 100,
          "Type": "PanelModel",
          "Toolbar": {
            "$type": "System.Nullable`1[[Comindware.Platform.Contracts.GlobalAlias, Comindware.Platform.Contracts]], mscorlib",
            "Type": "Toolbar",
            "Owner": "Mediaplany",
            "Alias": "toolbareda63ffbb0964a498fc478b46275b1a7"
          }
        },
        {
          "$type": "Comindware.Platform.Contracts.PanelModel, Comindware.Platform.Contracts",
          "Text": {
            "$type": "Comindware.Platform.Contracts.LocalizedTextModel, Comindware.Platform.Contracts",
            "En": "Информация по задаче",
            "De": "Информация по задаче",
            "Ru": "Информация по задаче"
          },
          "OriginalType": "GroupPanel",
          "Rows": {
            "$type": "System.Collections.Generic.List`1[[Comindware.Platform.Contracts.FormComponentModel, Comindware.Platform.Contracts]], mscorlib",
            "$values": [
              {
                "$type": "Comindware.Platform.Contracts.VerticalLayoutModel, Comindware.Platform.Contracts",
                "Rows": {
                  "$type": "System.Collections.Generic.List`1[[Comindware.Platform.Contracts.FormComponentModel, Comindware.Platform.Contracts]], mscorlib",
                  "$values": [
                    {
                      "$type": "Comindware.Platform.Contracts.LayoutModel, Comindware.Platform.Contracts",
                      "Components": {
                        "$type": "System.Collections.Generic.List`1[[Comindware.Platform.Contracts.FormComponentModel, Comindware.Platform.Contracts]], mscorlib",
                        "$values": [
                          {
                            "$type": "Comindware.Platform.Contracts.VerticalLayoutModel, Comindware.Platform.Contracts",
                            "Rows": {
                              "$type": "System.Collections.Generic.List`1[[Comindware.Platform.Contracts.FormComponentModel, Comindware.Platform.Contracts]], mscorlib",
                              "$values": [
                                {
                                  "$type": "Comindware.Platform.Contracts.FieldComponentModel, Comindware.Platform.Contracts",
                                  "Label": {
                                    "$type": "Comindware.Platform.Contracts.LabelModel, Comindware.Platform.Contracts",
                                    "Hidden": false,
                                    "Alignment": "Top",
                                    "Text": {
                                      "$type": "Comindware.Platform.Contracts.LocalizedTextModel, Comindware.Platform.Contracts",
                                      "En": "Финальный медиаплан",
                                      "De": "Финальный медиаплан",
                                      "Ru": "Финальный медиаплан"
                                    }
                                  },
                                  "FieldType": "Document",
                                  "Placeholder": {
                                    "$type": "Comindware.Platform.Contracts.LocalizedTextModel, Comindware.Platform.Contracts"
                                  },
                                  "HelpText": {
                                    "$type": "Comindware.Platform.Contracts.LocalizedTextModel, Comindware.Platform.Contracts"
                                  },
                                  "PropertyPath": {
                                    "$type": "Comindware.Platform.Contracts.GlobalAlias[], Comindware.Platform.Contracts",
                                    "$values": [
                                      {
                                        "$type": "Comindware.Platform.Contracts.GlobalAlias, Comindware.Platform.Contracts",
                                        "Type": "Attribute",
                                        "Owner": "Mediaplany",
                                        "Alias": "Finalnyymediaplandootkrutki"
                                      }
                                    ]
                                  },
                                  "EditorType": "Radio",
                                  "CreationType": "None",
                                  "RemovalType": "Delete",
                                  "EditType": "None",
                                  "ChildPropertyAlias": {
                                    "$type": "Comindware.Platform.Contracts.GlobalAlias, Comindware.Platform.Contracts",
                                    "Type": "Undefined"
                                  },
                                  "OrderPropertyAlias": {
                                    "$type": "Comindware.Platform.Contracts.GlobalAlias, Comindware.Platform.Contracts",
                                    "Type": "Undefined"
                                  },
                                  "NumberPropertyAlias": {
                                    "$type": "Comindware.Platform.Contracts.GlobalAlias, Comindware.Platform.Contracts",
                                    "Type": "Undefined"
                                  },
                                  "PrecedentPropertyAlias": {
                                    "$type": "Comindware.Platform.Contracts.GlobalAlias, Comindware.Platform.Contracts",
                                    "Type": "Undefined"
                                  },
                                  "SortingDirection": "Asc",
                                  "MaxCount": 0,
                                  "PopupFormAlias": {
                                    "$type": "Comindware.Platform.Contracts.GlobalAlias, Comindware.Platform.Contracts",
                                    "Type": "Undefined"
                                  },
                                  "DisplayFormat": "ShowAsPicture",
                                  "GlobalAlias": {
                                    "$type": "Comindware.Platform.Contracts.GlobalAlias, Comindware.Platform.Contracts",
                                    "Type": "FormComponent",
                                    "Alias": "Finalnyymediaplandootkrutki"
                                  },
                                  "AccessType": "Required",
                                  "Width": 0,
                                  "Type": "FieldComponent"
                                },
                                {
                                  "$type": "Comindware.Platform.Contracts.FieldComponentModel, Comindware.Platform.Contracts",
                                  "Label": {
                                    "$type": "Comindware.Platform.Contracts.LabelModel, Comindware.Platform.Contracts",
                                    "Hidden": false,
                                    "Alignment": "Top",
                                    "Text": {
                                      "$type": "Comindware.Platform.Contracts.LocalizedTextModel, Comindware.Platform.Contracts",
                                      "En": "Финальный медиаплан согласован?",
                                      "De": "Финальный медиаплан согласован?",
                                      "Ru": "Финальный медиаплан согласован?"
                                    }
                                  },
                                  "FieldType": "Boolean",
                                  "Placeholder": {
                                    "$type": "Comindware.Platform.Contracts.LocalizedTextModel, Comindware.Platform.Contracts"
                                  },
                                  "HelpText": {
                                    "$type": "Comindware.Platform.Contracts.LocalizedTextModel, Comindware.Platform.Contracts"
                                  },
                                  "PropertyPath": {
                                    "$type": "Comindware.Platform.Contracts.GlobalAlias[], Comindware.Platform.Contracts",
                                    "$values": [
                                      {
                                        "$type": "Comindware.Platform.Contracts.GlobalAlias, Comindware.Platform.Contracts",
                                        "Type": "Attribute",
                                        "Owner": "Mediaplany",
                                        "Alias": "Finalnyymediaplansoglasovan"
                                      }
                                    ]
                                  },
                                  "TrueText": {
                                    "$type": "Comindware.Platform.Contracts.LocalizedTextModel, Comindware.Platform.Contracts",
                                    "En": "Да",
                                    "De": "Да",
                                    "Ru": "Да"
                                  },
                                  "FalseText": {
                                    "$type": "Comindware.Platform.Contracts.LocalizedTextModel, Comindware.Platform.Contracts",
                                    "En": "Отправить на доработку",
                                    "De": "Отправить на доработку",
                                    "Ru": "Отправить на доработку"
                                  },
                                  "UseTrueFalseText": true,
                                  "EditorType": "Radio",
                                  "CreationType": "None",
                                  "RemovalType": "None",
                                  "EditType": "None",
                                  "ChildPropertyAlias": {
                                    "$type": "Comindware.Platform.Contracts.GlobalAlias, Comindware.Platform.Contracts",
                                    "Type": "Undefined"
                                  },
                                  "OrderPropertyAlias": {
                                    "$type": "Comindware.Platform.Contracts.GlobalAlias, Comindware.Platform.Contracts",
                                    "Type": "Undefined"
                                  },
                                  "NumberPropertyAlias": {
                                    "$type": "Comindware.Platform.Contracts.GlobalAlias, Comindware.Platform.Contracts",
                                    "Type": "Undefined"
                                  },
                                  "PrecedentPropertyAlias": {
                                    "$type": "Comindware.Platform.Contracts.GlobalAlias, Comindware.Platform.Contracts",
                                    "Type": "Undefined"
                                  },
                                  "SortingDirection": "Asc",
                                  "PopupFormAlias": {
                                    "$type": "Comindware.Platform.Contracts.GlobalAlias, Comindware.Platform.Contracts",
                                    "Type": "Undefined"
                                  },
                                  "DisplayFormat": "ShowAsPicture",
                                  "GlobalAlias": {
                                    "$type": "Comindware.Platform.Contracts.GlobalAlias, Comindware.Platform.Contracts",
                                    "Type": "FormComponent",
                                    "Alias": "Finalnyymediaplansoglasovan"
                                  },
                                  "AccessType": "Required",
                                  "Width": 0,
                                  "Type": "FieldComponent"
                                },
                                {
                                  "$type": "Comindware.Platform.Contracts.FieldComponentModel, Comindware.Platform.Contracts",
                                  "Label": {
                                    "$type": "Comindware.Platform.Contracts.LabelModel, Comindware.Platform.Contracts",
                                    "Hidden": false,
                                    "Alignment": "Top",
                                    "Text": {
                                      "$type": "Comindware.Platform.Contracts.LocalizedTextModel, Comindware.Platform.Contracts",
                                      "En": "Комментарий к доработке:",
                                      "De": "Комментарий к доработке:",
                                      "Ru": "Комментарий к доработке:"
                                    }
                                  },
                                  "FieldType": "Text",
                                  "Placeholder": {
                                    "$type": "Comindware.Platform.Contracts.LocalizedTextModel, Comindware.Platform.Contracts"
                                  },
                                  "HelpText": {
                                    "$type": "Comindware.Platform.Contracts.LocalizedTextModel, Comindware.Platform.Contracts"
                                  },
                                  "PropertyPath": {
                                    "$type": "Comindware.Platform.Contracts.GlobalAlias[], Comindware.Platform.Contracts",
                                    "$values": [
                                      {
                                        "$type": "Comindware.Platform.Contracts.GlobalAlias, Comindware.Platform.Contracts",
                                        "Type": "Attribute",
                                        "Owner": "Mediaplany",
                                        "Alias": "Kommentariykdorabotke"
                                      }
                                    ]
                                  },
                                  "TextHeight": 0,
                                  "TextHeightAuto": false,
                                  "MaxLength": 0,
                                  "EditorType": "Simple",
                                  "CreationType": "None",
                                  "RemovalType": "None",
                                  "EditType": "None",
                                  "ChildPropertyAlias": {
                                    "$type": "Comindware.Platform.Contracts.GlobalAlias, Comindware.Platform.Contracts",
                                    "Type": "Undefined"
                                  },
                                  "OrderPropertyAlias": {
                                    "$type": "Comindware.Platform.Contracts.GlobalAlias, Comindware.Platform.Contracts",
                                    "Type": "Undefined"
                                  },
                                  "NumberPropertyAlias": {
                                    "$type": "Comindware.Platform.Contracts.GlobalAlias, Comindware.Platform.Contracts",
                                    "Type": "Undefined"
                                  },
                                  "PrecedentPropertyAlias": {
                                    "$type": "Comindware.Platform.Contracts.GlobalAlias, Comindware.Platform.Contracts",
                                    "Type": "Undefined"
                                  },
                                  "SortingDirection": "Asc",
                                  "PopupFormAlias": {
                                    "$type": "Comindware.Platform.Contracts.GlobalAlias, Comindware.Platform.Contracts",
                                    "Type": "Undefined"
                                  },
                                  "DisplayFormat": "ShowAsPicture",
                                  "GlobalAlias": {
                                    "$type": "Comindware.Platform.Contracts.GlobalAlias, Comindware.Platform.Contracts",
                                    "Type": "FormComponent",
                                    "Alias": "Kommentariykdorabotke"
                                  },
                                  "AccessType": "Hidden",
                                  "Width": 0,
                                  "Type": "FieldComponent"
                                }
                              ]
                            },
                            "GlobalAlias": {
                              "$type": "Comindware.Platform.Contracts.GlobalAlias, Comindware.Platform.Contracts",
                              "Type": "FormComponent",
                              "Alias": "VerticalLayout6"
                            },
                            "AccessType": "Undefined",
                            "Width": 50,
                            "Type": "VerticalLayout"
                          },
                          {
                            "$type": "Comindware.Platform.Contracts.VerticalLayoutModel, Comindware.Platform.Contracts",
                            "Rows": {
                              "$type": "System.Collections.Generic.List`1[[Comindware.Platform.Contracts.FormComponentModel, Comindware.Platform.Contracts]], mscorlib",
                              "$values": [
                                {
                                  "$type": "Comindware.Platform.Contracts.FieldComponentModel, Comindware.Platform.Contracts",
                                  "Label": {
                                    "$type": "Comindware.Platform.Contracts.LabelModel, Comindware.Platform.Contracts",
                                    "Hidden": false,
                                    "Alignment": "Top",
                                    "Text": {
                                      "$type": "Comindware.Platform.Contracts.LocalizedTextModel, Comindware.Platform.Contracts",
                                      "En": "Ошибки при проверке МП",
                                      "De": "Ошибки при проверке МП",
                                      "Ru": "Ошибки при проверке МП"
                                    }
                                  },
                                  "FieldType": "Text",
                                  "Placeholder": {
                                    "$type": "Comindware.Platform.Contracts.LocalizedTextModel, Comindware.Platform.Contracts"
                                  },
                                  "HelpText": {
                                    "$type": "Comindware.Platform.Contracts.LocalizedTextModel, Comindware.Platform.Contracts"
                                  },
                                  "PropertyPath": {
                                    "$type": "Comindware.Platform.Contracts.GlobalAlias[], Comindware.Platform.Contracts",
                                    "$values": [
                                      {
                                        "$type": "Comindware.Platform.Contracts.GlobalAlias, Comindware.Platform.Contracts",
                                        "Type": "Attribute",
                                        "Owner": "Mediaplany",
                                        "Alias": "OshibkipriproverkeMP"
                                      }
                                    ]
                                  },
                                  "TextHeight": 0,
                                  "TextHeightAuto": false,
                                  "MaxLength": 0,
                                  "EditorType": "Multiline",
                                  "CreationType": "None",
                                  "RemovalType": "None",
                                  "EditType": "None",
                                  "ChildPropertyAlias": {
                                    "$type": "Comindware.Platform.Contracts.GlobalAlias, Comindware.Platform.Contracts",
                                    "Type": "Undefined"
                                  },
                                  "OrderPropertyAlias": {
                                    "$type": "Comindware.Platform.Contracts.GlobalAlias, Comindware.Platform.Contracts",
                                    "Type": "Undefined"
                                  },
                                  "NumberPropertyAlias": {
                                    "$type": "Comindware.Platform.Contracts.GlobalAlias, Comindware.Platform.Contracts",
                                    "Type": "Undefined"
                                  },
                                  "PrecedentPropertyAlias": {
                                    "$type": "Comindware.Platform.Contracts.GlobalAlias, Comindware.Platform.Contracts",
                                    "Type": "Undefined"
                                  },
                                  "SortingDirection": "Asc",
                                  "PopupFormAlias": {
                                    "$type": "Comindware.Platform.Contracts.GlobalAlias, Comindware.Platform.Contracts",
                                    "Type": "Undefined"
                                  },
                                  "DisplayFormat": "ShowAsPicture",
                                  "GlobalAlias": {
                                    "$type": "Comindware.Platform.Contracts.GlobalAlias, Comindware.Platform.Contracts",
                                    "Type": "FormComponent",
                                    "Alias": "OshibkipriproverkeMP"
                                  },
                                  "AccessType": "Hidden",
                                  "Width": 0,
                                  "Type": "FieldComponent"
                                }
                              ]
                            },
                            "GlobalAlias": {
                              "$type": "Comindware.Platform.Contracts.GlobalAlias, Comindware.Platform.Contracts",
                              "Type": "FormComponent",
                              "Alias": "VerticalLayout3"
                            },
                            "AccessType": "Undefined",
                            "Width": 50,
                            "Type": "VerticalLayout"
                          }
                        ]
                      },
                      "OriginalType": "HorizontalLayout",
                      "GlobalAlias": {
                        "$type": "Comindware.Platform.Contracts.GlobalAlias, Comindware.Platform.Contracts",
                        "Type": "FormComponent",
                        "Alias": "HorizontalLayout"
                      },
                      "AccessType": "Undefined",
                      "Width": 0,
                      "Type": "LayoutModel"
                    }
                  ]
                },
                "GlobalAlias": {
                  "$type": "Comindware.Platform.Contracts.GlobalAlias, Comindware.Platform.Contracts",
                  "Type": "FormComponent",
                  "Alias": "VerticalLayout"
                },
                "AccessType": "Undefined",
                "Width": 0,
                "Type": "VerticalLayout"
              }
            ]
          },
          "GlobalAlias": {
            "$type": "Comindware.Platform.Contracts.GlobalAlias, Comindware.Platform.Contracts",
            "Type": "FormComponent",
            "Alias": "GroupPanelComponent"
          },
          "AccessType": "Editable",
          "Width": 100,
          "Type": "PanelModel",
          "Toolbar": {
            "$type": "System.Nullable`1[[Comindware.Platform.Contracts.GlobalAlias, Comindware.Platform.Contracts]], mscorlib",
            "Type": "Toolbar",
            "Owner": "Mediaplany",
            "Alias": "toolbar5bab8c42d67e473bb129e5879bfacea2"
          }
        },
        {
          "$type": "Comindware.Platform.Contracts.SubFormModel, Comindware.Platform.Contracts",
          "Name": "! Стартовая форма",
          "DataSourcePropertyPath": {
            "$type": "Comindware.Platform.Contracts.GlobalAlias[], Comindware.Platform.Contracts",
            "$values": [
              {
                "$type": "Comindware.Platform.Contracts.GlobalAlias, Comindware.Platform.Contracts",
                "Type": "Form",
                "Owner": "Mediaplany",
                "Alias": "Startovayaforma"
              }
            ]
          },
          "GlobalAlias": {
            "$type": "Comindware.Platform.Contracts.GlobalAlias, Comindware.Platform.Contracts",
            "Type": "FormComponent",
            "Alias": "Startovayaforma"
          },
          "AccessType": "Readonly",
          "Width": 0,
          "Type": "SubForm"
        },
        {
          "$type": "Comindware.Platform.Contracts.SubFormModel, Comindware.Platform.Contracts",
          "Name": "МП - Дополнительная информация по МП",
          "DataSourcePropertyPath": {
            "$type": "Comindware.Platform.Contracts.GlobalAlias[], Comindware.Platform.Contracts",
            "$values": [
              {
                "$type": "Comindware.Platform.Contracts.GlobalAlias, Comindware.Platform.Contracts",
                "Type": "Form",
                "Owner": "Mediaplany",
                "Alias": "PRESSAOsnovnayaforma"
              }
            ]
          },
          "GlobalAlias": {
            "$type": "Comindware.Platform.Contracts.GlobalAlias, Comindware.Platform.Contracts",
            "Type": "FormComponent",
            "Alias": "PRESSAOsnovnayaforma"
          },
          "AccessType": "Editable",
          "Width": 0,
          "Type": "SubForm"
        }
      ]
    },
    "GlobalAlias": {
      "$type": "Comindware.Platform.Contracts.GlobalAlias, Comindware.Platform.Contracts",
      "Type": "FormComponent",
      "Alias": "root"
    },
    "AccessType": "Undefined",
    "Width": 0,
    "Type": "VerticalLayout"
  },
  "Name": "Форма для проверки финального медиаплана трафиком",
  "FormRules": {
    "$type": "System.Collections.Generic.List`1[[Comindware.Platform.Contracts.FormRuleModel, Comindware.Platform.Contracts]], mscorlib",
    "$values": [
      {
        "$type": "Comindware.Platform.Contracts.FormRuleModel, Comindware.Platform.Contracts",
        "RuleName": "Правило",
        "ConditionExpression": "",
        "Actions": {
          "$type": "System.Collections.Generic.List`1[[Comindware.Platform.Contracts.RuleActionModel, Comindware.Platform.Contracts]], mscorlib",
          "$values": [
            {
              "$type": "Comindware.Platform.Contracts.RuleActionModel, Comindware.Platform.Contracts",
              "GlobalAlias": {
                "$type": "Comindware.Platform.Contracts.GlobalAlias, Comindware.Platform.Contracts",
                "Type": "FormComponent",
                "Owner": "Formadlyaproverkifinalnogomediaplanatrafikom",
                "Alias": "OshibkipriproverkeMP"
              },
              "Type": "SetAccessType",
              "ValueExpression": "CONST('Readonly')",
              "ConditionExpression": "NOT(EMPTY($OshibkipriproverkeMP))",
              "Severity": "Error"
            },
            {
              "$type": "Comindware.Platform.Contracts.RuleActionModel, Comindware.Platform.Contracts",
              "GlobalAlias": {
                "$type": "Comindware.Platform.Contracts.GlobalAlias, Comindware.Platform.Contracts",
                "Type": "FormComponent",
                "Owner": "Formadlyaproverkifinalnogomediaplanatrafikom",
                "Alias": "Kommentariykdorabotke"
              },
              "Type": "SetAccessType",
              "ValueExpression": "CONST('Required')",
              "ConditionExpression": "$Finalnyymediaplansoglasovan == false",
              "Severity": "Error"
            }
          ]
        }
      }
    ]
  },
  "Origination": "Undefined"
}