{
  "$type": "Comindware.Platform.Contracts.FormModel, Comindware.Platform.Contracts",
  "GlobalAlias": {
    "$type": "Comindware.Platform.Contracts.GlobalAlias, Comindware.Platform.Contracts",
    "Type": "Form",
    "Owner": "Mediaplany",
    "Alias": "form59082"
  },
  "Type": "PublicForm",
  "IsDefault": false,
  "Root": {
    "$type": "Comindware.Platform.Contracts.VerticalLayoutModel, Comindware.Platform.Contracts",
    "Rows": {
      "$type": "System.Collections.Generic.List`1[[Comindware.Platform.Contracts.FormComponentModel, Comindware.Platform.Contracts]], mscorlib",
      "$values": [
        {
          "$type": "Comindware.Platform.Contracts.PanelModel, Comindware.Platform.Contracts",
          "Text": {
            "$type": "Comindware.Platform.Contracts.LocalizedTextModel, Comindware.Platform.Contracts",
            "En": "Информация для менеджера КС",
            "De": "Информация для менеджера КС",
            "Ru": "Информация для менеджера КС"
          },
          "OriginalType": "GroupPanel",
          "Rows": {
            "$type": "System.Collections.Generic.List`1[[Comindware.Platform.Contracts.FormComponentModel, Comindware.Platform.Contracts]], mscorlib",
            "$values": [
              {
                "$type": "Comindware.Platform.Contracts.VerticalLayoutModel, Comindware.Platform.Contracts",
                "Rows": {
                  "$type": "System.Collections.Generic.List`1[[Comindware.Platform.Contracts.FormComponentModel, Comindware.Platform.Contracts]], mscorlib",
                  "$values": [
                    {
                      "$type": "Comindware.Platform.Contracts.StaticContentModel, Comindware.Platform.Contracts",
                      "Content": {
                        "$type": "Comindware.Platform.Contracts.LocalizedTextModel, Comindware.Platform.Contracts",
                        "En": "<p>Вам пришла задача по запросу расчета утвержденного медиаплана в баинг.</p> <p>Пожалуйста заполните все необходимые поля и нажмите кнопку &quot;Завершить задачу&quot;.</p>\n",
                        "De": "<p>Вам пришла задача по запросу расчета утвержденного медиаплана в баинг.</p> <p>Пожалуйста заполните все необходимые поля и нажмите кнопку &quot;Завершить задачу&quot;.</p>\n",
                        "Ru": "<p>Вам пришла задача по запросу расчета утвержденного медиаплана в баинг.</p> <p>Пожалуйста заполните все необходимые поля и нажмите кнопку &quot;Завершить задачу&quot;.</p>\n"
                      },
                      "GlobalAlias": {
                        "$type": "Comindware.Platform.Contracts.GlobalAlias, Comindware.Platform.Contracts",
                        "Type": "FormComponent",
                        "Alias": "StaticContentComponent"
                      },
                      "AccessType": "Undefined",
                      "Width": 0,
                      "Type": "StaticContent"
                    }
                  ]
                },
                "GlobalAlias": {
                  "$type": "Comindware.Platform.Contracts.GlobalAlias, Comindware.Platform.Contracts",
                  "Type": "FormComponent",
                  "Alias": "VerticalLayout"
                },
                "AccessType": "Undefined",
                "Width": 0,
                "Type": "VerticalLayout"
              }
            ]
          },
          "GlobalAlias": {
            "$type": "Comindware.Platform.Contracts.GlobalAlias, Comindware.Platform.Contracts",
            "Type": "FormComponent",
            "Alias": "GroupPanelComponent"
          },
          "AccessType": "Editable",
          "Width": 100,
          "Type": "PanelModel"
        },
        {
          "$type": "Comindware.Platform.Contracts.PanelModel, Comindware.Platform.Contracts",
          "Text": {
            "$type": "Comindware.Platform.Contracts.LocalizedTextModel, Comindware.Platform.Contracts",
            "En": "Информация по задаче",
            "De": "Информация по задаче",
            "Ru": "Информация по задаче"
          },
          "OriginalType": "GroupPanel",
          "Rows": {
            "$type": "System.Collections.Generic.List`1[[Comindware.Platform.Contracts.FormComponentModel, Comindware.Platform.Contracts]], mscorlib",
            "$values": [
              {
                "$type": "Comindware.Platform.Contracts.VerticalLayoutModel, Comindware.Platform.Contracts",
                "Rows": {
                  "$type": "System.Collections.Generic.List`1[[Comindware.Platform.Contracts.FormComponentModel, Comindware.Platform.Contracts]], mscorlib",
                  "$values": [
                    {
                      "$type": "Comindware.Platform.Contracts.FieldComponentModel, Comindware.Platform.Contracts",
                      "Label": {
                        "$type": "Comindware.Platform.Contracts.LabelModel, Comindware.Platform.Contracts",
                        "Hidden": false,
                        "Alignment": "Top",
                        "Text": {
                          "$type": "Comindware.Platform.Contracts.LocalizedTextModel, Comindware.Platform.Contracts",
                          "En": "Комментарий для баинга",
                          "De": "Комментарий для баинга",
                          "Ru": "Комментарий для баинга"
                        }
                      },
                      "FieldType": "Text",
                      "Placeholder": {
                        "$type": "Comindware.Platform.Contracts.LocalizedTextModel, Comindware.Platform.Contracts"
                      },
                      "HelpText": {
                        "$type": "Comindware.Platform.Contracts.LocalizedTextModel, Comindware.Platform.Contracts"
                      },
                      "PropertyPath": {
                        "$type": "Comindware.Platform.Contracts.GlobalAlias[], Comindware.Platform.Contracts",
                        "$values": [
                          {
                            "$type": "Comindware.Platform.Contracts.GlobalAlias, Comindware.Platform.Contracts",
                            "Type": "Attribute",
                            "Owner": "Mediaplany",
                            "Alias": "Kommentariydlyabainga"
                          }
                        ]
                      },
                      "TextHeight": 0,
                      "TextHeightAuto": false,
                      "MaxLength": 0,
                      "EditorType": "Multiline",
                      "CreationType": "None",
                      "RemovalType": "None",
                      "EditType": "None",
                      "ChildPropertyAlias": {
                        "$type": "Comindware.Platform.Contracts.GlobalAlias, Comindware.Platform.Contracts",
                        "Type": "Undefined"
                      },
                      "OrderPropertyAlias": {
                        "$type": "Comindware.Platform.Contracts.GlobalAlias, Comindware.Platform.Contracts",
                        "Type": "Undefined"
                      },
                      "NumberPropertyAlias": {
                        "$type": "Comindware.Platform.Contracts.GlobalAlias, Comindware.Platform.Contracts",
                        "Type": "Undefined"
                      },
                      "PrecedentPropertyAlias": {
                        "$type": "Comindware.Platform.Contracts.GlobalAlias, Comindware.Platform.Contracts",
                        "Type": "Undefined"
                      },
                      "SortingDirection": "Asc",
                      "PopupFormAlias": {
                        "$type": "Comindware.Platform.Contracts.GlobalAlias, Comindware.Platform.Contracts",
                        "Type": "Undefined"
                      },
                      "DisplayFormat": "ShowAsPicture",
                      "GlobalAlias": {
                        "$type": "Comindware.Platform.Contracts.GlobalAlias, Comindware.Platform.Contracts",
                        "Type": "FormComponent",
                        "Alias": "Kommentariydlyabainga"
                      },
                      "AccessType": "Required",
                      "Width": 0,
                      "Type": "FieldComponent"
                    },
                    {
                      "$type": "Comindware.Platform.Contracts.FieldComponentModel, Comindware.Platform.Contracts",
                      "Label": {
                        "$type": "Comindware.Platform.Contracts.LabelModel, Comindware.Platform.Contracts",
                        "Hidden": false,
                        "Alignment": "Top",
                        "Text": {
                          "$type": "Comindware.Platform.Contracts.LocalizedTextModel, Comindware.Platform.Contracts",
                          "En": "Решение клиента по медиаплану",
                          "De": "Решение клиента по медиаплану",
                          "Ru": "Решение клиента по медиаплану"
                        }
                      },
                      "FieldType": "Reference",
                      "Placeholder": {
                        "$type": "Comindware.Platform.Contracts.LocalizedTextModel, Comindware.Platform.Contracts"
                      },
                      "HelpText": {
                        "$type": "Comindware.Platform.Contracts.LocalizedTextModel, Comindware.Platform.Contracts"
                      },
                      "PropertyPath": {
                        "$type": "Comindware.Platform.Contracts.GlobalAlias[], Comindware.Platform.Contracts",
                        "$values": [
                          {
                            "$type": "Comindware.Platform.Contracts.GlobalAlias, Comindware.Platform.Contracts",
                            "Type": "Attribute",
                            "Owner": "Mediaplany",
                            "Alias": "Reshenieklienta"
                          }
                        ]
                      },
                      "EditorType": "Radio",
                      "CreationType": "None",
                      "RemovalType": "None",
                      "EditType": "None",
                      "ValueFilterExpression": "from a in db->Spravochnikresheniy where OR(\n    a->Kod == \"approve_common\",\n    a->Kod == \"return_common\") select a->id\n",
                      "HideSearchBar": false,
                      "ShowAsLink": false,
                      "ChildPropertyAlias": {
                        "$type": "Comindware.Platform.Contracts.GlobalAlias, Comindware.Platform.Contracts",
                        "Type": "Undefined"
                      },
                      "OrderPropertyAlias": {
                        "$type": "Comindware.Platform.Contracts.GlobalAlias, Comindware.Platform.Contracts",
                        "Type": "Undefined"
                      },
                      "NumberPropertyAlias": {
                        "$type": "Comindware.Platform.Contracts.GlobalAlias, Comindware.Platform.Contracts",
                        "Type": "Undefined"
                      },
                      "PrecedentPropertyAlias": {
                        "$type": "Comindware.Platform.Contracts.GlobalAlias, Comindware.Platform.Contracts",
                        "Type": "Undefined"
                      },
                      "SortingDirection": "Asc",
                      "PopupFormAlias": {
                        "$type": "Comindware.Platform.Contracts.GlobalAlias, Comindware.Platform.Contracts",
                        "Type": "Undefined"
                      },
                      "AllowEdit": false,
                      "DisplayFormat": "ShowAsPicture",
                      "GlobalAlias": {
                        "$type": "Comindware.Platform.Contracts.GlobalAlias, Comindware.Platform.Contracts",
                        "Type": "FormComponent",
                        "Alias": "Reshenieklienta"
                      },
                      "AccessType": "Required",
                      "Width": 0,
                      "Type": "FieldComponent"
                    },
                    {
                      "$type": "Comindware.Platform.Contracts.FieldComponentModel, Comindware.Platform.Contracts",
                      "Label": {
                        "$type": "Comindware.Platform.Contracts.LabelModel, Comindware.Platform.Contracts",
                        "Hidden": false,
                        "Alignment": "Top",
                        "Text": {
                          "$type": "Comindware.Platform.Contracts.LocalizedTextModel, Comindware.Platform.Contracts",
                          "En": "Подтверждение МП от клиента",
                          "De": "Подтверждение МП от клиента",
                          "Ru": "Подтверждение МП от клиента"
                        }
                      },
                      "FieldType": "Document",
                      "Placeholder": {
                        "$type": "Comindware.Platform.Contracts.LocalizedTextModel, Comindware.Platform.Contracts"
                      },
                      "HelpText": {
                        "$type": "Comindware.Platform.Contracts.LocalizedTextModel, Comindware.Platform.Contracts"
                      },
                      "PropertyPath": {
                        "$type": "Comindware.Platform.Contracts.GlobalAlias[], Comindware.Platform.Contracts",
                        "$values": [
                          {
                            "$type": "Comindware.Platform.Contracts.GlobalAlias, Comindware.Platform.Contracts",
                            "Type": "Attribute",
                            "Owner": "Mediaplany",
                            "Alias": "PodtverzhdenieMPotklienta"
                          }
                        ]
                      },
                      "EditorType": "Radio",
                      "CreationType": "None",
                      "RemovalType": "Delete",
                      "EditType": "None",
                      "ChildPropertyAlias": {
                        "$type": "Comindware.Platform.Contracts.GlobalAlias, Comindware.Platform.Contracts",
                        "Type": "Undefined"
                      },
                      "OrderPropertyAlias": {
                        "$type": "Comindware.Platform.Contracts.GlobalAlias, Comindware.Platform.Contracts",
                        "Type": "Undefined"
                      },
                      "NumberPropertyAlias": {
                        "$type": "Comindware.Platform.Contracts.GlobalAlias, Comindware.Platform.Contracts",
                        "Type": "Undefined"
                      },
                      "PrecedentPropertyAlias": {
                        "$type": "Comindware.Platform.Contracts.GlobalAlias, Comindware.Platform.Contracts",
                        "Type": "Undefined"
                      },
                      "SortingDirection": "Asc",
                      "MaxCount": 0,
                      "PopupFormAlias": {
                        "$type": "Comindware.Platform.Contracts.GlobalAlias, Comindware.Platform.Contracts",
                        "Type": "Undefined"
                      },
                      "DisplayFormat": "ShowAsPicture",
                      "GlobalAlias": {
                        "$type": "Comindware.Platform.Contracts.GlobalAlias, Comindware.Platform.Contracts",
                        "Type": "FormComponent",
                        "Alias": "PodtverzhdenieMPotklienta"
                      },
                      "AccessType": "Hidden",
                      "Width": 0,
                      "Type": "FieldComponent"
                    }
                  ]
                },
                "GlobalAlias": {
                  "$type": "Comindware.Platform.Contracts.GlobalAlias, Comindware.Platform.Contracts",
                  "Type": "FormComponent",
                  "Alias": "VerticalLayout2"
                },
                "AccessType": "Undefined",
                "Width": 0,
                "Type": "VerticalLayout"
              }
            ]
          },
          "GlobalAlias": {
            "$type": "Comindware.Platform.Contracts.GlobalAlias, Comindware.Platform.Contracts",
            "Type": "FormComponent",
            "Alias": "GroupPanelComponent2"
          },
          "AccessType": "Editable",
          "Width": 100,
          "Type": "PanelModel"
        },
        {
          "$type": "Comindware.Platform.Contracts.SubFormModel, Comindware.Platform.Contracts",
          "Name": "История согласований",
          "DataSourcePropertyPath": {
            "$type": "Comindware.Platform.Contracts.GlobalAlias[], Comindware.Platform.Contracts",
            "$values": [
              {
                "$type": "Comindware.Platform.Contracts.GlobalAlias, Comindware.Platform.Contracts",
                "Type": "Form",
                "Owner": "Mediaplany",
                "Alias": "form11085"
              }
            ]
          },
          "GlobalAlias": {
            "$type": "Comindware.Platform.Contracts.GlobalAlias, Comindware.Platform.Contracts",
            "Type": "FormComponent",
            "Alias": "form11085"
          },
          "AccessType": "Readonly",
          "Width": 0,
          "Type": "SubForm"
        },
        {
          "$type": "Comindware.Platform.Contracts.LayoutModel, Comindware.Platform.Contracts",
          "Components": {
            "$type": "System.Collections.Generic.List`1[[Comindware.Platform.Contracts.FormComponentModel, Comindware.Platform.Contracts]], mscorlib",
            "$values": [
              {
                "$type": "Comindware.Platform.Contracts.PanelModel, Comindware.Platform.Contracts",
                "Text": {
                  "$type": "Comindware.Platform.Contracts.LocalizedTextModel, Comindware.Platform.Contracts",
                  "En": "Основная информация по медиаплану",
                  "De": "Основная информация по медиаплану",
                  "Ru": "Основная информация по медиаплану"
                },
                "OriginalType": "GroupPanel",
                "Rows": {
                  "$type": "System.Collections.Generic.List`1[[Comindware.Platform.Contracts.FormComponentModel, Comindware.Platform.Contracts]], mscorlib",
                  "$values": [
                    {
                      "$type": "Comindware.Platform.Contracts.VerticalLayoutModel, Comindware.Platform.Contracts",
                      "Rows": {
                        "$type": "System.Collections.Generic.List`1[[Comindware.Platform.Contracts.FormComponentModel, Comindware.Platform.Contracts]], mscorlib",
                        "$values": [
                          {
                            "$type": "Comindware.Platform.Contracts.LayoutModel, Comindware.Platform.Contracts",
                            "Components": {
                              "$type": "System.Collections.Generic.List`1[[Comindware.Platform.Contracts.FormComponentModel, Comindware.Platform.Contracts]], mscorlib",
                              "$values": [
                                {
                                  "$type": "Comindware.Platform.Contracts.VerticalLayoutModel, Comindware.Platform.Contracts",
                                  "Rows": {
                                    "$type": "System.Collections.Generic.List`1[[Comindware.Platform.Contracts.FormComponentModel, Comindware.Platform.Contracts]], mscorlib",
                                    "$values": [
                                      {
                                        "$type": "Comindware.Platform.Contracts.FieldComponentModel, Comindware.Platform.Contracts",
                                        "Label": {
                                          "$type": "Comindware.Platform.Contracts.LabelModel, Comindware.Platform.Contracts",
                                          "Hidden": false,
                                          "Alignment": "Top",
                                          "Text": {
                                            "$type": "Comindware.Platform.Contracts.LocalizedTextModel, Comindware.Platform.Contracts",
                                            "En": "Наименование",
                                            "De": "Наименование",
                                            "Ru": "Наименование"
                                          }
                                        },
                                        "FieldType": "Text",
                                        "Placeholder": {
                                          "$type": "Comindware.Platform.Contracts.LocalizedTextModel, Comindware.Platform.Contracts"
                                        },
                                        "HelpText": {
                                          "$type": "Comindware.Platform.Contracts.LocalizedTextModel, Comindware.Platform.Contracts"
                                        },
                                        "PropertyPath": {
                                          "$type": "Comindware.Platform.Contracts.GlobalAlias[], Comindware.Platform.Contracts",
                                          "$values": [
                                            {
                                              "$type": "Comindware.Platform.Contracts.GlobalAlias, Comindware.Platform.Contracts",
                                              "Type": "Attribute",
                                              "Owner": "Mediaplany",
                                              "Alias": "Naimenovanie"
                                            }
                                          ]
                                        },
                                        "TextHeight": 0,
                                        "TextHeightAuto": false,
                                        "MaxLength": 0,
                                        "EditorType": "Simple",
                                        "CreationType": "None",
                                        "RemovalType": "None",
                                        "EditType": "None",
                                        "ChildPropertyAlias": {
                                          "$type": "Comindware.Platform.Contracts.GlobalAlias, Comindware.Platform.Contracts",
                                          "Type": "Undefined"
                                        },
                                        "OrderPropertyAlias": {
                                          "$type": "Comindware.Platform.Contracts.GlobalAlias, Comindware.Platform.Contracts",
                                          "Type": "Undefined"
                                        },
                                        "NumberPropertyAlias": {
                                          "$type": "Comindware.Platform.Contracts.GlobalAlias, Comindware.Platform.Contracts",
                                          "Type": "Undefined"
                                        },
                                        "PrecedentPropertyAlias": {
                                          "$type": "Comindware.Platform.Contracts.GlobalAlias, Comindware.Platform.Contracts",
                                          "Type": "Undefined"
                                        },
                                        "SortingDirection": "Asc",
                                        "PopupFormAlias": {
                                          "$type": "Comindware.Platform.Contracts.GlobalAlias, Comindware.Platform.Contracts",
                                          "Type": "Undefined"
                                        },
                                        "DisplayFormat": "ShowAsPicture",
                                        "GlobalAlias": {
                                          "$type": "Comindware.Platform.Contracts.GlobalAlias, Comindware.Platform.Contracts",
                                          "Type": "FormComponent",
                                          "Alias": "Naimenovanie"
                                        },
                                        "AccessType": "Editable",
                                        "Width": 0,
                                        "Type": "FieldComponent"
                                      },
                                      {
                                        "$type": "Comindware.Platform.Contracts.FieldComponentModel, Comindware.Platform.Contracts",
                                        "Label": {
                                          "$type": "Comindware.Platform.Contracts.LabelModel, Comindware.Platform.Contracts",
                                          "Hidden": false,
                                          "Alignment": "Top",
                                          "Text": {
                                            "$type": "Comindware.Platform.Contracts.LocalizedTextModel, Comindware.Platform.Contracts",
                                            "En": "Медиаканал",
                                            "De": "Медиаканал",
                                            "Ru": "Медиаканал"
                                          }
                                        },
                                        "FieldType": "Reference",
                                        "Placeholder": {
                                          "$type": "Comindware.Platform.Contracts.LocalizedTextModel, Comindware.Platform.Contracts"
                                        },
                                        "HelpText": {
                                          "$type": "Comindware.Platform.Contracts.LocalizedTextModel, Comindware.Platform.Contracts"
                                        },
                                        "PropertyPath": {
                                          "$type": "Comindware.Platform.Contracts.GlobalAlias[], Comindware.Platform.Contracts",
                                          "$values": [
                                            {
                                              "$type": "Comindware.Platform.Contracts.GlobalAlias, Comindware.Platform.Contracts",
                                              "Type": "Attribute",
                                              "Owner": "Mediaplany",
                                              "Alias": "Mediakanal"
                                            }
                                          ]
                                        },
                                        "EditorType": "Radio",
                                        "CreationType": "None",
                                        "RemovalType": "None",
                                        "EditType": "None",
                                        "HideSearchBar": false,
                                        "ShowAsLink": false,
                                        "ChildPropertyAlias": {
                                          "$type": "Comindware.Platform.Contracts.GlobalAlias, Comindware.Platform.Contracts",
                                          "Type": "Undefined"
                                        },
                                        "OrderPropertyAlias": {
                                          "$type": "Comindware.Platform.Contracts.GlobalAlias, Comindware.Platform.Contracts",
                                          "Type": "Undefined"
                                        },
                                        "NumberPropertyAlias": {
                                          "$type": "Comindware.Platform.Contracts.GlobalAlias, Comindware.Platform.Contracts",
                                          "Type": "Undefined"
                                        },
                                        "PrecedentPropertyAlias": {
                                          "$type": "Comindware.Platform.Contracts.GlobalAlias, Comindware.Platform.Contracts",
                                          "Type": "Undefined"
                                        },
                                        "SortingDirection": "Asc",
                                        "PopupFormAlias": {
                                          "$type": "Comindware.Platform.Contracts.GlobalAlias, Comindware.Platform.Contracts",
                                          "Type": "Undefined"
                                        },
                                        "AllowEdit": false,
                                        "DisplayFormat": "ShowAsPicture",
                                        "GlobalAlias": {
                                          "$type": "Comindware.Platform.Contracts.GlobalAlias, Comindware.Platform.Contracts",
                                          "Type": "FormComponent",
                                          "Alias": "Mediakanal"
                                        },
                                        "AccessType": "Readonly",
                                        "Width": 0,
                                        "Type": "FieldComponent"
                                      },
                                      {
                                        "$type": "Comindware.Platform.Contracts.FieldComponentModel, Comindware.Platform.Contracts",
                                        "Label": {
                                          "$type": "Comindware.Platform.Contracts.LabelModel, Comindware.Platform.Contracts",
                                          "Hidden": false,
                                          "Alignment": "Top",
                                          "Text": {
                                            "$type": "Comindware.Platform.Contracts.LocalizedTextModel, Comindware.Platform.Contracts",
                                            "En": "Направление",
                                            "De": "Направление",
                                            "Ru": "Направление"
                                          }
                                        },
                                        "FieldType": "Reference",
                                        "Placeholder": {
                                          "$type": "Comindware.Platform.Contracts.LocalizedTextModel, Comindware.Platform.Contracts"
                                        },
                                        "HelpText": {
                                          "$type": "Comindware.Platform.Contracts.LocalizedTextModel, Comindware.Platform.Contracts"
                                        },
                                        "PropertyPath": {
                                          "$type": "Comindware.Platform.Contracts.GlobalAlias[], Comindware.Platform.Contracts",
                                          "$values": [
                                            {
                                              "$type": "Comindware.Platform.Contracts.GlobalAlias, Comindware.Platform.Contracts",
                                              "Type": "Attribute",
                                              "Owner": "Mediaplany",
                                              "Alias": "Napravlenie"
                                            }
                                          ]
                                        },
                                        "EditorType": "Radio",
                                        "CreationType": "None",
                                        "RemovalType": "None",
                                        "EditType": "None",
                                        "HideSearchBar": false,
                                        "ShowAsLink": false,
                                        "ChildPropertyAlias": {
                                          "$type": "Comindware.Platform.Contracts.GlobalAlias, Comindware.Platform.Contracts",
                                          "Type": "Undefined"
                                        },
                                        "OrderPropertyAlias": {
                                          "$type": "Comindware.Platform.Contracts.GlobalAlias, Comindware.Platform.Contracts",
                                          "Type": "Undefined"
                                        },
                                        "NumberPropertyAlias": {
                                          "$type": "Comindware.Platform.Contracts.GlobalAlias, Comindware.Platform.Contracts",
                                          "Type": "Undefined"
                                        },
                                        "PrecedentPropertyAlias": {
                                          "$type": "Comindware.Platform.Contracts.GlobalAlias, Comindware.Platform.Contracts",
                                          "Type": "Undefined"
                                        },
                                        "SortingDirection": "Asc",
                                        "PopupFormAlias": {
                                          "$type": "Comindware.Platform.Contracts.GlobalAlias, Comindware.Platform.Contracts",
                                          "Type": "Undefined"
                                        },
                                        "AllowEdit": false,
                                        "DisplayFormat": "ShowAsPicture",
                                        "GlobalAlias": {
                                          "$type": "Comindware.Platform.Contracts.GlobalAlias, Comindware.Platform.Contracts",
                                          "Type": "FormComponent",
                                          "Alias": "Napravlenie"
                                        },
                                        "AccessType": "Hidden",
                                        "Width": 0,
                                        "Type": "FieldComponent"
                                      },
                                      {
                                        "$type": "Comindware.Platform.Contracts.FieldComponentModel, Comindware.Platform.Contracts",
                                        "Label": {
                                          "$type": "Comindware.Platform.Contracts.LabelModel, Comindware.Platform.Contracts",
                                          "Hidden": false,
                                          "Alignment": "Top",
                                          "Text": {
                                            "$type": "Comindware.Platform.Contracts.LocalizedTextModel, Comindware.Platform.Contracts",
                                            "En": "Период проведения кампании, с",
                                            "De": "Период проведения кампании, с",
                                            "Ru": "Период проведения кампании, с"
                                          }
                                        },
                                        "FieldType": "Date",
                                        "Placeholder": {
                                          "$type": "Comindware.Platform.Contracts.LocalizedTextModel, Comindware.Platform.Contracts"
                                        },
                                        "HelpText": {
                                          "$type": "Comindware.Platform.Contracts.LocalizedTextModel, Comindware.Platform.Contracts"
                                        },
                                        "PropertyPath": {
                                          "$type": "Comindware.Platform.Contracts.GlobalAlias[], Comindware.Platform.Contracts",
                                          "$values": [
                                            {
                                              "$type": "Comindware.Platform.Contracts.GlobalAlias, Comindware.Platform.Contracts",
                                              "Type": "Attribute",
                                              "Owner": "Mediaplany",
                                              "Alias": "Periods"
                                            }
                                          ]
                                        },
                                        "EditorType": "Radio",
                                        "CreationType": "None",
                                        "RemovalType": "None",
                                        "EditType": "None",
                                        "DisplayTime": false,
                                        "ChildPropertyAlias": {
                                          "$type": "Comindware.Platform.Contracts.GlobalAlias, Comindware.Platform.Contracts",
                                          "Type": "Undefined"
                                        },
                                        "OrderPropertyAlias": {
                                          "$type": "Comindware.Platform.Contracts.GlobalAlias, Comindware.Platform.Contracts",
                                          "Type": "Undefined"
                                        },
                                        "NumberPropertyAlias": {
                                          "$type": "Comindware.Platform.Contracts.GlobalAlias, Comindware.Platform.Contracts",
                                          "Type": "Undefined"
                                        },
                                        "PrecedentPropertyAlias": {
                                          "$type": "Comindware.Platform.Contracts.GlobalAlias, Comindware.Platform.Contracts",
                                          "Type": "Undefined"
                                        },
                                        "SortingDirection": "Asc",
                                        "PopupFormAlias": {
                                          "$type": "Comindware.Platform.Contracts.GlobalAlias, Comindware.Platform.Contracts",
                                          "Type": "Undefined"
                                        },
                                        "DisplayFormat": "ShowAsPicture",
                                        "GlobalAlias": {
                                          "$type": "Comindware.Platform.Contracts.GlobalAlias, Comindware.Platform.Contracts",
                                          "Type": "FormComponent",
                                          "Alias": "Periods"
                                        },
                                        "AccessType": "Editable",
                                        "Width": 0,
                                        "Type": "FieldComponent"
                                      },
                                      {
                                        "$type": "Comindware.Platform.Contracts.FieldComponentModel, Comindware.Platform.Contracts",
                                        "Label": {
                                          "$type": "Comindware.Platform.Contracts.LabelModel, Comindware.Platform.Contracts",
                                          "Hidden": false,
                                          "Alignment": "Top",
                                          "Text": {
                                            "$type": "Comindware.Platform.Contracts.LocalizedTextModel, Comindware.Platform.Contracts",
                                            "En": "Период проведения кампании, по",
                                            "De": "Период проведения кампании, по",
                                            "Ru": "Период проведения кампании, по"
                                          }
                                        },
                                        "FieldType": "Date",
                                        "Placeholder": {
                                          "$type": "Comindware.Platform.Contracts.LocalizedTextModel, Comindware.Platform.Contracts"
                                        },
                                        "HelpText": {
                                          "$type": "Comindware.Platform.Contracts.LocalizedTextModel, Comindware.Platform.Contracts"
                                        },
                                        "PropertyPath": {
                                          "$type": "Comindware.Platform.Contracts.GlobalAlias[], Comindware.Platform.Contracts",
                                          "$values": [
                                            {
                                              "$type": "Comindware.Platform.Contracts.GlobalAlias, Comindware.Platform.Contracts",
                                              "Type": "Attribute",
                                              "Owner": "Mediaplany",
                                              "Alias": "Periodpo"
                                            }
                                          ]
                                        },
                                        "EditorType": "Radio",
                                        "CreationType": "None",
                                        "RemovalType": "None",
                                        "EditType": "None",
                                        "DisplayTime": false,
                                        "ChildPropertyAlias": {
                                          "$type": "Comindware.Platform.Contracts.GlobalAlias, Comindware.Platform.Contracts",
                                          "Type": "Undefined"
                                        },
                                        "OrderPropertyAlias": {
                                          "$type": "Comindware.Platform.Contracts.GlobalAlias, Comindware.Platform.Contracts",
                                          "Type": "Undefined"
                                        },
                                        "NumberPropertyAlias": {
                                          "$type": "Comindware.Platform.Contracts.GlobalAlias, Comindware.Platform.Contracts",
                                          "Type": "Undefined"
                                        },
                                        "PrecedentPropertyAlias": {
                                          "$type": "Comindware.Platform.Contracts.GlobalAlias, Comindware.Platform.Contracts",
                                          "Type": "Undefined"
                                        },
                                        "SortingDirection": "Asc",
                                        "PopupFormAlias": {
                                          "$type": "Comindware.Platform.Contracts.GlobalAlias, Comindware.Platform.Contracts",
                                          "Type": "Undefined"
                                        },
                                        "DisplayFormat": "ShowAsPicture",
                                        "GlobalAlias": {
                                          "$type": "Comindware.Platform.Contracts.GlobalAlias, Comindware.Platform.Contracts",
                                          "Type": "FormComponent",
                                          "Alias": "Periodpo"
                                        },
                                        "AccessType": "Editable",
                                        "Width": 0,
                                        "Type": "FieldComponent"
                                      }
                                    ]
                                  },
                                  "GlobalAlias": {
                                    "$type": "Comindware.Platform.Contracts.GlobalAlias, Comindware.Platform.Contracts",
                                    "Type": "FormComponent",
                                    "Alias": "VerticalLayout5"
                                  },
                                  "AccessType": "Undefined",
                                  "Width": 50,
                                  "Type": "VerticalLayout"
                                },
                                {
                                  "$type": "Comindware.Platform.Contracts.VerticalLayoutModel, Comindware.Platform.Contracts",
                                  "Rows": {
                                    "$type": "System.Collections.Generic.List`1[[Comindware.Platform.Contracts.FormComponentModel, Comindware.Platform.Contracts]], mscorlib",
                                    "$values": [
                                      {
                                        "$type": "Comindware.Platform.Contracts.FieldComponentModel, Comindware.Platform.Contracts",
                                        "Label": {
                                          "$type": "Comindware.Platform.Contracts.LabelModel, Comindware.Platform.Contracts",
                                          "Hidden": false,
                                          "Alignment": "Top",
                                          "Text": {
                                            "$type": "Comindware.Platform.Contracts.LocalizedTextModel, Comindware.Platform.Contracts",
                                            "En": "Ответственный КС",
                                            "De": "Ответственный КС",
                                            "Ru": "Ответственный КС"
                                          }
                                        },
                                        "FieldType": "Member",
                                        "Placeholder": {
                                          "$type": "Comindware.Platform.Contracts.LocalizedTextModel, Comindware.Platform.Contracts"
                                        },
                                        "HelpText": {
                                          "$type": "Comindware.Platform.Contracts.LocalizedTextModel, Comindware.Platform.Contracts"
                                        },
                                        "PropertyPath": {
                                          "$type": "Comindware.Platform.Contracts.GlobalAlias[], Comindware.Platform.Contracts",
                                          "$values": [
                                            {
                                              "$type": "Comindware.Platform.Contracts.GlobalAlias, Comindware.Platform.Contracts",
                                              "Type": "Attribute",
                                              "Owner": "Mediaplany",
                                              "Alias": "OtvetstvennyyKS"
                                            }
                                          ]
                                        },
                                        "EditorType": "Radio",
                                        "CreationType": "None",
                                        "RemovalType": "None",
                                        "EditType": "None",
                                        "HideSearchBar": false,
                                        "ChildPropertyAlias": {
                                          "$type": "Comindware.Platform.Contracts.GlobalAlias, Comindware.Platform.Contracts",
                                          "Type": "Undefined"
                                        },
                                        "OrderPropertyAlias": {
                                          "$type": "Comindware.Platform.Contracts.GlobalAlias, Comindware.Platform.Contracts",
                                          "Type": "Undefined"
                                        },
                                        "NumberPropertyAlias": {
                                          "$type": "Comindware.Platform.Contracts.GlobalAlias, Comindware.Platform.Contracts",
                                          "Type": "Undefined"
                                        },
                                        "PrecedentPropertyAlias": {
                                          "$type": "Comindware.Platform.Contracts.GlobalAlias, Comindware.Platform.Contracts",
                                          "Type": "Undefined"
                                        },
                                        "SortingDirection": "Asc",
                                        "MaxCount": 0,
                                        "PopupFormAlias": {
                                          "$type": "Comindware.Platform.Contracts.GlobalAlias, Comindware.Platform.Contracts",
                                          "Type": "Undefined"
                                        },
                                        "DisplayFormat": "ShowAsPicture",
                                        "GlobalAlias": {
                                          "$type": "Comindware.Platform.Contracts.GlobalAlias, Comindware.Platform.Contracts",
                                          "Type": "FormComponent",
                                          "Alias": "OtvetstvennyyKS"
                                        },
                                        "AccessType": "Readonly",
                                        "Width": 0,
                                        "Type": "FieldComponent"
                                      },
                                      {
                                        "$type": "Comindware.Platform.Contracts.FieldComponentModel, Comindware.Platform.Contracts",
                                        "Label": {
                                          "$type": "Comindware.Platform.Contracts.LabelModel, Comindware.Platform.Contracts",
                                          "Hidden": false,
                                          "Alignment": "Top",
                                          "Text": {
                                            "$type": "Comindware.Platform.Contracts.LocalizedTextModel, Comindware.Platform.Contracts",
                                            "En": "Проект",
                                            "De": "Проект",
                                            "Ru": "Проект"
                                          }
                                        },
                                        "FieldType": "Reference",
                                        "Placeholder": {
                                          "$type": "Comindware.Platform.Contracts.LocalizedTextModel, Comindware.Platform.Contracts"
                                        },
                                        "HelpText": {
                                          "$type": "Comindware.Platform.Contracts.LocalizedTextModel, Comindware.Platform.Contracts"
                                        },
                                        "PropertyPath": {
                                          "$type": "Comindware.Platform.Contracts.GlobalAlias[], Comindware.Platform.Contracts",
                                          "$values": [
                                            {
                                              "$type": "Comindware.Platform.Contracts.GlobalAlias, Comindware.Platform.Contracts",
                                              "Type": "Attribute",
                                              "Owner": "Mediaplany",
                                              "Alias": "Proekt"
                                            }
                                          ]
                                        },
                                        "EditorType": "Radio",
                                        "CreationType": "None",
                                        "RemovalType": "None",
                                        "EditType": "None",
                                        "HideSearchBar": false,
                                        "ShowAsLink": false,
                                        "ChildPropertyAlias": {
                                          "$type": "Comindware.Platform.Contracts.GlobalAlias, Comindware.Platform.Contracts",
                                          "Type": "Undefined"
                                        },
                                        "OrderPropertyAlias": {
                                          "$type": "Comindware.Platform.Contracts.GlobalAlias, Comindware.Platform.Contracts",
                                          "Type": "Undefined"
                                        },
                                        "NumberPropertyAlias": {
                                          "$type": "Comindware.Platform.Contracts.GlobalAlias, Comindware.Platform.Contracts",
                                          "Type": "Undefined"
                                        },
                                        "PrecedentPropertyAlias": {
                                          "$type": "Comindware.Platform.Contracts.GlobalAlias, Comindware.Platform.Contracts",
                                          "Type": "Undefined"
                                        },
                                        "SortingDirection": "Asc",
                                        "PopupFormAlias": {
                                          "$type": "Comindware.Platform.Contracts.GlobalAlias, Comindware.Platform.Contracts",
                                          "Type": "Undefined"
                                        },
                                        "AllowEdit": false,
                                        "DisplayFormat": "ShowAsPicture",
                                        "GlobalAlias": {
                                          "$type": "Comindware.Platform.Contracts.GlobalAlias, Comindware.Platform.Contracts",
                                          "Type": "FormComponent",
                                          "Alias": "Proekt"
                                        },
                                        "AccessType": "Editable",
                                        "Width": 0,
                                        "Type": "FieldComponent"
                                      },
                                      {
                                        "$type": "Comindware.Platform.Contracts.FieldComponentModel, Comindware.Platform.Contracts",
                                        "Label": {
                                          "$type": "Comindware.Platform.Contracts.LabelModel, Comindware.Platform.Contracts",
                                          "Hidden": false,
                                          "Alignment": "Top",
                                          "Text": {
                                            "$type": "Comindware.Platform.Contracts.LocalizedTextModel, Comindware.Platform.Contracts",
                                            "En": "Договор",
                                            "De": "Договор",
                                            "Ru": "Договор"
                                          }
                                        },
                                        "FieldType": "Reference",
                                        "Placeholder": {
                                          "$type": "Comindware.Platform.Contracts.LocalizedTextModel, Comindware.Platform.Contracts"
                                        },
                                        "HelpText": {
                                          "$type": "Comindware.Platform.Contracts.LocalizedTextModel, Comindware.Platform.Contracts"
                                        },
                                        "PropertyPath": {
                                          "$type": "Comindware.Platform.Contracts.GlobalAlias[], Comindware.Platform.Contracts",
                                          "$values": [
                                            {
                                              "$type": "Comindware.Platform.Contracts.GlobalAlias, Comindware.Platform.Contracts",
                                              "Type": "Attribute",
                                              "Owner": "Mediaplany",
                                              "Alias": "Dogovor"
                                            }
                                          ]
                                        },
                                        "EditorType": "Radio",
                                        "CreationType": "None",
                                        "RemovalType": "None",
                                        "EditType": "None",
                                        "HideSearchBar": false,
                                        "ShowAsLink": false,
                                        "ChildPropertyAlias": {
                                          "$type": "Comindware.Platform.Contracts.GlobalAlias, Comindware.Platform.Contracts",
                                          "Type": "Undefined"
                                        },
                                        "OrderPropertyAlias": {
                                          "$type": "Comindware.Platform.Contracts.GlobalAlias, Comindware.Platform.Contracts",
                                          "Type": "Undefined"
                                        },
                                        "NumberPropertyAlias": {
                                          "$type": "Comindware.Platform.Contracts.GlobalAlias, Comindware.Platform.Contracts",
                                          "Type": "Undefined"
                                        },
                                        "PrecedentPropertyAlias": {
                                          "$type": "Comindware.Platform.Contracts.GlobalAlias, Comindware.Platform.Contracts",
                                          "Type": "Undefined"
                                        },
                                        "SortingDirection": "Asc",
                                        "PopupFormAlias": {
                                          "$type": "Comindware.Platform.Contracts.GlobalAlias, Comindware.Platform.Contracts",
                                          "Type": "Undefined"
                                        },
                                        "AllowEdit": false,
                                        "DisplayFormat": "ShowAsPicture",
                                        "GlobalAlias": {
                                          "$type": "Comindware.Platform.Contracts.GlobalAlias, Comindware.Platform.Contracts",
                                          "Type": "FormComponent",
                                          "Alias": "Dogovor"
                                        },
                                        "AccessType": "Editable",
                                        "Width": 0,
                                        "Type": "FieldComponent"
                                      },
                                      {
                                        "$type": "Comindware.Platform.Contracts.FieldComponentModel, Comindware.Platform.Contracts",
                                        "Label": {
                                          "$type": "Comindware.Platform.Contracts.LabelModel, Comindware.Platform.Contracts",
                                          "Hidden": false,
                                          "Alignment": "Top",
                                          "Text": {
                                            "$type": "Comindware.Platform.Contracts.LocalizedTextModel, Comindware.Platform.Contracts",
                                            "En": "Бренд",
                                            "De": "Бренд",
                                            "Ru": "Бренд"
                                          }
                                        },
                                        "FieldType": "Reference",
                                        "Placeholder": {
                                          "$type": "Comindware.Platform.Contracts.LocalizedTextModel, Comindware.Platform.Contracts"
                                        },
                                        "HelpText": {
                                          "$type": "Comindware.Platform.Contracts.LocalizedTextModel, Comindware.Platform.Contracts"
                                        },
                                        "PropertyPath": {
                                          "$type": "Comindware.Platform.Contracts.GlobalAlias[], Comindware.Platform.Contracts",
                                          "$values": [
                                            {
                                              "$type": "Comindware.Platform.Contracts.GlobalAlias, Comindware.Platform.Contracts",
                                              "Type": "Attribute",
                                              "Owner": "Mediaplany",
                                              "Alias": "Brendy"
                                            }
                                          ]
                                        },
                                        "EditorType": "Radio",
                                        "CreationType": "None",
                                        "RemovalType": "None",
                                        "EditType": "None",
                                        "HideSearchBar": false,
                                        "ShowAsLink": false,
                                        "ChildPropertyAlias": {
                                          "$type": "Comindware.Platform.Contracts.GlobalAlias, Comindware.Platform.Contracts",
                                          "Type": "Undefined"
                                        },
                                        "OrderPropertyAlias": {
                                          "$type": "Comindware.Platform.Contracts.GlobalAlias, Comindware.Platform.Contracts",
                                          "Type": "Undefined"
                                        },
                                        "NumberPropertyAlias": {
                                          "$type": "Comindware.Platform.Contracts.GlobalAlias, Comindware.Platform.Contracts",
                                          "Type": "Undefined"
                                        },
                                        "PrecedentPropertyAlias": {
                                          "$type": "Comindware.Platform.Contracts.GlobalAlias, Comindware.Platform.Contracts",
                                          "Type": "Undefined"
                                        },
                                        "SortingDirection": "Asc",
                                        "PopupFormAlias": {
                                          "$type": "Comindware.Platform.Contracts.GlobalAlias, Comindware.Platform.Contracts",
                                          "Type": "Undefined"
                                        },
                                        "AllowEdit": false,
                                        "DisplayFormat": "ShowAsPicture",
                                        "GlobalAlias": {
                                          "$type": "Comindware.Platform.Contracts.GlobalAlias, Comindware.Platform.Contracts",
                                          "Type": "FormComponent",
                                          "Alias": "Brendy"
                                        },
                                        "AccessType": "Editable",
                                        "Width": 0,
                                        "Type": "FieldComponent"
                                      }
                                    ]
                                  },
                                  "GlobalAlias": {
                                    "$type": "Comindware.Platform.Contracts.GlobalAlias, Comindware.Platform.Contracts",
                                    "Type": "FormComponent",
                                    "Alias": "VerticalLayout6"
                                  },
                                  "AccessType": "Undefined",
                                  "Width": 50,
                                  "Type": "VerticalLayout"
                                }
                              ]
                            },
                            "OriginalType": "HorizontalLayout",
                            "GlobalAlias": {
                              "$type": "Comindware.Platform.Contracts.GlobalAlias, Comindware.Platform.Contracts",
                              "Type": "FormComponent",
                              "Alias": "HorizontalLayout2"
                            },
                            "AccessType": "Undefined",
                            "Width": 0,
                            "Type": "LayoutModel"
                          },
                          {
                            "$type": "Comindware.Platform.Contracts.FieldComponentModel, Comindware.Platform.Contracts",
                            "Label": {
                              "$type": "Comindware.Platform.Contracts.LabelModel, Comindware.Platform.Contracts",
                              "Hidden": false,
                              "Alignment": "Top",
                              "Text": {
                                "$type": "Comindware.Platform.Contracts.LocalizedTextModel, Comindware.Platform.Contracts",
                                "En": "Комментарий инициатора",
                                "De": "Комментарий инициатора",
                                "Ru": "Комментарий инициатора"
                              }
                            },
                            "FieldType": "Text",
                            "Placeholder": {
                              "$type": "Comindware.Platform.Contracts.LocalizedTextModel, Comindware.Platform.Contracts"
                            },
                            "HelpText": {
                              "$type": "Comindware.Platform.Contracts.LocalizedTextModel, Comindware.Platform.Contracts"
                            },
                            "PropertyPath": {
                              "$type": "Comindware.Platform.Contracts.GlobalAlias[], Comindware.Platform.Contracts",
                              "$values": [
                                {
                                  "$type": "Comindware.Platform.Contracts.GlobalAlias, Comindware.Platform.Contracts",
                                  "Type": "Attribute",
                                  "Owner": "Mediaplany",
                                  "Alias": "Kommentariyinitsiatora"
                                }
                              ]
                            },
                            "TextHeight": 0,
                            "TextHeightAuto": false,
                            "MaxLength": 0,
                            "EditorType": "Simple",
                            "CreationType": "None",
                            "RemovalType": "None",
                            "EditType": "None",
                            "ChildPropertyAlias": {
                              "$type": "Comindware.Platform.Contracts.GlobalAlias, Comindware.Platform.Contracts",
                              "Type": "Undefined"
                            },
                            "OrderPropertyAlias": {
                              "$type": "Comindware.Platform.Contracts.GlobalAlias, Comindware.Platform.Contracts",
                              "Type": "Undefined"
                            },
                            "NumberPropertyAlias": {
                              "$type": "Comindware.Platform.Contracts.GlobalAlias, Comindware.Platform.Contracts",
                              "Type": "Undefined"
                            },
                            "PrecedentPropertyAlias": {
                              "$type": "Comindware.Platform.Contracts.GlobalAlias, Comindware.Platform.Contracts",
                              "Type": "Undefined"
                            },
                            "SortingDirection": "Asc",
                            "PopupFormAlias": {
                              "$type": "Comindware.Platform.Contracts.GlobalAlias, Comindware.Platform.Contracts",
                              "Type": "Undefined"
                            },
                            "DisplayFormat": "ShowAsPicture",
                            "GlobalAlias": {
                              "$type": "Comindware.Platform.Contracts.GlobalAlias, Comindware.Platform.Contracts",
                              "Type": "FormComponent",
                              "Alias": "Kommentariyinitsiatora"
                            },
                            "AccessType": "Editable",
                            "Width": 0,
                            "Type": "FieldComponent"
                          }
                        ]
                      },
                      "GlobalAlias": {
                        "$type": "Comindware.Platform.Contracts.GlobalAlias, Comindware.Platform.Contracts",
                        "Type": "FormComponent",
                        "Alias": "VerticalLayout3"
                      },
                      "AccessType": "Undefined",
                      "Width": 0,
                      "Type": "VerticalLayout"
                    }
                  ]
                },
                "GlobalAlias": {
                  "$type": "Comindware.Platform.Contracts.GlobalAlias, Comindware.Platform.Contracts",
                  "Type": "FormComponent",
                  "Alias": "GroupPanelComponent3"
                },
                "AccessType": "Editable",
                "Width": 70,
                "Type": "PanelModel"
              },
              {
                "$type": "Comindware.Platform.Contracts.PanelModel, Comindware.Platform.Contracts",
                "Text": {
                  "$type": "Comindware.Platform.Contracts.LocalizedTextModel, Comindware.Platform.Contracts",
                  "En": "Вложение",
                  "De": "Вложение",
                  "Ru": "Вложение"
                },
                "OriginalType": "GroupPanel",
                "Rows": {
                  "$type": "System.Collections.Generic.List`1[[Comindware.Platform.Contracts.FormComponentModel, Comindware.Platform.Contracts]], mscorlib",
                  "$values": [
                    {
                      "$type": "Comindware.Platform.Contracts.VerticalLayoutModel, Comindware.Platform.Contracts",
                      "Rows": {
                        "$type": "System.Collections.Generic.List`1[[Comindware.Platform.Contracts.FormComponentModel, Comindware.Platform.Contracts]], mscorlib",
                        "$values": [
                          {
                            "$type": "Comindware.Platform.Contracts.FieldComponentModel, Comindware.Platform.Contracts",
                            "Label": {
                              "$type": "Comindware.Platform.Contracts.LabelModel, Comindware.Platform.Contracts",
                              "Hidden": false,
                              "Alignment": "Top",
                              "Text": {
                                "$type": "Comindware.Platform.Contracts.LocalizedTextModel, Comindware.Platform.Contracts",
                                "En": "Медиаплан для клиента",
                                "De": "Медиаплан для клиента",
                                "Ru": "Медиаплан для клиента"
                              }
                            },
                            "FieldType": "Document",
                            "Placeholder": {
                              "$type": "Comindware.Platform.Contracts.LocalizedTextModel, Comindware.Platform.Contracts"
                            },
                            "HelpText": {
                              "$type": "Comindware.Platform.Contracts.LocalizedTextModel, Comindware.Platform.Contracts"
                            },
                            "PropertyPath": {
                              "$type": "Comindware.Platform.Contracts.GlobalAlias[], Comindware.Platform.Contracts",
                              "$values": [
                                {
                                  "$type": "Comindware.Platform.Contracts.GlobalAlias, Comindware.Platform.Contracts",
                                  "Type": "Attribute",
                                  "Owner": "Mediaplany",
                                  "Alias": "Mediaplandlyaklienta"
                                }
                              ]
                            },
                            "EditorType": "Radio",
                            "CreationType": "None",
                            "RemovalType": "Delete",
                            "EditType": "None",
                            "ChildPropertyAlias": {
                              "$type": "Comindware.Platform.Contracts.GlobalAlias, Comindware.Platform.Contracts",
                              "Type": "Undefined"
                            },
                            "OrderPropertyAlias": {
                              "$type": "Comindware.Platform.Contracts.GlobalAlias, Comindware.Platform.Contracts",
                              "Type": "Undefined"
                            },
                            "NumberPropertyAlias": {
                              "$type": "Comindware.Platform.Contracts.GlobalAlias, Comindware.Platform.Contracts",
                              "Type": "Undefined"
                            },
                            "PrecedentPropertyAlias": {
                              "$type": "Comindware.Platform.Contracts.GlobalAlias, Comindware.Platform.Contracts",
                              "Type": "Undefined"
                            },
                            "SortingDirection": "Asc",
                            "MaxCount": 0,
                            "PopupFormAlias": {
                              "$type": "Comindware.Platform.Contracts.GlobalAlias, Comindware.Platform.Contracts",
                              "Type": "Undefined"
                            },
                            "DisplayFormat": "ShowAsPicture",
                            "GlobalAlias": {
                              "$type": "Comindware.Platform.Contracts.GlobalAlias, Comindware.Platform.Contracts",
                              "Type": "FormComponent",
                              "Alias": "Mediaplandlyaklienta"
                            },
                            "AccessType": "Required",
                            "Width": 0,
                            "Type": "FieldComponent"
                          },
                          {
                            "$type": "Comindware.Platform.Contracts.FieldComponentModel, Comindware.Platform.Contracts",
                            "Label": {
                              "$type": "Comindware.Platform.Contracts.LabelModel, Comindware.Platform.Contracts",
                              "Hidden": false,
                              "Alignment": "Top",
                              "Text": {
                                "$type": "Comindware.Platform.Contracts.LocalizedTextModel, Comindware.Platform.Contracts",
                                "En": "Расчёт",
                                "De": "Расчёт",
                                "Ru": "Расчёт"
                              }
                            },
                            "FieldType": "Document",
                            "Placeholder": {
                              "$type": "Comindware.Platform.Contracts.LocalizedTextModel, Comindware.Platform.Contracts"
                            },
                            "HelpText": {
                              "$type": "Comindware.Platform.Contracts.LocalizedTextModel, Comindware.Platform.Contracts"
                            },
                            "PropertyPath": {
                              "$type": "Comindware.Platform.Contracts.GlobalAlias[], Comindware.Platform.Contracts",
                              "$values": [
                                {
                                  "$type": "Comindware.Platform.Contracts.GlobalAlias, Comindware.Platform.Contracts",
                                  "Type": "Attribute",
                                  "Owner": "Mediaplany",
                                  "Alias": "Zaprosyvbaing"
                                },
                                {
                                  "$type": "Comindware.Platform.Contracts.GlobalAlias, Comindware.Platform.Contracts",
                                  "Type": "Attribute",
                                  "Owner": "Raschetypomediaplanam",
                                  "Alias": "Raschyototbainga"
                                }
                              ]
                            },
                            "EditorType": "Radio",
                            "CreationType": "None",
                            "RemovalType": "Delete",
                            "EditType": "None",
                            "ChildPropertyAlias": {
                              "$type": "Comindware.Platform.Contracts.GlobalAlias, Comindware.Platform.Contracts",
                              "Type": "Undefined"
                            },
                            "OrderPropertyAlias": {
                              "$type": "Comindware.Platform.Contracts.GlobalAlias, Comindware.Platform.Contracts",
                              "Type": "Undefined"
                            },
                            "NumberPropertyAlias": {
                              "$type": "Comindware.Platform.Contracts.GlobalAlias, Comindware.Platform.Contracts",
                              "Type": "Undefined"
                            },
                            "PrecedentPropertyAlias": {
                              "$type": "Comindware.Platform.Contracts.GlobalAlias, Comindware.Platform.Contracts",
                              "Type": "Undefined"
                            },
                            "SortingDirection": "Asc",
                            "MaxCount": 0,
                            "PopupFormAlias": {
                              "$type": "Comindware.Platform.Contracts.GlobalAlias, Comindware.Platform.Contracts",
                              "Type": "Undefined"
                            },
                            "DisplayFormat": "ShowAsPicture",
                            "GlobalAlias": {
                              "$type": "Comindware.Platform.Contracts.GlobalAlias, Comindware.Platform.Contracts",
                              "Type": "FormComponent",
                              "Alias": "Raschyototbainga"
                            },
                            "AccessType": "Editable",
                            "Width": 0,
                            "Type": "FieldComponent"
                          },
                          {
                            "$type": "Comindware.Platform.Contracts.FieldComponentModel, Comindware.Platform.Contracts",
                            "Label": {
                              "$type": "Comindware.Platform.Contracts.LabelModel, Comindware.Platform.Contracts",
                              "Hidden": false,
                              "Alignment": "Top",
                              "Text": {
                                "$type": "Comindware.Platform.Contracts.LocalizedTextModel, Comindware.Platform.Contracts",
                                "En": "Первоначальный расчет от баинга",
                                "De": "Первоначальный расчет от баинга",
                                "Ru": "Первоначальный расчет от баинга"
                              }
                            },
                            "FieldType": "Reference",
                            "Placeholder": {
                              "$type": "Comindware.Platform.Contracts.LocalizedTextModel, Comindware.Platform.Contracts"
                            },
                            "HelpText": {
                              "$type": "Comindware.Platform.Contracts.LocalizedTextModel, Comindware.Platform.Contracts"
                            },
                            "PropertyPath": {
                              "$type": "Comindware.Platform.Contracts.GlobalAlias[], Comindware.Platform.Contracts",
                              "$values": [
                                {
                                  "$type": "Comindware.Platform.Contracts.GlobalAlias, Comindware.Platform.Contracts",
                                  "Type": "Attribute",
                                  "Owner": "Mediaplany",
                                  "Alias": "Pervonachalnyyraschetotbainga"
                                }
                              ]
                            },
                            "EditorType": "Radio",
                            "CreationType": "None",
                            "RemovalType": "None",
                            "EditType": "None",
                            "HideSearchBar": false,
                            "ShowAsLink": false,
                            "ChildPropertyAlias": {
                              "$type": "Comindware.Platform.Contracts.GlobalAlias, Comindware.Platform.Contracts",
                              "Type": "Undefined"
                            },
                            "OrderPropertyAlias": {
                              "$type": "Comindware.Platform.Contracts.GlobalAlias, Comindware.Platform.Contracts",
                              "Type": "Undefined"
                            },
                            "NumberPropertyAlias": {
                              "$type": "Comindware.Platform.Contracts.GlobalAlias, Comindware.Platform.Contracts",
                              "Type": "Undefined"
                            },
                            "PrecedentPropertyAlias": {
                              "$type": "Comindware.Platform.Contracts.GlobalAlias, Comindware.Platform.Contracts",
                              "Type": "Undefined"
                            },
                            "SortingDirection": "Asc",
                            "PopupFormAlias": {
                              "$type": "Comindware.Platform.Contracts.GlobalAlias, Comindware.Platform.Contracts",
                              "Type": "Undefined"
                            },
                            "AllowEdit": false,
                            "DisplayFormat": "ShowAsPicture",
                            "GlobalAlias": {
                              "$type": "Comindware.Platform.Contracts.GlobalAlias, Comindware.Platform.Contracts",
                              "Type": "FormComponent",
                              "Alias": "Pervonachalnyyraschetotbainga"
                            },
                            "AccessType": "Hidden",
                            "Width": 0,
                            "Type": "FieldComponent"
                          }
                        ]
                      },
                      "GlobalAlias": {
                        "$type": "Comindware.Platform.Contracts.GlobalAlias, Comindware.Platform.Contracts",
                        "Type": "FormComponent",
                        "Alias": "VerticalLayout4"
                      },
                      "AccessType": "Undefined",
                      "Width": 0,
                      "Type": "VerticalLayout"
                    }
                  ]
                },
                "GlobalAlias": {
                  "$type": "Comindware.Platform.Contracts.GlobalAlias, Comindware.Platform.Contracts",
                  "Type": "FormComponent",
                  "Alias": "GroupPanelComponent4"
                },
                "AccessType": "Editable",
                "Width": 30,
                "Type": "PanelModel"
              }
            ]
          },
          "OriginalType": "HorizontalLayout",
          "GlobalAlias": {
            "$type": "Comindware.Platform.Contracts.GlobalAlias, Comindware.Platform.Contracts",
            "Type": "FormComponent",
            "Alias": "HorizontalLayout"
          },
          "AccessType": "Undefined",
          "Width": 0,
          "Type": "LayoutModel"
        }
      ]
    },
    "GlobalAlias": {
      "$type": "Comindware.Platform.Contracts.GlobalAlias, Comindware.Platform.Contracts",
      "Type": "FormComponent",
      "Alias": "root"
    },
    "AccessType": "Undefined",
    "Width": 0,
    "Type": "VerticalLayout"
  },
  "Name": "(ТВ/наружка) КС - Запрос расчета по медиаплану (сделка)",
  "FormRules": {
    "$type": "System.Collections.Generic.List`1[[Comindware.Platform.Contracts.FormRuleModel, Comindware.Platform.Contracts]], mscorlib",
    "$values": [
      {
        "$type": "Comindware.Platform.Contracts.FormRuleModel, Comindware.Platform.Contracts",
        "RuleName": "Правило",
        "ConditionExpression": "",
        "Actions": {
          "$type": "System.Collections.Generic.List`1[[Comindware.Platform.Contracts.RuleActionModel, Comindware.Platform.Contracts]], mscorlib",
          "$values": [
            {
              "$type": "Comindware.Platform.Contracts.RuleActionModel, Comindware.Platform.Contracts",
              "GlobalAlias": {
                "$type": "Comindware.Platform.Contracts.GlobalAlias, Comindware.Platform.Contracts",
                "Type": "FormComponent",
                "Owner": "form59082",
                "Alias": "Napravlenie"
              },
              "Type": "SetAccessType",
              "ValueExpression": "CONST('Readonly')",
              "ConditionExpression": "NOT(EMPTY($Napravlenie))",
              "Severity": "Error"
            },
            {
              "$type": "Comindware.Platform.Contracts.RuleActionModel, Comindware.Platform.Contracts",
              "GlobalAlias": {
                "$type": "Comindware.Platform.Contracts.GlobalAlias, Comindware.Platform.Contracts",
                "Type": "FormComponent",
                "Owner": "form59082",
                "Alias": "PodtverzhdenieMPotklienta"
              },
              "Type": "SetAccessType",
              "ValueExpression": "CONST('Required')",
              "ConditionExpression": "AND(\n    $Reshenieklienta->Kod == \"approve_common\",\n    OR(\n        $Kontragent->Klientvnesistemy == true,\n        EMPTY(\n            $Proekt->Osnovnoekontaktnoelitso)))",
              "Severity": "Error"
            },
            {
              "$type": "Comindware.Platform.Contracts.RuleActionModel, Comindware.Platform.Contracts",
              "GlobalAlias": {
                "$type": "Comindware.Platform.Contracts.GlobalAlias, Comindware.Platform.Contracts",
                "Type": "FormComponent",
                "Owner": "form59082",
                "Alias": "Pervonachalnyyraschetotbainga"
              },
              "Type": "SetAccessType",
              "ValueExpression": "CONST('Readonly')",
              "ConditionExpression": "NOT(EMPTY($Pervonachalnyyraschetotbainga))",
              "Severity": "Error"
            }
          ]
        }
      }
    ]
  },
  "Origination": "Undefined"
}