{
  "$type": "Comindware.Platform.Contracts.FormModel, Comindware.Platform.Contracts",
  "GlobalAlias": {
    "$type": "Comindware.Platform.Contracts.GlobalAlias, Comindware.Platform.Contracts",
    "Type": "Form",
    "Owner": "Mediaplany",
    "Alias": "form50572"
  },
  "Type": "PublicForm",
  "IsDefault": false,
  "Root": {
    "$type": "Comindware.Platform.Contracts.VerticalLayoutModel, Comindware.Platform.Contracts",
    "Rows": {
      "$type": "System.Collections.Generic.List`1[[Comindware.Platform.Contracts.FormComponentModel, Comindware.Platform.Contracts]], mscorlib",
      "$values": [
        {
          "$type": "Comindware.Platform.Contracts.PanelModel, Comindware.Platform.Contracts",
          "Text": {
            "$type": "Comindware.Platform.Contracts.LocalizedTextModel, Comindware.Platform.Contracts",
            "En": "Информация для Клиента",
            "De": "Информация для Клиента",
            "Ru": "Информация для Клиента"
          },
          "OriginalType": "GroupPanel",
          "Rows": {
            "$type": "System.Collections.Generic.List`1[[Comindware.Platform.Contracts.FormComponentModel, Comindware.Platform.Contracts]], mscorlib",
            "$values": [
              {
                "$type": "Comindware.Platform.Contracts.VerticalLayoutModel, Comindware.Platform.Contracts",
                "Rows": {
                  "$type": "System.Collections.Generic.List`1[[Comindware.Platform.Contracts.FormComponentModel, Comindware.Platform.Contracts]], mscorlib",
                  "$values": [
                    {
                      "$type": "Comindware.Platform.Contracts.StaticContentModel, Comindware.Platform.Contracts",
                      "Content": {
                        "$type": "Comindware.Platform.Contracts.LocalizedTextModel, Comindware.Platform.Contracts",
                        "En": "<p style=\"text-align:justify\"><span style=\"font-size:11pt\"><span><span style=\"font-family:Calibri,sans-serif\">Вам пришла задача для подтверждения обновленного медиаплана.&nbsp;</span></span></span></p> <p style=\"text-align:justify\"><span style=\"font-size:11pt\"><span><span style=\"font-family:Calibri,sans-serif\">Пожалуйста, внимательно ознакомьтесь со всеми данными и дайте ответ в поле &quot;Решение&quot;.</span></span></span></p> <p style=\"text-align:justify\"><span style=\"font-size:11pt\"><span><span style=\"font-family:Calibri,sans-serif\">Оставьте комментарии при необходимости.</span></span></span></p> <p style=\"text-align:justify\"><span style=\"font-size:11pt\"><span><span style=\"font-family:Calibri,sans-serif\">После выполнения всех необходимых действий, нажмите на кнопку &quot;Завершить задачу&quot;, которая находится сверху формы.</span></span></span></p>\n",
                        "De": "<p style=\"text-align:justify\"><span style=\"font-size:11pt\"><span><span style=\"font-family:Calibri,sans-serif\">Вам пришла задача для подтверждения обновленного медиаплана.&nbsp;</span></span></span></p> <p style=\"text-align:justify\"><span style=\"font-size:11pt\"><span><span style=\"font-family:Calibri,sans-serif\">Пожалуйста, внимательно ознакомьтесь со всеми данными и дайте ответ в поле &quot;Решение&quot;.</span></span></span></p> <p style=\"text-align:justify\"><span style=\"font-size:11pt\"><span><span style=\"font-family:Calibri,sans-serif\">Оставьте комментарии при необходимости.</span></span></span></p> <p style=\"text-align:justify\"><span style=\"font-size:11pt\"><span><span style=\"font-family:Calibri,sans-serif\">После выполнения всех необходимых действий, нажмите на кнопку &quot;Завершить задачу&quot;, которая находится сверху формы.</span></span></span></p>\n",
                        "Ru": "<p style=\"text-align:justify\"><span style=\"font-size:11pt\"><span><span style=\"font-family:Calibri,sans-serif\">Вам пришла задача для подтверждения обновленного медиаплана.&nbsp;</span></span></span></p> <p style=\"text-align:justify\"><span style=\"font-size:11pt\"><span><span style=\"font-family:Calibri,sans-serif\">Пожалуйста, внимательно ознакомьтесь со всеми данными и дайте ответ в поле &quot;Решение&quot;.</span></span></span></p> <p style=\"text-align:justify\"><span style=\"font-size:11pt\"><span><span style=\"font-family:Calibri,sans-serif\">Оставьте комментарии при необходимости.</span></span></span></p> <p style=\"text-align:justify\"><span style=\"font-size:11pt\"><span><span style=\"font-family:Calibri,sans-serif\">После выполнения всех необходимых действий, нажмите на кнопку &quot;Завершить задачу&quot;, которая находится сверху формы.</span></span></span></p>\n"
                      },
                      "GlobalAlias": {
                        "$type": "Comindware.Platform.Contracts.GlobalAlias, Comindware.Platform.Contracts",
                        "Type": "FormComponent",
                        "Alias": "StaticContentComponent"
                      },
                      "AccessType": "Undefined",
                      "Width": 0,
                      "Type": "StaticContent"
                    }
                  ]
                },
                "GlobalAlias": {
                  "$type": "Comindware.Platform.Contracts.GlobalAlias, Comindware.Platform.Contracts",
                  "Type": "FormComponent",
                  "Alias": "VerticalLayout"
                },
                "AccessType": "Undefined",
                "Width": 0,
                "Type": "VerticalLayout"
              }
            ]
          },
          "GlobalAlias": {
            "$type": "Comindware.Platform.Contracts.GlobalAlias, Comindware.Platform.Contracts",
            "Type": "FormComponent",
            "Alias": "GroupPanelComponent"
          },
          "AccessType": "Editable",
          "Width": 100,
          "Type": "PanelModel"
        }
      ]
    },
    "GlobalAlias": {
      "$type": "Comindware.Platform.Contracts.GlobalAlias, Comindware.Platform.Contracts",
      "Type": "FormComponent",
      "Alias": "root"
    },
    "AccessType": "Undefined",
    "Width": 0,
    "Type": "VerticalLayout"
  },
  "Name": "Форма-инструкция для Клиента 2 (СМП)",
  "FormRules": {
    "$type": "System.Collections.Generic.List`1[[Comindware.Platform.Contracts.FormRuleModel, Comindware.Platform.Contracts]], mscorlib",
    "$values": [
      {
        "$type": "Comindware.Platform.Contracts.FormRuleModel, Comindware.Platform.Contracts",
        "RuleName": "Правило",
        "ConditionExpression": "$Kontragent->Klientvnesistemy == true",
        "Actions": {
          "$type": "System.Collections.Generic.List`1[[Comindware.Platform.Contracts.RuleActionModel, Comindware.Platform.Contracts]], mscorlib",
          "$values": [
            {
              "$type": "Comindware.Platform.Contracts.RuleActionModel, Comindware.Platform.Contracts",
              "GlobalAlias": {
                "$type": "Comindware.Platform.Contracts.GlobalAlias, Comindware.Platform.Contracts",
                "Type": "FormComponent",
                "Owner": "form50572",
                "Alias": "GroupPanelComponent"
              },
              "Type": "SetAccessType",
              "ValueExpression": "CONST('Hidden')",
              "ConditionExpression": "EMPTY($Dorabotano1)",
              "Severity": "Error"
            }
          ]
        }
      }
    ]
  },
  "Origination": "Undefined"
}