{
  "$type": "Comindware.Platform.Contracts.FormModel, Comindware.Platform.Contracts",
  "GlobalAlias": {
    "$type": "Comindware.Platform.Contracts.GlobalAlias, Comindware.Platform.Contracts",
    "Type": "Form",
    "Owner": "Mediaplany",
    "Alias": "form52835"
  },
  "Type": "PublicForm",
  "IsDefault": false,
  "Root": {
    "$type": "Comindware.Platform.Contracts.VerticalLayoutModel, Comindware.Platform.Contracts",
    "Rows": {
      "$type": "System.Collections.Generic.List`1[[Comindware.Platform.Contracts.FormComponentModel, Comindware.Platform.Contracts]], mscorlib",
      "$values": [
        {
          "$type": "Comindware.Platform.Contracts.PanelModel, Comindware.Platform.Contracts",
          "Text": {
            "$type": "Comindware.Platform.Contracts.LocalizedTextModel, Comindware.Platform.Contracts",
            "En": "Информация для Менеджера КС",
            "De": "Информация для Менеджера КС",
            "Ru": "Информация для Менеджера КС"
          },
          "OriginalType": "GroupPanel",
          "Rows": {
            "$type": "System.Collections.Generic.List`1[[Comindware.Platform.Contracts.FormComponentModel, Comindware.Platform.Contracts]], mscorlib",
            "$values": [
              {
                "$type": "Comindware.Platform.Contracts.VerticalLayoutModel, Comindware.Platform.Contracts",
                "Rows": {
                  "$type": "System.Collections.Generic.List`1[[Comindware.Platform.Contracts.FormComponentModel, Comindware.Platform.Contracts]], mscorlib",
                  "$values": [
                    {
                      "$type": "Comindware.Platform.Contracts.StaticContentModel, Comindware.Platform.Contracts",
                      "Content": {
                        "$type": "Comindware.Platform.Contracts.LocalizedTextModel, Comindware.Platform.Contracts",
                        "En": "<p>Вам пришла задача для согласования медиаплана за клиента.&nbsp;</p> <p>На основе ответа клиента выберите ответ в поле &quot;Решение&quot;.</p> <p>Пожалуйста, приложите файл с подтверждением ответа по решению о медиаплане в поле &quot;Подтверждение МП от клиента (эстимация)&quot;</p> <p>При необходимости доработки оставьте комментарии.</p> <p>После выполнения всех необходимых действий, нажмите на кнопку &quot;Завершить задачу&quot;, которая находится сверху формы.</p>\n",
                        "De": "<p>Вам пришла задача для согласования медиаплана за клиента.&nbsp;</p> <p>На основе ответа клиента выберите ответ в поле &quot;Решение&quot;.</p> <p>Пожалуйста, приложите файл с подтверждением ответа по решению о медиаплане в поле &quot;Подтверждение МП от клиента (эстимация)&quot;</p> <p>При необходимости доработки оставьте комментарии.</p> <p>После выполнения всех необходимых действий, нажмите на кнопку &quot;Завершить задачу&quot;, которая находится сверху формы.</p>\n",
                        "Ru": "<p>Вам пришла задача для согласования медиаплана за клиента.&nbsp;</p> <p>На основе ответа клиента выберите ответ в поле &quot;Решение&quot;.</p> <p>Пожалуйста, приложите файл с подтверждением ответа по решению о медиаплане в поле &quot;Подтверждение МП от клиента (эстимация)&quot;</p> <p>При необходимости доработки оставьте комментарии.</p> <p>После выполнения всех необходимых действий, нажмите на кнопку &quot;Завершить задачу&quot;, которая находится сверху формы.</p>\n"
                      },
                      "GlobalAlias": {
                        "$type": "Comindware.Platform.Contracts.GlobalAlias, Comindware.Platform.Contracts",
                        "Type": "FormComponent",
                        "Alias": "StaticContentComponent"
                      },
                      "AccessType": "Undefined",
                      "Width": 0,
                      "Type": "StaticContent"
                    }
                  ]
                },
                "GlobalAlias": {
                  "$type": "Comindware.Platform.Contracts.GlobalAlias, Comindware.Platform.Contracts",
                  "Type": "FormComponent",
                  "Alias": "VerticalLayout"
                },
                "AccessType": "Undefined",
                "Width": 0,
                "Type": "VerticalLayout"
              }
            ]
          },
          "GlobalAlias": {
            "$type": "Comindware.Platform.Contracts.GlobalAlias, Comindware.Platform.Contracts",
            "Type": "FormComponent",
            "Alias": "GroupPanelComponent"
          },
          "AccessType": "Editable",
          "Width": 100,
          "Type": "PanelModel"
        },
        {
          "$type": "Comindware.Platform.Contracts.PanelModel, Comindware.Platform.Contracts",
          "Text": {
            "$type": "Comindware.Platform.Contracts.LocalizedTextModel, Comindware.Platform.Contracts",
            "En": "Информация для Менеджера КС",
            "De": "Информация для Менеджера КС",
            "Ru": "Информация для Менеджера КС"
          },
          "OriginalType": "GroupPanel",
          "Rows": {
            "$type": "System.Collections.Generic.List`1[[Comindware.Platform.Contracts.FormComponentModel, Comindware.Platform.Contracts]], mscorlib",
            "$values": [
              {
                "$type": "Comindware.Platform.Contracts.VerticalLayoutModel, Comindware.Platform.Contracts",
                "Rows": {
                  "$type": "System.Collections.Generic.List`1[[Comindware.Platform.Contracts.FormComponentModel, Comindware.Platform.Contracts]], mscorlib",
                  "$values": [
                    {
                      "$type": "Comindware.Platform.Contracts.StaticContentModel, Comindware.Platform.Contracts",
                      "Content": {
                        "$type": "Comindware.Platform.Contracts.LocalizedTextModel, Comindware.Platform.Contracts",
                        "En": "<p style=\"text-align:justify\"><span style=\"font-size:11pt\"><span><span style=\"font-family:Calibri,sans-serif\">Вам пришла задача для согласования медиаплана с внесенными правками. В системе Вы действуете&nbsp;за клиента.&nbsp;</span></span></span></p> <p style=\"text-align:justify\"><span style=\"font-size:11pt\"><span><span style=\"font-family:Calibri,sans-serif\">На основе ответа клиента выберите ответ в поле &quot;Решение&quot;.</span></span></span></p> <p style=\"text-align:justify\"><span style=\"font-size:11pt\"><span><span style=\"font-family:Calibri,sans-serif\">Пожалуйста, приложите файл с подтверждением ответа по решению о медиаплане в поле &quot;Подтверждение МП от клиента (эстимация)&quot;.</span></span></span></p> <p style=\"text-align:justify\"><span style=\"font-size:11pt\"><span><span style=\"font-family:Calibri,sans-serif\">При необходимости доработки оставьте комментарий.</span></span></span></p> <p style=\"text-align:justify\"><span style=\"font-size:11pt\"><span><span style=\"font-family:Calibri,sans-serif\">После выполнения всех необходимых действий, нажмите на кнопку &quot;Завершить задачу&quot;, которая находится сверху формы.</span></span></span></p>\n",
                        "De": "<p style=\"text-align:justify\"><span style=\"font-size:11pt\"><span><span style=\"font-family:Calibri,sans-serif\">Вам пришла задача для согласования медиаплана с внесенными правками. В системе Вы действуете&nbsp;за клиента.&nbsp;</span></span></span></p> <p style=\"text-align:justify\"><span style=\"font-size:11pt\"><span><span style=\"font-family:Calibri,sans-serif\">На основе ответа клиента выберите ответ в поле &quot;Решение&quot;.</span></span></span></p> <p style=\"text-align:justify\"><span style=\"font-size:11pt\"><span><span style=\"font-family:Calibri,sans-serif\">Пожалуйста, приложите файл с подтверждением ответа по решению о медиаплане в поле &quot;Подтверждение МП от клиента (эстимация)&quot;.</span></span></span></p> <p style=\"text-align:justify\"><span style=\"font-size:11pt\"><span><span style=\"font-family:Calibri,sans-serif\">При необходимости доработки оставьте комментарий.</span></span></span></p> <p style=\"text-align:justify\"><span style=\"font-size:11pt\"><span><span style=\"font-family:Calibri,sans-serif\">После выполнения всех необходимых действий, нажмите на кнопку &quot;Завершить задачу&quot;, которая находится сверху формы.</span></span></span></p>\n",
                        "Ru": "<p style=\"text-align:justify\"><span style=\"font-size:11pt\"><span><span style=\"font-family:Calibri,sans-serif\">Вам пришла задача для согласования медиаплана с внесенными правками. В системе Вы действуете&nbsp;за клиента.&nbsp;</span></span></span></p> <p style=\"text-align:justify\"><span style=\"font-size:11pt\"><span><span style=\"font-family:Calibri,sans-serif\">На основе ответа клиента выберите ответ в поле &quot;Решение&quot;.</span></span></span></p> <p style=\"text-align:justify\"><span style=\"font-size:11pt\"><span><span style=\"font-family:Calibri,sans-serif\">Пожалуйста, приложите файл с подтверждением ответа по решению о медиаплане в поле &quot;Подтверждение МП от клиента (эстимация)&quot;.</span></span></span></p> <p style=\"text-align:justify\"><span style=\"font-size:11pt\"><span><span style=\"font-family:Calibri,sans-serif\">При необходимости доработки оставьте комментарий.</span></span></span></p> <p style=\"text-align:justify\"><span style=\"font-size:11pt\"><span><span style=\"font-family:Calibri,sans-serif\">После выполнения всех необходимых действий, нажмите на кнопку &quot;Завершить задачу&quot;, которая находится сверху формы.</span></span></span></p>\n"
                      },
                      "GlobalAlias": {
                        "$type": "Comindware.Platform.Contracts.GlobalAlias, Comindware.Platform.Contracts",
                        "Type": "FormComponent",
                        "Alias": "StaticContentComponent2"
                      },
                      "AccessType": "Undefined",
                      "Width": 0,
                      "Type": "StaticContent"
                    }
                  ]
                },
                "GlobalAlias": {
                  "$type": "Comindware.Platform.Contracts.GlobalAlias, Comindware.Platform.Contracts",
                  "Type": "FormComponent",
                  "Alias": "VerticalLayout2"
                },
                "AccessType": "Undefined",
                "Width": 0,
                "Type": "VerticalLayout"
              }
            ]
          },
          "GlobalAlias": {
            "$type": "Comindware.Platform.Contracts.GlobalAlias, Comindware.Platform.Contracts",
            "Type": "FormComponent",
            "Alias": "GroupPanelComponent2"
          },
          "AccessType": "Editable",
          "Width": 100,
          "Type": "PanelModel"
        }
      ]
    },
    "GlobalAlias": {
      "$type": "Comindware.Platform.Contracts.GlobalAlias, Comindware.Platform.Contracts",
      "Type": "FormComponent",
      "Alias": "root"
    },
    "AccessType": "Undefined",
    "Width": 0,
    "Type": "VerticalLayout"
  },
  "Name": "Форма-инструкция для Менеджера КС (СМП)",
  "FormRules": {
    "$type": "System.Collections.Generic.List`1[[Comindware.Platform.Contracts.FormRuleModel, Comindware.Platform.Contracts]], mscorlib",
    "$values": [
      {
        "$type": "Comindware.Platform.Contracts.FormRuleModel, Comindware.Platform.Contracts",
        "RuleName": "Правило",
        "ConditionExpression": "",
        "Actions": {
          "$type": "System.Collections.Generic.List`1[[Comindware.Platform.Contracts.RuleActionModel, Comindware.Platform.Contracts]], mscorlib",
          "$values": [
            {
              "$type": "Comindware.Platform.Contracts.RuleActionModel, Comindware.Platform.Contracts",
              "GlobalAlias": {
                "$type": "Comindware.Platform.Contracts.GlobalAlias, Comindware.Platform.Contracts",
                "Type": "FormComponent",
                "Owner": "form52835",
                "Alias": "GroupPanelComponent"
              },
              "Type": "SetAccessType",
              "ValueExpression": "CONST('Hidden')",
              "ConditionExpression": "OR(NOT(EMPTY($DorabotanoKlient)), NOT(EMPTY($Proekt->Osnovnoekontaktnoelitso)))",
              "Severity": "Error"
            },
            {
              "$type": "Comindware.Platform.Contracts.RuleActionModel, Comindware.Platform.Contracts",
              "GlobalAlias": {
                "$type": "Comindware.Platform.Contracts.GlobalAlias, Comindware.Platform.Contracts",
                "Type": "FormComponent",
                "Owner": "form52835",
                "Alias": "GroupPanelComponent2"
              },
              "Type": "SetAccessType",
              "ValueExpression": "CONST('Hidden')",
              "ConditionExpression": "OR(EMPTY($DorabotanoKlient), NOT(EMPTY($Proekt->Osnovnoekontaktnoelitso)))",
              "Severity": "Error"
            }
          ]
        }
      }
    ]
  },
  "Origination": "Undefined"
}