{
  "$type": "Comindware.Platform.Contracts.FormModel, Comindware.Platform.Contracts",
  "GlobalAlias": {
    "$type": "Comindware.Platform.Contracts.GlobalAlias, Comindware.Platform.Contracts",
    "Type": "Form",
    "Owner": "Mediaplany",
    "Alias": "FUSEdlyabainga"
  },
  "Type": "InternalForm",
  "IsDefault": false,
  "Root": {
    "$type": "Comindware.Platform.Contracts.VerticalLayoutModel, Comindware.Platform.Contracts",
    "Rows": {
      "$type": "System.Collections.Generic.List`1[[Comindware.Platform.Contracts.FormComponentModel, Comindware.Platform.Contracts]], mscorlib",
      "$values": [
        {
          "$type": "Comindware.Platform.Contracts.PanelModel, Comindware.Platform.Contracts",
          "Text": {
            "$type": "Comindware.Platform.Contracts.LocalizedTextModel, Comindware.Platform.Contracts",
            "En": "FUSE / ДРУГОЕ - Детализация",
            "De": "FUSE / ДРУГОЕ - Детализация",
            "Ru": "FUSE / ДРУГОЕ - Детализация"
          },
          "OriginalType": "GroupPanel",
          "Rows": {
            "$type": "System.Collections.Generic.List`1[[Comindware.Platform.Contracts.FormComponentModel, Comindware.Platform.Contracts]], mscorlib",
            "$values": [
              {
                "$type": "Comindware.Platform.Contracts.VerticalLayoutModel, Comindware.Platform.Contracts",
                "Rows": {
                  "$type": "System.Collections.Generic.List`1[[Comindware.Platform.Contracts.FormComponentModel, Comindware.Platform.Contracts]], mscorlib",
                  "$values": [
                    {
                      "$type": "Comindware.Platform.Contracts.FieldComponentModel, Comindware.Platform.Contracts",
                      "Label": {
                        "$type": "Comindware.Platform.Contracts.LabelModel, Comindware.Platform.Contracts",
                        "Hidden": false,
                        "Alignment": "Top",
                        "Text": {
                          "$type": "Comindware.Platform.Contracts.LocalizedTextModel, Comindware.Platform.Contracts"
                        }
                      },
                      "FieldType": "Table",
                      "Placeholder": {
                        "$type": "Comindware.Platform.Contracts.LocalizedTextModel, Comindware.Platform.Contracts"
                      },
                      "HelpText": {
                        "$type": "Comindware.Platform.Contracts.LocalizedTextModel, Comindware.Platform.Contracts"
                      },
                      "PropertyPath": {
                        "$type": "Comindware.Platform.Contracts.GlobalAlias[], Comindware.Platform.Contracts",
                        "$values": [
                          {
                            "$type": "Comindware.Platform.Contracts.GlobalAlias, Comindware.Platform.Contracts",
                            "Type": "Attribute",
                            "Owner": "Mediaplany",
                            "Alias": "Detalizatsiyamediaplana"
                          }
                        ]
                      },
                      "EditorType": "Radio",
                      "CreationType": "None",
                      "RemovalType": "None",
                      "EditType": "None",
                      "Columns": {
                        "$type": "System.Collections.Generic.List`1[[Comindware.Platform.Contracts.FieldComponentModel, Comindware.Platform.Contracts]], mscorlib",
                        "$values": [
                          {
                            "$type": "Comindware.Platform.Contracts.FieldComponentModel, Comindware.Platform.Contracts",
                            "Label": {
                              "$type": "Comindware.Platform.Contracts.LabelModel, Comindware.Platform.Contracts",
                              "Hidden": false,
                              "Alignment": "Undefined",
                              "Text": {
                                "$type": "Comindware.Platform.Contracts.LocalizedTextModel, Comindware.Platform.Contracts",
                                "En": "ID",
                                "De": "ID",
                                "Ru": "ID"
                              }
                            },
                            "FieldType": "TableColumn",
                            "Placeholder": {
                              "$type": "Comindware.Platform.Contracts.LocalizedTextModel, Comindware.Platform.Contracts"
                            },
                            "HelpText": {
                              "$type": "Comindware.Platform.Contracts.LocalizedTextModel, Comindware.Platform.Contracts"
                            },
                            "PropertyPath": {
                              "$type": "Comindware.Platform.Contracts.GlobalAlias[], Comindware.Platform.Contracts",
                              "$values": [
                                {
                                  "$type": "Comindware.Platform.Contracts.GlobalAlias, Comindware.Platform.Contracts",
                                  "Type": "Attribute",
                                  "Alias": "id"
                                }
                              ]
                            },
                            "EditorType": "Radio",
                            "CreationType": "None",
                            "RemovalType": "None",
                            "EditType": "None",
                            "ChildPropertyAlias": {
                              "$type": "Comindware.Platform.Contracts.GlobalAlias, Comindware.Platform.Contracts",
                              "Type": "Undefined"
                            },
                            "OrderPropertyAlias": {
                              "$type": "Comindware.Platform.Contracts.GlobalAlias, Comindware.Platform.Contracts",
                              "Type": "Undefined"
                            },
                            "NumberPropertyAlias": {
                              "$type": "Comindware.Platform.Contracts.GlobalAlias, Comindware.Platform.Contracts",
                              "Type": "Undefined"
                            },
                            "PrecedentPropertyAlias": {
                              "$type": "Comindware.Platform.Contracts.GlobalAlias, Comindware.Platform.Contracts",
                              "Type": "Undefined"
                            },
                            "SortingDirection": "Asc",
                            "PopupFormAlias": {
                              "$type": "Comindware.Platform.Contracts.GlobalAlias, Comindware.Platform.Contracts",
                              "Type": "Undefined"
                            },
                            "AllowEdit": false,
                            "DisplayFormat": "ShowAsPicture",
                            "GlobalAlias": {
                              "$type": "Comindware.Platform.Contracts.GlobalAlias, Comindware.Platform.Contracts",
                              "Type": "FormComponent",
                              "Alias": "Detalizatsiyamediaplana_id"
                            },
                            "AccessType": "Readonly",
                            "Width": 120,
                            "Type": "FieldComponent"
                          },
                          {
                            "$type": "Comindware.Platform.Contracts.FieldComponentModel, Comindware.Platform.Contracts",
                            "Label": {
                              "$type": "Comindware.Platform.Contracts.LabelModel, Comindware.Platform.Contracts",
                              "Hidden": false,
                              "Alignment": "Undefined",
                              "Text": {
                                "$type": "Comindware.Platform.Contracts.LocalizedTextModel, Comindware.Platform.Contracts",
                                "En": "Медианоситель",
                                "De": "Медианоситель",
                                "Ru": "Медианоситель"
                              }
                            },
                            "FieldType": "TableColumn",
                            "Placeholder": {
                              "$type": "Comindware.Platform.Contracts.LocalizedTextModel, Comindware.Platform.Contracts"
                            },
                            "HelpText": {
                              "$type": "Comindware.Platform.Contracts.LocalizedTextModel, Comindware.Platform.Contracts"
                            },
                            "PropertyPath": {
                              "$type": "Comindware.Platform.Contracts.GlobalAlias[], Comindware.Platform.Contracts",
                              "$values": [
                                {
                                  "$type": "Comindware.Platform.Contracts.GlobalAlias, Comindware.Platform.Contracts",
                                  "Type": "Attribute",
                                  "Owner": "Detalizatsiimediaplanov",
                                  "Alias": "Medianositel"
                                }
                              ]
                            },
                            "EditorType": "Radio",
                            "CreationType": "None",
                            "RemovalType": "None",
                            "EditType": "None",
                            "ChildPropertyAlias": {
                              "$type": "Comindware.Platform.Contracts.GlobalAlias, Comindware.Platform.Contracts",
                              "Type": "Undefined"
                            },
                            "OrderPropertyAlias": {
                              "$type": "Comindware.Platform.Contracts.GlobalAlias, Comindware.Platform.Contracts",
                              "Type": "Undefined"
                            },
                            "NumberPropertyAlias": {
                              "$type": "Comindware.Platform.Contracts.GlobalAlias, Comindware.Platform.Contracts",
                              "Type": "Undefined"
                            },
                            "PrecedentPropertyAlias": {
                              "$type": "Comindware.Platform.Contracts.GlobalAlias, Comindware.Platform.Contracts",
                              "Type": "Undefined"
                            },
                            "SortingDirection": "Asc",
                            "PopupFormAlias": {
                              "$type": "Comindware.Platform.Contracts.GlobalAlias, Comindware.Platform.Contracts",
                              "Type": "Undefined"
                            },
                            "AllowEdit": false,
                            "DisplayFormat": "ShowAsPicture",
                            "GlobalAlias": {
                              "$type": "Comindware.Platform.Contracts.GlobalAlias, Comindware.Platform.Contracts",
                              "Type": "FormComponent",
                              "Alias": "Detalizatsiyamediaplana_Medianositel"
                            },
                            "AccessType": "Editable",
                            "Width": 200,
                            "Type": "FieldComponent"
                          },
                          {
                            "$type": "Comindware.Platform.Contracts.FieldComponentModel, Comindware.Platform.Contracts",
                            "Label": {
                              "$type": "Comindware.Platform.Contracts.LabelModel, Comindware.Platform.Contracts",
                              "Hidden": false,
                              "Alignment": "Undefined",
                              "Text": {
                                "$type": "Comindware.Platform.Contracts.LocalizedTextModel, Comindware.Platform.Contracts",
                                "En": "Итоговая сумма, руб",
                                "De": "Итоговая сумма, руб",
                                "Ru": "Итоговая сумма, руб"
                              }
                            },
                            "FieldType": "TableColumn",
                            "Placeholder": {
                              "$type": "Comindware.Platform.Contracts.LocalizedTextModel, Comindware.Platform.Contracts"
                            },
                            "HelpText": {
                              "$type": "Comindware.Platform.Contracts.LocalizedTextModel, Comindware.Platform.Contracts"
                            },
                            "PropertyPath": {
                              "$type": "Comindware.Platform.Contracts.GlobalAlias[], Comindware.Platform.Contracts",
                              "$values": [
                                {
                                  "$type": "Comindware.Platform.Contracts.GlobalAlias, Comindware.Platform.Contracts",
                                  "Type": "Attribute",
                                  "Owner": "Detalizatsiimediaplanov",
                                  "Alias": "ItogovayaSummaRub"
                                }
                              ]
                            },
                            "EditorType": "Radio",
                            "CreationType": "None",
                            "RemovalType": "None",
                            "EditType": "None",
                            "ChildPropertyAlias": {
                              "$type": "Comindware.Platform.Contracts.GlobalAlias, Comindware.Platform.Contracts",
                              "Type": "Undefined"
                            },
                            "OrderPropertyAlias": {
                              "$type": "Comindware.Platform.Contracts.GlobalAlias, Comindware.Platform.Contracts",
                              "Type": "Undefined"
                            },
                            "NumberPropertyAlias": {
                              "$type": "Comindware.Platform.Contracts.GlobalAlias, Comindware.Platform.Contracts",
                              "Type": "Undefined"
                            },
                            "PrecedentPropertyAlias": {
                              "$type": "Comindware.Platform.Contracts.GlobalAlias, Comindware.Platform.Contracts",
                              "Type": "Undefined"
                            },
                            "SortingDirection": "Asc",
                            "PopupFormAlias": {
                              "$type": "Comindware.Platform.Contracts.GlobalAlias, Comindware.Platform.Contracts",
                              "Type": "Undefined"
                            },
                            "AllowEdit": false,
                            "DisplayFormat": "ShowAsPicture",
                            "GlobalAlias": {
                              "$type": "Comindware.Platform.Contracts.GlobalAlias, Comindware.Platform.Contracts",
                              "Type": "FormComponent",
                              "Alias": "Detalizatsiyamediaplana_ItogovayaSummaRub2"
                            },
                            "AccessType": "Editable",
                            "Width": 120,
                            "Type": "FieldComponent"
                          },
                          {
                            "$type": "Comindware.Platform.Contracts.FieldComponentModel, Comindware.Platform.Contracts",
                            "Label": {
                              "$type": "Comindware.Platform.Contracts.LabelModel, Comindware.Platform.Contracts",
                              "Hidden": false,
                              "Alignment": "Undefined",
                              "Text": {
                                "$type": "Comindware.Platform.Contracts.LocalizedTextModel, Comindware.Platform.Contracts",
                                "En": "Себестоимость (руб.)",
                                "De": "Себестоимость (руб.)",
                                "Ru": "Себестоимость (руб.)"
                              }
                            },
                            "FieldType": "TableColumn",
                            "Placeholder": {
                              "$type": "Comindware.Platform.Contracts.LocalizedTextModel, Comindware.Platform.Contracts"
                            },
                            "HelpText": {
                              "$type": "Comindware.Platform.Contracts.LocalizedTextModel, Comindware.Platform.Contracts"
                            },
                            "PropertyPath": {
                              "$type": "Comindware.Platform.Contracts.GlobalAlias[], Comindware.Platform.Contracts",
                              "$values": [
                                {
                                  "$type": "Comindware.Platform.Contracts.GlobalAlias, Comindware.Platform.Contracts",
                                  "Type": "Attribute",
                                  "Owner": "Detalizatsiimediaplanov",
                                  "Alias": "Sebestoimost"
                                }
                              ]
                            },
                            "EditorType": "Radio",
                            "CreationType": "None",
                            "RemovalType": "None",
                            "EditType": "None",
                            "ChildPropertyAlias": {
                              "$type": "Comindware.Platform.Contracts.GlobalAlias, Comindware.Platform.Contracts",
                              "Type": "Undefined"
                            },
                            "OrderPropertyAlias": {
                              "$type": "Comindware.Platform.Contracts.GlobalAlias, Comindware.Platform.Contracts",
                              "Type": "Undefined"
                            },
                            "NumberPropertyAlias": {
                              "$type": "Comindware.Platform.Contracts.GlobalAlias, Comindware.Platform.Contracts",
                              "Type": "Undefined"
                            },
                            "PrecedentPropertyAlias": {
                              "$type": "Comindware.Platform.Contracts.GlobalAlias, Comindware.Platform.Contracts",
                              "Type": "Undefined"
                            },
                            "SortingDirection": "Asc",
                            "PopupFormAlias": {
                              "$type": "Comindware.Platform.Contracts.GlobalAlias, Comindware.Platform.Contracts",
                              "Type": "Undefined"
                            },
                            "AllowEdit": false,
                            "DisplayFormat": "ShowAsPicture",
                            "GlobalAlias": {
                              "$type": "Comindware.Platform.Contracts.GlobalAlias, Comindware.Platform.Contracts",
                              "Type": "FormComponent",
                              "Alias": "Detalizatsiyamediaplana_Sebestoimost"
                            },
                            "AccessType": "Editable",
                            "Width": 120,
                            "Type": "FieldComponent"
                          },
                          {
                            "$type": "Comindware.Platform.Contracts.FieldComponentModel, Comindware.Platform.Contracts",
                            "Label": {
                              "$type": "Comindware.Platform.Contracts.LabelModel, Comindware.Platform.Contracts",
                              "Hidden": false,
                              "Alignment": "Undefined",
                              "Text": {
                                "$type": "Comindware.Platform.Contracts.LocalizedTextModel, Comindware.Platform.Contracts",
                                "En": "Ответственный за размещение",
                                "De": "Ответственный за размещение",
                                "Ru": "Ответственный за размещение"
                              }
                            },
                            "FieldType": "TableColumn",
                            "Placeholder": {
                              "$type": "Comindware.Platform.Contracts.LocalizedTextModel, Comindware.Platform.Contracts"
                            },
                            "HelpText": {
                              "$type": "Comindware.Platform.Contracts.LocalizedTextModel, Comindware.Platform.Contracts"
                            },
                            "PropertyPath": {
                              "$type": "Comindware.Platform.Contracts.GlobalAlias[], Comindware.Platform.Contracts",
                              "$values": [
                                {
                                  "$type": "Comindware.Platform.Contracts.GlobalAlias, Comindware.Platform.Contracts",
                                  "Type": "Attribute",
                                  "Owner": "Detalizatsiimediaplanov",
                                  "Alias": "Otvetstvennyyzarazmeschenie"
                                }
                              ]
                            },
                            "EditorType": "Radio",
                            "CreationType": "None",
                            "RemovalType": "None",
                            "EditType": "None",
                            "ChildPropertyAlias": {
                              "$type": "Comindware.Platform.Contracts.GlobalAlias, Comindware.Platform.Contracts",
                              "Type": "Undefined"
                            },
                            "OrderPropertyAlias": {
                              "$type": "Comindware.Platform.Contracts.GlobalAlias, Comindware.Platform.Contracts",
                              "Type": "Undefined"
                            },
                            "NumberPropertyAlias": {
                              "$type": "Comindware.Platform.Contracts.GlobalAlias, Comindware.Platform.Contracts",
                              "Type": "Undefined"
                            },
                            "PrecedentPropertyAlias": {
                              "$type": "Comindware.Platform.Contracts.GlobalAlias, Comindware.Platform.Contracts",
                              "Type": "Undefined"
                            },
                            "SortingDirection": "Asc",
                            "PopupFormAlias": {
                              "$type": "Comindware.Platform.Contracts.GlobalAlias, Comindware.Platform.Contracts",
                              "Type": "Undefined"
                            },
                            "AllowEdit": false,
                            "DisplayFormat": "ShowAsPicture",
                            "GlobalAlias": {
                              "$type": "Comindware.Platform.Contracts.GlobalAlias, Comindware.Platform.Contracts",
                              "Type": "FormComponent",
                              "Alias": "Detalizatsiyamediaplana_Otvetstvennyyzarazmeschenie"
                            },
                            "AccessType": "Editable",
                            "Width": 120,
                            "Type": "FieldComponent"
                          },
                          {
                            "$type": "Comindware.Platform.Contracts.FieldComponentModel, Comindware.Platform.Contracts",
                            "Label": {
                              "$type": "Comindware.Platform.Contracts.LabelModel, Comindware.Platform.Contracts",
                              "Hidden": false,
                              "Alignment": "Undefined",
                              "Text": {
                                "$type": "Comindware.Platform.Contracts.LocalizedTextModel, Comindware.Platform.Contracts",
                                "En": "Период с",
                                "De": "Период с",
                                "Ru": "Период с"
                              }
                            },
                            "FieldType": "TableColumn",
                            "Placeholder": {
                              "$type": "Comindware.Platform.Contracts.LocalizedTextModel, Comindware.Platform.Contracts"
                            },
                            "HelpText": {
                              "$type": "Comindware.Platform.Contracts.LocalizedTextModel, Comindware.Platform.Contracts"
                            },
                            "PropertyPath": {
                              "$type": "Comindware.Platform.Contracts.GlobalAlias[], Comindware.Platform.Contracts",
                              "$values": [
                                {
                                  "$type": "Comindware.Platform.Contracts.GlobalAlias, Comindware.Platform.Contracts",
                                  "Type": "Attribute",
                                  "Owner": "Detalizatsiimediaplanov",
                                  "Alias": "Periods"
                                }
                              ]
                            },
                            "EditorType": "Radio",
                            "CreationType": "None",
                            "RemovalType": "None",
                            "EditType": "None",
                            "ChildPropertyAlias": {
                              "$type": "Comindware.Platform.Contracts.GlobalAlias, Comindware.Platform.Contracts",
                              "Type": "Undefined"
                            },
                            "OrderPropertyAlias": {
                              "$type": "Comindware.Platform.Contracts.GlobalAlias, Comindware.Platform.Contracts",
                              "Type": "Undefined"
                            },
                            "NumberPropertyAlias": {
                              "$type": "Comindware.Platform.Contracts.GlobalAlias, Comindware.Platform.Contracts",
                              "Type": "Undefined"
                            },
                            "PrecedentPropertyAlias": {
                              "$type": "Comindware.Platform.Contracts.GlobalAlias, Comindware.Platform.Contracts",
                              "Type": "Undefined"
                            },
                            "SortingDirection": "Asc",
                            "PopupFormAlias": {
                              "$type": "Comindware.Platform.Contracts.GlobalAlias, Comindware.Platform.Contracts",
                              "Type": "Undefined"
                            },
                            "AllowEdit": false,
                            "DisplayFormat": "ShowAsPicture",
                            "GlobalAlias": {
                              "$type": "Comindware.Platform.Contracts.GlobalAlias, Comindware.Platform.Contracts",
                              "Type": "FormComponent",
                              "Alias": "Detalizatsiyamediaplana_Periods"
                            },
                            "AccessType": "Editable",
                            "Width": 120,
                            "Type": "FieldComponent"
                          },
                          {
                            "$type": "Comindware.Platform.Contracts.FieldComponentModel, Comindware.Platform.Contracts",
                            "Label": {
                              "$type": "Comindware.Platform.Contracts.LabelModel, Comindware.Platform.Contracts",
                              "Hidden": false,
                              "Alignment": "Undefined",
                              "Text": {
                                "$type": "Comindware.Platform.Contracts.LocalizedTextModel, Comindware.Platform.Contracts",
                                "En": "Период по",
                                "De": "Период по",
                                "Ru": "Период по"
                              }
                            },
                            "FieldType": "TableColumn",
                            "Placeholder": {
                              "$type": "Comindware.Platform.Contracts.LocalizedTextModel, Comindware.Platform.Contracts"
                            },
                            "HelpText": {
                              "$type": "Comindware.Platform.Contracts.LocalizedTextModel, Comindware.Platform.Contracts"
                            },
                            "PropertyPath": {
                              "$type": "Comindware.Platform.Contracts.GlobalAlias[], Comindware.Platform.Contracts",
                              "$values": [
                                {
                                  "$type": "Comindware.Platform.Contracts.GlobalAlias, Comindware.Platform.Contracts",
                                  "Type": "Attribute",
                                  "Owner": "Detalizatsiimediaplanov",
                                  "Alias": "Periodpo"
                                }
                              ]
                            },
                            "EditorType": "Radio",
                            "CreationType": "None",
                            "RemovalType": "None",
                            "EditType": "None",
                            "ChildPropertyAlias": {
                              "$type": "Comindware.Platform.Contracts.GlobalAlias, Comindware.Platform.Contracts",
                              "Type": "Undefined"
                            },
                            "OrderPropertyAlias": {
                              "$type": "Comindware.Platform.Contracts.GlobalAlias, Comindware.Platform.Contracts",
                              "Type": "Undefined"
                            },
                            "NumberPropertyAlias": {
                              "$type": "Comindware.Platform.Contracts.GlobalAlias, Comindware.Platform.Contracts",
                              "Type": "Undefined"
                            },
                            "PrecedentPropertyAlias": {
                              "$type": "Comindware.Platform.Contracts.GlobalAlias, Comindware.Platform.Contracts",
                              "Type": "Undefined"
                            },
                            "SortingDirection": "Asc",
                            "PopupFormAlias": {
                              "$type": "Comindware.Platform.Contracts.GlobalAlias, Comindware.Platform.Contracts",
                              "Type": "Undefined"
                            },
                            "AllowEdit": false,
                            "DisplayFormat": "ShowAsPicture",
                            "GlobalAlias": {
                              "$type": "Comindware.Platform.Contracts.GlobalAlias, Comindware.Platform.Contracts",
                              "Type": "FormComponent",
                              "Alias": "Detalizatsiyamediaplana_Periodpo"
                            },
                            "AccessType": "Editable",
                            "Width": 120,
                            "Type": "FieldComponent"
                          },
                          {
                            "$type": "Comindware.Platform.Contracts.FieldComponentModel, Comindware.Platform.Contracts",
                            "Label": {
                              "$type": "Comindware.Platform.Contracts.LabelModel, Comindware.Platform.Contracts",
                              "Hidden": false,
                              "Alignment": "Undefined",
                              "Text": {
                                "$type": "Comindware.Platform.Contracts.LocalizedTextModel, Comindware.Platform.Contracts",
                                "En": "СМИ",
                                "De": "СМИ",
                                "Ru": "СМИ"
                              }
                            },
                            "FieldType": "TableColumn",
                            "Placeholder": {
                              "$type": "Comindware.Platform.Contracts.LocalizedTextModel, Comindware.Platform.Contracts"
                            },
                            "HelpText": {
                              "$type": "Comindware.Platform.Contracts.LocalizedTextModel, Comindware.Platform.Contracts"
                            },
                            "PropertyPath": {
                              "$type": "Comindware.Platform.Contracts.GlobalAlias[], Comindware.Platform.Contracts",
                              "$values": [
                                {
                                  "$type": "Comindware.Platform.Contracts.GlobalAlias, Comindware.Platform.Contracts",
                                  "Type": "Attribute",
                                  "Owner": "Detalizatsiimediaplanov",
                                  "Alias": "SMI"
                                }
                              ]
                            },
                            "EditorType": "Radio",
                            "CreationType": "None",
                            "RemovalType": "None",
                            "EditType": "None",
                            "ChildPropertyAlias": {
                              "$type": "Comindware.Platform.Contracts.GlobalAlias, Comindware.Platform.Contracts",
                              "Type": "Undefined"
                            },
                            "OrderPropertyAlias": {
                              "$type": "Comindware.Platform.Contracts.GlobalAlias, Comindware.Platform.Contracts",
                              "Type": "Undefined"
                            },
                            "NumberPropertyAlias": {
                              "$type": "Comindware.Platform.Contracts.GlobalAlias, Comindware.Platform.Contracts",
                              "Type": "Undefined"
                            },
                            "PrecedentPropertyAlias": {
                              "$type": "Comindware.Platform.Contracts.GlobalAlias, Comindware.Platform.Contracts",
                              "Type": "Undefined"
                            },
                            "SortingDirection": "Asc",
                            "PopupFormAlias": {
                              "$type": "Comindware.Platform.Contracts.GlobalAlias, Comindware.Platform.Contracts",
                              "Type": "Undefined"
                            },
                            "AllowEdit": false,
                            "DisplayFormat": "ShowAsPicture",
                            "GlobalAlias": {
                              "$type": "Comindware.Platform.Contracts.GlobalAlias, Comindware.Platform.Contracts",
                              "Type": "FormComponent",
                              "Alias": "Detalizatsiyamediaplana_SMI"
                            },
                            "AccessType": "Editable",
                            "Width": 150,
                            "Type": "FieldComponent"
                          },
                          {
                            "$type": "Comindware.Platform.Contracts.FieldComponentModel, Comindware.Platform.Contracts",
                            "Label": {
                              "$type": "Comindware.Platform.Contracts.LabelModel, Comindware.Platform.Contracts",
                              "Hidden": false,
                              "Alignment": "Undefined",
                              "Text": {
                                "$type": "Comindware.Platform.Contracts.LocalizedTextModel, Comindware.Platform.Contracts",
                                "En": "Вид медиа",
                                "De": "Вид медиа",
                                "Ru": "Вид медиа"
                              }
                            },
                            "FieldType": "TableColumn",
                            "Placeholder": {
                              "$type": "Comindware.Platform.Contracts.LocalizedTextModel, Comindware.Platform.Contracts"
                            },
                            "HelpText": {
                              "$type": "Comindware.Platform.Contracts.LocalizedTextModel, Comindware.Platform.Contracts"
                            },
                            "PropertyPath": {
                              "$type": "Comindware.Platform.Contracts.GlobalAlias[], Comindware.Platform.Contracts",
                              "$values": [
                                {
                                  "$type": "Comindware.Platform.Contracts.GlobalAlias, Comindware.Platform.Contracts",
                                  "Type": "Attribute",
                                  "Owner": "Detalizatsiimediaplanov",
                                  "Alias": "Vidmedia"
                                }
                              ]
                            },
                            "EditorType": "Radio",
                            "CreationType": "None",
                            "RemovalType": "None",
                            "EditType": "None",
                            "ChildPropertyAlias": {
                              "$type": "Comindware.Platform.Contracts.GlobalAlias, Comindware.Platform.Contracts",
                              "Type": "Undefined"
                            },
                            "OrderPropertyAlias": {
                              "$type": "Comindware.Platform.Contracts.GlobalAlias, Comindware.Platform.Contracts",
                              "Type": "Undefined"
                            },
                            "NumberPropertyAlias": {
                              "$type": "Comindware.Platform.Contracts.GlobalAlias, Comindware.Platform.Contracts",
                              "Type": "Undefined"
                            },
                            "PrecedentPropertyAlias": {
                              "$type": "Comindware.Platform.Contracts.GlobalAlias, Comindware.Platform.Contracts",
                              "Type": "Undefined"
                            },
                            "SortingDirection": "Asc",
                            "PopupFormAlias": {
                              "$type": "Comindware.Platform.Contracts.GlobalAlias, Comindware.Platform.Contracts",
                              "Type": "Undefined"
                            },
                            "AllowEdit": false,
                            "DisplayFormat": "ShowAsPicture",
                            "GlobalAlias": {
                              "$type": "Comindware.Platform.Contracts.GlobalAlias, Comindware.Platform.Contracts",
                              "Type": "FormComponent",
                              "Alias": "Detalizatsiyamediaplana_Vidmedia"
                            },
                            "AccessType": "Editable",
                            "Width": 200,
                            "Type": "FieldComponent"
                          },
                          {
                            "$type": "Comindware.Platform.Contracts.FieldComponentModel, Comindware.Platform.Contracts",
                            "Label": {
                              "$type": "Comindware.Platform.Contracts.LabelModel, Comindware.Platform.Contracts",
                              "Hidden": false,
                              "Alignment": "Undefined",
                              "Text": {
                                "$type": "Comindware.Platform.Contracts.LocalizedTextModel, Comindware.Platform.Contracts",
                                "En": "Итоговая сумма, руб",
                                "De": "Итоговая сумма, руб",
                                "Ru": "Итоговая сумма, руб"
                              }
                            },
                            "FieldType": "TableColumn",
                            "Placeholder": {
                              "$type": "Comindware.Platform.Contracts.LocalizedTextModel, Comindware.Platform.Contracts"
                            },
                            "HelpText": {
                              "$type": "Comindware.Platform.Contracts.LocalizedTextModel, Comindware.Platform.Contracts"
                            },
                            "PropertyPath": {
                              "$type": "Comindware.Platform.Contracts.GlobalAlias[], Comindware.Platform.Contracts",
                              "$values": [
                                {
                                  "$type": "Comindware.Platform.Contracts.GlobalAlias, Comindware.Platform.Contracts",
                                  "Type": "Attribute",
                                  "Owner": "Detalizatsiimediaplanov",
                                  "Alias": "ItogovayaSummaRub"
                                }
                              ]
                            },
                            "EditorType": "Radio",
                            "CreationType": "None",
                            "RemovalType": "None",
                            "EditType": "None",
                            "ChildPropertyAlias": {
                              "$type": "Comindware.Platform.Contracts.GlobalAlias, Comindware.Platform.Contracts",
                              "Type": "Undefined"
                            },
                            "OrderPropertyAlias": {
                              "$type": "Comindware.Platform.Contracts.GlobalAlias, Comindware.Platform.Contracts",
                              "Type": "Undefined"
                            },
                            "NumberPropertyAlias": {
                              "$type": "Comindware.Platform.Contracts.GlobalAlias, Comindware.Platform.Contracts",
                              "Type": "Undefined"
                            },
                            "PrecedentPropertyAlias": {
                              "$type": "Comindware.Platform.Contracts.GlobalAlias, Comindware.Platform.Contracts",
                              "Type": "Undefined"
                            },
                            "SortingDirection": "Asc",
                            "PopupFormAlias": {
                              "$type": "Comindware.Platform.Contracts.GlobalAlias, Comindware.Platform.Contracts",
                              "Type": "Undefined"
                            },
                            "AllowEdit": false,
                            "DisplayFormat": "ShowAsPicture",
                            "GlobalAlias": {
                              "$type": "Comindware.Platform.Contracts.GlobalAlias, Comindware.Platform.Contracts",
                              "Type": "FormComponent",
                              "Alias": "Detalizatsiyamediaplana_ItogovayaSummaRub"
                            },
                            "AccessType": "Editable",
                            "Width": 120,
                            "Type": "FieldComponent"
                          },
                          {
                            "$type": "Comindware.Platform.Contracts.FieldComponentModel, Comindware.Platform.Contracts",
                            "Label": {
                              "$type": "Comindware.Platform.Contracts.LabelModel, Comindware.Platform.Contracts",
                              "Hidden": false,
                              "Alignment": "Undefined",
                              "Text": {
                                "$type": "Comindware.Platform.Contracts.LocalizedTextModel, Comindware.Platform.Contracts",
                                "En": "Города",
                                "De": "Города",
                                "Ru": "Города"
                              }
                            },
                            "FieldType": "TableColumn",
                            "Placeholder": {
                              "$type": "Comindware.Platform.Contracts.LocalizedTextModel, Comindware.Platform.Contracts"
                            },
                            "HelpText": {
                              "$type": "Comindware.Platform.Contracts.LocalizedTextModel, Comindware.Platform.Contracts"
                            },
                            "PropertyPath": {
                              "$type": "Comindware.Platform.Contracts.GlobalAlias[], Comindware.Platform.Contracts",
                              "$values": [
                                {
                                  "$type": "Comindware.Platform.Contracts.GlobalAlias, Comindware.Platform.Contracts",
                                  "Type": "Attribute",
                                  "Owner": "Detalizatsiimediaplanov",
                                  "Alias": "GEO"
                                }
                              ]
                            },
                            "EditorType": "Radio",
                            "CreationType": "None",
                            "RemovalType": "None",
                            "EditType": "None",
                            "ChildPropertyAlias": {
                              "$type": "Comindware.Platform.Contracts.GlobalAlias, Comindware.Platform.Contracts",
                              "Type": "Undefined"
                            },
                            "OrderPropertyAlias": {
                              "$type": "Comindware.Platform.Contracts.GlobalAlias, Comindware.Platform.Contracts",
                              "Type": "Undefined"
                            },
                            "NumberPropertyAlias": {
                              "$type": "Comindware.Platform.Contracts.GlobalAlias, Comindware.Platform.Contracts",
                              "Type": "Undefined"
                            },
                            "PrecedentPropertyAlias": {
                              "$type": "Comindware.Platform.Contracts.GlobalAlias, Comindware.Platform.Contracts",
                              "Type": "Undefined"
                            },
                            "SortingDirection": "Asc",
                            "PopupFormAlias": {
                              "$type": "Comindware.Platform.Contracts.GlobalAlias, Comindware.Platform.Contracts",
                              "Type": "Undefined"
                            },
                            "AllowEdit": false,
                            "DisplayFormat": "ShowAsPicture",
                            "GlobalAlias": {
                              "$type": "Comindware.Platform.Contracts.GlobalAlias, Comindware.Platform.Contracts",
                              "Type": "FormComponent",
                              "Alias": "Detalizatsiyamediaplana_GEO"
                            },
                            "AccessType": "Editable",
                            "Width": 200,
                            "Type": "FieldComponent"
                          },
                          {
                            "$type": "Comindware.Platform.Contracts.FieldComponentModel, Comindware.Platform.Contracts",
                            "Label": {
                              "$type": "Comindware.Platform.Contracts.LabelModel, Comindware.Platform.Contracts",
                              "Hidden": false,
                              "Alignment": "Undefined",
                              "Text": {
                                "$type": "Comindware.Platform.Contracts.LocalizedTextModel, Comindware.Platform.Contracts",
                                "En": "Период",
                                "De": "Период",
                                "Ru": "Период"
                              }
                            },
                            "FieldType": "TableColumn",
                            "Placeholder": {
                              "$type": "Comindware.Platform.Contracts.LocalizedTextModel, Comindware.Platform.Contracts"
                            },
                            "HelpText": {
                              "$type": "Comindware.Platform.Contracts.LocalizedTextModel, Comindware.Platform.Contracts"
                            },
                            "PropertyPath": {
                              "$type": "Comindware.Platform.Contracts.GlobalAlias[], Comindware.Platform.Contracts",
                              "$values": [
                                {
                                  "$type": "Comindware.Platform.Contracts.GlobalAlias, Comindware.Platform.Contracts",
                                  "Type": "Attribute",
                                  "Owner": "Detalizatsiimediaplanov",
                                  "Alias": "Period"
                                }
                              ]
                            },
                            "EditorType": "Radio",
                            "CreationType": "None",
                            "RemovalType": "None",
                            "EditType": "None",
                            "ChildPropertyAlias": {
                              "$type": "Comindware.Platform.Contracts.GlobalAlias, Comindware.Platform.Contracts",
                              "Type": "Undefined"
                            },
                            "OrderPropertyAlias": {
                              "$type": "Comindware.Platform.Contracts.GlobalAlias, Comindware.Platform.Contracts",
                              "Type": "Undefined"
                            },
                            "NumberPropertyAlias": {
                              "$type": "Comindware.Platform.Contracts.GlobalAlias, Comindware.Platform.Contracts",
                              "Type": "Undefined"
                            },
                            "PrecedentPropertyAlias": {
                              "$type": "Comindware.Platform.Contracts.GlobalAlias, Comindware.Platform.Contracts",
                              "Type": "Undefined"
                            },
                            "SortingDirection": "Asc",
                            "PopupFormAlias": {
                              "$type": "Comindware.Platform.Contracts.GlobalAlias, Comindware.Platform.Contracts",
                              "Type": "Undefined"
                            },
                            "AllowEdit": false,
                            "DisplayFormat": "ShowAsPicture",
                            "GlobalAlias": {
                              "$type": "Comindware.Platform.Contracts.GlobalAlias, Comindware.Platform.Contracts",
                              "Type": "FormComponent",
                              "Alias": "Detalizatsiyamediaplana_Period"
                            },
                            "AccessType": "Editable",
                            "Width": 150,
                            "Type": "FieldComponent"
                          }
                        ]
                      },
                      "ChildPropertyAlias": {
                        "$type": "Comindware.Platform.Contracts.GlobalAlias, Comindware.Platform.Contracts",
                        "Type": "Undefined"
                      },
                      "OrderPropertyAlias": {
                        "$type": "Comindware.Platform.Contracts.GlobalAlias, Comindware.Platform.Contracts",
                        "Type": "Undefined"
                      },
                      "NumberPropertyAlias": {
                        "$type": "Comindware.Platform.Contracts.GlobalAlias, Comindware.Platform.Contracts",
                        "Type": "Undefined"
                      },
                      "PrecedentPropertyAlias": {
                        "$type": "Comindware.Platform.Contracts.GlobalAlias, Comindware.Platform.Contracts",
                        "Type": "Undefined"
                      },
                      "SortingDirection": "Asc",
                      "ShowArchiveRecords": false,
                      "PopupFormAlias": {
                        "$type": "Comindware.Platform.Contracts.GlobalAlias, Comindware.Platform.Contracts",
                        "Type": "Undefined"
                      },
                      "DisplayFormat": "ShowAsPicture",
                      "GlobalAlias": {
                        "$type": "Comindware.Platform.Contracts.GlobalAlias, Comindware.Platform.Contracts",
                        "Type": "FormComponent",
                        "Alias": "Detalizatsiyamediaplana"
                      },
                      "AccessType": "Editable",
                      "Width": 0,
                      "Type": "FieldComponent",
                      "Toolbar": {
                        "$type": "System.Nullable`1[[Comindware.Platform.Contracts.GlobalAlias, Comindware.Platform.Contracts]], mscorlib",
                        "Type": "Toolbar",
                        "Owner": "Detalizatsiimediaplanov",
                        "Alias": "toolbarc43180324031453b904d7319a0e8e042"
                      }
                    }
                  ]
                },
                "GlobalAlias": {
                  "$type": "Comindware.Platform.Contracts.GlobalAlias, Comindware.Platform.Contracts",
                  "Type": "FormComponent",
                  "Alias": "VerticalLayout3"
                },
                "AccessType": "Undefined",
                "Width": 0,
                "Type": "VerticalLayout"
              }
            ]
          },
          "GlobalAlias": {
            "$type": "Comindware.Platform.Contracts.GlobalAlias, Comindware.Platform.Contracts",
            "Type": "FormComponent",
            "Alias": "GroupPanelComponent2"
          },
          "AccessType": "Editable",
          "Width": 100,
          "Type": "PanelModel",
          "Toolbar": {
            "$type": "System.Nullable`1[[Comindware.Platform.Contracts.GlobalAlias, Comindware.Platform.Contracts]], mscorlib",
            "Type": "Toolbar",
            "Owner": "Mediaplany",
            "Alias": "toolbare863ac79403940c3bf397bd70474e43e"
          }
        }
      ]
    },
    "GlobalAlias": {
      "$type": "Comindware.Platform.Contracts.GlobalAlias, Comindware.Platform.Contracts",
      "Type": "FormComponent",
      "Alias": "default_Root"
    },
    "AccessType": "Undefined",
    "Width": 0,
    "Type": "VerticalLayout"
  },
  "Name": "FUSE для баинга",
  "Origination": "Undefined"
}