{
  "$type": "Comindware.Platform.Contracts.FormModel, Comindware.Platform.Contracts",
  "GlobalAlias": {
    "$type": "Comindware.Platform.Contracts.GlobalAlias, Comindware.Platform.Contracts",
    "Type": "Form",
    "Owner": "Mediaplany",
    "Alias": "TVDetalizatsiya"
  },
  "Type": "InternalForm",
  "IsDefault": false,
  "Root": {
    "$type": "Comindware.Platform.Contracts.VerticalLayoutModel, Comindware.Platform.Contracts",
    "Rows": {
      "$type": "System.Collections.Generic.List`1[[Comindware.Platform.Contracts.FormComponentModel, Comindware.Platform.Contracts]], mscorlib",
      "$values": [
        {
          "$type": "Comindware.Platform.Contracts.PanelModel, Comindware.Platform.Contracts",
          "Text": {
            "$type": "Comindware.Platform.Contracts.LocalizedTextModel, Comindware.Platform.Contracts",
            "En": "ТВ - Детализация",
            "De": "ТВ - Детализация",
            "Ru": "ТВ - Детализация"
          },
          "OriginalType": "GroupPanel",
          "Rows": {
            "$type": "System.Collections.Generic.List`1[[Comindware.Platform.Contracts.FormComponentModel, Comindware.Platform.Contracts]], mscorlib",
            "$values": [
              {
                "$type": "Comindware.Platform.Contracts.VerticalLayoutModel, Comindware.Platform.Contracts",
                "Rows": {
                  "$type": "System.Collections.Generic.List`1[[Comindware.Platform.Contracts.FormComponentModel, Comindware.Platform.Contracts]], mscorlib",
                  "$values": [
                    {
                      "$type": "Comindware.Platform.Contracts.FieldComponentModel, Comindware.Platform.Contracts",
                      "Label": {
                        "$type": "Comindware.Platform.Contracts.LabelModel, Comindware.Platform.Contracts",
                        "Hidden": false,
                        "Alignment": "Top",
                        "Text": {
                          "$type": "Comindware.Platform.Contracts.LocalizedTextModel, Comindware.Platform.Contracts"
                        }
                      },
                      "FieldType": "Table",
                      "Placeholder": {
                        "$type": "Comindware.Platform.Contracts.LocalizedTextModel, Comindware.Platform.Contracts"
                      },
                      "HelpText": {
                        "$type": "Comindware.Platform.Contracts.LocalizedTextModel, Comindware.Platform.Contracts"
                      },
                      "PropertyPath": {
                        "$type": "Comindware.Platform.Contracts.GlobalAlias[], Comindware.Platform.Contracts",
                        "$values": [
                          {
                            "$type": "Comindware.Platform.Contracts.GlobalAlias, Comindware.Platform.Contracts",
                            "Type": "Attribute",
                            "Owner": "Mediaplany",
                            "Alias": "Detalizatsiyamediaplana"
                          }
                        ]
                      },
                      "EditorType": "Radio",
                      "CreationType": "None",
                      "RemovalType": "None",
                      "EditType": "None",
                      "Columns": {
                        "$type": "System.Collections.Generic.List`1[[Comindware.Platform.Contracts.FieldComponentModel, Comindware.Platform.Contracts]], mscorlib",
                        "$values": [
                          {
                            "$type": "Comindware.Platform.Contracts.FieldComponentModel, Comindware.Platform.Contracts",
                            "Label": {
                              "$type": "Comindware.Platform.Contracts.LabelModel, Comindware.Platform.Contracts",
                              "Hidden": false,
                              "Alignment": "Undefined",
                              "Text": {
                                "$type": "Comindware.Platform.Contracts.LocalizedTextModel, Comindware.Platform.Contracts",
                                "En": "СМИ",
                                "De": "СМИ",
                                "Ru": "СМИ"
                              }
                            },
                            "FieldType": "TableColumn",
                            "Placeholder": {
                              "$type": "Comindware.Platform.Contracts.LocalizedTextModel, Comindware.Platform.Contracts"
                            },
                            "HelpText": {
                              "$type": "Comindware.Platform.Contracts.LocalizedTextModel, Comindware.Platform.Contracts"
                            },
                            "PropertyPath": {
                              "$type": "Comindware.Platform.Contracts.GlobalAlias[], Comindware.Platform.Contracts",
                              "$values": [
                                {
                                  "$type": "Comindware.Platform.Contracts.GlobalAlias, Comindware.Platform.Contracts",
                                  "Type": "Attribute",
                                  "Owner": "Detalizatsiimediaplanov",
                                  "Alias": "SMI"
                                }
                              ]
                            },
                            "EditorType": "Radio",
                            "CreationType": "None",
                            "RemovalType": "None",
                            "EditType": "None",
                            "ChildPropertyAlias": {
                              "$type": "Comindware.Platform.Contracts.GlobalAlias, Comindware.Platform.Contracts",
                              "Type": "Undefined"
                            },
                            "OrderPropertyAlias": {
                              "$type": "Comindware.Platform.Contracts.GlobalAlias, Comindware.Platform.Contracts",
                              "Type": "Undefined"
                            },
                            "NumberPropertyAlias": {
                              "$type": "Comindware.Platform.Contracts.GlobalAlias, Comindware.Platform.Contracts",
                              "Type": "Undefined"
                            },
                            "PrecedentPropertyAlias": {
                              "$type": "Comindware.Platform.Contracts.GlobalAlias, Comindware.Platform.Contracts",
                              "Type": "Undefined"
                            },
                            "SortingDirection": "Asc",
                            "PopupFormAlias": {
                              "$type": "Comindware.Platform.Contracts.GlobalAlias, Comindware.Platform.Contracts",
                              "Type": "Undefined"
                            },
                            "AllowEdit": false,
                            "DisplayFormat": "ShowAsPicture",
                            "GlobalAlias": {
                              "$type": "Comindware.Platform.Contracts.GlobalAlias, Comindware.Platform.Contracts",
                              "Type": "FormComponent",
                              "Alias": "Detalizatsiyamediaplana_SMI"
                            },
                            "AccessType": "Editable",
                            "Width": 150,
                            "Type": "FieldComponent"
                          },
                          {
                            "$type": "Comindware.Platform.Contracts.FieldComponentModel, Comindware.Platform.Contracts",
                            "Label": {
                              "$type": "Comindware.Platform.Contracts.LabelModel, Comindware.Platform.Contracts",
                              "Hidden": false,
                              "Alignment": "Undefined",
                              "Text": {
                                "$type": "Comindware.Platform.Contracts.LocalizedTextModel, Comindware.Platform.Contracts",
                                "En": "Вид медиа",
                                "De": "Вид медиа",
                                "Ru": "Вид медиа"
                              }
                            },
                            "FieldType": "TableColumn",
                            "Placeholder": {
                              "$type": "Comindware.Platform.Contracts.LocalizedTextModel, Comindware.Platform.Contracts"
                            },
                            "HelpText": {
                              "$type": "Comindware.Platform.Contracts.LocalizedTextModel, Comindware.Platform.Contracts"
                            },
                            "PropertyPath": {
                              "$type": "Comindware.Platform.Contracts.GlobalAlias[], Comindware.Platform.Contracts",
                              "$values": [
                                {
                                  "$type": "Comindware.Platform.Contracts.GlobalAlias, Comindware.Platform.Contracts",
                                  "Type": "Attribute",
                                  "Owner": "Detalizatsiimediaplanov",
                                  "Alias": "Vidmedia"
                                }
                              ]
                            },
                            "EditorType": "Radio",
                            "CreationType": "None",
                            "RemovalType": "None",
                            "EditType": "None",
                            "ChildPropertyAlias": {
                              "$type": "Comindware.Platform.Contracts.GlobalAlias, Comindware.Platform.Contracts",
                              "Type": "Undefined"
                            },
                            "OrderPropertyAlias": {
                              "$type": "Comindware.Platform.Contracts.GlobalAlias, Comindware.Platform.Contracts",
                              "Type": "Undefined"
                            },
                            "NumberPropertyAlias": {
                              "$type": "Comindware.Platform.Contracts.GlobalAlias, Comindware.Platform.Contracts",
                              "Type": "Undefined"
                            },
                            "PrecedentPropertyAlias": {
                              "$type": "Comindware.Platform.Contracts.GlobalAlias, Comindware.Platform.Contracts",
                              "Type": "Undefined"
                            },
                            "SortingDirection": "Asc",
                            "PopupFormAlias": {
                              "$type": "Comindware.Platform.Contracts.GlobalAlias, Comindware.Platform.Contracts",
                              "Type": "Undefined"
                            },
                            "AllowEdit": false,
                            "DisplayFormat": "ShowAsPicture",
                            "GlobalAlias": {
                              "$type": "Comindware.Platform.Contracts.GlobalAlias, Comindware.Platform.Contracts",
                              "Type": "FormComponent",
                              "Alias": "Detalizatsiyamediaplana_Vidmedia"
                            },
                            "AccessType": "Editable",
                            "Width": 200,
                            "Type": "FieldComponent"
                          },
                          {
                            "$type": "Comindware.Platform.Contracts.FieldComponentModel, Comindware.Platform.Contracts",
                            "Label": {
                              "$type": "Comindware.Platform.Contracts.LabelModel, Comindware.Platform.Contracts",
                              "Hidden": false,
                              "Alignment": "Undefined",
                              "Text": {
                                "$type": "Comindware.Platform.Contracts.LocalizedTextModel, Comindware.Platform.Contracts",
                                "En": "Услуга",
                                "De": "Услуга",
                                "Ru": "Услуга"
                              }
                            },
                            "FieldType": "TableColumn",
                            "Placeholder": {
                              "$type": "Comindware.Platform.Contracts.LocalizedTextModel, Comindware.Platform.Contracts"
                            },
                            "HelpText": {
                              "$type": "Comindware.Platform.Contracts.LocalizedTextModel, Comindware.Platform.Contracts"
                            },
                            "PropertyPath": {
                              "$type": "Comindware.Platform.Contracts.GlobalAlias[], Comindware.Platform.Contracts",
                              "$values": [
                                {
                                  "$type": "Comindware.Platform.Contracts.GlobalAlias, Comindware.Platform.Contracts",
                                  "Type": "Attribute",
                                  "Owner": "Detalizatsiimediaplanov",
                                  "Alias": "Detaliuslugi"
                                }
                              ]
                            },
                            "EditorType": "Radio",
                            "CreationType": "None",
                            "RemovalType": "None",
                            "EditType": "None",
                            "ChildPropertyAlias": {
                              "$type": "Comindware.Platform.Contracts.GlobalAlias, Comindware.Platform.Contracts",
                              "Type": "Undefined"
                            },
                            "OrderPropertyAlias": {
                              "$type": "Comindware.Platform.Contracts.GlobalAlias, Comindware.Platform.Contracts",
                              "Type": "Undefined"
                            },
                            "NumberPropertyAlias": {
                              "$type": "Comindware.Platform.Contracts.GlobalAlias, Comindware.Platform.Contracts",
                              "Type": "Undefined"
                            },
                            "PrecedentPropertyAlias": {
                              "$type": "Comindware.Platform.Contracts.GlobalAlias, Comindware.Platform.Contracts",
                              "Type": "Undefined"
                            },
                            "SortingDirection": "Asc",
                            "PopupFormAlias": {
                              "$type": "Comindware.Platform.Contracts.GlobalAlias, Comindware.Platform.Contracts",
                              "Type": "Undefined"
                            },
                            "AllowEdit": false,
                            "DisplayFormat": "ShowAsPicture",
                            "GlobalAlias": {
                              "$type": "Comindware.Platform.Contracts.GlobalAlias, Comindware.Platform.Contracts",
                              "Type": "FormComponent",
                              "Alias": "Detalizatsiyamediaplana_Detaliuslugi"
                            },
                            "AccessType": "Editable",
                            "Width": 200,
                            "Type": "FieldComponent"
                          },
                          {
                            "$type": "Comindware.Platform.Contracts.FieldComponentModel, Comindware.Platform.Contracts",
                            "Label": {
                              "$type": "Comindware.Platform.Contracts.LabelModel, Comindware.Platform.Contracts",
                              "Hidden": false,
                              "Alignment": "Undefined",
                              "Text": {
                                "$type": "Comindware.Platform.Contracts.LocalizedTextModel, Comindware.Platform.Contracts",
                                "En": "Тип вещания",
                                "De": "Тип вещания",
                                "Ru": "Тип вещания"
                              }
                            },
                            "FieldType": "TableColumn",
                            "Placeholder": {
                              "$type": "Comindware.Platform.Contracts.LocalizedTextModel, Comindware.Platform.Contracts"
                            },
                            "HelpText": {
                              "$type": "Comindware.Platform.Contracts.LocalizedTextModel, Comindware.Platform.Contracts"
                            },
                            "PropertyPath": {
                              "$type": "Comindware.Platform.Contracts.GlobalAlias[], Comindware.Platform.Contracts",
                              "$values": [
                                {
                                  "$type": "Comindware.Platform.Contracts.GlobalAlias, Comindware.Platform.Contracts",
                                  "Type": "Attribute",
                                  "Owner": "Detalizatsiimediaplanov",
                                  "Alias": "_TVTipveschaniya"
                                }
                              ]
                            },
                            "EditorType": "Radio",
                            "CreationType": "None",
                            "RemovalType": "None",
                            "EditType": "None",
                            "ChildPropertyAlias": {
                              "$type": "Comindware.Platform.Contracts.GlobalAlias, Comindware.Platform.Contracts",
                              "Type": "Undefined"
                            },
                            "OrderPropertyAlias": {
                              "$type": "Comindware.Platform.Contracts.GlobalAlias, Comindware.Platform.Contracts",
                              "Type": "Undefined"
                            },
                            "NumberPropertyAlias": {
                              "$type": "Comindware.Platform.Contracts.GlobalAlias, Comindware.Platform.Contracts",
                              "Type": "Undefined"
                            },
                            "PrecedentPropertyAlias": {
                              "$type": "Comindware.Platform.Contracts.GlobalAlias, Comindware.Platform.Contracts",
                              "Type": "Undefined"
                            },
                            "SortingDirection": "Asc",
                            "PopupFormAlias": {
                              "$type": "Comindware.Platform.Contracts.GlobalAlias, Comindware.Platform.Contracts",
                              "Type": "Undefined"
                            },
                            "AllowEdit": false,
                            "DisplayFormat": "ShowAsPicture",
                            "GlobalAlias": {
                              "$type": "Comindware.Platform.Contracts.GlobalAlias, Comindware.Platform.Contracts",
                              "Type": "FormComponent",
                              "Alias": "Detalizatsiyamediaplana__TVTipveschaniya"
                            },
                            "AccessType": "Editable",
                            "Width": 200,
                            "Type": "FieldComponent"
                          },
                          {
                            "$type": "Comindware.Platform.Contracts.FieldComponentModel, Comindware.Platform.Contracts",
                            "Label": {
                              "$type": "Comindware.Platform.Contracts.LabelModel, Comindware.Platform.Contracts",
                              "Hidden": false,
                              "Alignment": "Undefined",
                              "Text": {
                                "$type": "Comindware.Platform.Contracts.LocalizedTextModel, Comindware.Platform.Contracts",
                                "En": "Медианоситель",
                                "De": "Медианоситель",
                                "Ru": "Медианоситель"
                              }
                            },
                            "FieldType": "TableColumn",
                            "Placeholder": {
                              "$type": "Comindware.Platform.Contracts.LocalizedTextModel, Comindware.Platform.Contracts"
                            },
                            "HelpText": {
                              "$type": "Comindware.Platform.Contracts.LocalizedTextModel, Comindware.Platform.Contracts"
                            },
                            "PropertyPath": {
                              "$type": "Comindware.Platform.Contracts.GlobalAlias[], Comindware.Platform.Contracts",
                              "$values": [
                                {
                                  "$type": "Comindware.Platform.Contracts.GlobalAlias, Comindware.Platform.Contracts",
                                  "Type": "Attribute",
                                  "Owner": "Detalizatsiimediaplanov",
                                  "Alias": "Medianositel"
                                }
                              ]
                            },
                            "EditorType": "Radio",
                            "CreationType": "None",
                            "RemovalType": "None",
                            "EditType": "None",
                            "ChildPropertyAlias": {
                              "$type": "Comindware.Platform.Contracts.GlobalAlias, Comindware.Platform.Contracts",
                              "Type": "Undefined"
                            },
                            "OrderPropertyAlias": {
                              "$type": "Comindware.Platform.Contracts.GlobalAlias, Comindware.Platform.Contracts",
                              "Type": "Undefined"
                            },
                            "NumberPropertyAlias": {
                              "$type": "Comindware.Platform.Contracts.GlobalAlias, Comindware.Platform.Contracts",
                              "Type": "Undefined"
                            },
                            "PrecedentPropertyAlias": {
                              "$type": "Comindware.Platform.Contracts.GlobalAlias, Comindware.Platform.Contracts",
                              "Type": "Undefined"
                            },
                            "SortingDirection": "Asc",
                            "PopupFormAlias": {
                              "$type": "Comindware.Platform.Contracts.GlobalAlias, Comindware.Platform.Contracts",
                              "Type": "Undefined"
                            },
                            "AllowEdit": false,
                            "DisplayFormat": "ShowAsPicture",
                            "GlobalAlias": {
                              "$type": "Comindware.Platform.Contracts.GlobalAlias, Comindware.Platform.Contracts",
                              "Type": "FormComponent",
                              "Alias": "Detalizatsiyamediaplana_Medianositel"
                            },
                            "AccessType": "Editable",
                            "Width": 200,
                            "Type": "FieldComponent"
                          },
                          {
                            "$type": "Comindware.Platform.Contracts.FieldComponentModel, Comindware.Platform.Contracts",
                            "Label": {
                              "$type": "Comindware.Platform.Contracts.LabelModel, Comindware.Platform.Contracts",
                              "Hidden": false,
                              "Alignment": "Undefined",
                              "Text": {
                                "$type": "Comindware.Platform.Contracts.LocalizedTextModel, Comindware.Platform.Contracts",
                                "En": "Геотаргетинг",
                                "De": "Геотаргетинг",
                                "Ru": "Геотаргетинг"
                              }
                            },
                            "FieldType": "TableColumn",
                            "Placeholder": {
                              "$type": "Comindware.Platform.Contracts.LocalizedTextModel, Comindware.Platform.Contracts"
                            },
                            "HelpText": {
                              "$type": "Comindware.Platform.Contracts.LocalizedTextModel, Comindware.Platform.Contracts"
                            },
                            "PropertyPath": {
                              "$type": "Comindware.Platform.Contracts.GlobalAlias[], Comindware.Platform.Contracts",
                              "$values": [
                                {
                                  "$type": "Comindware.Platform.Contracts.GlobalAlias, Comindware.Platform.Contracts",
                                  "Type": "Attribute",
                                  "Owner": "Detalizatsiimediaplanov",
                                  "Alias": "Geografiya"
                                }
                              ]
                            },
                            "EditorType": "Radio",
                            "CreationType": "None",
                            "RemovalType": "None",
                            "EditType": "None",
                            "ChildPropertyAlias": {
                              "$type": "Comindware.Platform.Contracts.GlobalAlias, Comindware.Platform.Contracts",
                              "Type": "Undefined"
                            },
                            "OrderPropertyAlias": {
                              "$type": "Comindware.Platform.Contracts.GlobalAlias, Comindware.Platform.Contracts",
                              "Type": "Undefined"
                            },
                            "NumberPropertyAlias": {
                              "$type": "Comindware.Platform.Contracts.GlobalAlias, Comindware.Platform.Contracts",
                              "Type": "Undefined"
                            },
                            "PrecedentPropertyAlias": {
                              "$type": "Comindware.Platform.Contracts.GlobalAlias, Comindware.Platform.Contracts",
                              "Type": "Undefined"
                            },
                            "SortingDirection": "Asc",
                            "PopupFormAlias": {
                              "$type": "Comindware.Platform.Contracts.GlobalAlias, Comindware.Platform.Contracts",
                              "Type": "Undefined"
                            },
                            "AllowEdit": false,
                            "DisplayFormat": "ShowAsPicture",
                            "GlobalAlias": {
                              "$type": "Comindware.Platform.Contracts.GlobalAlias, Comindware.Platform.Contracts",
                              "Type": "FormComponent",
                              "Alias": "Detalizatsiyamediaplana_Geografiya"
                            },
                            "AccessType": "Editable",
                            "Width": 150,
                            "Type": "FieldComponent"
                          },
                          {
                            "$type": "Comindware.Platform.Contracts.FieldComponentModel, Comindware.Platform.Contracts",
                            "Label": {
                              "$type": "Comindware.Platform.Contracts.LabelModel, Comindware.Platform.Contracts",
                              "Hidden": false,
                              "Alignment": "Undefined",
                              "Text": {
                                "$type": "Comindware.Platform.Contracts.LocalizedTextModel, Comindware.Platform.Contracts",
                                "En": "Города",
                                "De": "Города",
                                "Ru": "Города"
                              }
                            },
                            "FieldType": "TableColumn",
                            "Placeholder": {
                              "$type": "Comindware.Platform.Contracts.LocalizedTextModel, Comindware.Platform.Contracts"
                            },
                            "HelpText": {
                              "$type": "Comindware.Platform.Contracts.LocalizedTextModel, Comindware.Platform.Contracts"
                            },
                            "PropertyPath": {
                              "$type": "Comindware.Platform.Contracts.GlobalAlias[], Comindware.Platform.Contracts",
                              "$values": [
                                {
                                  "$type": "Comindware.Platform.Contracts.GlobalAlias, Comindware.Platform.Contracts",
                                  "Type": "Attribute",
                                  "Owner": "Detalizatsiimediaplanov",
                                  "Alias": "GEO"
                                }
                              ]
                            },
                            "EditorType": "Radio",
                            "CreationType": "None",
                            "RemovalType": "None",
                            "EditType": "None",
                            "ChildPropertyAlias": {
                              "$type": "Comindware.Platform.Contracts.GlobalAlias, Comindware.Platform.Contracts",
                              "Type": "Undefined"
                            },
                            "OrderPropertyAlias": {
                              "$type": "Comindware.Platform.Contracts.GlobalAlias, Comindware.Platform.Contracts",
                              "Type": "Undefined"
                            },
                            "NumberPropertyAlias": {
                              "$type": "Comindware.Platform.Contracts.GlobalAlias, Comindware.Platform.Contracts",
                              "Type": "Undefined"
                            },
                            "PrecedentPropertyAlias": {
                              "$type": "Comindware.Platform.Contracts.GlobalAlias, Comindware.Platform.Contracts",
                              "Type": "Undefined"
                            },
                            "SortingDirection": "Asc",
                            "PopupFormAlias": {
                              "$type": "Comindware.Platform.Contracts.GlobalAlias, Comindware.Platform.Contracts",
                              "Type": "Undefined"
                            },
                            "AllowEdit": false,
                            "DisplayFormat": "ShowAsPicture",
                            "GlobalAlias": {
                              "$type": "Comindware.Platform.Contracts.GlobalAlias, Comindware.Platform.Contracts",
                              "Type": "FormComponent",
                              "Alias": "Detalizatsiyamediaplana_GEO"
                            },
                            "AccessType": "Editable",
                            "Width": 200,
                            "Type": "FieldComponent"
                          },
                          {
                            "$type": "Comindware.Platform.Contracts.FieldComponentModel, Comindware.Platform.Contracts",
                            "Label": {
                              "$type": "Comindware.Platform.Contracts.LabelModel, Comindware.Platform.Contracts",
                              "Hidden": false,
                              "Alignment": "Undefined",
                              "Text": {
                                "$type": "Comindware.Platform.Contracts.LocalizedTextModel, Comindware.Platform.Contracts",
                                "En": "Базовая закупочная аудитория",
                                "De": "Базовая закупочная аудитория",
                                "Ru": "Базовая закупочная аудитория"
                              }
                            },
                            "FieldType": "TableColumn",
                            "Placeholder": {
                              "$type": "Comindware.Platform.Contracts.LocalizedTextModel, Comindware.Platform.Contracts"
                            },
                            "HelpText": {
                              "$type": "Comindware.Platform.Contracts.LocalizedTextModel, Comindware.Platform.Contracts"
                            },
                            "PropertyPath": {
                              "$type": "Comindware.Platform.Contracts.GlobalAlias[], Comindware.Platform.Contracts",
                              "$values": [
                                {
                                  "$type": "Comindware.Platform.Contracts.GlobalAlias, Comindware.Platform.Contracts",
                                  "Type": "Attribute",
                                  "Owner": "Detalizatsiimediaplanov",
                                  "Alias": "_TVBazovayazakupochnayaauditoriya"
                                }
                              ]
                            },
                            "EditorType": "Radio",
                            "CreationType": "None",
                            "RemovalType": "None",
                            "EditType": "None",
                            "ChildPropertyAlias": {
                              "$type": "Comindware.Platform.Contracts.GlobalAlias, Comindware.Platform.Contracts",
                              "Type": "Undefined"
                            },
                            "OrderPropertyAlias": {
                              "$type": "Comindware.Platform.Contracts.GlobalAlias, Comindware.Platform.Contracts",
                              "Type": "Undefined"
                            },
                            "NumberPropertyAlias": {
                              "$type": "Comindware.Platform.Contracts.GlobalAlias, Comindware.Platform.Contracts",
                              "Type": "Undefined"
                            },
                            "PrecedentPropertyAlias": {
                              "$type": "Comindware.Platform.Contracts.GlobalAlias, Comindware.Platform.Contracts",
                              "Type": "Undefined"
                            },
                            "SortingDirection": "Asc",
                            "PopupFormAlias": {
                              "$type": "Comindware.Platform.Contracts.GlobalAlias, Comindware.Platform.Contracts",
                              "Type": "Undefined"
                            },
                            "AllowEdit": false,
                            "DisplayFormat": "ShowAsPicture",
                            "GlobalAlias": {
                              "$type": "Comindware.Platform.Contracts.GlobalAlias, Comindware.Platform.Contracts",
                              "Type": "FormComponent",
                              "Alias": "Detalizatsiyamediaplana__TVBazovayazakupochnayaauditoriya"
                            },
                            "AccessType": "Editable",
                            "Width": 250,
                            "Type": "FieldComponent"
                          },
                          {
                            "$type": "Comindware.Platform.Contracts.FieldComponentModel, Comindware.Platform.Contracts",
                            "Label": {
                              "$type": "Comindware.Platform.Contracts.LabelModel, Comindware.Platform.Contracts",
                              "Hidden": false,
                              "Alignment": "Undefined",
                              "Text": {
                                "$type": "Comindware.Platform.Contracts.LocalizedTextModel, Comindware.Platform.Contracts",
                                "En": "Единицы закупки",
                                "De": "Единицы закупки",
                                "Ru": "Единицы закупки"
                              }
                            },
                            "FieldType": "TableColumn",
                            "Placeholder": {
                              "$type": "Comindware.Platform.Contracts.LocalizedTextModel, Comindware.Platform.Contracts"
                            },
                            "HelpText": {
                              "$type": "Comindware.Platform.Contracts.LocalizedTextModel, Comindware.Platform.Contracts"
                            },
                            "PropertyPath": {
                              "$type": "Comindware.Platform.Contracts.GlobalAlias[], Comindware.Platform.Contracts",
                              "$values": [
                                {
                                  "$type": "Comindware.Platform.Contracts.GlobalAlias, Comindware.Platform.Contracts",
                                  "Type": "Attribute",
                                  "Owner": "Detalizatsiimediaplanov",
                                  "Alias": "_TVEdinitsyzakupki"
                                }
                              ]
                            },
                            "EditorType": "Radio",
                            "CreationType": "None",
                            "RemovalType": "None",
                            "EditType": "None",
                            "ChildPropertyAlias": {
                              "$type": "Comindware.Platform.Contracts.GlobalAlias, Comindware.Platform.Contracts",
                              "Type": "Undefined"
                            },
                            "OrderPropertyAlias": {
                              "$type": "Comindware.Platform.Contracts.GlobalAlias, Comindware.Platform.Contracts",
                              "Type": "Undefined"
                            },
                            "NumberPropertyAlias": {
                              "$type": "Comindware.Platform.Contracts.GlobalAlias, Comindware.Platform.Contracts",
                              "Type": "Undefined"
                            },
                            "PrecedentPropertyAlias": {
                              "$type": "Comindware.Platform.Contracts.GlobalAlias, Comindware.Platform.Contracts",
                              "Type": "Undefined"
                            },
                            "SortingDirection": "Asc",
                            "PopupFormAlias": {
                              "$type": "Comindware.Platform.Contracts.GlobalAlias, Comindware.Platform.Contracts",
                              "Type": "Undefined"
                            },
                            "AllowEdit": false,
                            "DisplayFormat": "ShowAsPicture",
                            "GlobalAlias": {
                              "$type": "Comindware.Platform.Contracts.GlobalAlias, Comindware.Platform.Contracts",
                              "Type": "FormComponent",
                              "Alias": "Detalizatsiyamediaplana__TVEdinitsyzakupki"
                            },
                            "AccessType": "Editable",
                            "Width": 200,
                            "Type": "FieldComponent"
                          },
                          {
                            "$type": "Comindware.Platform.Contracts.FieldComponentModel, Comindware.Platform.Contracts",
                            "Label": {
                              "$type": "Comindware.Platform.Contracts.LabelModel, Comindware.Platform.Contracts",
                              "Hidden": false,
                              "Alignment": "Undefined",
                              "Text": {
                                "$type": "Comindware.Platform.Contracts.LocalizedTextModel, Comindware.Platform.Contracts",
                                "En": "Всего (GRP's 20\" &хронометраж)",
                                "De": "Всего (GRP's 20\" &хронометраж)",
                                "Ru": "Всего (GRP's 20\" &хронометраж)"
                              }
                            },
                            "FieldType": "TableColumn",
                            "Placeholder": {
                              "$type": "Comindware.Platform.Contracts.LocalizedTextModel, Comindware.Platform.Contracts"
                            },
                            "HelpText": {
                              "$type": "Comindware.Platform.Contracts.LocalizedTextModel, Comindware.Platform.Contracts"
                            },
                            "PropertyPath": {
                              "$type": "Comindware.Platform.Contracts.GlobalAlias[], Comindware.Platform.Contracts",
                              "$values": [
                                {
                                  "$type": "Comindware.Platform.Contracts.GlobalAlias, Comindware.Platform.Contracts",
                                  "Type": "Attribute",
                                  "Owner": "Detalizatsiimediaplanov",
                                  "Alias": "_TVVsegoGRPs20khronometrazh"
                                }
                              ]
                            },
                            "EditorType": "Radio",
                            "CreationType": "None",
                            "RemovalType": "None",
                            "EditType": "None",
                            "ChildPropertyAlias": {
                              "$type": "Comindware.Platform.Contracts.GlobalAlias, Comindware.Platform.Contracts",
                              "Type": "Undefined"
                            },
                            "OrderPropertyAlias": {
                              "$type": "Comindware.Platform.Contracts.GlobalAlias, Comindware.Platform.Contracts",
                              "Type": "Undefined"
                            },
                            "NumberPropertyAlias": {
                              "$type": "Comindware.Platform.Contracts.GlobalAlias, Comindware.Platform.Contracts",
                              "Type": "Undefined"
                            },
                            "PrecedentPropertyAlias": {
                              "$type": "Comindware.Platform.Contracts.GlobalAlias, Comindware.Platform.Contracts",
                              "Type": "Undefined"
                            },
                            "SortingDirection": "Asc",
                            "PopupFormAlias": {
                              "$type": "Comindware.Platform.Contracts.GlobalAlias, Comindware.Platform.Contracts",
                              "Type": "Undefined"
                            },
                            "AllowEdit": false,
                            "DisplayFormat": "ShowAsPicture",
                            "GlobalAlias": {
                              "$type": "Comindware.Platform.Contracts.GlobalAlias, Comindware.Platform.Contracts",
                              "Type": "FormComponent",
                              "Alias": "Detalizatsiyamediaplana__TVVsegoGRPs20khronometrazh"
                            },
                            "AccessType": "Editable",
                            "Width": 250,
                            "Type": "FieldComponent"
                          },
                          {
                            "$type": "Comindware.Platform.Contracts.FieldComponentModel, Comindware.Platform.Contracts",
                            "Label": {
                              "$type": "Comindware.Platform.Contracts.LabelModel, Comindware.Platform.Contracts",
                              "Hidden": false,
                              "Alignment": "Undefined",
                              "Text": {
                                "$type": "Comindware.Platform.Contracts.LocalizedTextModel, Comindware.Platform.Contracts",
                                "En": "среднее по каналу (CPP 20\" без НДС)",
                                "De": "среднее по каналу (CPP 20\" без НДС)",
                                "Ru": "среднее по каналу (CPP 20\" без НДС)"
                              }
                            },
                            "FieldType": "TableColumn",
                            "Placeholder": {
                              "$type": "Comindware.Platform.Contracts.LocalizedTextModel, Comindware.Platform.Contracts"
                            },
                            "HelpText": {
                              "$type": "Comindware.Platform.Contracts.LocalizedTextModel, Comindware.Platform.Contracts"
                            },
                            "PropertyPath": {
                              "$type": "Comindware.Platform.Contracts.GlobalAlias[], Comindware.Platform.Contracts",
                              "$values": [
                                {
                                  "$type": "Comindware.Platform.Contracts.GlobalAlias, Comindware.Platform.Contracts",
                                  "Type": "Attribute",
                                  "Owner": "Detalizatsiimediaplanov",
                                  "Alias": "_TVsredneepokanaluCPP20bezNDS"
                                }
                              ]
                            },
                            "EditorType": "Radio",
                            "CreationType": "None",
                            "RemovalType": "None",
                            "EditType": "None",
                            "ChildPropertyAlias": {
                              "$type": "Comindware.Platform.Contracts.GlobalAlias, Comindware.Platform.Contracts",
                              "Type": "Undefined"
                            },
                            "OrderPropertyAlias": {
                              "$type": "Comindware.Platform.Contracts.GlobalAlias, Comindware.Platform.Contracts",
                              "Type": "Undefined"
                            },
                            "NumberPropertyAlias": {
                              "$type": "Comindware.Platform.Contracts.GlobalAlias, Comindware.Platform.Contracts",
                              "Type": "Undefined"
                            },
                            "PrecedentPropertyAlias": {
                              "$type": "Comindware.Platform.Contracts.GlobalAlias, Comindware.Platform.Contracts",
                              "Type": "Undefined"
                            },
                            "SortingDirection": "Asc",
                            "PopupFormAlias": {
                              "$type": "Comindware.Platform.Contracts.GlobalAlias, Comindware.Platform.Contracts",
                              "Type": "Undefined"
                            },
                            "AllowEdit": false,
                            "DisplayFormat": "ShowAsPicture",
                            "GlobalAlias": {
                              "$type": "Comindware.Platform.Contracts.GlobalAlias, Comindware.Platform.Contracts",
                              "Type": "FormComponent",
                              "Alias": "Detalizatsiyamediaplana__TVsredneepokanaluCPP20bezNDS"
                            },
                            "AccessType": "Editable",
                            "Width": 250,
                            "Type": "FieldComponent"
                          },
                          {
                            "$type": "Comindware.Platform.Contracts.FieldComponentModel, Comindware.Platform.Contracts",
                            "Label": {
                              "$type": "Comindware.Platform.Contracts.LabelModel, Comindware.Platform.Contracts",
                              "Hidden": false,
                              "Alignment": "Undefined",
                              "Text": {
                                "$type": "Comindware.Platform.Contracts.LocalizedTextModel, Comindware.Platform.Contracts",
                                "En": "Всего (TRP's 20\")",
                                "De": "Всего (TRP's 20\")",
                                "Ru": "Всего (TRP's 20\")"
                              }
                            },
                            "FieldType": "TableColumn",
                            "Placeholder": {
                              "$type": "Comindware.Platform.Contracts.LocalizedTextModel, Comindware.Platform.Contracts"
                            },
                            "HelpText": {
                              "$type": "Comindware.Platform.Contracts.LocalizedTextModel, Comindware.Platform.Contracts"
                            },
                            "PropertyPath": {
                              "$type": "Comindware.Platform.Contracts.GlobalAlias[], Comindware.Platform.Contracts",
                              "$values": [
                                {
                                  "$type": "Comindware.Platform.Contracts.GlobalAlias, Comindware.Platform.Contracts",
                                  "Type": "Attribute",
                                  "Owner": "Detalizatsiimediaplanov",
                                  "Alias": "_TVVsegoTRPs20"
                                }
                              ]
                            },
                            "EditorType": "Radio",
                            "CreationType": "None",
                            "RemovalType": "None",
                            "EditType": "None",
                            "ChildPropertyAlias": {
                              "$type": "Comindware.Platform.Contracts.GlobalAlias, Comindware.Platform.Contracts",
                              "Type": "Undefined"
                            },
                            "OrderPropertyAlias": {
                              "$type": "Comindware.Platform.Contracts.GlobalAlias, Comindware.Platform.Contracts",
                              "Type": "Undefined"
                            },
                            "NumberPropertyAlias": {
                              "$type": "Comindware.Platform.Contracts.GlobalAlias, Comindware.Platform.Contracts",
                              "Type": "Undefined"
                            },
                            "PrecedentPropertyAlias": {
                              "$type": "Comindware.Platform.Contracts.GlobalAlias, Comindware.Platform.Contracts",
                              "Type": "Undefined"
                            },
                            "SortingDirection": "Asc",
                            "PopupFormAlias": {
                              "$type": "Comindware.Platform.Contracts.GlobalAlias, Comindware.Platform.Contracts",
                              "Type": "Undefined"
                            },
                            "AllowEdit": false,
                            "DisplayFormat": "ShowAsPicture",
                            "GlobalAlias": {
                              "$type": "Comindware.Platform.Contracts.GlobalAlias, Comindware.Platform.Contracts",
                              "Type": "FormComponent",
                              "Alias": "Detalizatsiyamediaplana__TVVsegoTRPs20"
                            },
                            "AccessType": "Editable",
                            "Width": 200,
                            "Type": "FieldComponent"
                          },
                          {
                            "$type": "Comindware.Platform.Contracts.FieldComponentModel, Comindware.Platform.Contracts",
                            "Label": {
                              "$type": "Comindware.Platform.Contracts.LabelModel, Comindware.Platform.Contracts",
                              "Hidden": false,
                              "Alignment": "Undefined",
                              "Text": {
                                "$type": "Comindware.Platform.Contracts.LocalizedTextModel, Comindware.Platform.Contracts",
                                "En": "Количество",
                                "De": "Количество",
                                "Ru": "Количество"
                              }
                            },
                            "FieldType": "TableColumn",
                            "Placeholder": {
                              "$type": "Comindware.Platform.Contracts.LocalizedTextModel, Comindware.Platform.Contracts"
                            },
                            "HelpText": {
                              "$type": "Comindware.Platform.Contracts.LocalizedTextModel, Comindware.Platform.Contracts"
                            },
                            "PropertyPath": {
                              "$type": "Comindware.Platform.Contracts.GlobalAlias[], Comindware.Platform.Contracts",
                              "$values": [
                                {
                                  "$type": "Comindware.Platform.Contracts.GlobalAlias, Comindware.Platform.Contracts",
                                  "Type": "Attribute",
                                  "Owner": "Detalizatsiimediaplanov",
                                  "Alias": "KolichestvoK2"
                                }
                              ]
                            },
                            "EditorType": "Radio",
                            "CreationType": "None",
                            "RemovalType": "None",
                            "EditType": "None",
                            "ChildPropertyAlias": {
                              "$type": "Comindware.Platform.Contracts.GlobalAlias, Comindware.Platform.Contracts",
                              "Type": "Undefined"
                            },
                            "OrderPropertyAlias": {
                              "$type": "Comindware.Platform.Contracts.GlobalAlias, Comindware.Platform.Contracts",
                              "Type": "Undefined"
                            },
                            "NumberPropertyAlias": {
                              "$type": "Comindware.Platform.Contracts.GlobalAlias, Comindware.Platform.Contracts",
                              "Type": "Undefined"
                            },
                            "PrecedentPropertyAlias": {
                              "$type": "Comindware.Platform.Contracts.GlobalAlias, Comindware.Platform.Contracts",
                              "Type": "Undefined"
                            },
                            "SortingDirection": "Asc",
                            "PopupFormAlias": {
                              "$type": "Comindware.Platform.Contracts.GlobalAlias, Comindware.Platform.Contracts",
                              "Type": "Undefined"
                            },
                            "AllowEdit": false,
                            "DisplayFormat": "ShowAsPicture",
                            "GlobalAlias": {
                              "$type": "Comindware.Platform.Contracts.GlobalAlias, Comindware.Platform.Contracts",
                              "Type": "FormComponent",
                              "Alias": "Detalizatsiyamediaplana_KolichestvoK2"
                            },
                            "AccessType": "Editable",
                            "Width": 150,
                            "Type": "FieldComponent"
                          },
                          {
                            "$type": "Comindware.Platform.Contracts.FieldComponentModel, Comindware.Platform.Contracts",
                            "Label": {
                              "$type": "Comindware.Platform.Contracts.LabelModel, Comindware.Platform.Contracts",
                              "Hidden": false,
                              "Alignment": "Undefined",
                              "Text": {
                                "$type": "Comindware.Platform.Contracts.LocalizedTextModel, Comindware.Platform.Contracts",
                                "En": "Affinity с учетом параметров",
                                "De": "Affinity с учетом параметров",
                                "Ru": "Affinity с учетом параметров"
                              }
                            },
                            "FieldType": "TableColumn",
                            "Placeholder": {
                              "$type": "Comindware.Platform.Contracts.LocalizedTextModel, Comindware.Platform.Contracts"
                            },
                            "HelpText": {
                              "$type": "Comindware.Platform.Contracts.LocalizedTextModel, Comindware.Platform.Contracts"
                            },
                            "PropertyPath": {
                              "$type": "Comindware.Platform.Contracts.GlobalAlias[], Comindware.Platform.Contracts",
                              "$values": [
                                {
                                  "$type": "Comindware.Platform.Contracts.GlobalAlias, Comindware.Platform.Contracts",
                                  "Type": "Attribute",
                                  "Owner": "Detalizatsiimediaplanov",
                                  "Alias": "_TVAffinitysuchetomparametrov"
                                }
                              ]
                            },
                            "EditorType": "Radio",
                            "CreationType": "None",
                            "RemovalType": "None",
                            "EditType": "None",
                            "ChildPropertyAlias": {
                              "$type": "Comindware.Platform.Contracts.GlobalAlias, Comindware.Platform.Contracts",
                              "Type": "Undefined"
                            },
                            "OrderPropertyAlias": {
                              "$type": "Comindware.Platform.Contracts.GlobalAlias, Comindware.Platform.Contracts",
                              "Type": "Undefined"
                            },
                            "NumberPropertyAlias": {
                              "$type": "Comindware.Platform.Contracts.GlobalAlias, Comindware.Platform.Contracts",
                              "Type": "Undefined"
                            },
                            "PrecedentPropertyAlias": {
                              "$type": "Comindware.Platform.Contracts.GlobalAlias, Comindware.Platform.Contracts",
                              "Type": "Undefined"
                            },
                            "SortingDirection": "Asc",
                            "PopupFormAlias": {
                              "$type": "Comindware.Platform.Contracts.GlobalAlias, Comindware.Platform.Contracts",
                              "Type": "Undefined"
                            },
                            "AllowEdit": false,
                            "DisplayFormat": "ShowAsPicture",
                            "GlobalAlias": {
                              "$type": "Comindware.Platform.Contracts.GlobalAlias, Comindware.Platform.Contracts",
                              "Type": "FormComponent",
                              "Alias": "Detalizatsiyamediaplana__TVAffinitysuchetomparametrov"
                            },
                            "AccessType": "Editable",
                            "Width": 250,
                            "Type": "FieldComponent"
                          },
                          {
                            "$type": "Comindware.Platform.Contracts.FieldComponentModel, Comindware.Platform.Contracts",
                            "Label": {
                              "$type": "Comindware.Platform.Contracts.LabelModel, Comindware.Platform.Contracts",
                              "Hidden": false,
                              "Alignment": "Undefined",
                              "Text": {
                                "$type": "Comindware.Platform.Contracts.LocalizedTextModel, Comindware.Platform.Contracts",
                                "En": "Стоимость без НДС",
                                "De": "Стоимость без НДС",
                                "Ru": "Стоимость без НДС"
                              }
                            },
                            "FieldType": "TableColumn",
                            "Placeholder": {
                              "$type": "Comindware.Platform.Contracts.LocalizedTextModel, Comindware.Platform.Contracts"
                            },
                            "HelpText": {
                              "$type": "Comindware.Platform.Contracts.LocalizedTextModel, Comindware.Platform.Contracts"
                            },
                            "PropertyPath": {
                              "$type": "Comindware.Platform.Contracts.GlobalAlias[], Comindware.Platform.Contracts",
                              "$values": [
                                {
                                  "$type": "Comindware.Platform.Contracts.GlobalAlias, Comindware.Platform.Contracts",
                                  "Type": "Attribute",
                                  "Owner": "Detalizatsiimediaplanov",
                                  "Alias": "StoimostbezNDSvalyuta"
                                }
                              ]
                            },
                            "EditorType": "Radio",
                            "CreationType": "None",
                            "RemovalType": "None",
                            "EditType": "None",
                            "ChildPropertyAlias": {
                              "$type": "Comindware.Platform.Contracts.GlobalAlias, Comindware.Platform.Contracts",
                              "Type": "Undefined"
                            },
                            "OrderPropertyAlias": {
                              "$type": "Comindware.Platform.Contracts.GlobalAlias, Comindware.Platform.Contracts",
                              "Type": "Undefined"
                            },
                            "NumberPropertyAlias": {
                              "$type": "Comindware.Platform.Contracts.GlobalAlias, Comindware.Platform.Contracts",
                              "Type": "Undefined"
                            },
                            "PrecedentPropertyAlias": {
                              "$type": "Comindware.Platform.Contracts.GlobalAlias, Comindware.Platform.Contracts",
                              "Type": "Undefined"
                            },
                            "SortingDirection": "Asc",
                            "PopupFormAlias": {
                              "$type": "Comindware.Platform.Contracts.GlobalAlias, Comindware.Platform.Contracts",
                              "Type": "Undefined"
                            },
                            "AllowEdit": false,
                            "DisplayFormat": "ShowAsPicture",
                            "GlobalAlias": {
                              "$type": "Comindware.Platform.Contracts.GlobalAlias, Comindware.Platform.Contracts",
                              "Type": "FormComponent",
                              "Alias": "Detalizatsiyamediaplana_StoimostbezNDSvalyuta"
                            },
                            "AccessType": "Editable",
                            "Width": 200,
                            "Type": "FieldComponent"
                          },
                          {
                            "$type": "Comindware.Platform.Contracts.FieldComponentModel, Comindware.Platform.Contracts",
                            "Label": {
                              "$type": "Comindware.Platform.Contracts.LabelModel, Comindware.Platform.Contracts",
                              "Hidden": false,
                              "Alignment": "Undefined",
                              "Text": {
                                "$type": "Comindware.Platform.Contracts.LocalizedTextModel, Comindware.Platform.Contracts",
                                "En": "НДС",
                                "De": "НДС",
                                "Ru": "НДС"
                              }
                            },
                            "FieldType": "TableColumn",
                            "Placeholder": {
                              "$type": "Comindware.Platform.Contracts.LocalizedTextModel, Comindware.Platform.Contracts"
                            },
                            "HelpText": {
                              "$type": "Comindware.Platform.Contracts.LocalizedTextModel, Comindware.Platform.Contracts"
                            },
                            "PropertyPath": {
                              "$type": "Comindware.Platform.Contracts.GlobalAlias[], Comindware.Platform.Contracts",
                              "$values": [
                                {
                                  "$type": "Comindware.Platform.Contracts.GlobalAlias, Comindware.Platform.Contracts",
                                  "Type": "Attribute",
                                  "Owner": "Detalizatsiimediaplanov",
                                  "Alias": "NDS"
                                }
                              ]
                            },
                            "EditorType": "Radio",
                            "CreationType": "None",
                            "RemovalType": "None",
                            "EditType": "None",
                            "ChildPropertyAlias": {
                              "$type": "Comindware.Platform.Contracts.GlobalAlias, Comindware.Platform.Contracts",
                              "Type": "Undefined"
                            },
                            "OrderPropertyAlias": {
                              "$type": "Comindware.Platform.Contracts.GlobalAlias, Comindware.Platform.Contracts",
                              "Type": "Undefined"
                            },
                            "NumberPropertyAlias": {
                              "$type": "Comindware.Platform.Contracts.GlobalAlias, Comindware.Platform.Contracts",
                              "Type": "Undefined"
                            },
                            "PrecedentPropertyAlias": {
                              "$type": "Comindware.Platform.Contracts.GlobalAlias, Comindware.Platform.Contracts",
                              "Type": "Undefined"
                            },
                            "SortingDirection": "Asc",
                            "PopupFormAlias": {
                              "$type": "Comindware.Platform.Contracts.GlobalAlias, Comindware.Platform.Contracts",
                              "Type": "Undefined"
                            },
                            "AllowEdit": false,
                            "DisplayFormat": "ShowAsPicture",
                            "GlobalAlias": {
                              "$type": "Comindware.Platform.Contracts.GlobalAlias, Comindware.Platform.Contracts",
                              "Type": "FormComponent",
                              "Alias": "Detalizatsiyamediaplana_NDS"
                            },
                            "AccessType": "Editable",
                            "Width": 150,
                            "Type": "FieldComponent"
                          },
                          {
                            "$type": "Comindware.Platform.Contracts.FieldComponentModel, Comindware.Platform.Contracts",
                            "Label": {
                              "$type": "Comindware.Platform.Contracts.LabelModel, Comindware.Platform.Contracts",
                              "Hidden": false,
                              "Alignment": "Undefined",
                              "Text": {
                                "$type": "Comindware.Platform.Contracts.LocalizedTextModel, Comindware.Platform.Contracts",
                                "En": "НДС, руб",
                                "De": "НДС, руб",
                                "Ru": "НДС, руб"
                              }
                            },
                            "FieldType": "TableColumn",
                            "Placeholder": {
                              "$type": "Comindware.Platform.Contracts.LocalizedTextModel, Comindware.Platform.Contracts"
                            },
                            "HelpText": {
                              "$type": "Comindware.Platform.Contracts.LocalizedTextModel, Comindware.Platform.Contracts"
                            },
                            "PropertyPath": {
                              "$type": "Comindware.Platform.Contracts.GlobalAlias[], Comindware.Platform.Contracts",
                              "$values": [
                                {
                                  "$type": "Comindware.Platform.Contracts.GlobalAlias, Comindware.Platform.Contracts",
                                  "Type": "Attribute",
                                  "Owner": "Detalizatsiimediaplanov",
                                  "Alias": "NDSrub"
                                }
                              ]
                            },
                            "EditorType": "Radio",
                            "CreationType": "None",
                            "RemovalType": "None",
                            "EditType": "None",
                            "ChildPropertyAlias": {
                              "$type": "Comindware.Platform.Contracts.GlobalAlias, Comindware.Platform.Contracts",
                              "Type": "Undefined"
                            },
                            "OrderPropertyAlias": {
                              "$type": "Comindware.Platform.Contracts.GlobalAlias, Comindware.Platform.Contracts",
                              "Type": "Undefined"
                            },
                            "NumberPropertyAlias": {
                              "$type": "Comindware.Platform.Contracts.GlobalAlias, Comindware.Platform.Contracts",
                              "Type": "Undefined"
                            },
                            "PrecedentPropertyAlias": {
                              "$type": "Comindware.Platform.Contracts.GlobalAlias, Comindware.Platform.Contracts",
                              "Type": "Undefined"
                            },
                            "SortingDirection": "Asc",
                            "PopupFormAlias": {
                              "$type": "Comindware.Platform.Contracts.GlobalAlias, Comindware.Platform.Contracts",
                              "Type": "Undefined"
                            },
                            "AllowEdit": false,
                            "DisplayFormat": "ShowAsPicture",
                            "GlobalAlias": {
                              "$type": "Comindware.Platform.Contracts.GlobalAlias, Comindware.Platform.Contracts",
                              "Type": "FormComponent",
                              "Alias": "Detalizatsiyamediaplana_NDSrub"
                            },
                            "AccessType": "Editable",
                            "Width": 150,
                            "Type": "FieldComponent"
                          },
                          {
                            "$type": "Comindware.Platform.Contracts.FieldComponentModel, Comindware.Platform.Contracts",
                            "Label": {
                              "$type": "Comindware.Platform.Contracts.LabelModel, Comindware.Platform.Contracts",
                              "Hidden": false,
                              "Alignment": "Undefined",
                              "Text": {
                                "$type": "Comindware.Platform.Contracts.LocalizedTextModel, Comindware.Platform.Contracts",
                                "En": "АК, %",
                                "De": "АК, %",
                                "Ru": "АК, %"
                              }
                            },
                            "FieldType": "TableColumn",
                            "Placeholder": {
                              "$type": "Comindware.Platform.Contracts.LocalizedTextModel, Comindware.Platform.Contracts"
                            },
                            "HelpText": {
                              "$type": "Comindware.Platform.Contracts.LocalizedTextModel, Comindware.Platform.Contracts"
                            },
                            "PropertyPath": {
                              "$type": "Comindware.Platform.Contracts.GlobalAlias[], Comindware.Platform.Contracts",
                              "$values": [
                                {
                                  "$type": "Comindware.Platform.Contracts.GlobalAlias, Comindware.Platform.Contracts",
                                  "Type": "Attribute",
                                  "Owner": "Detalizatsiimediaplanov",
                                  "Alias": "Agentskayakomissiya"
                                }
                              ]
                            },
                            "EditorType": "Radio",
                            "CreationType": "None",
                            "RemovalType": "None",
                            "EditType": "None",
                            "ChildPropertyAlias": {
                              "$type": "Comindware.Platform.Contracts.GlobalAlias, Comindware.Platform.Contracts",
                              "Type": "Undefined"
                            },
                            "OrderPropertyAlias": {
                              "$type": "Comindware.Platform.Contracts.GlobalAlias, Comindware.Platform.Contracts",
                              "Type": "Undefined"
                            },
                            "NumberPropertyAlias": {
                              "$type": "Comindware.Platform.Contracts.GlobalAlias, Comindware.Platform.Contracts",
                              "Type": "Undefined"
                            },
                            "PrecedentPropertyAlias": {
                              "$type": "Comindware.Platform.Contracts.GlobalAlias, Comindware.Platform.Contracts",
                              "Type": "Undefined"
                            },
                            "SortingDirection": "Asc",
                            "PopupFormAlias": {
                              "$type": "Comindware.Platform.Contracts.GlobalAlias, Comindware.Platform.Contracts",
                              "Type": "Undefined"
                            },
                            "AllowEdit": false,
                            "DisplayFormat": "ShowAsPicture",
                            "GlobalAlias": {
                              "$type": "Comindware.Platform.Contracts.GlobalAlias, Comindware.Platform.Contracts",
                              "Type": "FormComponent",
                              "Alias": "Detalizatsiyamediaplana_Agentskayakomissiya"
                            },
                            "AccessType": "Editable",
                            "Width": 150,
                            "Type": "FieldComponent"
                          },
                          {
                            "$type": "Comindware.Platform.Contracts.FieldComponentModel, Comindware.Platform.Contracts",
                            "Label": {
                              "$type": "Comindware.Platform.Contracts.LabelModel, Comindware.Platform.Contracts",
                              "Hidden": false,
                              "Alignment": "Undefined",
                              "Text": {
                                "$type": "Comindware.Platform.Contracts.LocalizedTextModel, Comindware.Platform.Contracts",
                                "En": "АК, руб.",
                                "De": "АК, руб.",
                                "Ru": "АК, руб."
                              }
                            },
                            "FieldType": "TableColumn",
                            "Placeholder": {
                              "$type": "Comindware.Platform.Contracts.LocalizedTextModel, Comindware.Platform.Contracts"
                            },
                            "HelpText": {
                              "$type": "Comindware.Platform.Contracts.LocalizedTextModel, Comindware.Platform.Contracts"
                            },
                            "PropertyPath": {
                              "$type": "Comindware.Platform.Contracts.GlobalAlias[], Comindware.Platform.Contracts",
                              "$values": [
                                {
                                  "$type": "Comindware.Platform.Contracts.GlobalAlias, Comindware.Platform.Contracts",
                                  "Type": "Attribute",
                                  "Owner": "Detalizatsiimediaplanov",
                                  "Alias": "AgentskayaKomissiyaRub"
                                }
                              ]
                            },
                            "EditorType": "Radio",
                            "CreationType": "None",
                            "RemovalType": "None",
                            "EditType": "None",
                            "ChildPropertyAlias": {
                              "$type": "Comindware.Platform.Contracts.GlobalAlias, Comindware.Platform.Contracts",
                              "Type": "Undefined"
                            },
                            "OrderPropertyAlias": {
                              "$type": "Comindware.Platform.Contracts.GlobalAlias, Comindware.Platform.Contracts",
                              "Type": "Undefined"
                            },
                            "NumberPropertyAlias": {
                              "$type": "Comindware.Platform.Contracts.GlobalAlias, Comindware.Platform.Contracts",
                              "Type": "Undefined"
                            },
                            "PrecedentPropertyAlias": {
                              "$type": "Comindware.Platform.Contracts.GlobalAlias, Comindware.Platform.Contracts",
                              "Type": "Undefined"
                            },
                            "SortingDirection": "Asc",
                            "PopupFormAlias": {
                              "$type": "Comindware.Platform.Contracts.GlobalAlias, Comindware.Platform.Contracts",
                              "Type": "Undefined"
                            },
                            "AllowEdit": false,
                            "DisplayFormat": "ShowAsPicture",
                            "GlobalAlias": {
                              "$type": "Comindware.Platform.Contracts.GlobalAlias, Comindware.Platform.Contracts",
                              "Type": "FormComponent",
                              "Alias": "Detalizatsiyamediaplana_AgentskayaKomissiyaRub"
                            },
                            "AccessType": "Editable",
                            "Width": 150,
                            "Type": "FieldComponent"
                          },
                          {
                            "$type": "Comindware.Platform.Contracts.FieldComponentModel, Comindware.Platform.Contracts",
                            "Label": {
                              "$type": "Comindware.Platform.Contracts.LabelModel, Comindware.Platform.Contracts",
                              "Hidden": false,
                              "Alignment": "Undefined",
                              "Text": {
                                "$type": "Comindware.Platform.Contracts.LocalizedTextModel, Comindware.Platform.Contracts",
                                "En": "ИТОГО (включая НДС)",
                                "De": "ИТОГО (включая НДС)",
                                "Ru": "ИТОГО (включая НДС)"
                              }
                            },
                            "FieldType": "TableColumn",
                            "Placeholder": {
                              "$type": "Comindware.Platform.Contracts.LocalizedTextModel, Comindware.Platform.Contracts"
                            },
                            "HelpText": {
                              "$type": "Comindware.Platform.Contracts.LocalizedTextModel, Comindware.Platform.Contracts"
                            },
                            "PropertyPath": {
                              "$type": "Comindware.Platform.Contracts.GlobalAlias[], Comindware.Platform.Contracts",
                              "$values": [
                                {
                                  "$type": "Comindware.Platform.Contracts.GlobalAlias, Comindware.Platform.Contracts",
                                  "Type": "Attribute",
                                  "Owner": "Detalizatsiimediaplanov",
                                  "Alias": "SummasNDS"
                                }
                              ]
                            },
                            "EditorType": "Radio",
                            "CreationType": "None",
                            "RemovalType": "None",
                            "EditType": "None",
                            "ChildPropertyAlias": {
                              "$type": "Comindware.Platform.Contracts.GlobalAlias, Comindware.Platform.Contracts",
                              "Type": "Undefined"
                            },
                            "OrderPropertyAlias": {
                              "$type": "Comindware.Platform.Contracts.GlobalAlias, Comindware.Platform.Contracts",
                              "Type": "Undefined"
                            },
                            "NumberPropertyAlias": {
                              "$type": "Comindware.Platform.Contracts.GlobalAlias, Comindware.Platform.Contracts",
                              "Type": "Undefined"
                            },
                            "PrecedentPropertyAlias": {
                              "$type": "Comindware.Platform.Contracts.GlobalAlias, Comindware.Platform.Contracts",
                              "Type": "Undefined"
                            },
                            "SortingDirection": "Asc",
                            "PopupFormAlias": {
                              "$type": "Comindware.Platform.Contracts.GlobalAlias, Comindware.Platform.Contracts",
                              "Type": "Undefined"
                            },
                            "AllowEdit": false,
                            "DisplayFormat": "ShowAsPicture",
                            "GlobalAlias": {
                              "$type": "Comindware.Platform.Contracts.GlobalAlias, Comindware.Platform.Contracts",
                              "Type": "FormComponent",
                              "Alias": "Detalizatsiyamediaplana_ITOGOStoimostvklyuchayaNDS20"
                            },
                            "AccessType": "Readonly",
                            "Width": 200,
                            "Type": "FieldComponent"
                          },
                          {
                            "$type": "Comindware.Platform.Contracts.FieldComponentModel, Comindware.Platform.Contracts",
                            "Label": {
                              "$type": "Comindware.Platform.Contracts.LabelModel, Comindware.Platform.Contracts",
                              "Hidden": false,
                              "Alignment": "Undefined",
                              "Text": {
                                "$type": "Comindware.Platform.Contracts.LocalizedTextModel, Comindware.Platform.Contracts",
                                "En": "Период",
                                "De": "Период",
                                "Ru": "Период"
                              }
                            },
                            "FieldType": "TableColumn",
                            "Placeholder": {
                              "$type": "Comindware.Platform.Contracts.LocalizedTextModel, Comindware.Platform.Contracts"
                            },
                            "HelpText": {
                              "$type": "Comindware.Platform.Contracts.LocalizedTextModel, Comindware.Platform.Contracts"
                            },
                            "PropertyPath": {
                              "$type": "Comindware.Platform.Contracts.GlobalAlias[], Comindware.Platform.Contracts",
                              "$values": [
                                {
                                  "$type": "Comindware.Platform.Contracts.GlobalAlias, Comindware.Platform.Contracts",
                                  "Type": "Attribute",
                                  "Owner": "Detalizatsiimediaplanov",
                                  "Alias": "Period"
                                }
                              ]
                            },
                            "EditorType": "Radio",
                            "CreationType": "None",
                            "RemovalType": "None",
                            "EditType": "None",
                            "ChildPropertyAlias": {
                              "$type": "Comindware.Platform.Contracts.GlobalAlias, Comindware.Platform.Contracts",
                              "Type": "Undefined"
                            },
                            "OrderPropertyAlias": {
                              "$type": "Comindware.Platform.Contracts.GlobalAlias, Comindware.Platform.Contracts",
                              "Type": "Undefined"
                            },
                            "NumberPropertyAlias": {
                              "$type": "Comindware.Platform.Contracts.GlobalAlias, Comindware.Platform.Contracts",
                              "Type": "Undefined"
                            },
                            "PrecedentPropertyAlias": {
                              "$type": "Comindware.Platform.Contracts.GlobalAlias, Comindware.Platform.Contracts",
                              "Type": "Undefined"
                            },
                            "SortingDirection": "Asc",
                            "PopupFormAlias": {
                              "$type": "Comindware.Platform.Contracts.GlobalAlias, Comindware.Platform.Contracts",
                              "Type": "Undefined"
                            },
                            "AllowEdit": false,
                            "DisplayFormat": "ShowAsPicture",
                            "GlobalAlias": {
                              "$type": "Comindware.Platform.Contracts.GlobalAlias, Comindware.Platform.Contracts",
                              "Type": "FormComponent",
                              "Alias": "Detalizatsiyamediaplana_Period"
                            },
                            "AccessType": "Editable",
                            "Width": 180,
                            "Type": "FieldComponent"
                          }
                        ]
                      },
                      "ChildPropertyAlias": {
                        "$type": "Comindware.Platform.Contracts.GlobalAlias, Comindware.Platform.Contracts",
                        "Type": "Undefined"
                      },
                      "OrderPropertyAlias": {
                        "$type": "Comindware.Platform.Contracts.GlobalAlias, Comindware.Platform.Contracts",
                        "Type": "Undefined"
                      },
                      "NumberPropertyAlias": {
                        "$type": "Comindware.Platform.Contracts.GlobalAlias, Comindware.Platform.Contracts",
                        "Type": "Undefined"
                      },
                      "PrecedentPropertyAlias": {
                        "$type": "Comindware.Platform.Contracts.GlobalAlias, Comindware.Platform.Contracts",
                        "Type": "Undefined"
                      },
                      "SortingDirection": "Asc",
                      "ShowArchiveRecords": false,
                      "PopupFormAlias": {
                        "$type": "Comindware.Platform.Contracts.GlobalAlias, Comindware.Platform.Contracts",
                        "Type": "Undefined"
                      },
                      "DisplayFormat": "ShowAsPicture",
                      "GlobalAlias": {
                        "$type": "Comindware.Platform.Contracts.GlobalAlias, Comindware.Platform.Contracts",
                        "Type": "FormComponent",
                        "Alias": "Detalizatsiyamediaplana"
                      },
                      "AccessType": "Readonly",
                      "Width": 0,
                      "Type": "FieldComponent",
                      "Toolbar": {
                        "$type": "System.Nullable`1[[Comindware.Platform.Contracts.GlobalAlias, Comindware.Platform.Contracts]], mscorlib",
                        "Type": "Toolbar",
                        "Owner": "Detalizatsiimediaplanov",
                        "Alias": "toolbar1d913d0d"
                      }
                    }
                  ]
                },
                "GlobalAlias": {
                  "$type": "Comindware.Platform.Contracts.GlobalAlias, Comindware.Platform.Contracts",
                  "Type": "FormComponent",
                  "Alias": "VerticalLayout3"
                },
                "AccessType": "Undefined",
                "Width": 0,
                "Type": "VerticalLayout"
              }
            ]
          },
          "GlobalAlias": {
            "$type": "Comindware.Platform.Contracts.GlobalAlias, Comindware.Platform.Contracts",
            "Type": "FormComponent",
            "Alias": "GroupPanelComponent2"
          },
          "AccessType": "Editable",
          "Width": 100,
          "Type": "PanelModel"
        }
      ]
    },
    "GlobalAlias": {
      "$type": "Comindware.Platform.Contracts.GlobalAlias, Comindware.Platform.Contracts",
      "Type": "FormComponent",
      "Alias": "default_Root"
    },
    "AccessType": "Undefined",
    "Width": 0,
    "Type": "VerticalLayout"
  },
  "Name": "ТВ - Детализация",
  "Origination": "Undefined"
}