{
  "$type": "Comindware.Platform.Contracts.UserCommandConfigurationModel, Comindware.Platform.Contracts",
  "GlobalAlias": {
    "$type": "Comindware.Platform.Contracts.GlobalAlias, Comindware.Platform.Contracts",
    "Type": "UserCommand",
    "Owner": "Dopsoglasheniya",
    "Alias": "Podpisatdopsoglashenie"
  },
  "Name": "Подписать доп.соглашение",
  "IsSystem": false,
  "IsDisabled": false,
  "IsPrepare": false,
  "SkipValidation": false,
  "Context": "Record",
  "Multiplicity": "OneByOne",
  "Kind": "StartLinkedProcess",
  "ResultType": "DataChange",
  "ConditionRule": "OR($StatusRef->Kod == \"approved\", $StatusRef->Kod == \"10\")",
  "RelatedAction": {
    "$type": "Comindware.Platform.Contracts.UserCommandRelatedActionModel, Comindware.Platform.Contracts",
    "ContainerGlobalAlias": {
      "$type": "Comindware.Platform.Contracts.GlobalAlias, Comindware.Platform.Contracts",
      "Type": "RecordTemplate",
      "Alias": "Podpisaniya"
    },
    "TemplateGlobalAlias": {
      "$type": "Comindware.Platform.Contracts.GlobalAlias, Comindware.Platform.Contracts",
      "Type": "ProcessTemplate",
      "Alias": "Podpisaniedogovora"
    },
    "FormGlobalAlias": {
      "$type": "Comindware.Platform.Contracts.GlobalAlias, Comindware.Platform.Contracts",
      "Type": "Undefined"
    },
    "PropertyPath": "$<-DS"
  },
  "RelatedEntityGlobalAlias": {
    "$type": "Comindware.Platform.Contracts.GlobalAlias, Comindware.Platform.Contracts",
    "Type": "Undefined"
  },
  "LockStateChangeType": "Undefined",
  "LockStateVisibilityType": "Undefined",
  "IsConfirmationActive": false,
  "NavigationTarget": "Undefined"
}