{
  "$type": "Comindware.Platform.Contracts.FormModel, Comindware.Platform.Contracts",
  "GlobalAlias": {
    "$type": "Comindware.Platform.Contracts.GlobalAlias, Comindware.Platform.Contracts",
    "Type": "Form",
    "Owner": "Dogovory",
    "Alias": "Formautverzhdeniyarukovoditelem"
  },
  "Type": "InternalForm",
  "IsDefault": false,
  "Root": {
    "$type": "Comindware.Platform.Contracts.VerticalLayoutModel, Comindware.Platform.Contracts",
    "Rows": {
      "$type": "System.Collections.Generic.List`1[[Comindware.Platform.Contracts.FormComponentModel, Comindware.Platform.Contracts]], mscorlib",
      "$values": [
        {
          "$type": "Comindware.Platform.Contracts.PanelModel, Comindware.Platform.Contracts",
          "Text": {
            "$type": "Comindware.Platform.Contracts.LocalizedTextModel, Comindware.Platform.Contracts",
            "En": "Информация для Руководителя",
            "De": "Информация для Руководителя",
            "Ru": "Информация для Руководителя"
          },
          "OriginalType": "GroupPanel",
          "Rows": {
            "$type": "System.Collections.Generic.List`1[[Comindware.Platform.Contracts.FormComponentModel, Comindware.Platform.Contracts]], mscorlib",
            "$values": [
              {
                "$type": "Comindware.Platform.Contracts.VerticalLayoutModel, Comindware.Platform.Contracts",
                "Rows": {
                  "$type": "System.Collections.Generic.List`1[[Comindware.Platform.Contracts.FormComponentModel, Comindware.Platform.Contracts]], mscorlib",
                  "$values": [
                    {
                      "$type": "Comindware.Platform.Contracts.StaticContentModel, Comindware.Platform.Contracts",
                      "Content": {
                        "$type": "Comindware.Platform.Contracts.LocalizedTextModel, Comindware.Platform.Contracts",
                        "En": "<p>Вам пришла задача для&nbsp;согласование договора.</p> <p>Внимательно ознакомьтесь с предоставленной информацией и дайте свой ответ в поле &quot;Решение&quot;.</p> <p>При необходимости&nbsp;оставьте свой комментарий в поле &quot;Комментарий&quot;,&nbsp;приложите файл.<br/>\nПосле выполнения всех необходимых действий, нажмите на кнопку &quot;Завершить задачу&quot;, которая находится сверху формы.</p>\n",
                        "De": "<p>Вам пришла задача для&nbsp;согласование договора.</p> <p>Внимательно ознакомьтесь с предоставленной информацией и дайте свой ответ в поле &quot;Решение&quot;.</p> <p>При необходимости&nbsp;оставьте свой комментарий в поле &quot;Комментарий&quot;,&nbsp;приложите файл.<br/>\nПосле выполнения всех необходимых действий, нажмите на кнопку &quot;Завершить задачу&quot;, которая находится сверху формы.</p>\n",
                        "Ru": "<p>Вам пришла задача для&nbsp;согласование договора.</p> <p>Внимательно ознакомьтесь с предоставленной информацией и дайте свой ответ в поле &quot;Решение&quot;.</p> <p>При необходимости&nbsp;оставьте свой комментарий в поле &quot;Комментарий&quot;,&nbsp;приложите файл.<br/>\nПосле выполнения всех необходимых действий, нажмите на кнопку &quot;Завершить задачу&quot;, которая находится сверху формы.</p>\n"
                      },
                      "GlobalAlias": {
                        "$type": "Comindware.Platform.Contracts.GlobalAlias, Comindware.Platform.Contracts",
                        "Type": "FormComponent",
                        "Alias": "StaticContentComponent"
                      },
                      "AccessType": "Undefined",
                      "Width": 0,
                      "Type": "StaticContent"
                    }
                  ]
                },
                "GlobalAlias": {
                  "$type": "Comindware.Platform.Contracts.GlobalAlias, Comindware.Platform.Contracts",
                  "Type": "FormComponent",
                  "Alias": "VerticalLayout4"
                },
                "AccessType": "Undefined",
                "Width": 0,
                "Type": "VerticalLayout"
              }
            ]
          },
          "GlobalAlias": {
            "$type": "Comindware.Platform.Contracts.GlobalAlias, Comindware.Platform.Contracts",
            "Type": "FormComponent",
            "Alias": "GroupPanelComponent2"
          },
          "AccessType": "Editable",
          "Width": 100,
          "Type": "PanelModel"
        },
        {
          "$type": "Comindware.Platform.Contracts.PanelModel, Comindware.Platform.Contracts",
          "Text": {
            "$type": "Comindware.Platform.Contracts.LocalizedTextModel, Comindware.Platform.Contracts",
            "En": "Информация по задаче",
            "De": "Информация по задаче",
            "Ru": "Информация по задаче"
          },
          "OriginalType": "GroupPanel",
          "Rows": {
            "$type": "System.Collections.Generic.List`1[[Comindware.Platform.Contracts.FormComponentModel, Comindware.Platform.Contracts]], mscorlib",
            "$values": [
              {
                "$type": "Comindware.Platform.Contracts.VerticalLayoutModel, Comindware.Platform.Contracts",
                "Rows": {
                  "$type": "System.Collections.Generic.List`1[[Comindware.Platform.Contracts.FormComponentModel, Comindware.Platform.Contracts]], mscorlib",
                  "$values": [
                    {
                      "$type": "Comindware.Platform.Contracts.LayoutModel, Comindware.Platform.Contracts",
                      "Components": {
                        "$type": "System.Collections.Generic.List`1[[Comindware.Platform.Contracts.FormComponentModel, Comindware.Platform.Contracts]], mscorlib",
                        "$values": [
                          {
                            "$type": "Comindware.Platform.Contracts.VerticalLayoutModel, Comindware.Platform.Contracts",
                            "Rows": {
                              "$type": "System.Collections.Generic.List`1[[Comindware.Platform.Contracts.FormComponentModel, Comindware.Platform.Contracts]], mscorlib",
                              "$values": [
                                {
                                  "$type": "Comindware.Platform.Contracts.FieldComponentModel, Comindware.Platform.Contracts",
                                  "Label": {
                                    "$type": "Comindware.Platform.Contracts.LabelModel, Comindware.Platform.Contracts",
                                    "Hidden": false,
                                    "Alignment": "Top",
                                    "Text": {
                                      "$type": "Comindware.Platform.Contracts.LocalizedTextModel, Comindware.Platform.Contracts",
                                      "En": "Решение",
                                      "De": "Решение",
                                      "Ru": "Решение"
                                    }
                                  },
                                  "FieldType": "Reference",
                                  "Placeholder": {
                                    "$type": "Comindware.Platform.Contracts.LocalizedTextModel, Comindware.Platform.Contracts"
                                  },
                                  "HelpText": {
                                    "$type": "Comindware.Platform.Contracts.LocalizedTextModel, Comindware.Platform.Contracts"
                                  },
                                  "PropertyPath": {
                                    "$type": "Comindware.Platform.Contracts.GlobalAlias[], Comindware.Platform.Contracts",
                                    "$values": [
                                      {
                                        "$type": "Comindware.Platform.Contracts.GlobalAlias, Comindware.Platform.Contracts",
                                        "Type": "Attribute",
                                        "Owner": "Dogovory",
                                        "Alias": "Reshenierukovoditelya"
                                      }
                                    ]
                                  },
                                  "EditorType": "Radio",
                                  "CreationType": "None",
                                  "RemovalType": "None",
                                  "EditType": "None",
                                  "ValueFilterExpression": "from a in db->Spravochnikresheniy where OR(a->Kod == \"soglasovano\",a->Kod == \"otkazano\") select a->id",
                                  "HideSearchBar": false,
                                  "ShowAsLink": false,
                                  "ChildPropertyAlias": {
                                    "$type": "Comindware.Platform.Contracts.GlobalAlias, Comindware.Platform.Contracts",
                                    "Type": "Undefined"
                                  },
                                  "OrderPropertyAlias": {
                                    "$type": "Comindware.Platform.Contracts.GlobalAlias, Comindware.Platform.Contracts",
                                    "Type": "Undefined"
                                  },
                                  "NumberPropertyAlias": {
                                    "$type": "Comindware.Platform.Contracts.GlobalAlias, Comindware.Platform.Contracts",
                                    "Type": "Undefined"
                                  },
                                  "PrecedentPropertyAlias": {
                                    "$type": "Comindware.Platform.Contracts.GlobalAlias, Comindware.Platform.Contracts",
                                    "Type": "Undefined"
                                  },
                                  "SortingDirection": "Asc",
                                  "PopupFormAlias": {
                                    "$type": "Comindware.Platform.Contracts.GlobalAlias, Comindware.Platform.Contracts",
                                    "Type": "Undefined"
                                  },
                                  "AllowEdit": false,
                                  "DisplayFormat": "ShowAsPicture",
                                  "GlobalAlias": {
                                    "$type": "Comindware.Platform.Contracts.GlobalAlias, Comindware.Platform.Contracts",
                                    "Type": "FormComponent",
                                    "Alias": "Reshenierukovoditelya"
                                  },
                                  "AccessType": "Required",
                                  "Width": 0,
                                  "Type": "FieldComponent"
                                }
                              ]
                            },
                            "GlobalAlias": {
                              "$type": "Comindware.Platform.Contracts.GlobalAlias, Comindware.Platform.Contracts",
                              "Type": "FormComponent",
                              "Alias": "VerticalLayout2"
                            },
                            "AccessType": "Undefined",
                            "Width": 30,
                            "Type": "VerticalLayout"
                          },
                          {
                            "$type": "Comindware.Platform.Contracts.VerticalLayoutModel, Comindware.Platform.Contracts",
                            "Rows": {
                              "$type": "System.Collections.Generic.List`1[[Comindware.Platform.Contracts.FormComponentModel, Comindware.Platform.Contracts]], mscorlib",
                              "$values": [
                                {
                                  "$type": "Comindware.Platform.Contracts.FieldComponentModel, Comindware.Platform.Contracts",
                                  "Label": {
                                    "$type": "Comindware.Platform.Contracts.LabelModel, Comindware.Platform.Contracts",
                                    "Hidden": false,
                                    "Alignment": "Top",
                                    "Text": {
                                      "$type": "Comindware.Platform.Contracts.LocalizedTextModel, Comindware.Platform.Contracts",
                                      "En": "Комментарий",
                                      "De": "Комментарий",
                                      "Ru": "Комментарий"
                                    }
                                  },
                                  "FieldType": "Text",
                                  "Placeholder": {
                                    "$type": "Comindware.Platform.Contracts.LocalizedTextModel, Comindware.Platform.Contracts"
                                  },
                                  "HelpText": {
                                    "$type": "Comindware.Platform.Contracts.LocalizedTextModel, Comindware.Platform.Contracts"
                                  },
                                  "PropertyPath": {
                                    "$type": "Comindware.Platform.Contracts.GlobalAlias[], Comindware.Platform.Contracts",
                                    "$values": [
                                      {
                                        "$type": "Comindware.Platform.Contracts.GlobalAlias, Comindware.Platform.Contracts",
                                        "Type": "Attribute",
                                        "Owner": "Dogovory",
                                        "Alias": "Kommentariyrukovoditelya"
                                      }
                                    ]
                                  },
                                  "TextHeight": 0,
                                  "TextHeightAuto": false,
                                  "MaxLength": 0,
                                  "EditorType": "Simple",
                                  "CreationType": "None",
                                  "RemovalType": "None",
                                  "EditType": "None",
                                  "ChildPropertyAlias": {
                                    "$type": "Comindware.Platform.Contracts.GlobalAlias, Comindware.Platform.Contracts",
                                    "Type": "Undefined"
                                  },
                                  "OrderPropertyAlias": {
                                    "$type": "Comindware.Platform.Contracts.GlobalAlias, Comindware.Platform.Contracts",
                                    "Type": "Undefined"
                                  },
                                  "NumberPropertyAlias": {
                                    "$type": "Comindware.Platform.Contracts.GlobalAlias, Comindware.Platform.Contracts",
                                    "Type": "Undefined"
                                  },
                                  "PrecedentPropertyAlias": {
                                    "$type": "Comindware.Platform.Contracts.GlobalAlias, Comindware.Platform.Contracts",
                                    "Type": "Undefined"
                                  },
                                  "SortingDirection": "Asc",
                                  "PopupFormAlias": {
                                    "$type": "Comindware.Platform.Contracts.GlobalAlias, Comindware.Platform.Contracts",
                                    "Type": "Undefined"
                                  },
                                  "DisplayFormat": "ShowAsPicture",
                                  "GlobalAlias": {
                                    "$type": "Comindware.Platform.Contracts.GlobalAlias, Comindware.Platform.Contracts",
                                    "Type": "FormComponent",
                                    "Alias": "Kommentariyrukovoditelya"
                                  },
                                  "AccessType": "Editable",
                                  "Width": 0,
                                  "Type": "FieldComponent"
                                },
                                {
                                  "$type": "Comindware.Platform.Contracts.FieldComponentModel, Comindware.Platform.Contracts",
                                  "Label": {
                                    "$type": "Comindware.Platform.Contracts.LabelModel, Comindware.Platform.Contracts",
                                    "Hidden": false,
                                    "Alignment": "Top",
                                    "Text": {
                                      "$type": "Comindware.Platform.Contracts.LocalizedTextModel, Comindware.Platform.Contracts",
                                      "En": "Документ",
                                      "De": "Документ",
                                      "Ru": "Документ"
                                    }
                                  },
                                  "FieldType": "Document",
                                  "Placeholder": {
                                    "$type": "Comindware.Platform.Contracts.LocalizedTextModel, Comindware.Platform.Contracts"
                                  },
                                  "HelpText": {
                                    "$type": "Comindware.Platform.Contracts.LocalizedTextModel, Comindware.Platform.Contracts"
                                  },
                                  "PropertyPath": {
                                    "$type": "Comindware.Platform.Contracts.GlobalAlias[], Comindware.Platform.Contracts",
                                    "$values": [
                                      {
                                        "$type": "Comindware.Platform.Contracts.GlobalAlias, Comindware.Platform.Contracts",
                                        "Type": "Attribute",
                                        "Owner": "Dogovory",
                                        "Alias": "Dokumentotrukovoditelya"
                                      }
                                    ]
                                  },
                                  "EditorType": "Radio",
                                  "CreationType": "None",
                                  "RemovalType": "None",
                                  "EditType": "None",
                                  "ChildPropertyAlias": {
                                    "$type": "Comindware.Platform.Contracts.GlobalAlias, Comindware.Platform.Contracts",
                                    "Type": "Undefined"
                                  },
                                  "OrderPropertyAlias": {
                                    "$type": "Comindware.Platform.Contracts.GlobalAlias, Comindware.Platform.Contracts",
                                    "Type": "Undefined"
                                  },
                                  "NumberPropertyAlias": {
                                    "$type": "Comindware.Platform.Contracts.GlobalAlias, Comindware.Platform.Contracts",
                                    "Type": "Undefined"
                                  },
                                  "PrecedentPropertyAlias": {
                                    "$type": "Comindware.Platform.Contracts.GlobalAlias, Comindware.Platform.Contracts",
                                    "Type": "Undefined"
                                  },
                                  "SortingDirection": "Asc",
                                  "MaxCount": 0,
                                  "PopupFormAlias": {
                                    "$type": "Comindware.Platform.Contracts.GlobalAlias, Comindware.Platform.Contracts",
                                    "Type": "Undefined"
                                  },
                                  "DisplayFormat": "ShowAsPicture",
                                  "GlobalAlias": {
                                    "$type": "Comindware.Platform.Contracts.GlobalAlias, Comindware.Platform.Contracts",
                                    "Type": "FormComponent",
                                    "Alias": "Dokumentotrukovoditelya"
                                  },
                                  "AccessType": "Editable",
                                  "Width": 0,
                                  "Type": "FieldComponent"
                                }
                              ]
                            },
                            "GlobalAlias": {
                              "$type": "Comindware.Platform.Contracts.GlobalAlias, Comindware.Platform.Contracts",
                              "Type": "FormComponent",
                              "Alias": "VerticalLayout3"
                            },
                            "AccessType": "Undefined",
                            "Width": 70,
                            "Type": "VerticalLayout"
                          }
                        ]
                      },
                      "OriginalType": "HorizontalLayout",
                      "GlobalAlias": {
                        "$type": "Comindware.Platform.Contracts.GlobalAlias, Comindware.Platform.Contracts",
                        "Type": "FormComponent",
                        "Alias": "HorizontalLayout"
                      },
                      "AccessType": "Undefined",
                      "Width": 0,
                      "Type": "LayoutModel"
                    }
                  ]
                },
                "GlobalAlias": {
                  "$type": "Comindware.Platform.Contracts.GlobalAlias, Comindware.Platform.Contracts",
                  "Type": "FormComponent",
                  "Alias": "VerticalLayout"
                },
                "AccessType": "Undefined",
                "Width": 0,
                "Type": "VerticalLayout"
              }
            ]
          },
          "GlobalAlias": {
            "$type": "Comindware.Platform.Contracts.GlobalAlias, Comindware.Platform.Contracts",
            "Type": "FormComponent",
            "Alias": "GroupPanelComponent"
          },
          "AccessType": "Editable",
          "Width": 100,
          "Type": "PanelModel"
        },
        {
          "$type": "Comindware.Platform.Contracts.SubFormModel, Comindware.Platform.Contracts",
          "Name": "История согласования договора",
          "DataSourcePropertyPath": {
            "$type": "Comindware.Platform.Contracts.GlobalAlias[], Comindware.Platform.Contracts",
            "$values": [
              {
                "$type": "Comindware.Platform.Contracts.GlobalAlias, Comindware.Platform.Contracts",
                "Type": "Form",
                "Owner": "Dogovory",
                "Alias": "form12891"
              }
            ]
          },
          "GlobalAlias": {
            "$type": "Comindware.Platform.Contracts.GlobalAlias, Comindware.Platform.Contracts",
            "Type": "FormComponent",
            "Alias": "form12891"
          },
          "AccessType": "Readonly",
          "Width": 0,
          "Type": "SubForm"
        },
        {
          "$type": "Comindware.Platform.Contracts.SubFormModel, Comindware.Platform.Contracts",
          "Name": "Вложенная форма / форма для доработки",
          "DataSourcePropertyPath": {
            "$type": "Comindware.Platform.Contracts.GlobalAlias[], Comindware.Platform.Contracts",
            "$values": [
              {
                "$type": "Comindware.Platform.Contracts.GlobalAlias, Comindware.Platform.Contracts",
                "Type": "Form",
                "Owner": "Dogovory",
                "Alias": "Vlozhennayaformadlyasoglasuyuschikh"
              }
            ]
          },
          "GlobalAlias": {
            "$type": "Comindware.Platform.Contracts.GlobalAlias, Comindware.Platform.Contracts",
            "Type": "FormComponent",
            "Alias": "Vlozhennayaformadlyasoglasuyuschikh"
          },
          "AccessType": "Readonly",
          "Width": 0,
          "Type": "SubForm"
        }
      ]
    },
    "GlobalAlias": {
      "$type": "Comindware.Platform.Contracts.GlobalAlias, Comindware.Platform.Contracts",
      "Type": "FormComponent",
      "Alias": "root"
    },
    "AccessType": "Undefined",
    "Width": 0,
    "Type": "VerticalLayout"
  },
  "Name": "Форма утверждения руководителем",
  "FormRules": {
    "$type": "System.Collections.Generic.List`1[[Comindware.Platform.Contracts.FormRuleModel, Comindware.Platform.Contracts]], mscorlib",
    "$values": [
      {
        "$type": "Comindware.Platform.Contracts.FormRuleModel, Comindware.Platform.Contracts",
        "RuleName": "Правило",
        "ConditionExpression": "",
        "Actions": {
          "$type": "System.Collections.Generic.List`1[[Comindware.Platform.Contracts.RuleActionModel, Comindware.Platform.Contracts]], mscorlib",
          "$values": [
            {
              "$type": "Comindware.Platform.Contracts.RuleActionModel, Comindware.Platform.Contracts",
              "GlobalAlias": {
                "$type": "Comindware.Platform.Contracts.GlobalAlias, Comindware.Platform.Contracts",
                "Type": "FormComponent"
              },
              "Type": "SetAccessType",
              "ValueExpression": "CONST('Required')",
              "ConditionExpression": "$Resheniebukhgaltera->Kod == \"return_common\"",
              "Severity": "Error"
            },
            {
              "$type": "Comindware.Platform.Contracts.RuleActionModel, Comindware.Platform.Contracts",
              "GlobalAlias": {
                "$type": "Comindware.Platform.Contracts.GlobalAlias, Comindware.Platform.Contracts",
                "Type": "FormComponent",
                "Owner": "Formautverzhdeniyarukovoditelem",
                "Alias": "GroupPanelComponent2"
              },
              "Type": "SetAccessType",
              "ValueExpression": "CONST('Hidden')",
              "ConditionExpression": "NOT(EMPTY($NadorabotkuBukhgalter))",
              "Severity": "Error"
            },
            {
              "$type": "Comindware.Platform.Contracts.RuleActionModel, Comindware.Platform.Contracts",
              "GlobalAlias": {
                "$type": "Comindware.Platform.Contracts.GlobalAlias, Comindware.Platform.Contracts",
                "Type": "FormComponent"
              },
              "Type": "SetAccessType",
              "ValueExpression": "CONST('Hidden')",
              "ConditionExpression": "EMPTY($NadorabotkuBukhgalter)",
              "Severity": "Error"
            },
            {
              "$type": "Comindware.Platform.Contracts.RuleActionModel, Comindware.Platform.Contracts",
              "GlobalAlias": {
                "$type": "Comindware.Platform.Contracts.GlobalAlias, Comindware.Platform.Contracts",
                "Type": "FormComponent",
                "Owner": "Formautverzhdeniyarukovoditelem",
                "Alias": "form12891"
              },
              "Type": "SetAccessType",
              "ValueExpression": "CONST('Hidden')",
              "ConditionExpression": "EMPTY($NadorabotkuBukhgalter)",
              "Severity": "Error"
            }
          ]
        }
      }
    ]
  },
  "Origination": "Undefined"
}