{
  "$type": "Comindware.Platform.Contracts.MessageTypeConfigurationModel, Comindware.Platform.Contracts",
  "Name": "ZapusksoglasovaniyaDS356f",
  "GlobalAlias": {
    "$type": "Comindware.Platform.Contracts.GlobalAlias, Comindware.Platform.Contracts",
    "Type": "MessageTemplate",
    "Alias": "ZapusksoglasovaniyaDS356f"
  },
  "Kind": "InternalKind"
}