{
  "$type": "Comindware.Platform.Contracts.SubProcessActivityModel, Comindware.Platform.Contracts",
  "GlobalAlias": {
    "$type": "Comindware.Platform.Contracts.GlobalAlias, Comindware.Platform.Contracts",
    "Type": "ClientActivity",
    "Owner": "Soglasovaniemediaplana",
    "Alias": "subProcess1"
  },
  "ProcessTemplateAlias": {
    "$type": "Comindware.Platform.Contracts.GlobalAlias, Comindware.Platform.Contracts",
    "Type": "ProcessTemplate",
    "Alias": "Soglasovaniemediaplananaruzhnayareklama"
  },
  "Loop": {
    "$type": "Comindware.Platform.Contracts.LoopModel, Comindware.Platform.Contracts",
    "Kind": "ForEach",
    "LoopExecutionOrder": "Parallel",
    "Expression": "$id",
    "TargetTemplate": {
      "$type": "Comindware.Platform.Contracts.GlobalAlias, Comindware.Platform.Contracts",
      "Type": "RecordTemplate",
      "Alias": "Mediaplany"
    }
  },
  "LoopAdapter": {
    "$type": "Comindware.Platform.Contracts.SubProcessLoopAdapterModel, Comindware.Platform.Contracts",
    "ModificationActions": {
      "$type": "Comindware.Platform.Contracts.ModificationActionModel[], Comindware.Platform.Contracts",
      "$values": [
        {
          "$type": "Comindware.Platform.Contracts.ModificationActionModel, Comindware.Platform.Contracts",
          "PropertyPath": {
            "$type": "Comindware.Platform.Contracts.GlobalAlias[], Comindware.Platform.Contracts",
            "$values": [
              {
                "$type": "Comindware.Platform.Contracts.GlobalAlias, Comindware.Platform.Contracts",
                "Type": "Attribute",
                "Alias": "id"
              }
            ]
          },
          "PropertyAction": "Replace"
        }
      ]
    }
  },
  "Definition": {
    "$type": "Comindware.Platform.Contracts.SubProcessDefinitionModel, Comindware.Platform.Contracts",
    "InputMapping": {
      "$type": "Comindware.Platform.Contracts.MakeObjectRuleModel, Comindware.Platform.Contracts",
      "RecordTemplate": {
        "$type": "Comindware.Platform.Contracts.GlobalAlias, Comindware.Platform.Contracts",
        "Type": "Undefined"
      },
      "Type": "MakeObject"
    },
    "ReturnMapping": {
      "$type": "Comindware.Platform.Contracts.MakeObjectRuleModel, Comindware.Platform.Contracts",
      "RecordTemplate": {
        "$type": "Comindware.Platform.Contracts.GlobalAlias, Comindware.Platform.Contracts",
        "Type": "Undefined"
      },
      "Type": "MakeObject"
    },
    "ProcessObjectStrategy": "UseExisting",
    "ProcessRelation": "Contextual"
  },
  "BehaviourState": "Undefined",
  "AdvancedConfiguration": true,
  "Title": "Согласование медиаплана на ТВ/наружка",
  "IsTitleSet": false,
  "Position": {
    "$type": "Comindware.Platform.Contracts.VectorModel, Comindware.Platform.Contracts",
    "X": 25.0,
    "Y": -170.0
  },
  "Size": {
    "$type": "Comindware.Platform.Contracts.DimensionsModel, Comindware.Platform.Contracts",
    "Width": 150.0,
    "Height": 100.0
  },
  "Owner": {
    "$type": "Comindware.Platform.Contracts.GlobalAlias, Comindware.Platform.Contracts",
    "Type": "Undefined"
  },
  "OwnerEmbeddedProcessActivityAlias": {
    "$type": "Comindware.Platform.Contracts.GlobalAlias, Comindware.Platform.Contracts",
    "Type": "ClientActivity",
    "Owner": "Soglasovaniemediaplana",
    "Alias": "embeddedProcess1"
  },
  "MountedOnAlias": {
    "$type": "Comindware.Platform.Contracts.GlobalAlias, Comindware.Platform.Contracts",
    "Type": "Undefined"
  },
  "Type": "SubProcess",
  "OnEnterTrigger": {
    "$type": "Comindware.Platform.Contracts.GlobalAlias, Comindware.Platform.Contracts",
    "Type": "Undefined"
  },
  "OnExitTrigger": {
    "$type": "Comindware.Platform.Contracts.GlobalAlias, Comindware.Platform.Contracts",
    "Type": "Undefined"
  }
}