{
  "$type": "Comindware.Platform.Contracts.DocumentExportTemplateModel, Comindware.Platform.Contracts",
  "GlobalAlias": {
    "$type": "Comindware.Platform.Contracts.GlobalAlias, Comindware.Platform.Contracts",
    "Type": "ExportTemplate",
    "Owner": "Podborpersonala",
    "Alias": "Shablondlyazayavki"
  },
  "Name": "Заявка на подбор персонала.doc",
  "ExportSourceTemplate": {
    "$type": "Comindware.Platform.Contracts.ExportSourceTemplateFromDocument, Comindware.Platform.Contracts",
    "Type": "Document",
    "FileName": "Заявка на подбор персонала.doc",
    "FileType": "Word",
    "StreamId": "cmw.xmlns:.stream:///.044331f6ea3b4438a5871596e6ef9427"
  },
  "OutputFileNameTemplate": {
    "$type": "Comindware.Platform.Contracts.OutputFileNameTemplateFromRule, Comindware.Platform.Contracts",
    "Type": "Rule",
    "RuleId": "rule.1572",
    "Expression": "FORMAT(\"Зявка на должность{0}\",LIST($Nazvaniedolzhnosti))"
  },
  "ExportAsPdf": false
}