{
  "$type": "Comindware.Platform.Contracts.TaskActivityModel, Comindware.Platform.Contracts",
  "GlobalAlias": {
    "$type": "Comindware.Platform.Contracts.GlobalAlias, Comindware.Platform.Contracts",
    "Type": "ClientActivity",
    "Owner": "Ezhednevnyytekhnicheskiyprotsess",
    "Alias": "scriptTask1"
  },
  "Kind": "Script",
  "ScriptDefinition": {
    "$type": "Comindware.Platform.Contracts.ScriptTaskDefinitionModel, Comindware.Platform.Contracts",
    "MaxExecutionTime": "03:00:00",
    "AttemptCount": 1,
    "AttemptInterval": "00:00:00",
    "Script": {
      "$type": "Comindware.Platform.Contracts.CustomRuleModel, Comindware.Platform.Contracts",
      "Type": "Custom",
      "Definition": {
        "$type": "Comindware.Platform.Contracts.CSharpRuleDefinitionModel, Comindware.Platform.Contracts",
        "Code": "using System;\nusing System.Collections.Generic;\nusing System.Linq;\nusing Comindware.Data.Entity;\nusing Comindware.TeamNetwork.Api.Data.UserCommands;\nusing Comindware.TeamNetwork.Api.Data;\n\nclass Script\n{\n    public static void Main(Comindware.Process.Api.Data.ScriptContext context, Comindware.Entities entities)\n    {\n        var groups_api = Api.Base.AccountGroupService.List();\n        foreach (var group_api in groups_api)\n        {\n            if (group_api.Name.StartsWith(\"Level\"))\n            {\n                var old_users = Api.Base.AccountGroupService.Get(group_api.Id);\n                Api.Base.AccountGroupService.ExcludeMembers(group_api.Id, old_users.Users);\n            }\n        }\n        \n\t\tvar oa_list = Api.TeamNetwork.ObjectService.ListWithAlias(\"Organizatsionnoshtatnayastruktura\");\n        foreach (var i in oa_list)\n        {\n            var data = i as Dictionary<string,object>;\n            {\n\t\t\t\tdata.TryGetValue(\"Rol\", out object obj);\n                data.TryGetValue(\"Sotrudnik\", out object obj_user);\n\t\t\t\tif (obj != null && obj_user != null)\n\t\t\t\t{\n                    foreach (string group in obj.ToString().Split(','))\n                    {\n                        foreach (var group_api in groups_api)\n                        {\n                            if (group.TrimStart(' ').TrimEnd(' ') == group_api.Name)\n                            {\n                                Api.Base.AccountGroupService.IncludeMembers(group_api.Id, new List<string>(){ obj_user.ToString() });\n                            }\n                        }\n                    }\n                }\n            }\n        }\n    }\n}",
        "Type": "CSharpExpression"
      }
    }
  },
  "FormAlias": {
    "$type": "Comindware.Platform.Contracts.GlobalAlias, Comindware.Platform.Contracts",
    "Type": "ProcessForm",
    "Owner": "Ezhednevnyytekhnicheskiyprotsess"
  },
  "BehaviourState": "Undefined",
  "Title": "Включение пользователей в группы",
  "IsTitleSet": false,
  "Position": {
    "$type": "Comindware.Platform.Contracts.VectorModel, Comindware.Platform.Contracts",
    "X": 515.979899497488,
    "Y": 65.0
  },
  "Size": {
    "$type": "Comindware.Platform.Contracts.DimensionsModel, Comindware.Platform.Contracts",
    "Width": 128.040201005025,
    "Height": 70.0
  },
  "Owner": {
    "$type": "Comindware.Platform.Contracts.GlobalAlias, Comindware.Platform.Contracts",
    "Type": "ClientActivity",
    "Owner": "Ezhednevnyytekhnicheskiyprotsess",
    "Alias": "pool1"
  },
  "OwnerEmbeddedProcessActivityAlias": {
    "$type": "Comindware.Platform.Contracts.GlobalAlias, Comindware.Platform.Contracts",
    "Type": "Undefined"
  },
  "MountedOnAlias": {
    "$type": "Comindware.Platform.Contracts.GlobalAlias, Comindware.Platform.Contracts",
    "Type": "Undefined"
  },
  "Type": "Task",
  "OnEnterTrigger": {
    "$type": "Comindware.Platform.Contracts.GlobalAlias, Comindware.Platform.Contracts",
    "Type": "Undefined"
  },
  "OnExitTrigger": {
    "$type": "Comindware.Platform.Contracts.GlobalAlias, Comindware.Platform.Contracts",
    "Type": "Undefined"
  }
}