{
  "$type": "Comindware.Platform.Contracts.UserCommandConfigurationModel, Comindware.Platform.Contracts",
  "GlobalAlias": {
    "$type": "Comindware.Platform.Contracts.GlobalAlias, Comindware.Platform.Contracts",
    "Type": "UserCommand",
    "Owner": "Brify",
    "Alias": "Initsiirovatbrif"
  },
  "Name": "Инициировать бриф",
  "IsSystem": false,
  "IsDisabled": false,
  "IsPrepare": false,
  "SkipValidation": false,
  "Context": "Record",
  "Multiplicity": "OneByOne",
  "Kind": "StartProcess",
  "ResultType": "DataChange",
  "ConfirmationModelConfiguration": {
    "$type": "Comindware.Platform.Contracts.UserCommandConfirmationModel, Comindware.Platform.Contracts",
    "Form": {
      "$type": "Comindware.Platform.Contracts.GlobalAlias, Comindware.Platform.Contracts",
      "Type": "Undefined"
    },
    "Template": {
      "$type": "Comindware.Platform.Contracts.GlobalAlias, Comindware.Platform.Contracts",
      "Type": "MessageTemplate",
      "Alias": "Initsiirovatbrif7c0c"
    }
  },
  "ConditionRule": "OR(EMPTY($Status),EQUALS($StatusRef->Kod,\"4\"))",
  "RelatedAction": {
    "$type": "Comindware.Platform.Contracts.UserCommandRelatedActionModel, Comindware.Platform.Contracts",
    "ContainerGlobalAlias": {
      "$type": "Comindware.Platform.Contracts.GlobalAlias, Comindware.Platform.Contracts",
      "Type": "RecordTemplate",
      "Alias": "Brify"
    },
    "TemplateGlobalAlias": {
      "$type": "Comindware.Platform.Contracts.GlobalAlias, Comindware.Platform.Contracts",
      "Type": "ProcessTemplate",
      "Alias": "Soglasovaniebrifa"
    },
    "FormGlobalAlias": {
      "$type": "Comindware.Platform.Contracts.GlobalAlias, Comindware.Platform.Contracts",
      "Type": "Undefined"
    }
  },
  "RelatedEntityGlobalAlias": {
    "$type": "Comindware.Platform.Contracts.GlobalAlias, Comindware.Platform.Contracts",
    "Type": "Undefined"
  },
  "LockStateChangeType": "Undefined",
  "LockStateVisibilityType": "Undefined",
  "IsConfirmationActive": false,
  "NavigationTarget": "GoBack"
}