{
  "$type": "Comindware.Platform.Contracts.UserCommandConfigurationModel, Comindware.Platform.Contracts",
  "GlobalAlias": {
    "$type": "Comindware.Platform.Contracts.GlobalAlias, Comindware.Platform.Contracts",
    "Type": "UserCommand",
    "Owner": "Brify",
    "Alias": "Sozdatbrif"
  },
  "Name": "Создать бриф",
  "IsSystem": false,
  "IsDisabled": false,
  "IsPrepare": false,
  "SkipValidation": true,
  "Context": "Record",
  "Multiplicity": "OneByOne",
  "Kind": "Create",
  "ResultType": "DataChange",
  "ConfirmationModelConfiguration": {
    "$type": "Comindware.Platform.Contracts.UserCommandConfirmationModel, Comindware.Platform.Contracts",
    "Form": {
      "$type": "Comindware.Platform.Contracts.GlobalAlias, Comindware.Platform.Contracts",
      "Type": "Undefined"
    },
    "Template": {
      "$type": "Comindware.Platform.Contracts.GlobalAlias, Comindware.Platform.Contracts",
      "Type": "MessageTemplate",
      "Alias": "Sozdatbrife163"
    }
  },
  "RelatedAction": {
    "$type": "Comindware.Platform.Contracts.UserCommandRelatedActionModel, Comindware.Platform.Contracts",
    "ContainerGlobalAlias": {
      "$type": "Comindware.Platform.Contracts.GlobalAlias, Comindware.Platform.Contracts",
      "Type": "RecordTemplate",
      "Alias": "Brify"
    },
    "TemplateGlobalAlias": {
      "$type": "Comindware.Platform.Contracts.GlobalAlias, Comindware.Platform.Contracts",
      "Type": "Undefined"
    },
    "FormGlobalAlias": {
      "$type": "Comindware.Platform.Contracts.GlobalAlias, Comindware.Platform.Contracts",
      "Type": "Form",
      "Owner": "Brify",
      "Alias": "form45506"
    }
  },
  "RelatedEntityGlobalAlias": {
    "$type": "Comindware.Platform.Contracts.GlobalAlias, Comindware.Platform.Contracts",
    "Type": "Undefined"
  },
  "LockStateChangeType": "Undefined",
  "LockStateVisibilityType": "VisibleOnLock",
  "IsConfirmationActive": false,
  "NavigationTarget": "Undefined"
}