{
  "$type": "Comindware.Platform.Contracts.FormModel, Comindware.Platform.Contracts",
  "GlobalAlias": {
    "$type": "Comindware.Platform.Contracts.GlobalAlias, Comindware.Platform.Contracts",
    "Type": "Form",
    "Owner": "ZakrytiyaMPzaperiod",
    "Alias": "form23150"
  },
  "Type": "PublicForm",
  "IsDefault": false,
  "Root": {
    "$type": "Comindware.Platform.Contracts.VerticalLayoutModel, Comindware.Platform.Contracts",
    "Rows": {
      "$type": "System.Collections.Generic.List`1[[Comindware.Platform.Contracts.FormComponentModel, Comindware.Platform.Contracts]], mscorlib",
      "$values": [
        {
          "$type": "Comindware.Platform.Contracts.PanelModel, Comindware.Platform.Contracts",
          "Text": {
            "$type": "Comindware.Platform.Contracts.LocalizedTextModel, Comindware.Platform.Contracts",
            "En": "Подготовка файла для парсинга",
            "De": "Подготовка файла для парсинга",
            "Ru": "Подготовка файла для парсинга"
          },
          "OriginalType": "GroupPanel",
          "Rows": {
            "$type": "System.Collections.Generic.List`1[[Comindware.Platform.Contracts.FormComponentModel, Comindware.Platform.Contracts]], mscorlib",
            "$values": [
              {
                "$type": "Comindware.Platform.Contracts.VerticalLayoutModel, Comindware.Platform.Contracts",
                "Rows": {
                  "$type": "System.Collections.Generic.List`1[[Comindware.Platform.Contracts.FormComponentModel, Comindware.Platform.Contracts]], mscorlib",
                  "$values": [
                    {
                      "$type": "Comindware.Platform.Contracts.StaticContentModel, Comindware.Platform.Contracts",
                      "Content": {
                        "$type": "Comindware.Platform.Contracts.LocalizedTextModel, Comindware.Platform.Contracts",
                        "En": "<p>Для замены текущего файла медиаплана&nbsp;на медиаплан&nbsp;для дальнейшей отправки на парсинг, выполнить следующие действия:</p> <p>1. Скачать &quot;МП с фактическими данными&quot; кликнув мышкой по названию файла;</p> <p>2. Переделать&nbsp;медиаплан для отправки на парсинг;</p> <p>3. Удалить текущий файл из поля&nbsp;&quot;МП с фактическими данными&quot; - навести курсор на название файла, справа появится красный крестик, на который нужно нажать;</p> <p>4. В поле&nbsp;&quot;МП с фактическими данными&quot; нажать на кнопку &quot;Выберите файл&quot; и приложить файл с медиапланом для парсинга.</p> <p>5. Сверху формы &quot;Подготовка файла для парсинга&quot; нажать на кнопку &quot;Завершить задачу&quot;</p>\n",
                        "De": "<p>Для замены текущего файла медиаплана&nbsp;на медиаплан&nbsp;для дальнейшей отправки на парсинг, выполнить следующие действия:</p> <p>1. Скачать &quot;МП с фактическими данными&quot; кликнув мышкой по названию файла;</p> <p>2. Переделать&nbsp;медиаплан для отправки на парсинг;</p> <p>3. Удалить текущий файл из поля&nbsp;&quot;МП с фактическими данными&quot; - навести курсор на название файла, справа появится красный крестик, на который нужно нажать;</p> <p>4. В поле&nbsp;&quot;МП с фактическими данными&quot; нажать на кнопку &quot;Выберите файл&quot; и приложить файл с медиапланом для парсинга.</p> <p>5. Сверху формы &quot;Подготовка файла для парсинга&quot; нажать на кнопку &quot;Завершить задачу&quot;</p>\n",
                        "Ru": "<p>Для замены текущего файла медиаплана&nbsp;на медиаплан&nbsp;для дальнейшей отправки на парсинг, выполнить следующие действия:</p> <p>1. Скачать &quot;МП с фактическими данными&quot; кликнув мышкой по названию файла;</p> <p>2. Переделать&nbsp;медиаплан для отправки на парсинг;</p> <p>3. Удалить текущий файл из поля&nbsp;&quot;МП с фактическими данными&quot; - навести курсор на название файла, справа появится красный крестик, на который нужно нажать;</p> <p>4. В поле&nbsp;&quot;МП с фактическими данными&quot; нажать на кнопку &quot;Выберите файл&quot; и приложить файл с медиапланом для парсинга.</p> <p>5. Сверху формы &quot;Подготовка файла для парсинга&quot; нажать на кнопку &quot;Завершить задачу&quot;</p>\n"
                      },
                      "GlobalAlias": {
                        "$type": "Comindware.Platform.Contracts.GlobalAlias, Comindware.Platform.Contracts",
                        "Type": "FormComponent",
                        "Alias": "StaticContentComponent"
                      },
                      "AccessType": "Undefined",
                      "Width": 0,
                      "Type": "StaticContent"
                    },
                    {
                      "$type": "Comindware.Platform.Contracts.FieldComponentModel, Comindware.Platform.Contracts",
                      "Label": {
                        "$type": "Comindware.Platform.Contracts.LabelModel, Comindware.Platform.Contracts",
                        "Hidden": false,
                        "Alignment": "Top",
                        "Text": {
                          "$type": "Comindware.Platform.Contracts.LocalizedTextModel, Comindware.Platform.Contracts",
                          "En": "Проект",
                          "De": "Проект",
                          "Ru": "Проект"
                        }
                      },
                      "FieldType": "Reference",
                      "Placeholder": {
                        "$type": "Comindware.Platform.Contracts.LocalizedTextModel, Comindware.Platform.Contracts"
                      },
                      "HelpText": {
                        "$type": "Comindware.Platform.Contracts.LocalizedTextModel, Comindware.Platform.Contracts"
                      },
                      "PropertyPath": {
                        "$type": "Comindware.Platform.Contracts.GlobalAlias[], Comindware.Platform.Contracts",
                        "$values": [
                          {
                            "$type": "Comindware.Platform.Contracts.GlobalAlias, Comindware.Platform.Contracts",
                            "Type": "Attribute",
                            "Owner": "ZakrytiyaMPzaperiod",
                            "Alias": "Mediaplan"
                          },
                          {
                            "$type": "Comindware.Platform.Contracts.GlobalAlias, Comindware.Platform.Contracts",
                            "Type": "Attribute",
                            "Owner": "Mediaplany",
                            "Alias": "Proekt"
                          }
                        ]
                      },
                      "EditorType": "Radio",
                      "CreationType": "None",
                      "RemovalType": "None",
                      "EditType": "None",
                      "HideSearchBar": false,
                      "ShowAsLink": false,
                      "ChildPropertyAlias": {
                        "$type": "Comindware.Platform.Contracts.GlobalAlias, Comindware.Platform.Contracts",
                        "Type": "Undefined"
                      },
                      "OrderPropertyAlias": {
                        "$type": "Comindware.Platform.Contracts.GlobalAlias, Comindware.Platform.Contracts",
                        "Type": "Undefined"
                      },
                      "NumberPropertyAlias": {
                        "$type": "Comindware.Platform.Contracts.GlobalAlias, Comindware.Platform.Contracts",
                        "Type": "Undefined"
                      },
                      "PrecedentPropertyAlias": {
                        "$type": "Comindware.Platform.Contracts.GlobalAlias, Comindware.Platform.Contracts",
                        "Type": "Undefined"
                      },
                      "SortingDirection": "Asc",
                      "PopupFormAlias": {
                        "$type": "Comindware.Platform.Contracts.GlobalAlias, Comindware.Platform.Contracts",
                        "Type": "Undefined"
                      },
                      "AllowEdit": false,
                      "DisplayFormat": "ShowAsPicture",
                      "GlobalAlias": {
                        "$type": "Comindware.Platform.Contracts.GlobalAlias, Comindware.Platform.Contracts",
                        "Type": "FormComponent",
                        "Alias": "Proekt"
                      },
                      "AccessType": "Readonly",
                      "Width": 0,
                      "Type": "FieldComponent"
                    },
                    {
                      "$type": "Comindware.Platform.Contracts.FieldComponentModel, Comindware.Platform.Contracts",
                      "Label": {
                        "$type": "Comindware.Platform.Contracts.LabelModel, Comindware.Platform.Contracts",
                        "Hidden": false,
                        "Alignment": "Top",
                        "Text": {
                          "$type": "Comindware.Platform.Contracts.LocalizedTextModel, Comindware.Platform.Contracts",
                          "En": "Медиаканал",
                          "De": "Медиаканал",
                          "Ru": "Медиаканал"
                        }
                      },
                      "FieldType": "Reference",
                      "Placeholder": {
                        "$type": "Comindware.Platform.Contracts.LocalizedTextModel, Comindware.Platform.Contracts"
                      },
                      "HelpText": {
                        "$type": "Comindware.Platform.Contracts.LocalizedTextModel, Comindware.Platform.Contracts"
                      },
                      "PropertyPath": {
                        "$type": "Comindware.Platform.Contracts.GlobalAlias[], Comindware.Platform.Contracts",
                        "$values": [
                          {
                            "$type": "Comindware.Platform.Contracts.GlobalAlias, Comindware.Platform.Contracts",
                            "Type": "Attribute",
                            "Owner": "ZakrytiyaMPzaperiod",
                            "Alias": "Mediaplan"
                          },
                          {
                            "$type": "Comindware.Platform.Contracts.GlobalAlias, Comindware.Platform.Contracts",
                            "Type": "Attribute",
                            "Owner": "Mediaplany",
                            "Alias": "Mediakanal"
                          }
                        ]
                      },
                      "EditorType": "Radio",
                      "CreationType": "None",
                      "RemovalType": "None",
                      "EditType": "None",
                      "HideSearchBar": false,
                      "ShowAsLink": false,
                      "ChildPropertyAlias": {
                        "$type": "Comindware.Platform.Contracts.GlobalAlias, Comindware.Platform.Contracts",
                        "Type": "Undefined"
                      },
                      "OrderPropertyAlias": {
                        "$type": "Comindware.Platform.Contracts.GlobalAlias, Comindware.Platform.Contracts",
                        "Type": "Undefined"
                      },
                      "NumberPropertyAlias": {
                        "$type": "Comindware.Platform.Contracts.GlobalAlias, Comindware.Platform.Contracts",
                        "Type": "Undefined"
                      },
                      "PrecedentPropertyAlias": {
                        "$type": "Comindware.Platform.Contracts.GlobalAlias, Comindware.Platform.Contracts",
                        "Type": "Undefined"
                      },
                      "SortingDirection": "Asc",
                      "PopupFormAlias": {
                        "$type": "Comindware.Platform.Contracts.GlobalAlias, Comindware.Platform.Contracts",
                        "Type": "Undefined"
                      },
                      "AllowEdit": false,
                      "DisplayFormat": "ShowAsPicture",
                      "GlobalAlias": {
                        "$type": "Comindware.Platform.Contracts.GlobalAlias, Comindware.Platform.Contracts",
                        "Type": "FormComponent",
                        "Alias": "Mediakanal"
                      },
                      "AccessType": "Readonly",
                      "Width": 0,
                      "Type": "FieldComponent"
                    },
                    {
                      "$type": "Comindware.Platform.Contracts.FieldComponentModel, Comindware.Platform.Contracts",
                      "Label": {
                        "$type": "Comindware.Platform.Contracts.LabelModel, Comindware.Platform.Contracts",
                        "Hidden": false,
                        "Alignment": "Top",
                        "Text": {
                          "$type": "Comindware.Platform.Contracts.LocalizedTextModel, Comindware.Platform.Contracts",
                          "En": "Направление",
                          "De": "Направление",
                          "Ru": "Направление"
                        }
                      },
                      "FieldType": "Reference",
                      "Placeholder": {
                        "$type": "Comindware.Platform.Contracts.LocalizedTextModel, Comindware.Platform.Contracts"
                      },
                      "HelpText": {
                        "$type": "Comindware.Platform.Contracts.LocalizedTextModel, Comindware.Platform.Contracts"
                      },
                      "PropertyPath": {
                        "$type": "Comindware.Platform.Contracts.GlobalAlias[], Comindware.Platform.Contracts",
                        "$values": [
                          {
                            "$type": "Comindware.Platform.Contracts.GlobalAlias, Comindware.Platform.Contracts",
                            "Type": "Attribute",
                            "Owner": "ZakrytiyaMPzaperiod",
                            "Alias": "Mediaplan"
                          },
                          {
                            "$type": "Comindware.Platform.Contracts.GlobalAlias, Comindware.Platform.Contracts",
                            "Type": "Attribute",
                            "Owner": "Mediaplany",
                            "Alias": "Napravlenie"
                          }
                        ]
                      },
                      "EditorType": "Radio",
                      "CreationType": "None",
                      "RemovalType": "None",
                      "EditType": "None",
                      "HideSearchBar": false,
                      "ShowAsLink": false,
                      "ChildPropertyAlias": {
                        "$type": "Comindware.Platform.Contracts.GlobalAlias, Comindware.Platform.Contracts",
                        "Type": "Undefined"
                      },
                      "OrderPropertyAlias": {
                        "$type": "Comindware.Platform.Contracts.GlobalAlias, Comindware.Platform.Contracts",
                        "Type": "Undefined"
                      },
                      "NumberPropertyAlias": {
                        "$type": "Comindware.Platform.Contracts.GlobalAlias, Comindware.Platform.Contracts",
                        "Type": "Undefined"
                      },
                      "PrecedentPropertyAlias": {
                        "$type": "Comindware.Platform.Contracts.GlobalAlias, Comindware.Platform.Contracts",
                        "Type": "Undefined"
                      },
                      "SortingDirection": "Asc",
                      "PopupFormAlias": {
                        "$type": "Comindware.Platform.Contracts.GlobalAlias, Comindware.Platform.Contracts",
                        "Type": "Undefined"
                      },
                      "AllowEdit": false,
                      "DisplayFormat": "ShowAsPicture",
                      "GlobalAlias": {
                        "$type": "Comindware.Platform.Contracts.GlobalAlias, Comindware.Platform.Contracts",
                        "Type": "FormComponent",
                        "Alias": "Napravlenie"
                      },
                      "AccessType": "Readonly",
                      "Width": 0,
                      "Type": "FieldComponent"
                    },
                    {
                      "$type": "Comindware.Platform.Contracts.LayoutModel, Comindware.Platform.Contracts",
                      "Components": {
                        "$type": "System.Collections.Generic.List`1[[Comindware.Platform.Contracts.FormComponentModel, Comindware.Platform.Contracts]], mscorlib",
                        "$values": [
                          {
                            "$type": "Comindware.Platform.Contracts.VerticalLayoutModel, Comindware.Platform.Contracts",
                            "Rows": {
                              "$type": "System.Collections.Generic.List`1[[Comindware.Platform.Contracts.FormComponentModel, Comindware.Platform.Contracts]], mscorlib",
                              "$values": [
                                {
                                  "$type": "Comindware.Platform.Contracts.FieldComponentModel, Comindware.Platform.Contracts",
                                  "Label": {
                                    "$type": "Comindware.Platform.Contracts.LabelModel, Comindware.Platform.Contracts",
                                    "Hidden": false,
                                    "Alignment": "Top",
                                    "Text": {
                                      "$type": "Comindware.Platform.Contracts.LocalizedTextModel, Comindware.Platform.Contracts",
                                      "En": "Клиент",
                                      "De": "Клиент",
                                      "Ru": "Клиент"
                                    }
                                  },
                                  "FieldType": "Reference",
                                  "Placeholder": {
                                    "$type": "Comindware.Platform.Contracts.LocalizedTextModel, Comindware.Platform.Contracts"
                                  },
                                  "HelpText": {
                                    "$type": "Comindware.Platform.Contracts.LocalizedTextModel, Comindware.Platform.Contracts"
                                  },
                                  "PropertyPath": {
                                    "$type": "Comindware.Platform.Contracts.GlobalAlias[], Comindware.Platform.Contracts",
                                    "$values": [
                                      {
                                        "$type": "Comindware.Platform.Contracts.GlobalAlias, Comindware.Platform.Contracts",
                                        "Type": "Attribute",
                                        "Owner": "ZakrytiyaMPzaperiod",
                                        "Alias": "Mediaplan"
                                      },
                                      {
                                        "$type": "Comindware.Platform.Contracts.GlobalAlias, Comindware.Platform.Contracts",
                                        "Type": "Attribute",
                                        "Owner": "Mediaplany",
                                        "Alias": "Kontragent"
                                      }
                                    ]
                                  },
                                  "EditorType": "Radio",
                                  "CreationType": "None",
                                  "RemovalType": "None",
                                  "EditType": "None",
                                  "HideSearchBar": false,
                                  "ShowAsLink": false,
                                  "ChildPropertyAlias": {
                                    "$type": "Comindware.Platform.Contracts.GlobalAlias, Comindware.Platform.Contracts",
                                    "Type": "Undefined"
                                  },
                                  "OrderPropertyAlias": {
                                    "$type": "Comindware.Platform.Contracts.GlobalAlias, Comindware.Platform.Contracts",
                                    "Type": "Undefined"
                                  },
                                  "NumberPropertyAlias": {
                                    "$type": "Comindware.Platform.Contracts.GlobalAlias, Comindware.Platform.Contracts",
                                    "Type": "Undefined"
                                  },
                                  "PrecedentPropertyAlias": {
                                    "$type": "Comindware.Platform.Contracts.GlobalAlias, Comindware.Platform.Contracts",
                                    "Type": "Undefined"
                                  },
                                  "SortingDirection": "Asc",
                                  "PopupFormAlias": {
                                    "$type": "Comindware.Platform.Contracts.GlobalAlias, Comindware.Platform.Contracts",
                                    "Type": "Undefined"
                                  },
                                  "AllowEdit": false,
                                  "DisplayFormat": "ShowAsPicture",
                                  "GlobalAlias": {
                                    "$type": "Comindware.Platform.Contracts.GlobalAlias, Comindware.Platform.Contracts",
                                    "Type": "FormComponent",
                                    "Alias": "Kontragent"
                                  },
                                  "AccessType": "Readonly",
                                  "Width": 0,
                                  "Type": "FieldComponent"
                                },
                                {
                                  "$type": "Comindware.Platform.Contracts.FieldComponentModel, Comindware.Platform.Contracts",
                                  "Label": {
                                    "$type": "Comindware.Platform.Contracts.LabelModel, Comindware.Platform.Contracts",
                                    "Hidden": false,
                                    "Alignment": "Top",
                                    "Text": {
                                      "$type": "Comindware.Platform.Contracts.LocalizedTextModel, Comindware.Platform.Contracts",
                                      "En": "Юр.лицо клиента",
                                      "De": "Юр.лицо клиента",
                                      "Ru": "Юр.лицо клиента"
                                    }
                                  },
                                  "FieldType": "Reference",
                                  "Placeholder": {
                                    "$type": "Comindware.Platform.Contracts.LocalizedTextModel, Comindware.Platform.Contracts"
                                  },
                                  "HelpText": {
                                    "$type": "Comindware.Platform.Contracts.LocalizedTextModel, Comindware.Platform.Contracts"
                                  },
                                  "PropertyPath": {
                                    "$type": "Comindware.Platform.Contracts.GlobalAlias[], Comindware.Platform.Contracts",
                                    "$values": [
                                      {
                                        "$type": "Comindware.Platform.Contracts.GlobalAlias, Comindware.Platform.Contracts",
                                        "Type": "Attribute",
                                        "Owner": "ZakrytiyaMPzaperiod",
                                        "Alias": "Mediaplan"
                                      },
                                      {
                                        "$type": "Comindware.Platform.Contracts.GlobalAlias, Comindware.Platform.Contracts",
                                        "Type": "Attribute",
                                        "Owner": "Mediaplany",
                                        "Alias": "YuLklienta"
                                      }
                                    ]
                                  },
                                  "EditorType": "Radio",
                                  "CreationType": "None",
                                  "RemovalType": "None",
                                  "EditType": "None",
                                  "HideSearchBar": false,
                                  "ShowAsLink": false,
                                  "ChildPropertyAlias": {
                                    "$type": "Comindware.Platform.Contracts.GlobalAlias, Comindware.Platform.Contracts",
                                    "Type": "Undefined"
                                  },
                                  "OrderPropertyAlias": {
                                    "$type": "Comindware.Platform.Contracts.GlobalAlias, Comindware.Platform.Contracts",
                                    "Type": "Undefined"
                                  },
                                  "NumberPropertyAlias": {
                                    "$type": "Comindware.Platform.Contracts.GlobalAlias, Comindware.Platform.Contracts",
                                    "Type": "Undefined"
                                  },
                                  "PrecedentPropertyAlias": {
                                    "$type": "Comindware.Platform.Contracts.GlobalAlias, Comindware.Platform.Contracts",
                                    "Type": "Undefined"
                                  },
                                  "SortingDirection": "Asc",
                                  "PopupFormAlias": {
                                    "$type": "Comindware.Platform.Contracts.GlobalAlias, Comindware.Platform.Contracts",
                                    "Type": "Undefined"
                                  },
                                  "AllowEdit": false,
                                  "DisplayFormat": "ShowAsPicture",
                                  "GlobalAlias": {
                                    "$type": "Comindware.Platform.Contracts.GlobalAlias, Comindware.Platform.Contracts",
                                    "Type": "FormComponent",
                                    "Alias": "YuLklienta"
                                  },
                                  "AccessType": "Readonly",
                                  "Width": 0,
                                  "Type": "FieldComponent"
                                }
                              ]
                            },
                            "GlobalAlias": {
                              "$type": "Comindware.Platform.Contracts.GlobalAlias, Comindware.Platform.Contracts",
                              "Type": "FormComponent",
                              "Alias": "VerticalLayout2"
                            },
                            "AccessType": "Undefined",
                            "Width": 50,
                            "Type": "VerticalLayout"
                          },
                          {
                            "$type": "Comindware.Platform.Contracts.VerticalLayoutModel, Comindware.Platform.Contracts",
                            "Rows": {
                              "$type": "System.Collections.Generic.List`1[[Comindware.Platform.Contracts.FormComponentModel, Comindware.Platform.Contracts]], mscorlib",
                              "$values": [
                                {
                                  "$type": "Comindware.Platform.Contracts.FieldComponentModel, Comindware.Platform.Contracts",
                                  "Label": {
                                    "$type": "Comindware.Platform.Contracts.LabelModel, Comindware.Platform.Contracts",
                                    "Hidden": false,
                                    "Alignment": "Top",
                                    "Text": {
                                      "$type": "Comindware.Platform.Contracts.LocalizedTextModel, Comindware.Platform.Contracts",
                                      "En": "Агентство",
                                      "De": "Агентство",
                                      "Ru": "Агентство"
                                    }
                                  },
                                  "FieldType": "Reference",
                                  "Placeholder": {
                                    "$type": "Comindware.Platform.Contracts.LocalizedTextModel, Comindware.Platform.Contracts"
                                  },
                                  "HelpText": {
                                    "$type": "Comindware.Platform.Contracts.LocalizedTextModel, Comindware.Platform.Contracts"
                                  },
                                  "PropertyPath": {
                                    "$type": "Comindware.Platform.Contracts.GlobalAlias[], Comindware.Platform.Contracts",
                                    "$values": [
                                      {
                                        "$type": "Comindware.Platform.Contracts.GlobalAlias, Comindware.Platform.Contracts",
                                        "Type": "Attribute",
                                        "Owner": "ZakrytiyaMPzaperiod",
                                        "Alias": "Mediaplan"
                                      },
                                      {
                                        "$type": "Comindware.Platform.Contracts.GlobalAlias, Comindware.Platform.Contracts",
                                        "Type": "Attribute",
                                        "Owner": "Mediaplany",
                                        "Alias": "Agentstvo"
                                      }
                                    ]
                                  },
                                  "EditorType": "Radio",
                                  "CreationType": "None",
                                  "RemovalType": "None",
                                  "EditType": "None",
                                  "HideSearchBar": false,
                                  "ShowAsLink": false,
                                  "ChildPropertyAlias": {
                                    "$type": "Comindware.Platform.Contracts.GlobalAlias, Comindware.Platform.Contracts",
                                    "Type": "Undefined"
                                  },
                                  "OrderPropertyAlias": {
                                    "$type": "Comindware.Platform.Contracts.GlobalAlias, Comindware.Platform.Contracts",
                                    "Type": "Undefined"
                                  },
                                  "NumberPropertyAlias": {
                                    "$type": "Comindware.Platform.Contracts.GlobalAlias, Comindware.Platform.Contracts",
                                    "Type": "Undefined"
                                  },
                                  "PrecedentPropertyAlias": {
                                    "$type": "Comindware.Platform.Contracts.GlobalAlias, Comindware.Platform.Contracts",
                                    "Type": "Undefined"
                                  },
                                  "SortingDirection": "Asc",
                                  "PopupFormAlias": {
                                    "$type": "Comindware.Platform.Contracts.GlobalAlias, Comindware.Platform.Contracts",
                                    "Type": "Undefined"
                                  },
                                  "AllowEdit": false,
                                  "DisplayFormat": "ShowAsPicture",
                                  "GlobalAlias": {
                                    "$type": "Comindware.Platform.Contracts.GlobalAlias, Comindware.Platform.Contracts",
                                    "Type": "FormComponent",
                                    "Alias": "Agentstvo"
                                  },
                                  "AccessType": "Readonly",
                                  "Width": 0,
                                  "Type": "FieldComponent"
                                },
                                {
                                  "$type": "Comindware.Platform.Contracts.FieldComponentModel, Comindware.Platform.Contracts",
                                  "Label": {
                                    "$type": "Comindware.Platform.Contracts.LabelModel, Comindware.Platform.Contracts",
                                    "Hidden": false,
                                    "Alignment": "Top",
                                    "Text": {
                                      "$type": "Comindware.Platform.Contracts.LocalizedTextModel, Comindware.Platform.Contracts",
                                      "En": "Юр.лицо агентства",
                                      "De": "Юр.лицо агентства",
                                      "Ru": "Юр.лицо агентства"
                                    }
                                  },
                                  "FieldType": "Reference",
                                  "Placeholder": {
                                    "$type": "Comindware.Platform.Contracts.LocalizedTextModel, Comindware.Platform.Contracts"
                                  },
                                  "HelpText": {
                                    "$type": "Comindware.Platform.Contracts.LocalizedTextModel, Comindware.Platform.Contracts"
                                  },
                                  "PropertyPath": {
                                    "$type": "Comindware.Platform.Contracts.GlobalAlias[], Comindware.Platform.Contracts",
                                    "$values": [
                                      {
                                        "$type": "Comindware.Platform.Contracts.GlobalAlias, Comindware.Platform.Contracts",
                                        "Type": "Attribute",
                                        "Owner": "ZakrytiyaMPzaperiod",
                                        "Alias": "Mediaplan"
                                      },
                                      {
                                        "$type": "Comindware.Platform.Contracts.GlobalAlias, Comindware.Platform.Contracts",
                                        "Type": "Attribute",
                                        "Owner": "Mediaplany",
                                        "Alias": "YuLagentstva"
                                      }
                                    ]
                                  },
                                  "EditorType": "Radio",
                                  "CreationType": "None",
                                  "RemovalType": "None",
                                  "EditType": "None",
                                  "HideSearchBar": false,
                                  "ShowAsLink": false,
                                  "ChildPropertyAlias": {
                                    "$type": "Comindware.Platform.Contracts.GlobalAlias, Comindware.Platform.Contracts",
                                    "Type": "Undefined"
                                  },
                                  "OrderPropertyAlias": {
                                    "$type": "Comindware.Platform.Contracts.GlobalAlias, Comindware.Platform.Contracts",
                                    "Type": "Undefined"
                                  },
                                  "NumberPropertyAlias": {
                                    "$type": "Comindware.Platform.Contracts.GlobalAlias, Comindware.Platform.Contracts",
                                    "Type": "Undefined"
                                  },
                                  "PrecedentPropertyAlias": {
                                    "$type": "Comindware.Platform.Contracts.GlobalAlias, Comindware.Platform.Contracts",
                                    "Type": "Undefined"
                                  },
                                  "SortingDirection": "Asc",
                                  "PopupFormAlias": {
                                    "$type": "Comindware.Platform.Contracts.GlobalAlias, Comindware.Platform.Contracts",
                                    "Type": "Undefined"
                                  },
                                  "AllowEdit": false,
                                  "DisplayFormat": "ShowAsPicture",
                                  "GlobalAlias": {
                                    "$type": "Comindware.Platform.Contracts.GlobalAlias, Comindware.Platform.Contracts",
                                    "Type": "FormComponent",
                                    "Alias": "YuLagentstva"
                                  },
                                  "AccessType": "Readonly",
                                  "Width": 0,
                                  "Type": "FieldComponent"
                                }
                              ]
                            },
                            "GlobalAlias": {
                              "$type": "Comindware.Platform.Contracts.GlobalAlias, Comindware.Platform.Contracts",
                              "Type": "FormComponent",
                              "Alias": "VerticalLayout3"
                            },
                            "AccessType": "Undefined",
                            "Width": 50,
                            "Type": "VerticalLayout"
                          }
                        ]
                      },
                      "OriginalType": "HorizontalLayout",
                      "GlobalAlias": {
                        "$type": "Comindware.Platform.Contracts.GlobalAlias, Comindware.Platform.Contracts",
                        "Type": "FormComponent",
                        "Alias": "HorizontalLayout"
                      },
                      "AccessType": "Undefined",
                      "Width": 0,
                      "Type": "LayoutModel"
                    },
                    {
                      "$type": "Comindware.Platform.Contracts.FieldComponentModel, Comindware.Platform.Contracts",
                      "Label": {
                        "$type": "Comindware.Platform.Contracts.LabelModel, Comindware.Platform.Contracts",
                        "Hidden": false,
                        "Alignment": "Top",
                        "Text": {
                          "$type": "Comindware.Platform.Contracts.LocalizedTextModel, Comindware.Platform.Contracts",
                          "En": "МП с фактическими данными (удалить существующий и вставить свой)",
                          "De": "МП с фактическими данными (удалить существующий и вставить свой)",
                          "Ru": "МП с фактическими данными (удалить существующий и вставить свой)"
                        }
                      },
                      "FieldType": "Document",
                      "Placeholder": {
                        "$type": "Comindware.Platform.Contracts.LocalizedTextModel, Comindware.Platform.Contracts"
                      },
                      "HelpText": {
                        "$type": "Comindware.Platform.Contracts.LocalizedTextModel, Comindware.Platform.Contracts"
                      },
                      "PropertyPath": {
                        "$type": "Comindware.Platform.Contracts.GlobalAlias[], Comindware.Platform.Contracts",
                        "$values": [
                          {
                            "$type": "Comindware.Platform.Contracts.GlobalAlias, Comindware.Platform.Contracts",
                            "Type": "Attribute",
                            "Owner": "ZakrytiyaMPzaperiod",
                            "Alias": "MPsfakticheskimidannymi"
                          }
                        ]
                      },
                      "EditorType": "Radio",
                      "CreationType": "None",
                      "RemovalType": "Delete",
                      "EditType": "None",
                      "ChildPropertyAlias": {
                        "$type": "Comindware.Platform.Contracts.GlobalAlias, Comindware.Platform.Contracts",
                        "Type": "Undefined"
                      },
                      "OrderPropertyAlias": {
                        "$type": "Comindware.Platform.Contracts.GlobalAlias, Comindware.Platform.Contracts",
                        "Type": "Undefined"
                      },
                      "NumberPropertyAlias": {
                        "$type": "Comindware.Platform.Contracts.GlobalAlias, Comindware.Platform.Contracts",
                        "Type": "Undefined"
                      },
                      "PrecedentPropertyAlias": {
                        "$type": "Comindware.Platform.Contracts.GlobalAlias, Comindware.Platform.Contracts",
                        "Type": "Undefined"
                      },
                      "SortingDirection": "Asc",
                      "MaxCount": 0,
                      "PopupFormAlias": {
                        "$type": "Comindware.Platform.Contracts.GlobalAlias, Comindware.Platform.Contracts",
                        "Type": "Undefined"
                      },
                      "DisplayFormat": "ShowAsPicture",
                      "GlobalAlias": {
                        "$type": "Comindware.Platform.Contracts.GlobalAlias, Comindware.Platform.Contracts",
                        "Type": "FormComponent",
                        "Alias": "MPsfakticheskimidannymi"
                      },
                      "AccessType": "Editable",
                      "Width": 0,
                      "Type": "FieldComponent"
                    },
                    {
                      "$type": "Comindware.Platform.Contracts.FieldComponentModel, Comindware.Platform.Contracts",
                      "Label": {
                        "$type": "Comindware.Platform.Contracts.LabelModel, Comindware.Platform.Contracts",
                        "Hidden": false,
                        "Alignment": "Top",
                        "Text": {
                          "$type": "Comindware.Platform.Contracts.LocalizedTextModel, Comindware.Platform.Contracts",
                          "En": "Комментарий КС",
                          "De": "Комментарий КС",
                          "Ru": "Комментарий КС"
                        }
                      },
                      "FieldType": "Text",
                      "Placeholder": {
                        "$type": "Comindware.Platform.Contracts.LocalizedTextModel, Comindware.Platform.Contracts"
                      },
                      "HelpText": {
                        "$type": "Comindware.Platform.Contracts.LocalizedTextModel, Comindware.Platform.Contracts"
                      },
                      "PropertyPath": {
                        "$type": "Comindware.Platform.Contracts.GlobalAlias[], Comindware.Platform.Contracts",
                        "$values": [
                          {
                            "$type": "Comindware.Platform.Contracts.GlobalAlias, Comindware.Platform.Contracts",
                            "Type": "Attribute",
                            "Owner": "ZakrytiyaMPzaperiod",
                            "Alias": "KommentariyKS"
                          }
                        ]
                      },
                      "TextHeight": 0,
                      "TextHeightAuto": false,
                      "MaxLength": 0,
                      "EditorType": "Simple",
                      "CreationType": "None",
                      "RemovalType": "None",
                      "EditType": "None",
                      "ChildPropertyAlias": {
                        "$type": "Comindware.Platform.Contracts.GlobalAlias, Comindware.Platform.Contracts",
                        "Type": "Undefined"
                      },
                      "OrderPropertyAlias": {
                        "$type": "Comindware.Platform.Contracts.GlobalAlias, Comindware.Platform.Contracts",
                        "Type": "Undefined"
                      },
                      "NumberPropertyAlias": {
                        "$type": "Comindware.Platform.Contracts.GlobalAlias, Comindware.Platform.Contracts",
                        "Type": "Undefined"
                      },
                      "PrecedentPropertyAlias": {
                        "$type": "Comindware.Platform.Contracts.GlobalAlias, Comindware.Platform.Contracts",
                        "Type": "Undefined"
                      },
                      "SortingDirection": "Asc",
                      "PopupFormAlias": {
                        "$type": "Comindware.Platform.Contracts.GlobalAlias, Comindware.Platform.Contracts",
                        "Type": "Undefined"
                      },
                      "DisplayFormat": "ShowAsPicture",
                      "GlobalAlias": {
                        "$type": "Comindware.Platform.Contracts.GlobalAlias, Comindware.Platform.Contracts",
                        "Type": "FormComponent",
                        "Alias": "KommentariyKS"
                      },
                      "AccessType": "Readonly",
                      "Width": 0,
                      "Type": "FieldComponent"
                    }
                  ]
                },
                "GlobalAlias": {
                  "$type": "Comindware.Platform.Contracts.GlobalAlias, Comindware.Platform.Contracts",
                  "Type": "FormComponent",
                  "Alias": "VerticalLayout"
                },
                "AccessType": "Undefined",
                "Width": 0,
                "Type": "VerticalLayout"
              }
            ]
          },
          "GlobalAlias": {
            "$type": "Comindware.Platform.Contracts.GlobalAlias, Comindware.Platform.Contracts",
            "Type": "FormComponent",
            "Alias": "GroupPanelComponent"
          },
          "AccessType": "Editable",
          "Width": 100,
          "Type": "PanelModel"
        }
      ]
    },
    "GlobalAlias": {
      "$type": "Comindware.Platform.Contracts.GlobalAlias, Comindware.Platform.Contracts",
      "Type": "FormComponent",
      "Alias": "root"
    },
    "AccessType": "Undefined",
    "Width": 0,
    "Type": "VerticalLayout"
  },
  "Name": "Подготовка файла для парсинга",
  "Origination": "Undefined"
}