{
  "$type": "Comindware.Platform.Contracts.FormModel, Comindware.Platform.Contracts",
  "GlobalAlias": {
    "$type": "Comindware.Platform.Contracts.GlobalAlias, Comindware.Platform.Contracts",
    "Type": "Form",
    "Owner": "ZakrytiyaMPzaperiod",
    "Alias": "form111763"
  },
  "Type": "PublicForm",
  "IsDefault": false,
  "Root": {
    "$type": "Comindware.Platform.Contracts.VerticalLayoutModel, Comindware.Platform.Contracts",
    "Rows": {
      "$type": "System.Collections.Generic.List`1[[Comindware.Platform.Contracts.FormComponentModel, Comindware.Platform.Contracts]], mscorlib",
      "$values": [
        {
          "$type": "Comindware.Platform.Contracts.PanelModel, Comindware.Platform.Contracts",
          "Text": {
            "$type": "Comindware.Platform.Contracts.LocalizedTextModel, Comindware.Platform.Contracts",
            "En": "Формирование УПД",
            "De": "Формирование УПД",
            "Ru": "Формирование УПД"
          },
          "OriginalType": "GroupPanel",
          "Rows": {
            "$type": "System.Collections.Generic.List`1[[Comindware.Platform.Contracts.FormComponentModel, Comindware.Platform.Contracts]], mscorlib",
            "$values": [
              {
                "$type": "Comindware.Platform.Contracts.VerticalLayoutModel, Comindware.Platform.Contracts",
                "Rows": {
                  "$type": "System.Collections.Generic.List`1[[Comindware.Platform.Contracts.FormComponentModel, Comindware.Platform.Contracts]], mscorlib",
                  "$values": [
                    {
                      "$type": "Comindware.Platform.Contracts.StaticContentModel, Comindware.Platform.Contracts",
                      "Content": {
                        "$type": "Comindware.Platform.Contracts.LocalizedTextModel, Comindware.Platform.Contracts",
                        "En": "<p>Необходимую информацию для формирования УПД Вы можете найти в области &quot;Информация по закрытию МП на период&quot;.</p> <p>Для добавления УПД нажмите на кнопку сознаком &quot;+&quot; и заполните в открывшейся форме следующие данные:</p> <ul> <li>Наименование УПД;</li> <li>Период;</li> <li>Договор;</li> <li>Джоб;</li> <li>Проект;</li> <li>Документ.</li>\n</ul>\n",
                        "De": "<p>Необходимую информацию для формирования УПД Вы можете найти в области &quot;Информация по закрытию МП на период&quot;.</p> <p>Для добавления УПД нажмите на кнопку сознаком &quot;+&quot; и заполните в открывшейся форме следующие данные:</p> <ul> <li>Наименование УПД;</li> <li>Период;</li> <li>Договор;</li> <li>Джоб;</li> <li>Проект;</li> <li>Документ.</li>\n</ul>\n",
                        "Ru": "<p>Необходимую информацию для формирования УПД Вы можете найти в области &quot;Информация по закрытию МП на период&quot;.</p> <p>Для добавления УПД нажмите на кнопку сознаком &quot;+&quot; и заполните в открывшейся форме следующие данные:</p> <ul> <li>Наименование УПД;</li> <li>Период;</li> <li>Договор;</li> <li>Джоб;</li> <li>Проект;</li> <li>Документ.</li>\n</ul>\n"
                      },
                      "GlobalAlias": {
                        "$type": "Comindware.Platform.Contracts.GlobalAlias, Comindware.Platform.Contracts",
                        "Type": "FormComponent",
                        "Alias": "StaticContentComponent"
                      },
                      "AccessType": "Undefined",
                      "Width": 0,
                      "Type": "StaticContent"
                    },
                    {
                      "$type": "Comindware.Platform.Contracts.FieldComponentModel, Comindware.Platform.Contracts",
                      "Label": {
                        "$type": "Comindware.Platform.Contracts.LabelModel, Comindware.Platform.Contracts",
                        "Hidden": false,
                        "Alignment": "Top",
                        "Text": {
                          "$type": "Comindware.Platform.Contracts.LocalizedTextModel, Comindware.Platform.Contracts",
                          "En": "УПД",
                          "De": "УПД",
                          "Ru": "УПД"
                        }
                      },
                      "FieldType": "Table",
                      "Placeholder": {
                        "$type": "Comindware.Platform.Contracts.LocalizedTextModel, Comindware.Platform.Contracts"
                      },
                      "HelpText": {
                        "$type": "Comindware.Platform.Contracts.LocalizedTextModel, Comindware.Platform.Contracts"
                      },
                      "PropertyPath": {
                        "$type": "Comindware.Platform.Contracts.GlobalAlias[], Comindware.Platform.Contracts",
                        "$values": [
                          {
                            "$type": "Comindware.Platform.Contracts.GlobalAlias, Comindware.Platform.Contracts",
                            "Type": "Attribute",
                            "Owner": "ZakrytiyaMPzaperiod",
                            "Alias": "Mediaplan"
                          },
                          {
                            "$type": "Comindware.Platform.Contracts.GlobalAlias, Comindware.Platform.Contracts",
                            "Type": "Attribute",
                            "Owner": "Mediaplany",
                            "Alias": "UPD"
                          }
                        ]
                      },
                      "EditorType": "Radio",
                      "CreationType": "None",
                      "RemovalType": "None",
                      "EditType": "None",
                      "Columns": {
                        "$type": "System.Collections.Generic.List`1[[Comindware.Platform.Contracts.FieldComponentModel, Comindware.Platform.Contracts]], mscorlib",
                        "$values": [
                          {
                            "$type": "Comindware.Platform.Contracts.FieldComponentModel, Comindware.Platform.Contracts",
                            "Label": {
                              "$type": "Comindware.Platform.Contracts.LabelModel, Comindware.Platform.Contracts",
                              "Hidden": false,
                              "Alignment": "Undefined",
                              "Text": {
                                "$type": "Comindware.Platform.Contracts.LocalizedTextModel, Comindware.Platform.Contracts",
                                "En": "Наименование",
                                "De": "Наименование",
                                "Ru": "Наименование"
                              }
                            },
                            "FieldType": "TableColumn",
                            "Placeholder": {
                              "$type": "Comindware.Platform.Contracts.LocalizedTextModel, Comindware.Platform.Contracts"
                            },
                            "HelpText": {
                              "$type": "Comindware.Platform.Contracts.LocalizedTextModel, Comindware.Platform.Contracts"
                            },
                            "PropertyPath": {
                              "$type": "Comindware.Platform.Contracts.GlobalAlias[], Comindware.Platform.Contracts",
                              "$values": [
                                {
                                  "$type": "Comindware.Platform.Contracts.GlobalAlias, Comindware.Platform.Contracts",
                                  "Type": "Attribute",
                                  "Owner": "Akty",
                                  "Alias": "Naimenovanie"
                                }
                              ]
                            },
                            "EditorType": "Radio",
                            "CreationType": "None",
                            "RemovalType": "None",
                            "EditType": "None",
                            "ChildPropertyAlias": {
                              "$type": "Comindware.Platform.Contracts.GlobalAlias, Comindware.Platform.Contracts",
                              "Type": "Undefined"
                            },
                            "OrderPropertyAlias": {
                              "$type": "Comindware.Platform.Contracts.GlobalAlias, Comindware.Platform.Contracts",
                              "Type": "Undefined"
                            },
                            "NumberPropertyAlias": {
                              "$type": "Comindware.Platform.Contracts.GlobalAlias, Comindware.Platform.Contracts",
                              "Type": "Undefined"
                            },
                            "PrecedentPropertyAlias": {
                              "$type": "Comindware.Platform.Contracts.GlobalAlias, Comindware.Platform.Contracts",
                              "Type": "Undefined"
                            },
                            "SortingDirection": "Asc",
                            "PopupFormAlias": {
                              "$type": "Comindware.Platform.Contracts.GlobalAlias, Comindware.Platform.Contracts",
                              "Type": "Undefined"
                            },
                            "AllowEdit": false,
                            "DisplayFormat": "ShowAsPicture",
                            "GlobalAlias": {
                              "$type": "Comindware.Platform.Contracts.GlobalAlias, Comindware.Platform.Contracts",
                              "Type": "FormComponent",
                              "Alias": "UPD_Naimenovanie"
                            },
                            "AccessType": "Editable",
                            "Width": 150,
                            "Type": "FieldComponent"
                          },
                          {
                            "$type": "Comindware.Platform.Contracts.FieldComponentModel, Comindware.Platform.Contracts",
                            "Label": {
                              "$type": "Comindware.Platform.Contracts.LabelModel, Comindware.Platform.Contracts",
                              "Hidden": false,
                              "Alignment": "Undefined",
                              "Text": {
                                "$type": "Comindware.Platform.Contracts.LocalizedTextModel, Comindware.Platform.Contracts",
                                "En": "Период",
                                "De": "Период",
                                "Ru": "Период"
                              }
                            },
                            "FieldType": "TableColumn",
                            "Placeholder": {
                              "$type": "Comindware.Platform.Contracts.LocalizedTextModel, Comindware.Platform.Contracts"
                            },
                            "HelpText": {
                              "$type": "Comindware.Platform.Contracts.LocalizedTextModel, Comindware.Platform.Contracts"
                            },
                            "PropertyPath": {
                              "$type": "Comindware.Platform.Contracts.GlobalAlias[], Comindware.Platform.Contracts",
                              "$values": [
                                {
                                  "$type": "Comindware.Platform.Contracts.GlobalAlias, Comindware.Platform.Contracts",
                                  "Type": "Attribute",
                                  "Owner": "Akty",
                                  "Alias": "Period"
                                }
                              ]
                            },
                            "EditorType": "Radio",
                            "CreationType": "None",
                            "RemovalType": "None",
                            "EditType": "None",
                            "ChildPropertyAlias": {
                              "$type": "Comindware.Platform.Contracts.GlobalAlias, Comindware.Platform.Contracts",
                              "Type": "Undefined"
                            },
                            "OrderPropertyAlias": {
                              "$type": "Comindware.Platform.Contracts.GlobalAlias, Comindware.Platform.Contracts",
                              "Type": "Undefined"
                            },
                            "NumberPropertyAlias": {
                              "$type": "Comindware.Platform.Contracts.GlobalAlias, Comindware.Platform.Contracts",
                              "Type": "Undefined"
                            },
                            "PrecedentPropertyAlias": {
                              "$type": "Comindware.Platform.Contracts.GlobalAlias, Comindware.Platform.Contracts",
                              "Type": "Undefined"
                            },
                            "SortingDirection": "Asc",
                            "PopupFormAlias": {
                              "$type": "Comindware.Platform.Contracts.GlobalAlias, Comindware.Platform.Contracts",
                              "Type": "Undefined"
                            },
                            "AllowEdit": false,
                            "DisplayFormat": "ShowAsPicture",
                            "GlobalAlias": {
                              "$type": "Comindware.Platform.Contracts.GlobalAlias, Comindware.Platform.Contracts",
                              "Type": "FormComponent",
                              "Alias": "UPD_Period"
                            },
                            "AccessType": "Editable",
                            "Width": 160,
                            "Type": "FieldComponent"
                          },
                          {
                            "$type": "Comindware.Platform.Contracts.FieldComponentModel, Comindware.Platform.Contracts",
                            "Label": {
                              "$type": "Comindware.Platform.Contracts.LabelModel, Comindware.Platform.Contracts",
                              "Hidden": false,
                              "Alignment": "Undefined",
                              "Text": {
                                "$type": "Comindware.Platform.Contracts.LocalizedTextModel, Comindware.Platform.Contracts",
                                "En": "Медиаплан",
                                "De": "Медиаплан",
                                "Ru": "Медиаплан"
                              }
                            },
                            "FieldType": "TableColumn",
                            "Placeholder": {
                              "$type": "Comindware.Platform.Contracts.LocalizedTextModel, Comindware.Platform.Contracts"
                            },
                            "HelpText": {
                              "$type": "Comindware.Platform.Contracts.LocalizedTextModel, Comindware.Platform.Contracts"
                            },
                            "PropertyPath": {
                              "$type": "Comindware.Platform.Contracts.GlobalAlias[], Comindware.Platform.Contracts",
                              "$values": [
                                {
                                  "$type": "Comindware.Platform.Contracts.GlobalAlias, Comindware.Platform.Contracts",
                                  "Type": "Attribute",
                                  "Owner": "Akty",
                                  "Alias": "Mediaplan"
                                }
                              ]
                            },
                            "EditorType": "Radio",
                            "CreationType": "None",
                            "RemovalType": "None",
                            "EditType": "None",
                            "ChildPropertyAlias": {
                              "$type": "Comindware.Platform.Contracts.GlobalAlias, Comindware.Platform.Contracts",
                              "Type": "Undefined"
                            },
                            "OrderPropertyAlias": {
                              "$type": "Comindware.Platform.Contracts.GlobalAlias, Comindware.Platform.Contracts",
                              "Type": "Undefined"
                            },
                            "NumberPropertyAlias": {
                              "$type": "Comindware.Platform.Contracts.GlobalAlias, Comindware.Platform.Contracts",
                              "Type": "Undefined"
                            },
                            "PrecedentPropertyAlias": {
                              "$type": "Comindware.Platform.Contracts.GlobalAlias, Comindware.Platform.Contracts",
                              "Type": "Undefined"
                            },
                            "SortingDirection": "Asc",
                            "PopupFormAlias": {
                              "$type": "Comindware.Platform.Contracts.GlobalAlias, Comindware.Platform.Contracts",
                              "Type": "Undefined"
                            },
                            "AllowEdit": false,
                            "DisplayFormat": "ShowAsPicture",
                            "GlobalAlias": {
                              "$type": "Comindware.Platform.Contracts.GlobalAlias, Comindware.Platform.Contracts",
                              "Type": "FormComponent",
                              "Alias": "UPD_Mediaplan"
                            },
                            "AccessType": "Editable",
                            "Width": 200,
                            "Type": "FieldComponent"
                          },
                          {
                            "$type": "Comindware.Platform.Contracts.FieldComponentModel, Comindware.Platform.Contracts",
                            "Label": {
                              "$type": "Comindware.Platform.Contracts.LabelModel, Comindware.Platform.Contracts",
                              "Hidden": false,
                              "Alignment": "Undefined",
                              "Text": {
                                "$type": "Comindware.Platform.Contracts.LocalizedTextModel, Comindware.Platform.Contracts",
                                "En": "Джоб",
                                "De": "Джоб",
                                "Ru": "Джоб"
                              }
                            },
                            "FieldType": "TableColumn",
                            "Placeholder": {
                              "$type": "Comindware.Platform.Contracts.LocalizedTextModel, Comindware.Platform.Contracts"
                            },
                            "HelpText": {
                              "$type": "Comindware.Platform.Contracts.LocalizedTextModel, Comindware.Platform.Contracts"
                            },
                            "PropertyPath": {
                              "$type": "Comindware.Platform.Contracts.GlobalAlias[], Comindware.Platform.Contracts",
                              "$values": [
                                {
                                  "$type": "Comindware.Platform.Contracts.GlobalAlias, Comindware.Platform.Contracts",
                                  "Type": "Attribute",
                                  "Owner": "Akty",
                                  "Alias": "Dzhob"
                                }
                              ]
                            },
                            "EditorType": "Radio",
                            "CreationType": "None",
                            "RemovalType": "None",
                            "EditType": "None",
                            "ChildPropertyAlias": {
                              "$type": "Comindware.Platform.Contracts.GlobalAlias, Comindware.Platform.Contracts",
                              "Type": "Undefined"
                            },
                            "OrderPropertyAlias": {
                              "$type": "Comindware.Platform.Contracts.GlobalAlias, Comindware.Platform.Contracts",
                              "Type": "Undefined"
                            },
                            "NumberPropertyAlias": {
                              "$type": "Comindware.Platform.Contracts.GlobalAlias, Comindware.Platform.Contracts",
                              "Type": "Undefined"
                            },
                            "PrecedentPropertyAlias": {
                              "$type": "Comindware.Platform.Contracts.GlobalAlias, Comindware.Platform.Contracts",
                              "Type": "Undefined"
                            },
                            "SortingDirection": "Asc",
                            "PopupFormAlias": {
                              "$type": "Comindware.Platform.Contracts.GlobalAlias, Comindware.Platform.Contracts",
                              "Type": "Undefined"
                            },
                            "AllowEdit": false,
                            "DisplayFormat": "ShowAsPicture",
                            "GlobalAlias": {
                              "$type": "Comindware.Platform.Contracts.GlobalAlias, Comindware.Platform.Contracts",
                              "Type": "FormComponent",
                              "Alias": "UPD_Dzhob"
                            },
                            "AccessType": "Editable",
                            "Width": 250,
                            "Type": "FieldComponent"
                          },
                          {
                            "$type": "Comindware.Platform.Contracts.FieldComponentModel, Comindware.Platform.Contracts",
                            "Label": {
                              "$type": "Comindware.Platform.Contracts.LabelModel, Comindware.Platform.Contracts",
                              "Hidden": false,
                              "Alignment": "Undefined",
                              "Text": {
                                "$type": "Comindware.Platform.Contracts.LocalizedTextModel, Comindware.Platform.Contracts",
                                "En": "Договор",
                                "De": "Договор",
                                "Ru": "Договор"
                              }
                            },
                            "FieldType": "TableColumn",
                            "Placeholder": {
                              "$type": "Comindware.Platform.Contracts.LocalizedTextModel, Comindware.Platform.Contracts"
                            },
                            "HelpText": {
                              "$type": "Comindware.Platform.Contracts.LocalizedTextModel, Comindware.Platform.Contracts"
                            },
                            "PropertyPath": {
                              "$type": "Comindware.Platform.Contracts.GlobalAlias[], Comindware.Platform.Contracts",
                              "$values": [
                                {
                                  "$type": "Comindware.Platform.Contracts.GlobalAlias, Comindware.Platform.Contracts",
                                  "Type": "Attribute",
                                  "Owner": "Akty",
                                  "Alias": "Dogovor"
                                }
                              ]
                            },
                            "EditorType": "Radio",
                            "CreationType": "None",
                            "RemovalType": "None",
                            "EditType": "None",
                            "ChildPropertyAlias": {
                              "$type": "Comindware.Platform.Contracts.GlobalAlias, Comindware.Platform.Contracts",
                              "Type": "Undefined"
                            },
                            "OrderPropertyAlias": {
                              "$type": "Comindware.Platform.Contracts.GlobalAlias, Comindware.Platform.Contracts",
                              "Type": "Undefined"
                            },
                            "NumberPropertyAlias": {
                              "$type": "Comindware.Platform.Contracts.GlobalAlias, Comindware.Platform.Contracts",
                              "Type": "Undefined"
                            },
                            "PrecedentPropertyAlias": {
                              "$type": "Comindware.Platform.Contracts.GlobalAlias, Comindware.Platform.Contracts",
                              "Type": "Undefined"
                            },
                            "SortingDirection": "Asc",
                            "PopupFormAlias": {
                              "$type": "Comindware.Platform.Contracts.GlobalAlias, Comindware.Platform.Contracts",
                              "Type": "Undefined"
                            },
                            "AllowEdit": false,
                            "DisplayFormat": "ShowAsPicture",
                            "GlobalAlias": {
                              "$type": "Comindware.Platform.Contracts.GlobalAlias, Comindware.Platform.Contracts",
                              "Type": "FormComponent",
                              "Alias": "UPD_Dogovor"
                            },
                            "AccessType": "Editable",
                            "Width": 170,
                            "Type": "FieldComponent"
                          },
                          {
                            "$type": "Comindware.Platform.Contracts.FieldComponentModel, Comindware.Platform.Contracts",
                            "Label": {
                              "$type": "Comindware.Platform.Contracts.LabelModel, Comindware.Platform.Contracts",
                              "Hidden": false,
                              "Alignment": "Undefined",
                              "Text": {
                                "$type": "Comindware.Platform.Contracts.LocalizedTextModel, Comindware.Platform.Contracts",
                                "En": "Документ",
                                "De": "Документ",
                                "Ru": "Документ"
                              }
                            },
                            "FieldType": "TableColumn",
                            "Placeholder": {
                              "$type": "Comindware.Platform.Contracts.LocalizedTextModel, Comindware.Platform.Contracts"
                            },
                            "HelpText": {
                              "$type": "Comindware.Platform.Contracts.LocalizedTextModel, Comindware.Platform.Contracts"
                            },
                            "PropertyPath": {
                              "$type": "Comindware.Platform.Contracts.GlobalAlias[], Comindware.Platform.Contracts",
                              "$values": [
                                {
                                  "$type": "Comindware.Platform.Contracts.GlobalAlias, Comindware.Platform.Contracts",
                                  "Type": "Attribute",
                                  "Owner": "Akty",
                                  "Alias": "Dokument"
                                }
                              ]
                            },
                            "EditorType": "Radio",
                            "CreationType": "None",
                            "RemovalType": "None",
                            "EditType": "None",
                            "ChildPropertyAlias": {
                              "$type": "Comindware.Platform.Contracts.GlobalAlias, Comindware.Platform.Contracts",
                              "Type": "Undefined"
                            },
                            "OrderPropertyAlias": {
                              "$type": "Comindware.Platform.Contracts.GlobalAlias, Comindware.Platform.Contracts",
                              "Type": "Undefined"
                            },
                            "NumberPropertyAlias": {
                              "$type": "Comindware.Platform.Contracts.GlobalAlias, Comindware.Platform.Contracts",
                              "Type": "Undefined"
                            },
                            "PrecedentPropertyAlias": {
                              "$type": "Comindware.Platform.Contracts.GlobalAlias, Comindware.Platform.Contracts",
                              "Type": "Undefined"
                            },
                            "SortingDirection": "Asc",
                            "PopupFormAlias": {
                              "$type": "Comindware.Platform.Contracts.GlobalAlias, Comindware.Platform.Contracts",
                              "Type": "Undefined"
                            },
                            "AllowEdit": false,
                            "DisplayFormat": "ShowAsPicture",
                            "GlobalAlias": {
                              "$type": "Comindware.Platform.Contracts.GlobalAlias, Comindware.Platform.Contracts",
                              "Type": "FormComponent",
                              "Alias": "UPD_Dokument"
                            },
                            "AccessType": "Editable",
                            "Width": 120,
                            "Type": "FieldComponent"
                          }
                        ]
                      },
                      "ChildPropertyAlias": {
                        "$type": "Comindware.Platform.Contracts.GlobalAlias, Comindware.Platform.Contracts",
                        "Type": "Undefined"
                      },
                      "OrderPropertyAlias": {
                        "$type": "Comindware.Platform.Contracts.GlobalAlias, Comindware.Platform.Contracts",
                        "Type": "Undefined"
                      },
                      "NumberPropertyAlias": {
                        "$type": "Comindware.Platform.Contracts.GlobalAlias, Comindware.Platform.Contracts",
                        "Type": "Undefined"
                      },
                      "PrecedentPropertyAlias": {
                        "$type": "Comindware.Platform.Contracts.GlobalAlias, Comindware.Platform.Contracts",
                        "Type": "Undefined"
                      },
                      "SortingDirection": "Asc",
                      "ShowArchiveRecords": false,
                      "PopupFormAlias": {
                        "$type": "Comindware.Platform.Contracts.GlobalAlias, Comindware.Platform.Contracts",
                        "Type": "Undefined"
                      },
                      "DisplayFormat": "ShowAsPicture",
                      "GlobalAlias": {
                        "$type": "Comindware.Platform.Contracts.GlobalAlias, Comindware.Platform.Contracts",
                        "Type": "FormComponent",
                        "Alias": "UPD"
                      },
                      "AccessType": "Editable",
                      "Width": 0,
                      "Type": "FieldComponent",
                      "Toolbar": {
                        "$type": "System.Nullable`1[[Comindware.Platform.Contracts.GlobalAlias, Comindware.Platform.Contracts]], mscorlib",
                        "Type": "Toolbar",
                        "Owner": "Akty",
                        "Alias": "toolbar8988ec91"
                      }
                    }
                  ]
                },
                "GlobalAlias": {
                  "$type": "Comindware.Platform.Contracts.GlobalAlias, Comindware.Platform.Contracts",
                  "Type": "FormComponent",
                  "Alias": "VerticalLayout"
                },
                "AccessType": "Undefined",
                "Width": 0,
                "Type": "VerticalLayout"
              }
            ]
          },
          "GlobalAlias": {
            "$type": "Comindware.Platform.Contracts.GlobalAlias, Comindware.Platform.Contracts",
            "Type": "FormComponent",
            "Alias": "GroupPanelComponent"
          },
          "AccessType": "Editable",
          "Width": 100,
          "Type": "PanelModel"
        }
      ]
    },
    "GlobalAlias": {
      "$type": "Comindware.Platform.Contracts.GlobalAlias, Comindware.Platform.Contracts",
      "Type": "FormComponent",
      "Alias": "root"
    },
    "AccessType": "Undefined",
    "Width": 0,
    "Type": "VerticalLayout"
  },
  "Name": "Форма для формирования УПД",
  "Origination": "Undefined"
}