{
  "$type": "Comindware.Platform.Contracts.FormModel, Comindware.Platform.Contracts",
  "GlobalAlias": {
    "$type": "Comindware.Platform.Contracts.GlobalAlias, Comindware.Platform.Contracts",
    "Type": "Form",
    "Owner": "ZakrytiyaMPzaperiod",
    "Alias": "Zakrytiyaperiodanapodpisanie"
  },
  "Type": "InternalForm",
  "IsDefault": false,
  "Root": {
    "$type": "Comindware.Platform.Contracts.VerticalLayoutModel, Comindware.Platform.Contracts",
    "Rows": {
      "$type": "System.Collections.Generic.List`1[[Comindware.Platform.Contracts.FormComponentModel, Comindware.Platform.Contracts]], mscorlib",
      "$values": [
        {
          "$type": "Comindware.Platform.Contracts.PanelModel, Comindware.Platform.Contracts",
          "Text": {
            "$type": "Comindware.Platform.Contracts.LocalizedTextModel, Comindware.Platform.Contracts",
            "En": "Информация для менеджера КС",
            "De": "Информация для менеджера КС",
            "Ru": "Информация для менеджера КС"
          },
          "OriginalType": "GroupPanel",
          "Rows": {
            "$type": "System.Collections.Generic.List`1[[Comindware.Platform.Contracts.FormComponentModel, Comindware.Platform.Contracts]], mscorlib",
            "$values": [
              {
                "$type": "Comindware.Platform.Contracts.VerticalLayoutModel, Comindware.Platform.Contracts",
                "Rows": {
                  "$type": "System.Collections.Generic.List`1[[Comindware.Platform.Contracts.FormComponentModel, Comindware.Platform.Contracts]], mscorlib",
                  "$values": [
                    {
                      "$type": "Comindware.Platform.Contracts.StaticContentModel, Comindware.Platform.Contracts",
                      "Content": {
                        "$type": "Comindware.Platform.Contracts.LocalizedTextModel, Comindware.Platform.Contracts",
                        "En": "<p>Вам пришла задача для определения способа подписания закрывающих документов.</p> <p>Ознакомьтесь с информацией по закрывающим документам в области: &quot;Информация по закрытию МП на период&quot; и заполните данные в области &quot;Способ подписания закрывающих документов&quot;.</p> <p>После выполнения всех необходимых действий, нажмите на кнопку &quot;Завершить задачу&quot;, которая находится сверху формы.</p>\n",
                        "De": "<p>Вам пришла задача для определения способа подписания закрывающих документов.</p> <p>Ознакомьтесь с информацией по закрывающим документам в области: &quot;Информация по закрытию МП на период&quot; и заполните данные в области &quot;Способ подписания закрывающих документов&quot;.</p> <p>После выполнения всех необходимых действий, нажмите на кнопку &quot;Завершить задачу&quot;, которая находится сверху формы.</p>\n",
                        "Ru": "<p>Вам пришла задача для определения способа подписания закрывающих документов.</p> <p>Ознакомьтесь с информацией по закрывающим документам в области: &quot;Информация по закрытию МП на период&quot; и заполните данные в области &quot;Способ подписания закрывающих документов&quot;.</p> <p>После выполнения всех необходимых действий, нажмите на кнопку &quot;Завершить задачу&quot;, которая находится сверху формы.</p>\n"
                      },
                      "GlobalAlias": {
                        "$type": "Comindware.Platform.Contracts.GlobalAlias, Comindware.Platform.Contracts",
                        "Type": "FormComponent",
                        "Alias": "StaticContentComponent"
                      },
                      "AccessType": "Undefined",
                      "Width": 0,
                      "Type": "StaticContent"
                    }
                  ]
                },
                "GlobalAlias": {
                  "$type": "Comindware.Platform.Contracts.GlobalAlias, Comindware.Platform.Contracts",
                  "Type": "FormComponent",
                  "Alias": "VerticalLayout6"
                },
                "AccessType": "Undefined",
                "Width": 0,
                "Type": "VerticalLayout"
              }
            ]
          },
          "GlobalAlias": {
            "$type": "Comindware.Platform.Contracts.GlobalAlias, Comindware.Platform.Contracts",
            "Type": "FormComponent",
            "Alias": "GroupPanelComponent2"
          },
          "AccessType": "Editable",
          "Width": 100,
          "Type": "PanelModel"
        },
        {
          "$type": "Comindware.Platform.Contracts.PanelModel, Comindware.Platform.Contracts",
          "Text": {
            "$type": "Comindware.Platform.Contracts.LocalizedTextModel, Comindware.Platform.Contracts",
            "En": "Способ подписания закрывающих документов",
            "De": "Способ подписания закрывающих документов",
            "Ru": "Способ подписания закрывающих документов"
          },
          "OriginalType": "GroupPanel",
          "Rows": {
            "$type": "System.Collections.Generic.List`1[[Comindware.Platform.Contracts.FormComponentModel, Comindware.Platform.Contracts]], mscorlib",
            "$values": [
              {
                "$type": "Comindware.Platform.Contracts.VerticalLayoutModel, Comindware.Platform.Contracts",
                "Rows": {
                  "$type": "System.Collections.Generic.List`1[[Comindware.Platform.Contracts.FormComponentModel, Comindware.Platform.Contracts]], mscorlib",
                  "$values": [
                    {
                      "$type": "Comindware.Platform.Contracts.LayoutModel, Comindware.Platform.Contracts",
                      "Components": {
                        "$type": "System.Collections.Generic.List`1[[Comindware.Platform.Contracts.FormComponentModel, Comindware.Platform.Contracts]], mscorlib",
                        "$values": [
                          {
                            "$type": "Comindware.Platform.Contracts.VerticalLayoutModel, Comindware.Platform.Contracts",
                            "Rows": {
                              "$type": "System.Collections.Generic.List`1[[Comindware.Platform.Contracts.FormComponentModel, Comindware.Platform.Contracts]], mscorlib",
                              "$values": [
                                {
                                  "$type": "Comindware.Platform.Contracts.FieldComponentModel, Comindware.Platform.Contracts",
                                  "Label": {
                                    "$type": "Comindware.Platform.Contracts.LabelModel, Comindware.Platform.Contracts",
                                    "Hidden": false,
                                    "Alignment": "Top",
                                    "Text": {
                                      "$type": "Comindware.Platform.Contracts.LocalizedTextModel, Comindware.Platform.Contracts",
                                      "En": "Подписание по ЭДО?",
                                      "De": "Подписание по ЭДО?",
                                      "Ru": "Подписание по ЭДО?"
                                    }
                                  },
                                  "FieldType": "Boolean",
                                  "Placeholder": {
                                    "$type": "Comindware.Platform.Contracts.LocalizedTextModel, Comindware.Platform.Contracts"
                                  },
                                  "HelpText": {
                                    "$type": "Comindware.Platform.Contracts.LocalizedTextModel, Comindware.Platform.Contracts"
                                  },
                                  "PropertyPath": {
                                    "$type": "Comindware.Platform.Contracts.GlobalAlias[], Comindware.Platform.Contracts",
                                    "$values": [
                                      {
                                        "$type": "Comindware.Platform.Contracts.GlobalAlias, Comindware.Platform.Contracts",
                                        "Type": "Attribute",
                                        "Owner": "ZakrytiyaMPzaperiod",
                                        "Alias": "EDO"
                                      }
                                    ]
                                  },
                                  "TrueText": {
                                    "$type": "Comindware.Platform.Contracts.LocalizedTextModel, Comindware.Platform.Contracts"
                                  },
                                  "FalseText": {
                                    "$type": "Comindware.Platform.Contracts.LocalizedTextModel, Comindware.Platform.Contracts"
                                  },
                                  "UseTrueFalseText": false,
                                  "EditorType": "Radio",
                                  "CreationType": "None",
                                  "RemovalType": "None",
                                  "EditType": "None",
                                  "ChildPropertyAlias": {
                                    "$type": "Comindware.Platform.Contracts.GlobalAlias, Comindware.Platform.Contracts",
                                    "Type": "Undefined"
                                  },
                                  "OrderPropertyAlias": {
                                    "$type": "Comindware.Platform.Contracts.GlobalAlias, Comindware.Platform.Contracts",
                                    "Type": "Undefined"
                                  },
                                  "NumberPropertyAlias": {
                                    "$type": "Comindware.Platform.Contracts.GlobalAlias, Comindware.Platform.Contracts",
                                    "Type": "Undefined"
                                  },
                                  "PrecedentPropertyAlias": {
                                    "$type": "Comindware.Platform.Contracts.GlobalAlias, Comindware.Platform.Contracts",
                                    "Type": "Undefined"
                                  },
                                  "SortingDirection": "Asc",
                                  "PopupFormAlias": {
                                    "$type": "Comindware.Platform.Contracts.GlobalAlias, Comindware.Platform.Contracts",
                                    "Type": "Undefined"
                                  },
                                  "DisplayFormat": "ShowAsPicture",
                                  "GlobalAlias": {
                                    "$type": "Comindware.Platform.Contracts.GlobalAlias, Comindware.Platform.Contracts",
                                    "Type": "FormComponent",
                                    "Alias": "EDO"
                                  },
                                  "AccessType": "Required",
                                  "Width": 0,
                                  "Type": "FieldComponent"
                                }
                              ]
                            },
                            "GlobalAlias": {
                              "$type": "Comindware.Platform.Contracts.GlobalAlias, Comindware.Platform.Contracts",
                              "Type": "FormComponent",
                              "Alias": "VerticalLayout4"
                            },
                            "AccessType": "Undefined",
                            "Width": 33,
                            "Type": "VerticalLayout"
                          },
                          {
                            "$type": "Comindware.Platform.Contracts.VerticalLayoutModel, Comindware.Platform.Contracts",
                            "Rows": {
                              "$type": "System.Collections.Generic.List`1[[Comindware.Platform.Contracts.FormComponentModel, Comindware.Platform.Contracts]], mscorlib",
                              "$values": [
                                {
                                  "$type": "Comindware.Platform.Contracts.FieldComponentModel, Comindware.Platform.Contracts",
                                  "Label": {
                                    "$type": "Comindware.Platform.Contracts.LabelModel, Comindware.Platform.Contracts",
                                    "Hidden": false,
                                    "Alignment": "Top",
                                    "Text": {
                                      "$type": "Comindware.Platform.Contracts.LocalizedTextModel, Comindware.Platform.Contracts",
                                      "En": " Агентство подписывает первым?",
                                      "De": " Агентство подписывает первым?",
                                      "Ru": " Агентство подписывает первым?"
                                    }
                                  },
                                  "FieldType": "Boolean",
                                  "Placeholder": {
                                    "$type": "Comindware.Platform.Contracts.LocalizedTextModel, Comindware.Platform.Contracts"
                                  },
                                  "HelpText": {
                                    "$type": "Comindware.Platform.Contracts.LocalizedTextModel, Comindware.Platform.Contracts"
                                  },
                                  "PropertyPath": {
                                    "$type": "Comindware.Platform.Contracts.GlobalAlias[], Comindware.Platform.Contracts",
                                    "$values": [
                                      {
                                        "$type": "Comindware.Platform.Contracts.GlobalAlias, Comindware.Platform.Contracts",
                                        "Type": "Attribute",
                                        "Owner": "ZakrytiyaMPzaperiod",
                                        "Alias": "Agentstvopodpisyvaetpervym"
                                      }
                                    ]
                                  },
                                  "TrueText": {
                                    "$type": "Comindware.Platform.Contracts.LocalizedTextModel, Comindware.Platform.Contracts",
                                    "En": "Да",
                                    "De": "Да",
                                    "Ru": "Да"
                                  },
                                  "FalseText": {
                                    "$type": "Comindware.Platform.Contracts.LocalizedTextModel, Comindware.Platform.Contracts",
                                    "En": "Нет",
                                    "De": "Нет",
                                    "Ru": "Нет"
                                  },
                                  "UseTrueFalseText": true,
                                  "EditorType": "Radio",
                                  "CreationType": "None",
                                  "RemovalType": "None",
                                  "EditType": "None",
                                  "ChildPropertyAlias": {
                                    "$type": "Comindware.Platform.Contracts.GlobalAlias, Comindware.Platform.Contracts",
                                    "Type": "Undefined"
                                  },
                                  "OrderPropertyAlias": {
                                    "$type": "Comindware.Platform.Contracts.GlobalAlias, Comindware.Platform.Contracts",
                                    "Type": "Undefined"
                                  },
                                  "NumberPropertyAlias": {
                                    "$type": "Comindware.Platform.Contracts.GlobalAlias, Comindware.Platform.Contracts",
                                    "Type": "Undefined"
                                  },
                                  "PrecedentPropertyAlias": {
                                    "$type": "Comindware.Platform.Contracts.GlobalAlias, Comindware.Platform.Contracts",
                                    "Type": "Undefined"
                                  },
                                  "SortingDirection": "Asc",
                                  "PopupFormAlias": {
                                    "$type": "Comindware.Platform.Contracts.GlobalAlias, Comindware.Platform.Contracts",
                                    "Type": "Undefined"
                                  },
                                  "DisplayFormat": "ShowAsPicture",
                                  "GlobalAlias": {
                                    "$type": "Comindware.Platform.Contracts.GlobalAlias, Comindware.Platform.Contracts",
                                    "Type": "FormComponent",
                                    "Alias": "Agentstvopodpisyvaetpervym"
                                  },
                                  "AccessType": "Hidden",
                                  "Width": 0,
                                  "Type": "FieldComponent"
                                }
                              ]
                            },
                            "GlobalAlias": {
                              "$type": "Comindware.Platform.Contracts.GlobalAlias, Comindware.Platform.Contracts",
                              "Type": "FormComponent",
                              "Alias": "VerticalLayout5"
                            },
                            "AccessType": "Undefined",
                            "Width": 33,
                            "Type": "VerticalLayout"
                          },
                          {
                            "$type": "Comindware.Platform.Contracts.VerticalLayoutModel, Comindware.Platform.Contracts",
                            "Rows": {
                              "$type": "System.Collections.Generic.List`1[[Comindware.Platform.Contracts.FormComponentModel, Comindware.Platform.Contracts]], mscorlib",
                              "$values": [
                                {
                                  "$type": "Comindware.Platform.Contracts.FieldComponentModel, Comindware.Platform.Contracts",
                                  "Label": {
                                    "$type": "Comindware.Platform.Contracts.LabelModel, Comindware.Platform.Contracts",
                                    "Hidden": false,
                                    "Alignment": "Top",
                                    "Text": {
                                      "$type": "Comindware.Platform.Contracts.LocalizedTextModel, Comindware.Platform.Contracts",
                                      "En": "Кто подписывает?",
                                      "De": "Кто подписывает?",
                                      "Ru": "Кто подписывает?"
                                    }
                                  },
                                  "FieldType": "Boolean",
                                  "Placeholder": {
                                    "$type": "Comindware.Platform.Contracts.LocalizedTextModel, Comindware.Platform.Contracts"
                                  },
                                  "HelpText": {
                                    "$type": "Comindware.Platform.Contracts.LocalizedTextModel, Comindware.Platform.Contracts"
                                  },
                                  "PropertyPath": {
                                    "$type": "Comindware.Platform.Contracts.GlobalAlias[], Comindware.Platform.Contracts",
                                    "$values": [
                                      {
                                        "$type": "Comindware.Platform.Contracts.GlobalAlias, Comindware.Platform.Contracts",
                                        "Type": "Attribute",
                                        "Owner": "ZakrytiyaMPzaperiod",
                                        "Alias": "Ktopodpisyvaet"
                                      }
                                    ]
                                  },
                                  "TrueText": {
                                    "$type": "Comindware.Platform.Contracts.LocalizedTextModel, Comindware.Platform.Contracts",
                                    "En": "Руководитель",
                                    "De": "Руководитель",
                                    "Ru": "Руководитель"
                                  },
                                  "FalseText": {
                                    "$type": "Comindware.Platform.Contracts.LocalizedTextModel, Comindware.Platform.Contracts",
                                    "En": "Бухгалтер",
                                    "De": "Бухгалтер",
                                    "Ru": "Бухгалтер"
                                  },
                                  "UseTrueFalseText": true,
                                  "EditorType": "Radio",
                                  "CreationType": "None",
                                  "RemovalType": "None",
                                  "EditType": "None",
                                  "ChildPropertyAlias": {
                                    "$type": "Comindware.Platform.Contracts.GlobalAlias, Comindware.Platform.Contracts",
                                    "Type": "Undefined"
                                  },
                                  "OrderPropertyAlias": {
                                    "$type": "Comindware.Platform.Contracts.GlobalAlias, Comindware.Platform.Contracts",
                                    "Type": "Undefined"
                                  },
                                  "NumberPropertyAlias": {
                                    "$type": "Comindware.Platform.Contracts.GlobalAlias, Comindware.Platform.Contracts",
                                    "Type": "Undefined"
                                  },
                                  "PrecedentPropertyAlias": {
                                    "$type": "Comindware.Platform.Contracts.GlobalAlias, Comindware.Platform.Contracts",
                                    "Type": "Undefined"
                                  },
                                  "SortingDirection": "Asc",
                                  "PopupFormAlias": {
                                    "$type": "Comindware.Platform.Contracts.GlobalAlias, Comindware.Platform.Contracts",
                                    "Type": "Undefined"
                                  },
                                  "DisplayFormat": "ShowAsPicture",
                                  "GlobalAlias": {
                                    "$type": "Comindware.Platform.Contracts.GlobalAlias, Comindware.Platform.Contracts",
                                    "Type": "FormComponent",
                                    "Alias": "Ktopodpisyvaet"
                                  },
                                  "AccessType": "Hidden",
                                  "Width": 0,
                                  "Type": "FieldComponent"
                                }
                              ]
                            },
                            "GlobalAlias": {
                              "$type": "Comindware.Platform.Contracts.GlobalAlias, Comindware.Platform.Contracts",
                              "Type": "FormComponent",
                              "Alias": "VerticalLayout9"
                            },
                            "AccessType": "Undefined",
                            "Width": 33,
                            "Type": "VerticalLayout"
                          }
                        ]
                      },
                      "OriginalType": "HorizontalLayout",
                      "GlobalAlias": {
                        "$type": "Comindware.Platform.Contracts.GlobalAlias, Comindware.Platform.Contracts",
                        "Type": "FormComponent",
                        "Alias": "HorizontalLayout2"
                      },
                      "AccessType": "Undefined",
                      "Width": 0,
                      "Type": "LayoutModel"
                    }
                  ]
                },
                "GlobalAlias": {
                  "$type": "Comindware.Platform.Contracts.GlobalAlias, Comindware.Platform.Contracts",
                  "Type": "FormComponent",
                  "Alias": "VerticalLayout3"
                },
                "AccessType": "Undefined",
                "Width": 0,
                "Type": "VerticalLayout"
              }
            ]
          },
          "GlobalAlias": {
            "$type": "Comindware.Platform.Contracts.GlobalAlias, Comindware.Platform.Contracts",
            "Type": "FormComponent",
            "Alias": "GroupPanelComponent"
          },
          "AccessType": "Editable",
          "Width": 100,
          "Type": "PanelModel"
        },
        {
          "$type": "Comindware.Platform.Contracts.PanelModel, Comindware.Platform.Contracts",
          "Text": {
            "$type": "Comindware.Platform.Contracts.LocalizedTextModel, Comindware.Platform.Contracts",
            "En": " Информация по закрытию МП на период",
            "De": " Информация по закрытию МП на период",
            "Ru": " Информация по закрытию МП на период"
          },
          "OriginalType": "GroupPanel",
          "Rows": {
            "$type": "System.Collections.Generic.List`1[[Comindware.Platform.Contracts.FormComponentModel, Comindware.Platform.Contracts]], mscorlib",
            "$values": [
              {
                "$type": "Comindware.Platform.Contracts.VerticalLayoutModel, Comindware.Platform.Contracts",
                "Rows": {
                  "$type": "System.Collections.Generic.List`1[[Comindware.Platform.Contracts.FormComponentModel, Comindware.Platform.Contracts]], mscorlib",
                  "$values": [
                    {
                      "$type": "Comindware.Platform.Contracts.LayoutModel, Comindware.Platform.Contracts",
                      "Components": {
                        "$type": "System.Collections.Generic.List`1[[Comindware.Platform.Contracts.FormComponentModel, Comindware.Platform.Contracts]], mscorlib",
                        "$values": [
                          {
                            "$type": "Comindware.Platform.Contracts.VerticalLayoutModel, Comindware.Platform.Contracts",
                            "Rows": {
                              "$type": "System.Collections.Generic.List`1[[Comindware.Platform.Contracts.FormComponentModel, Comindware.Platform.Contracts]], mscorlib",
                              "$values": [
                                {
                                  "$type": "Comindware.Platform.Contracts.FieldComponentModel, Comindware.Platform.Contracts",
                                  "Label": {
                                    "$type": "Comindware.Platform.Contracts.LabelModel, Comindware.Platform.Contracts",
                                    "Hidden": false,
                                    "Alignment": "Top",
                                    "Text": {
                                      "$type": "Comindware.Platform.Contracts.LocalizedTextModel, Comindware.Platform.Contracts",
                                      "En": "Документы согласованы?",
                                      "De": "Документы согласованы?",
                                      "Ru": "Документы согласованы?"
                                    }
                                  },
                                  "FieldType": "Boolean",
                                  "Placeholder": {
                                    "$type": "Comindware.Platform.Contracts.LocalizedTextModel, Comindware.Platform.Contracts"
                                  },
                                  "HelpText": {
                                    "$type": "Comindware.Platform.Contracts.LocalizedTextModel, Comindware.Platform.Contracts"
                                  },
                                  "PropertyPath": {
                                    "$type": "Comindware.Platform.Contracts.GlobalAlias[], Comindware.Platform.Contracts",
                                    "$values": [
                                      {
                                        "$type": "Comindware.Platform.Contracts.GlobalAlias, Comindware.Platform.Contracts",
                                        "Type": "Attribute",
                                        "Owner": "ZakrytiyaMPzaperiod",
                                        "Alias": "Soglasovanklientom"
                                      }
                                    ]
                                  },
                                  "TrueText": {
                                    "$type": "Comindware.Platform.Contracts.LocalizedTextModel, Comindware.Platform.Contracts"
                                  },
                                  "FalseText": {
                                    "$type": "Comindware.Platform.Contracts.LocalizedTextModel, Comindware.Platform.Contracts"
                                  },
                                  "UseTrueFalseText": false,
                                  "EditorType": "Radio",
                                  "CreationType": "None",
                                  "RemovalType": "None",
                                  "EditType": "None",
                                  "ChildPropertyAlias": {
                                    "$type": "Comindware.Platform.Contracts.GlobalAlias, Comindware.Platform.Contracts",
                                    "Type": "Undefined"
                                  },
                                  "OrderPropertyAlias": {
                                    "$type": "Comindware.Platform.Contracts.GlobalAlias, Comindware.Platform.Contracts",
                                    "Type": "Undefined"
                                  },
                                  "NumberPropertyAlias": {
                                    "$type": "Comindware.Platform.Contracts.GlobalAlias, Comindware.Platform.Contracts",
                                    "Type": "Undefined"
                                  },
                                  "PrecedentPropertyAlias": {
                                    "$type": "Comindware.Platform.Contracts.GlobalAlias, Comindware.Platform.Contracts",
                                    "Type": "Undefined"
                                  },
                                  "SortingDirection": "Asc",
                                  "PopupFormAlias": {
                                    "$type": "Comindware.Platform.Contracts.GlobalAlias, Comindware.Platform.Contracts",
                                    "Type": "Undefined"
                                  },
                                  "DisplayFormat": "ShowAsPicture",
                                  "GlobalAlias": {
                                    "$type": "Comindware.Platform.Contracts.GlobalAlias, Comindware.Platform.Contracts",
                                    "Type": "FormComponent",
                                    "Alias": "Soglasovanklientom"
                                  },
                                  "AccessType": "Editable",
                                  "Width": 0,
                                  "Type": "FieldComponent"
                                }
                              ]
                            },
                            "GlobalAlias": {
                              "$type": "Comindware.Platform.Contracts.GlobalAlias, Comindware.Platform.Contracts",
                              "Type": "FormComponent",
                              "Alias": "VerticalLayout7"
                            },
                            "AccessType": "Undefined",
                            "Width": 50,
                            "Type": "VerticalLayout"
                          },
                          {
                            "$type": "Comindware.Platform.Contracts.VerticalLayoutModel, Comindware.Platform.Contracts",
                            "Rows": {
                              "$type": "System.Collections.Generic.List`1[[Comindware.Platform.Contracts.FormComponentModel, Comindware.Platform.Contracts]], mscorlib",
                              "$values": [
                                {
                                  "$type": "Comindware.Platform.Contracts.FieldComponentModel, Comindware.Platform.Contracts",
                                  "Label": {
                                    "$type": "Comindware.Platform.Contracts.LabelModel, Comindware.Platform.Contracts",
                                    "Hidden": false,
                                    "Alignment": "Top",
                                    "Text": {
                                      "$type": "Comindware.Platform.Contracts.LocalizedTextModel, Comindware.Platform.Contracts",
                                      "En": "УПД",
                                      "De": "УПД",
                                      "Ru": "УПД"
                                    }
                                  },
                                  "FieldType": "Reference",
                                  "Placeholder": {
                                    "$type": "Comindware.Platform.Contracts.LocalizedTextModel, Comindware.Platform.Contracts"
                                  },
                                  "HelpText": {
                                    "$type": "Comindware.Platform.Contracts.LocalizedTextModel, Comindware.Platform.Contracts"
                                  },
                                  "PropertyPath": {
                                    "$type": "Comindware.Platform.Contracts.GlobalAlias[], Comindware.Platform.Contracts",
                                    "$values": [
                                      {
                                        "$type": "Comindware.Platform.Contracts.GlobalAlias, Comindware.Platform.Contracts",
                                        "Type": "Attribute",
                                        "Owner": "ZakrytiyaMPzaperiod",
                                        "Alias": "Mediaplan"
                                      },
                                      {
                                        "$type": "Comindware.Platform.Contracts.GlobalAlias, Comindware.Platform.Contracts",
                                        "Type": "Attribute",
                                        "Owner": "Mediaplany",
                                        "Alias": "UPD"
                                      }
                                    ]
                                  },
                                  "EditorType": "Radio",
                                  "CreationType": "None",
                                  "RemovalType": "None",
                                  "EditType": "None",
                                  "HideSearchBar": false,
                                  "ShowAsLink": false,
                                  "ChildPropertyAlias": {
                                    "$type": "Comindware.Platform.Contracts.GlobalAlias, Comindware.Platform.Contracts",
                                    "Type": "Undefined"
                                  },
                                  "OrderPropertyAlias": {
                                    "$type": "Comindware.Platform.Contracts.GlobalAlias, Comindware.Platform.Contracts",
                                    "Type": "Undefined"
                                  },
                                  "NumberPropertyAlias": {
                                    "$type": "Comindware.Platform.Contracts.GlobalAlias, Comindware.Platform.Contracts",
                                    "Type": "Undefined"
                                  },
                                  "PrecedentPropertyAlias": {
                                    "$type": "Comindware.Platform.Contracts.GlobalAlias, Comindware.Platform.Contracts",
                                    "Type": "Undefined"
                                  },
                                  "SortingDirection": "Asc",
                                  "PopupFormAlias": {
                                    "$type": "Comindware.Platform.Contracts.GlobalAlias, Comindware.Platform.Contracts",
                                    "Type": "Undefined"
                                  },
                                  "AllowEdit": false,
                                  "DisplayFormat": "ShowAsPicture",
                                  "GlobalAlias": {
                                    "$type": "Comindware.Platform.Contracts.GlobalAlias, Comindware.Platform.Contracts",
                                    "Type": "FormComponent",
                                    "Alias": "UPD4"
                                  },
                                  "AccessType": "Readonly",
                                  "Width": 0,
                                  "Type": "FieldComponent"
                                }
                              ]
                            },
                            "GlobalAlias": {
                              "$type": "Comindware.Platform.Contracts.GlobalAlias, Comindware.Platform.Contracts",
                              "Type": "FormComponent",
                              "Alias": "VerticalLayout8"
                            },
                            "AccessType": "Undefined",
                            "Width": 50,
                            "Type": "VerticalLayout"
                          }
                        ]
                      },
                      "OriginalType": "HorizontalLayout",
                      "GlobalAlias": {
                        "$type": "Comindware.Platform.Contracts.GlobalAlias, Comindware.Platform.Contracts",
                        "Type": "FormComponent",
                        "Alias": "HorizontalLayout3"
                      },
                      "AccessType": "Undefined",
                      "Width": 0,
                      "Type": "LayoutModel"
                    },
                    {
                      "$type": "Comindware.Platform.Contracts.LayoutModel, Comindware.Platform.Contracts",
                      "Components": {
                        "$type": "System.Collections.Generic.List`1[[Comindware.Platform.Contracts.FormComponentModel, Comindware.Platform.Contracts]], mscorlib",
                        "$values": [
                          {
                            "$type": "Comindware.Platform.Contracts.VerticalLayoutModel, Comindware.Platform.Contracts",
                            "Rows": {
                              "$type": "System.Collections.Generic.List`1[[Comindware.Platform.Contracts.FormComponentModel, Comindware.Platform.Contracts]], mscorlib",
                              "$values": [
                                {
                                  "$type": "Comindware.Platform.Contracts.FieldComponentModel, Comindware.Platform.Contracts",
                                  "Label": {
                                    "$type": "Comindware.Platform.Contracts.LabelModel, Comindware.Platform.Contracts",
                                    "Hidden": false,
                                    "Alignment": "Top",
                                    "Text": {
                                      "$type": "Comindware.Platform.Contracts.LocalizedTextModel, Comindware.Platform.Contracts",
                                      "En": "МП с фактическими данными",
                                      "De": "МП с фактическими данными",
                                      "Ru": "МП с фактическими данными"
                                    }
                                  },
                                  "FieldType": "Document",
                                  "Placeholder": {
                                    "$type": "Comindware.Platform.Contracts.LocalizedTextModel, Comindware.Platform.Contracts"
                                  },
                                  "HelpText": {
                                    "$type": "Comindware.Platform.Contracts.LocalizedTextModel, Comindware.Platform.Contracts"
                                  },
                                  "PropertyPath": {
                                    "$type": "Comindware.Platform.Contracts.GlobalAlias[], Comindware.Platform.Contracts",
                                    "$values": [
                                      {
                                        "$type": "Comindware.Platform.Contracts.GlobalAlias, Comindware.Platform.Contracts",
                                        "Type": "Attribute",
                                        "Owner": "ZakrytiyaMPzaperiod",
                                        "Alias": "MPsfakticheskimidannymi"
                                      }
                                    ]
                                  },
                                  "EditorType": "Radio",
                                  "CreationType": "None",
                                  "RemovalType": "None",
                                  "EditType": "None",
                                  "ChildPropertyAlias": {
                                    "$type": "Comindware.Platform.Contracts.GlobalAlias, Comindware.Platform.Contracts",
                                    "Type": "Undefined"
                                  },
                                  "OrderPropertyAlias": {
                                    "$type": "Comindware.Platform.Contracts.GlobalAlias, Comindware.Platform.Contracts",
                                    "Type": "Undefined"
                                  },
                                  "NumberPropertyAlias": {
                                    "$type": "Comindware.Platform.Contracts.GlobalAlias, Comindware.Platform.Contracts",
                                    "Type": "Undefined"
                                  },
                                  "PrecedentPropertyAlias": {
                                    "$type": "Comindware.Platform.Contracts.GlobalAlias, Comindware.Platform.Contracts",
                                    "Type": "Undefined"
                                  },
                                  "SortingDirection": "Asc",
                                  "MaxCount": 0,
                                  "PopupFormAlias": {
                                    "$type": "Comindware.Platform.Contracts.GlobalAlias, Comindware.Platform.Contracts",
                                    "Type": "Undefined"
                                  },
                                  "DisplayFormat": "ShowAsPicture",
                                  "GlobalAlias": {
                                    "$type": "Comindware.Platform.Contracts.GlobalAlias, Comindware.Platform.Contracts",
                                    "Type": "FormComponent",
                                    "Alias": "MPsfakticheskimidannymi"
                                  },
                                  "AccessType": "Readonly",
                                  "Width": 0,
                                  "Type": "FieldComponent"
                                }
                              ]
                            },
                            "GlobalAlias": {
                              "$type": "Comindware.Platform.Contracts.GlobalAlias, Comindware.Platform.Contracts",
                              "Type": "FormComponent",
                              "Alias": "VerticalLayout"
                            },
                            "AccessType": "Undefined",
                            "Width": 50,
                            "Type": "VerticalLayout"
                          },
                          {
                            "$type": "Comindware.Platform.Contracts.VerticalLayoutModel, Comindware.Platform.Contracts",
                            "Rows": {
                              "$type": "System.Collections.Generic.List`1[[Comindware.Platform.Contracts.FormComponentModel, Comindware.Platform.Contracts]], mscorlib",
                              "$values": [
                                {
                                  "$type": "Comindware.Platform.Contracts.FieldComponentModel, Comindware.Platform.Contracts",
                                  "Label": {
                                    "$type": "Comindware.Platform.Contracts.LabelModel, Comindware.Platform.Contracts",
                                    "Hidden": false,
                                    "Alignment": "Top",
                                    "Text": {
                                      "$type": "Comindware.Platform.Contracts.LocalizedTextModel, Comindware.Platform.Contracts",
                                      "En": "Медиаплан",
                                      "De": "Медиаплан",
                                      "Ru": "Медиаплан"
                                    }
                                  },
                                  "FieldType": "Reference",
                                  "Placeholder": {
                                    "$type": "Comindware.Platform.Contracts.LocalizedTextModel, Comindware.Platform.Contracts"
                                  },
                                  "HelpText": {
                                    "$type": "Comindware.Platform.Contracts.LocalizedTextModel, Comindware.Platform.Contracts"
                                  },
                                  "PropertyPath": {
                                    "$type": "Comindware.Platform.Contracts.GlobalAlias[], Comindware.Platform.Contracts",
                                    "$values": [
                                      {
                                        "$type": "Comindware.Platform.Contracts.GlobalAlias, Comindware.Platform.Contracts",
                                        "Type": "Attribute",
                                        "Owner": "ZakrytiyaMPzaperiod",
                                        "Alias": "Mediaplan"
                                      }
                                    ]
                                  },
                                  "EditorType": "Radio",
                                  "CreationType": "None",
                                  "RemovalType": "None",
                                  "EditType": "None",
                                  "HideSearchBar": false,
                                  "ShowAsLink": false,
                                  "ChildPropertyAlias": {
                                    "$type": "Comindware.Platform.Contracts.GlobalAlias, Comindware.Platform.Contracts",
                                    "Type": "Undefined"
                                  },
                                  "OrderPropertyAlias": {
                                    "$type": "Comindware.Platform.Contracts.GlobalAlias, Comindware.Platform.Contracts",
                                    "Type": "Undefined"
                                  },
                                  "NumberPropertyAlias": {
                                    "$type": "Comindware.Platform.Contracts.GlobalAlias, Comindware.Platform.Contracts",
                                    "Type": "Undefined"
                                  },
                                  "PrecedentPropertyAlias": {
                                    "$type": "Comindware.Platform.Contracts.GlobalAlias, Comindware.Platform.Contracts",
                                    "Type": "Undefined"
                                  },
                                  "SortingDirection": "Asc",
                                  "PopupFormAlias": {
                                    "$type": "Comindware.Platform.Contracts.GlobalAlias, Comindware.Platform.Contracts",
                                    "Type": "Undefined"
                                  },
                                  "AllowEdit": false,
                                  "DisplayFormat": "ShowAsPicture",
                                  "GlobalAlias": {
                                    "$type": "Comindware.Platform.Contracts.GlobalAlias, Comindware.Platform.Contracts",
                                    "Type": "FormComponent",
                                    "Alias": "Mediaplan"
                                  },
                                  "AccessType": "Readonly",
                                  "Width": 0,
                                  "Type": "FieldComponent"
                                },
                                {
                                  "$type": "Comindware.Platform.Contracts.FieldComponentModel, Comindware.Platform.Contracts",
                                  "Label": {
                                    "$type": "Comindware.Platform.Contracts.LabelModel, Comindware.Platform.Contracts",
                                    "Hidden": false,
                                    "Alignment": "Top",
                                    "Text": {
                                      "$type": "Comindware.Platform.Contracts.LocalizedTextModel, Comindware.Platform.Contracts",
                                      "En": "Период",
                                      "De": "Период",
                                      "Ru": "Период"
                                    }
                                  },
                                  "FieldType": "Reference",
                                  "Placeholder": {
                                    "$type": "Comindware.Platform.Contracts.LocalizedTextModel, Comindware.Platform.Contracts"
                                  },
                                  "HelpText": {
                                    "$type": "Comindware.Platform.Contracts.LocalizedTextModel, Comindware.Platform.Contracts"
                                  },
                                  "PropertyPath": {
                                    "$type": "Comindware.Platform.Contracts.GlobalAlias[], Comindware.Platform.Contracts",
                                    "$values": [
                                      {
                                        "$type": "Comindware.Platform.Contracts.GlobalAlias, Comindware.Platform.Contracts",
                                        "Type": "Attribute",
                                        "Owner": "ZakrytiyaMPzaperiod",
                                        "Alias": "Period"
                                      }
                                    ]
                                  },
                                  "EditorType": "Radio",
                                  "CreationType": "None",
                                  "RemovalType": "None",
                                  "EditType": "None",
                                  "HideSearchBar": false,
                                  "ShowAsLink": false,
                                  "ChildPropertyAlias": {
                                    "$type": "Comindware.Platform.Contracts.GlobalAlias, Comindware.Platform.Contracts",
                                    "Type": "Undefined"
                                  },
                                  "OrderPropertyAlias": {
                                    "$type": "Comindware.Platform.Contracts.GlobalAlias, Comindware.Platform.Contracts",
                                    "Type": "Undefined"
                                  },
                                  "NumberPropertyAlias": {
                                    "$type": "Comindware.Platform.Contracts.GlobalAlias, Comindware.Platform.Contracts",
                                    "Type": "Undefined"
                                  },
                                  "PrecedentPropertyAlias": {
                                    "$type": "Comindware.Platform.Contracts.GlobalAlias, Comindware.Platform.Contracts",
                                    "Type": "Undefined"
                                  },
                                  "SortingDirection": "Asc",
                                  "PopupFormAlias": {
                                    "$type": "Comindware.Platform.Contracts.GlobalAlias, Comindware.Platform.Contracts",
                                    "Type": "Undefined"
                                  },
                                  "AllowEdit": false,
                                  "DisplayFormat": "ShowAsPicture",
                                  "GlobalAlias": {
                                    "$type": "Comindware.Platform.Contracts.GlobalAlias, Comindware.Platform.Contracts",
                                    "Type": "FormComponent",
                                    "Alias": "Period"
                                  },
                                  "AccessType": "Readonly",
                                  "Width": 0,
                                  "Type": "FieldComponent"
                                }
                              ]
                            },
                            "GlobalAlias": {
                              "$type": "Comindware.Platform.Contracts.GlobalAlias, Comindware.Platform.Contracts",
                              "Type": "FormComponent",
                              "Alias": "VerticalLayout2"
                            },
                            "AccessType": "Undefined",
                            "Width": 50,
                            "Type": "VerticalLayout"
                          }
                        ]
                      },
                      "OriginalType": "HorizontalLayout",
                      "GlobalAlias": {
                        "$type": "Comindware.Platform.Contracts.GlobalAlias, Comindware.Platform.Contracts",
                        "Type": "FormComponent",
                        "Alias": "HorizontalLayout"
                      },
                      "AccessType": "Undefined",
                      "Width": 0,
                      "Type": "LayoutModel"
                    }
                  ]
                },
                "GlobalAlias": {
                  "$type": "Comindware.Platform.Contracts.GlobalAlias, Comindware.Platform.Contracts",
                  "Type": "FormComponent",
                  "Alias": "VerticalLayout1"
                },
                "AccessType": "Undefined",
                "Width": 0,
                "Type": "VerticalLayout"
              }
            ]
          },
          "GlobalAlias": {
            "$type": "Comindware.Platform.Contracts.GlobalAlias, Comindware.Platform.Contracts",
            "Type": "FormComponent",
            "Alias": "GroupPanelComponent1"
          },
          "AccessType": "Editable",
          "Width": 100,
          "Type": "PanelModel"
        }
      ]
    },
    "GlobalAlias": {
      "$type": "Comindware.Platform.Contracts.GlobalAlias, Comindware.Platform.Contracts",
      "Type": "FormComponent",
      "Alias": "default_Root"
    },
    "AccessType": "Undefined",
    "Width": 0,
    "Type": "VerticalLayout"
  },
  "Name": "Закрытия периода на подписание",
  "FormRules": {
    "$type": "System.Collections.Generic.List`1[[Comindware.Platform.Contracts.FormRuleModel, Comindware.Platform.Contracts]], mscorlib",
    "$values": [
      {
        "$type": "Comindware.Platform.Contracts.FormRuleModel, Comindware.Platform.Contracts",
        "RuleName": "Правило",
        "ConditionExpression": "",
        "Actions": {
          "$type": "System.Collections.Generic.List`1[[Comindware.Platform.Contracts.RuleActionModel, Comindware.Platform.Contracts]], mscorlib",
          "$values": [
            {
              "$type": "Comindware.Platform.Contracts.RuleActionModel, Comindware.Platform.Contracts",
              "GlobalAlias": {
                "$type": "Comindware.Platform.Contracts.GlobalAlias, Comindware.Platform.Contracts",
                "Type": "FormComponent",
                "Owner": "Zakrytiyaperiodanapodpisanie",
                "Alias": "GroupPanelComponent1"
              },
              "Type": "SetAccessType",
              "ValueExpression": "CONST('Readonly')",
              "ConditionExpression": "",
              "Severity": "Error"
            },
            {
              "$type": "Comindware.Platform.Contracts.RuleActionModel, Comindware.Platform.Contracts",
              "GlobalAlias": {
                "$type": "Comindware.Platform.Contracts.GlobalAlias, Comindware.Platform.Contracts",
                "Type": "FormComponent",
                "Owner": "Zakrytiyaperiodanapodpisanie",
                "Alias": "GroupPanelComponent2"
              },
              "Type": "SetAccessType",
              "ValueExpression": "CONST('Hidden')",
              "ConditionExpression": "$Otpravlenonapodpisanie == true",
              "Severity": "Error"
            },
            {
              "$type": "Comindware.Platform.Contracts.RuleActionModel, Comindware.Platform.Contracts",
              "GlobalAlias": {
                "$type": "Comindware.Platform.Contracts.GlobalAlias, Comindware.Platform.Contracts",
                "Type": "FormComponent",
                "Owner": "Zakrytiyaperiodanapodpisanie",
                "Alias": "Soglasovanklientom"
              },
              "Type": "SetAccessType",
              "ValueExpression": "CONST('Required')",
              "ConditionExpression": "",
              "Severity": "Error"
            }
          ]
        }
      },
      {
        "$type": "Comindware.Platform.Contracts.FormRuleModel, Comindware.Platform.Contracts",
        "RuleName": "Подписание по ЭДО? (Нет)",
        "ConditionExpression": "$EDO == false",
        "Actions": {
          "$type": "System.Collections.Generic.List`1[[Comindware.Platform.Contracts.RuleActionModel, Comindware.Platform.Contracts]], mscorlib",
          "$values": [
            {
              "$type": "Comindware.Platform.Contracts.RuleActionModel, Comindware.Platform.Contracts",
              "GlobalAlias": {
                "$type": "Comindware.Platform.Contracts.GlobalAlias, Comindware.Platform.Contracts",
                "Type": "FormComponent",
                "Owner": "Zakrytiyaperiodanapodpisanie",
                "Alias": "Agentstvopodpisyvaetpervym"
              },
              "Type": "SetAccessType",
              "ValueExpression": "CONST('Required')",
              "ConditionExpression": "",
              "Severity": "Error"
            },
            {
              "$type": "Comindware.Platform.Contracts.RuleActionModel, Comindware.Platform.Contracts",
              "GlobalAlias": {
                "$type": "Comindware.Platform.Contracts.GlobalAlias, Comindware.Platform.Contracts",
                "Type": "FormComponent",
                "Owner": "Zakrytiyaperiodanapodpisanie",
                "Alias": "Ktopodpisyvaet"
              },
              "Type": "SetAccessType",
              "ValueExpression": "CONST('Required')",
              "ConditionExpression": "",
              "Severity": "Error"
            }
          ]
        }
      }
    ]
  },
  "Origination": "Undefined"
}