{
  "$type": "Comindware.Platform.Contracts.FormModel, Comindware.Platform.Contracts",
  "GlobalAlias": {
    "$type": "Comindware.Platform.Contracts.GlobalAlias, Comindware.Platform.Contracts",
    "Type": "Form",
    "Owner": "Kontragenty",
    "Alias": "FormadlyanaznacheniyaDigitalotvetstvennykh2"
  },
  "Type": "InternalForm",
  "IsDefault": false,
  "Root": {
    "$type": "Comindware.Platform.Contracts.VerticalLayoutModel, Comindware.Platform.Contracts",
    "Rows": {
      "$type": "System.Collections.Generic.List`1[[Comindware.Platform.Contracts.FormComponentModel, Comindware.Platform.Contracts]], mscorlib",
      "$values": [
        {
          "$type": "Comindware.Platform.Contracts.PanelModel, Comindware.Platform.Contracts",
          "Text": {
            "$type": "Comindware.Platform.Contracts.LocalizedTextModel, Comindware.Platform.Contracts",
            "En": "Информация для Руководителя Группы (lvl. 3)",
            "De": "Информация для Руководителя Группы (lvl. 3)",
            "Ru": "Информация для Руководителя Группы (lvl. 3)"
          },
          "OriginalType": "GroupPanel",
          "Rows": {
            "$type": "System.Collections.Generic.List`1[[Comindware.Platform.Contracts.FormComponentModel, Comindware.Platform.Contracts]], mscorlib",
            "$values": [
              {
                "$type": "Comindware.Platform.Contracts.VerticalLayoutModel, Comindware.Platform.Contracts",
                "Rows": {
                  "$type": "System.Collections.Generic.List`1[[Comindware.Platform.Contracts.FormComponentModel, Comindware.Platform.Contracts]], mscorlib",
                  "$values": [
                    {
                      "$type": "Comindware.Platform.Contracts.StaticContentModel, Comindware.Platform.Contracts",
                      "Content": {
                        "$type": "Comindware.Platform.Contracts.LocalizedTextModel, Comindware.Platform.Contracts",
                        "En": "<p>Вам пришла задача для назначения клиентского менеджера.&nbsp;</p> <p>Ознакомьтесь с информацией по клиенту.<br/>\nНажмите на поле &quot;Ответственный Digital КС&quot;&nbsp;- для назначения человека на данные роли. Для ускорения поиска необходимого сотрудника, Вы можете начать вводить первые буквы его фамилии в поле, затем, щелкнув мышью по ФИО -&nbsp;его выбрать.</p> <p>Также, Вы можете назначить Рабочую группу в соответствующем поле, выбрав одного или нескольких человек.</p> <p><strong><u>Примечание:</u> если в рабочей группе&nbsp;уже есть человек - не удаляйте его, так как его назначил Media Group Head.&nbsp;</strong>Вы можете дополнительно добавить необходимых людей.<br/>\nПосле выполнения всех необходимых действий, нажмите на кнопку &quot;Завершить задачу&quot;, которая находится сверху формы.</p>\n",
                        "De": "<p>Вам пришла задача для назначения клиентского менеджера.&nbsp;</p> <p>Ознакомьтесь с информацией по клиенту.<br/>\nНажмите на поле &quot;Ответственный Digital КС&quot;&nbsp;- для назначения человека на данные роли. Для ускорения поиска необходимого сотрудника, Вы можете начать вводить первые буквы его фамилии в поле, затем, щелкнув мышью по ФИО -&nbsp;его выбрать.</p> <p>Также, Вы можете назначить Рабочую группу в соответствующем поле, выбрав одного или нескольких человек.</p> <p><strong><u>Примечание:</u> если в рабочей группе&nbsp;уже есть человек - не удаляйте его, так как его назначил Media Group Head.&nbsp;</strong>Вы можете дополнительно добавить необходимых людей.<br/>\nПосле выполнения всех необходимых действий, нажмите на кнопку &quot;Завершить задачу&quot;, которая находится сверху формы.</p>\n",
                        "Ru": "<p>Вам пришла задача для назначения клиентского менеджера.&nbsp;</p> <p>Ознакомьтесь с информацией по клиенту.<br/>\nНажмите на поле &quot;Ответственный Digital КС&quot;&nbsp;- для назначения человека на данные роли. Для ускорения поиска необходимого сотрудника, Вы можете начать вводить первые буквы его фамилии в поле, затем, щелкнув мышью по ФИО -&nbsp;его выбрать.</p> <p>Также, Вы можете назначить Рабочую группу в соответствующем поле, выбрав одного или нескольких человек.</p> <p><strong><u>Примечание:</u> если в рабочей группе&nbsp;уже есть человек - не удаляйте его, так как его назначил Media Group Head.&nbsp;</strong>Вы можете дополнительно добавить необходимых людей.<br/>\nПосле выполнения всех необходимых действий, нажмите на кнопку &quot;Завершить задачу&quot;, которая находится сверху формы.</p>\n"
                      },
                      "GlobalAlias": {
                        "$type": "Comindware.Platform.Contracts.GlobalAlias, Comindware.Platform.Contracts",
                        "Type": "FormComponent",
                        "Alias": "StaticContentComponent"
                      },
                      "AccessType": "Undefined",
                      "Width": 0,
                      "Type": "StaticContent"
                    }
                  ]
                },
                "GlobalAlias": {
                  "$type": "Comindware.Platform.Contracts.GlobalAlias, Comindware.Platform.Contracts",
                  "Type": "FormComponent",
                  "Alias": "VerticalLayout5"
                },
                "AccessType": "Undefined",
                "Width": 0,
                "Type": "VerticalLayout"
              }
            ]
          },
          "GlobalAlias": {
            "$type": "Comindware.Platform.Contracts.GlobalAlias, Comindware.Platform.Contracts",
            "Type": "FormComponent",
            "Alias": "GroupPanelComponent3"
          },
          "AccessType": "Editable",
          "Width": 100,
          "Type": "PanelModel"
        },
        {
          "$type": "Comindware.Platform.Contracts.LayoutModel, Comindware.Platform.Contracts",
          "Components": {
            "$type": "System.Collections.Generic.List`1[[Comindware.Platform.Contracts.FormComponentModel, Comindware.Platform.Contracts]], mscorlib",
            "$values": [
              {
                "$type": "Comindware.Platform.Contracts.PanelModel, Comindware.Platform.Contracts",
                "Text": {
                  "$type": "Comindware.Platform.Contracts.LocalizedTextModel, Comindware.Platform.Contracts",
                  "En": "Основная информация",
                  "De": "Основная информация",
                  "Ru": "Основная информация"
                },
                "OriginalType": "GroupPanel",
                "Rows": {
                  "$type": "System.Collections.Generic.List`1[[Comindware.Platform.Contracts.FormComponentModel, Comindware.Platform.Contracts]], mscorlib",
                  "$values": [
                    {
                      "$type": "Comindware.Platform.Contracts.VerticalLayoutModel, Comindware.Platform.Contracts",
                      "Rows": {
                        "$type": "System.Collections.Generic.List`1[[Comindware.Platform.Contracts.FormComponentModel, Comindware.Platform.Contracts]], mscorlib",
                        "$values": [
                          {
                            "$type": "Comindware.Platform.Contracts.FieldComponentModel, Comindware.Platform.Contracts",
                            "Label": {
                              "$type": "Comindware.Platform.Contracts.LabelModel, Comindware.Platform.Contracts",
                              "Hidden": false,
                              "Alignment": "Top",
                              "Text": {
                                "$type": "Comindware.Platform.Contracts.LocalizedTextModel, Comindware.Platform.Contracts",
                                "En": "Название клиента",
                                "De": "Название клиента",
                                "Ru": "Название клиента"
                              }
                            },
                            "FieldType": "Text",
                            "Placeholder": {
                              "$type": "Comindware.Platform.Contracts.LocalizedTextModel, Comindware.Platform.Contracts"
                            },
                            "HelpText": {
                              "$type": "Comindware.Platform.Contracts.LocalizedTextModel, Comindware.Platform.Contracts"
                            },
                            "PropertyPath": {
                              "$type": "Comindware.Platform.Contracts.GlobalAlias[], Comindware.Platform.Contracts",
                              "$values": [
                                {
                                  "$type": "Comindware.Platform.Contracts.GlobalAlias, Comindware.Platform.Contracts",
                                  "Type": "Attribute",
                                  "Owner": "Kontragenty",
                                  "Alias": "Kratkoenazvanie"
                                }
                              ]
                            },
                            "TextHeight": 0,
                            "TextHeightAuto": false,
                            "MaxLength": 0,
                            "EditorType": "Simple",
                            "CreationType": "None",
                            "RemovalType": "None",
                            "EditType": "None",
                            "ChildPropertyAlias": {
                              "$type": "Comindware.Platform.Contracts.GlobalAlias, Comindware.Platform.Contracts",
                              "Type": "Undefined"
                            },
                            "OrderPropertyAlias": {
                              "$type": "Comindware.Platform.Contracts.GlobalAlias, Comindware.Platform.Contracts",
                              "Type": "Undefined"
                            },
                            "NumberPropertyAlias": {
                              "$type": "Comindware.Platform.Contracts.GlobalAlias, Comindware.Platform.Contracts",
                              "Type": "Undefined"
                            },
                            "PrecedentPropertyAlias": {
                              "$type": "Comindware.Platform.Contracts.GlobalAlias, Comindware.Platform.Contracts",
                              "Type": "Undefined"
                            },
                            "SortingDirection": "Asc",
                            "PopupFormAlias": {
                              "$type": "Comindware.Platform.Contracts.GlobalAlias, Comindware.Platform.Contracts",
                              "Type": "Undefined"
                            },
                            "DisplayFormat": "ShowAsPicture",
                            "GlobalAlias": {
                              "$type": "Comindware.Platform.Contracts.GlobalAlias, Comindware.Platform.Contracts",
                              "Type": "FormComponent",
                              "Alias": "Kratkoenazvanie"
                            },
                            "AccessType": "Readonly",
                            "Width": 0,
                            "Type": "FieldComponent"
                          },
                          {
                            "$type": "Comindware.Platform.Contracts.FieldComponentModel, Comindware.Platform.Contracts",
                            "Label": {
                              "$type": "Comindware.Platform.Contracts.LabelModel, Comindware.Platform.Contracts",
                              "Hidden": false,
                              "Alignment": "Top",
                              "Text": {
                                "$type": "Comindware.Platform.Contracts.LocalizedTextModel, Comindware.Platform.Contracts",
                                "En": "Тип контрагента",
                                "De": "Тип контрагента",
                                "Ru": "Тип контрагента"
                              }
                            },
                            "FieldType": "Reference",
                            "Placeholder": {
                              "$type": "Comindware.Platform.Contracts.LocalizedTextModel, Comindware.Platform.Contracts"
                            },
                            "HelpText": {
                              "$type": "Comindware.Platform.Contracts.LocalizedTextModel, Comindware.Platform.Contracts"
                            },
                            "PropertyPath": {
                              "$type": "Comindware.Platform.Contracts.GlobalAlias[], Comindware.Platform.Contracts",
                              "$values": [
                                {
                                  "$type": "Comindware.Platform.Contracts.GlobalAlias, Comindware.Platform.Contracts",
                                  "Type": "Attribute",
                                  "Owner": "Kontragenty",
                                  "Alias": "type"
                                }
                              ]
                            },
                            "EditorType": "Radio",
                            "CreationType": "None",
                            "RemovalType": "None",
                            "EditType": "None",
                            "HideSearchBar": false,
                            "ShowAsLink": false,
                            "ChildPropertyAlias": {
                              "$type": "Comindware.Platform.Contracts.GlobalAlias, Comindware.Platform.Contracts",
                              "Type": "Undefined"
                            },
                            "OrderPropertyAlias": {
                              "$type": "Comindware.Platform.Contracts.GlobalAlias, Comindware.Platform.Contracts",
                              "Type": "Undefined"
                            },
                            "NumberPropertyAlias": {
                              "$type": "Comindware.Platform.Contracts.GlobalAlias, Comindware.Platform.Contracts",
                              "Type": "Undefined"
                            },
                            "PrecedentPropertyAlias": {
                              "$type": "Comindware.Platform.Contracts.GlobalAlias, Comindware.Platform.Contracts",
                              "Type": "Undefined"
                            },
                            "SortingDirection": "Asc",
                            "PopupFormAlias": {
                              "$type": "Comindware.Platform.Contracts.GlobalAlias, Comindware.Platform.Contracts",
                              "Type": "Undefined"
                            },
                            "AllowEdit": false,
                            "DisplayFormat": "ShowAsPicture",
                            "GlobalAlias": {
                              "$type": "Comindware.Platform.Contracts.GlobalAlias, Comindware.Platform.Contracts",
                              "Type": "FormComponent",
                              "Alias": "type"
                            },
                            "AccessType": "Readonly",
                            "Width": 0,
                            "Type": "FieldComponent"
                          },
                          {
                            "$type": "Comindware.Platform.Contracts.LayoutModel, Comindware.Platform.Contracts",
                            "Components": {
                              "$type": "System.Collections.Generic.List`1[[Comindware.Platform.Contracts.FormComponentModel, Comindware.Platform.Contracts]], mscorlib",
                              "$values": [
                                {
                                  "$type": "Comindware.Platform.Contracts.VerticalLayoutModel, Comindware.Platform.Contracts",
                                  "Rows": {
                                    "$type": "System.Collections.Generic.List`1[[Comindware.Platform.Contracts.FormComponentModel, Comindware.Platform.Contracts]], mscorlib",
                                    "$values": [
                                      {
                                        "$type": "Comindware.Platform.Contracts.FieldComponentModel, Comindware.Platform.Contracts",
                                        "Label": {
                                          "$type": "Comindware.Platform.Contracts.LabelModel, Comindware.Platform.Contracts",
                                          "Hidden": false,
                                          "Alignment": "Top",
                                          "Text": {
                                            "$type": "Comindware.Platform.Contracts.LocalizedTextModel, Comindware.Platform.Contracts",
                                            "En": "Создатель",
                                            "De": "Создатель",
                                            "Ru": "Создатель"
                                          }
                                        },
                                        "FieldType": "Member",
                                        "Placeholder": {
                                          "$type": "Comindware.Platform.Contracts.LocalizedTextModel, Comindware.Platform.Contracts"
                                        },
                                        "HelpText": {
                                          "$type": "Comindware.Platform.Contracts.LocalizedTextModel, Comindware.Platform.Contracts"
                                        },
                                        "PropertyPath": {
                                          "$type": "Comindware.Platform.Contracts.GlobalAlias[], Comindware.Platform.Contracts",
                                          "$values": [
                                            {
                                              "$type": "Comindware.Platform.Contracts.GlobalAlias, Comindware.Platform.Contracts",
                                              "Type": "Attribute",
                                              "Alias": "creator"
                                            }
                                          ]
                                        },
                                        "EditorType": "Radio",
                                        "CreationType": "None",
                                        "RemovalType": "None",
                                        "EditType": "None",
                                        "HideSearchBar": false,
                                        "ChildPropertyAlias": {
                                          "$type": "Comindware.Platform.Contracts.GlobalAlias, Comindware.Platform.Contracts",
                                          "Type": "Undefined"
                                        },
                                        "OrderPropertyAlias": {
                                          "$type": "Comindware.Platform.Contracts.GlobalAlias, Comindware.Platform.Contracts",
                                          "Type": "Undefined"
                                        },
                                        "NumberPropertyAlias": {
                                          "$type": "Comindware.Platform.Contracts.GlobalAlias, Comindware.Platform.Contracts",
                                          "Type": "Undefined"
                                        },
                                        "PrecedentPropertyAlias": {
                                          "$type": "Comindware.Platform.Contracts.GlobalAlias, Comindware.Platform.Contracts",
                                          "Type": "Undefined"
                                        },
                                        "SortingDirection": "Asc",
                                        "MaxCount": 0,
                                        "PopupFormAlias": {
                                          "$type": "Comindware.Platform.Contracts.GlobalAlias, Comindware.Platform.Contracts",
                                          "Type": "Undefined"
                                        },
                                        "DisplayFormat": "ShowAsPicture",
                                        "GlobalAlias": {
                                          "$type": "Comindware.Platform.Contracts.GlobalAlias, Comindware.Platform.Contracts",
                                          "Type": "FormComponent",
                                          "Alias": "_creator"
                                        },
                                        "AccessType": "Readonly",
                                        "Width": 0,
                                        "Type": "FieldComponent"
                                      }
                                    ]
                                  },
                                  "GlobalAlias": {
                                    "$type": "Comindware.Platform.Contracts.GlobalAlias, Comindware.Platform.Contracts",
                                    "Type": "FormComponent",
                                    "Alias": "VerticalLayout9"
                                  },
                                  "AccessType": "Undefined",
                                  "Width": 50,
                                  "Type": "VerticalLayout"
                                },
                                {
                                  "$type": "Comindware.Platform.Contracts.VerticalLayoutModel, Comindware.Platform.Contracts",
                                  "Rows": {
                                    "$type": "System.Collections.Generic.List`1[[Comindware.Platform.Contracts.FormComponentModel, Comindware.Platform.Contracts]], mscorlib",
                                    "$values": [
                                      {
                                        "$type": "Comindware.Platform.Contracts.FieldComponentModel, Comindware.Platform.Contracts",
                                        "Label": {
                                          "$type": "Comindware.Platform.Contracts.LabelModel, Comindware.Platform.Contracts",
                                          "Hidden": false,
                                          "Alignment": "Top",
                                          "Text": {
                                            "$type": "Comindware.Platform.Contracts.LocalizedTextModel, Comindware.Platform.Contracts",
                                            "En": "Дата создания",
                                            "De": "Дата создания",
                                            "Ru": "Дата создания"
                                          }
                                        },
                                        "FieldType": "Date",
                                        "Placeholder": {
                                          "$type": "Comindware.Platform.Contracts.LocalizedTextModel, Comindware.Platform.Contracts"
                                        },
                                        "HelpText": {
                                          "$type": "Comindware.Platform.Contracts.LocalizedTextModel, Comindware.Platform.Contracts"
                                        },
                                        "PropertyPath": {
                                          "$type": "Comindware.Platform.Contracts.GlobalAlias[], Comindware.Platform.Contracts",
                                          "$values": [
                                            {
                                              "$type": "Comindware.Platform.Contracts.GlobalAlias, Comindware.Platform.Contracts",
                                              "Type": "Attribute",
                                              "Alias": "creationDate"
                                            }
                                          ]
                                        },
                                        "EditorType": "Radio",
                                        "CreationType": "None",
                                        "RemovalType": "None",
                                        "EditType": "None",
                                        "DisplayTime": false,
                                        "ChildPropertyAlias": {
                                          "$type": "Comindware.Platform.Contracts.GlobalAlias, Comindware.Platform.Contracts",
                                          "Type": "Undefined"
                                        },
                                        "OrderPropertyAlias": {
                                          "$type": "Comindware.Platform.Contracts.GlobalAlias, Comindware.Platform.Contracts",
                                          "Type": "Undefined"
                                        },
                                        "NumberPropertyAlias": {
                                          "$type": "Comindware.Platform.Contracts.GlobalAlias, Comindware.Platform.Contracts",
                                          "Type": "Undefined"
                                        },
                                        "PrecedentPropertyAlias": {
                                          "$type": "Comindware.Platform.Contracts.GlobalAlias, Comindware.Platform.Contracts",
                                          "Type": "Undefined"
                                        },
                                        "SortingDirection": "Asc",
                                        "PopupFormAlias": {
                                          "$type": "Comindware.Platform.Contracts.GlobalAlias, Comindware.Platform.Contracts",
                                          "Type": "Undefined"
                                        },
                                        "DisplayFormat": "ShowAsPicture",
                                        "GlobalAlias": {
                                          "$type": "Comindware.Platform.Contracts.GlobalAlias, Comindware.Platform.Contracts",
                                          "Type": "FormComponent",
                                          "Alias": "_creationDate"
                                        },
                                        "AccessType": "Readonly",
                                        "Width": 0,
                                        "Type": "FieldComponent"
                                      }
                                    ]
                                  },
                                  "GlobalAlias": {
                                    "$type": "Comindware.Platform.Contracts.GlobalAlias, Comindware.Platform.Contracts",
                                    "Type": "FormComponent",
                                    "Alias": "VerticalLayout10"
                                  },
                                  "AccessType": "Undefined",
                                  "Width": 50,
                                  "Type": "VerticalLayout"
                                }
                              ]
                            },
                            "OriginalType": "HorizontalLayout",
                            "GlobalAlias": {
                              "$type": "Comindware.Platform.Contracts.GlobalAlias, Comindware.Platform.Contracts",
                              "Type": "FormComponent",
                              "Alias": "HorizontalLayout4"
                            },
                            "AccessType": "Undefined",
                            "Width": 0,
                            "Type": "LayoutModel"
                          }
                        ]
                      },
                      "GlobalAlias": {
                        "$type": "Comindware.Platform.Contracts.GlobalAlias, Comindware.Platform.Contracts",
                        "Type": "FormComponent",
                        "Alias": "VerticalLayout"
                      },
                      "AccessType": "Undefined",
                      "Width": 0,
                      "Type": "VerticalLayout"
                    }
                  ]
                },
                "GlobalAlias": {
                  "$type": "Comindware.Platform.Contracts.GlobalAlias, Comindware.Platform.Contracts",
                  "Type": "FormComponent",
                  "Alias": "GroupPanelComponent"
                },
                "AccessType": "Editable",
                "Width": 35,
                "Type": "PanelModel"
              },
              {
                "$type": "Comindware.Platform.Contracts.PanelModel, Comindware.Platform.Contracts",
                "Text": {
                  "$type": "Comindware.Platform.Contracts.LocalizedTextModel, Comindware.Platform.Contracts",
                  "En": "Ответственные",
                  "De": "Ответственные",
                  "Ru": "Ответственные"
                },
                "OriginalType": "GroupPanel",
                "Rows": {
                  "$type": "System.Collections.Generic.List`1[[Comindware.Platform.Contracts.FormComponentModel, Comindware.Platform.Contracts]], mscorlib",
                  "$values": [
                    {
                      "$type": "Comindware.Platform.Contracts.VerticalLayoutModel, Comindware.Platform.Contracts",
                      "Rows": {
                        "$type": "System.Collections.Generic.List`1[[Comindware.Platform.Contracts.FormComponentModel, Comindware.Platform.Contracts]], mscorlib",
                        "$values": [
                          {
                            "$type": "Comindware.Platform.Contracts.FieldComponentModel, Comindware.Platform.Contracts",
                            "Label": {
                              "$type": "Comindware.Platform.Contracts.LabelModel, Comindware.Platform.Contracts",
                              "Hidden": false,
                              "Alignment": "Top",
                              "Text": {
                                "$type": "Comindware.Platform.Contracts.LocalizedTextModel, Comindware.Platform.Contracts",
                                "En": "Агентство",
                                "De": "Агентство",
                                "Ru": "Агентство"
                              }
                            },
                            "FieldType": "Reference",
                            "Placeholder": {
                              "$type": "Comindware.Platform.Contracts.LocalizedTextModel, Comindware.Platform.Contracts"
                            },
                            "HelpText": {
                              "$type": "Comindware.Platform.Contracts.LocalizedTextModel, Comindware.Platform.Contracts"
                            },
                            "PropertyPath": {
                              "$type": "Comindware.Platform.Contracts.GlobalAlias[], Comindware.Platform.Contracts",
                              "$values": [
                                {
                                  "$type": "Comindware.Platform.Contracts.GlobalAlias, Comindware.Platform.Contracts",
                                  "Type": "Attribute",
                                  "Owner": "Kontragenty",
                                  "Alias": "Agentstvo_link"
                                }
                              ]
                            },
                            "EditorType": "Radio",
                            "CreationType": "None",
                            "RemovalType": "None",
                            "EditType": "None",
                            "HideSearchBar": false,
                            "ShowAsLink": false,
                            "ChildPropertyAlias": {
                              "$type": "Comindware.Platform.Contracts.GlobalAlias, Comindware.Platform.Contracts",
                              "Type": "Undefined"
                            },
                            "OrderPropertyAlias": {
                              "$type": "Comindware.Platform.Contracts.GlobalAlias, Comindware.Platform.Contracts",
                              "Type": "Undefined"
                            },
                            "NumberPropertyAlias": {
                              "$type": "Comindware.Platform.Contracts.GlobalAlias, Comindware.Platform.Contracts",
                              "Type": "Undefined"
                            },
                            "PrecedentPropertyAlias": {
                              "$type": "Comindware.Platform.Contracts.GlobalAlias, Comindware.Platform.Contracts",
                              "Type": "Undefined"
                            },
                            "SortingDirection": "Asc",
                            "PopupFormAlias": {
                              "$type": "Comindware.Platform.Contracts.GlobalAlias, Comindware.Platform.Contracts",
                              "Type": "Undefined"
                            },
                            "AllowEdit": false,
                            "DisplayFormat": "ShowAsPicture",
                            "GlobalAlias": {
                              "$type": "Comindware.Platform.Contracts.GlobalAlias, Comindware.Platform.Contracts",
                              "Type": "FormComponent",
                              "Alias": "Agentstvo_link2"
                            },
                            "AccessType": "Readonly",
                            "Width": 0,
                            "Type": "FieldComponent"
                          },
                          {
                            "$type": "Comindware.Platform.Contracts.LayoutModel, Comindware.Platform.Contracts",
                            "Components": {
                              "$type": "System.Collections.Generic.List`1[[Comindware.Platform.Contracts.FormComponentModel, Comindware.Platform.Contracts]], mscorlib",
                              "$values": [
                                {
                                  "$type": "Comindware.Platform.Contracts.VerticalLayoutModel, Comindware.Platform.Contracts",
                                  "Rows": {
                                    "$type": "System.Collections.Generic.List`1[[Comindware.Platform.Contracts.FormComponentModel, Comindware.Platform.Contracts]], mscorlib",
                                    "$values": [
                                      {
                                        "$type": "Comindware.Platform.Contracts.FieldComponentModel, Comindware.Platform.Contracts",
                                        "Label": {
                                          "$type": "Comindware.Platform.Contracts.LabelModel, Comindware.Platform.Contracts",
                                          "Hidden": false,
                                          "Alignment": "Top",
                                          "Text": {
                                            "$type": "Comindware.Platform.Contracts.LocalizedTextModel, Comindware.Platform.Contracts",
                                            "En": "Директор КС",
                                            "De": "Директор КС",
                                            "Ru": "Директор КС"
                                          }
                                        },
                                        "FieldType": "Member",
                                        "Placeholder": {
                                          "$type": "Comindware.Platform.Contracts.LocalizedTextModel, Comindware.Platform.Contracts"
                                        },
                                        "HelpText": {
                                          "$type": "Comindware.Platform.Contracts.LocalizedTextModel, Comindware.Platform.Contracts"
                                        },
                                        "PropertyPath": {
                                          "$type": "Comindware.Platform.Contracts.GlobalAlias[], Comindware.Platform.Contracts",
                                          "$values": [
                                            {
                                              "$type": "Comindware.Platform.Contracts.GlobalAlias, Comindware.Platform.Contracts",
                                              "Type": "Attribute",
                                              "Owner": "Kontragenty",
                                              "Alias": "DirektorKS"
                                            }
                                          ]
                                        },
                                        "EditorType": "Radio",
                                        "CreationType": "None",
                                        "RemovalType": "None",
                                        "EditType": "None",
                                        "HideSearchBar": false,
                                        "ChildPropertyAlias": {
                                          "$type": "Comindware.Platform.Contracts.GlobalAlias, Comindware.Platform.Contracts",
                                          "Type": "Undefined"
                                        },
                                        "OrderPropertyAlias": {
                                          "$type": "Comindware.Platform.Contracts.GlobalAlias, Comindware.Platform.Contracts",
                                          "Type": "Undefined"
                                        },
                                        "NumberPropertyAlias": {
                                          "$type": "Comindware.Platform.Contracts.GlobalAlias, Comindware.Platform.Contracts",
                                          "Type": "Undefined"
                                        },
                                        "PrecedentPropertyAlias": {
                                          "$type": "Comindware.Platform.Contracts.GlobalAlias, Comindware.Platform.Contracts",
                                          "Type": "Undefined"
                                        },
                                        "SortingDirection": "Asc",
                                        "MaxCount": 0,
                                        "PopupFormAlias": {
                                          "$type": "Comindware.Platform.Contracts.GlobalAlias, Comindware.Platform.Contracts",
                                          "Type": "Undefined"
                                        },
                                        "DisplayFormat": "ShowAsPicture",
                                        "GlobalAlias": {
                                          "$type": "Comindware.Platform.Contracts.GlobalAlias, Comindware.Platform.Contracts",
                                          "Type": "FormComponent",
                                          "Alias": "DirektorKS"
                                        },
                                        "AccessType": "Readonly",
                                        "Width": 0,
                                        "Type": "FieldComponent"
                                      },
                                      {
                                        "$type": "Comindware.Platform.Contracts.FieldComponentModel, Comindware.Platform.Contracts",
                                        "Label": {
                                          "$type": "Comindware.Platform.Contracts.LabelModel, Comindware.Platform.Contracts",
                                          "Hidden": false,
                                          "Alignment": "Top",
                                          "Text": {
                                            "$type": "Comindware.Platform.Contracts.LocalizedTextModel, Comindware.Platform.Contracts",
                                            "En": "Digital Media Group Head ",
                                            "De": "Digital Media Group Head ",
                                            "Ru": "Digital Media Group Head "
                                          }
                                        },
                                        "FieldType": "Member",
                                        "Placeholder": {
                                          "$type": "Comindware.Platform.Contracts.LocalizedTextModel, Comindware.Platform.Contracts"
                                        },
                                        "HelpText": {
                                          "$type": "Comindware.Platform.Contracts.LocalizedTextModel, Comindware.Platform.Contracts"
                                        },
                                        "PropertyPath": {
                                          "$type": "Comindware.Platform.Contracts.GlobalAlias[], Comindware.Platform.Contracts",
                                          "$values": [
                                            {
                                              "$type": "Comindware.Platform.Contracts.GlobalAlias, Comindware.Platform.Contracts",
                                              "Type": "Attribute",
                                              "Owner": "Kontragenty",
                                              "Alias": "DidzhitalGH"
                                            }
                                          ]
                                        },
                                        "EditorType": "Radio",
                                        "CreationType": "None",
                                        "RemovalType": "None",
                                        "EditType": "None",
                                        "ValueFilterExpression": "@prefix cmw: <http://comindware.com/logics#>.\n@prefix object: <http://comindware.com/ontology/object#>.\n@prefix assert: <http://comindware.com/logics/assert#>.\n\n{\n\n(\"Kontragenty\" \"DigitalGroupAccountDirector\") object:findProperty ?DirektorProp.\n(\"Organizatsionnoshtatnayastruktura\" \"Podchinennye\") object:findProperty ?PodchinennyeProp.\n(\"Organizatsionnoshtatnayastruktura\" \"Sotrudnik\") object:findProperty ?SotrudnikProp.\n(\"Organizatsionnoshtatnayastruktura\" \"Rukovoditel\") object:findProperty ?RukovoditelProp.\n\n?item ?DirektorProp ?Direktor.\n\n?template object:alias \"Organizatsionnoshtatnayastruktura\".\n?z cmw:container ?template.\n?z ?SotrudnikProp ?sotrudnik.\n?z ?RukovoditelProp ?z_rukovoditel.\n?z_rukovoditel ?SotrudnikProp ?rukovoditel.\nif {?rukovoditel == ?Direktor}\nthen {\n\n?z2 cmw:container ?template.\n?z2 ?SotrudnikProp ?sotrudnik2.\n?z2 ?RukovoditelProp ?z_rukovoditel2.\n?z_rukovoditel2 ?SotrudnikProp ?rukovoditel2.\nif {?rukovoditel2 == ?sotrudnik}\nthen {\n\n#?z3 cmw:container ?template.\n#?z3 ?SotrudnikProp ?sotrudnik3.\n#?z3 ?RukovoditelProp ?z_rukovoditel3.\n#?z_rukovoditel3 ?SotrudnikProp ?rukovoditel3.\n#if {?rukovoditel3 == ?sotrudnik2}\n#then {\n (\n       {?sotrudnik -> ?value.}\n#       {?sotrudnik2 -> ?value.}\n#       {?sotrudnik3 -> ?value.} \n  ) assert:union true.\n#}\n\n}\n\n}\n}",
                                        "HideSearchBar": false,
                                        "ChildPropertyAlias": {
                                          "$type": "Comindware.Platform.Contracts.GlobalAlias, Comindware.Platform.Contracts",
                                          "Type": "Undefined"
                                        },
                                        "OrderPropertyAlias": {
                                          "$type": "Comindware.Platform.Contracts.GlobalAlias, Comindware.Platform.Contracts",
                                          "Type": "Undefined"
                                        },
                                        "NumberPropertyAlias": {
                                          "$type": "Comindware.Platform.Contracts.GlobalAlias, Comindware.Platform.Contracts",
                                          "Type": "Undefined"
                                        },
                                        "PrecedentPropertyAlias": {
                                          "$type": "Comindware.Platform.Contracts.GlobalAlias, Comindware.Platform.Contracts",
                                          "Type": "Undefined"
                                        },
                                        "SortingDirection": "Asc",
                                        "MaxCount": 0,
                                        "PopupFormAlias": {
                                          "$type": "Comindware.Platform.Contracts.GlobalAlias, Comindware.Platform.Contracts",
                                          "Type": "Undefined"
                                        },
                                        "DisplayFormat": "ShowAsPicture",
                                        "GlobalAlias": {
                                          "$type": "Comindware.Platform.Contracts.GlobalAlias, Comindware.Platform.Contracts",
                                          "Type": "FormComponent",
                                          "Alias": "DidzhitalGH"
                                        },
                                        "AccessType": "Readonly",
                                        "Width": 0,
                                        "Type": "FieldComponent"
                                      }
                                    ]
                                  },
                                  "GlobalAlias": {
                                    "$type": "Comindware.Platform.Contracts.GlobalAlias, Comindware.Platform.Contracts",
                                    "Type": "FormComponent",
                                    "Alias": "VerticalLayout3"
                                  },
                                  "AccessType": "Undefined",
                                  "Width": 50,
                                  "Type": "VerticalLayout"
                                },
                                {
                                  "$type": "Comindware.Platform.Contracts.VerticalLayoutModel, Comindware.Platform.Contracts",
                                  "Rows": {
                                    "$type": "System.Collections.Generic.List`1[[Comindware.Platform.Contracts.FormComponentModel, Comindware.Platform.Contracts]], mscorlib",
                                    "$values": [
                                      {
                                        "$type": "Comindware.Platform.Contracts.FieldComponentModel, Comindware.Platform.Contracts",
                                        "Label": {
                                          "$type": "Comindware.Platform.Contracts.LabelModel, Comindware.Platform.Contracts",
                                          "Hidden": false,
                                          "Alignment": "Top",
                                          "Text": {
                                            "$type": "Comindware.Platform.Contracts.LocalizedTextModel, Comindware.Platform.Contracts",
                                            "En": "Диджитал Group Account Director",
                                            "De": "Диджитал Group Account Director",
                                            "Ru": "Диджитал Group Account Director"
                                          }
                                        },
                                        "FieldType": "Member",
                                        "Placeholder": {
                                          "$type": "Comindware.Platform.Contracts.LocalizedTextModel, Comindware.Platform.Contracts"
                                        },
                                        "HelpText": {
                                          "$type": "Comindware.Platform.Contracts.LocalizedTextModel, Comindware.Platform.Contracts"
                                        },
                                        "PropertyPath": {
                                          "$type": "Comindware.Platform.Contracts.GlobalAlias[], Comindware.Platform.Contracts",
                                          "$values": [
                                            {
                                              "$type": "Comindware.Platform.Contracts.GlobalAlias, Comindware.Platform.Contracts",
                                              "Type": "Attribute",
                                              "Owner": "Kontragenty",
                                              "Alias": "DigitalGroupAccountDirector"
                                            }
                                          ]
                                        },
                                        "EditorType": "Radio",
                                        "CreationType": "None",
                                        "RemovalType": "None",
                                        "EditType": "None",
                                        "HideSearchBar": false,
                                        "ChildPropertyAlias": {
                                          "$type": "Comindware.Platform.Contracts.GlobalAlias, Comindware.Platform.Contracts",
                                          "Type": "Undefined"
                                        },
                                        "OrderPropertyAlias": {
                                          "$type": "Comindware.Platform.Contracts.GlobalAlias, Comindware.Platform.Contracts",
                                          "Type": "Undefined"
                                        },
                                        "NumberPropertyAlias": {
                                          "$type": "Comindware.Platform.Contracts.GlobalAlias, Comindware.Platform.Contracts",
                                          "Type": "Undefined"
                                        },
                                        "PrecedentPropertyAlias": {
                                          "$type": "Comindware.Platform.Contracts.GlobalAlias, Comindware.Platform.Contracts",
                                          "Type": "Undefined"
                                        },
                                        "SortingDirection": "Asc",
                                        "MaxCount": 0,
                                        "PopupFormAlias": {
                                          "$type": "Comindware.Platform.Contracts.GlobalAlias, Comindware.Platform.Contracts",
                                          "Type": "Undefined"
                                        },
                                        "DisplayFormat": "ShowAsPicture",
                                        "GlobalAlias": {
                                          "$type": "Comindware.Platform.Contracts.GlobalAlias, Comindware.Platform.Contracts",
                                          "Type": "FormComponent",
                                          "Alias": "DigitalGroupAccountDirector"
                                        },
                                        "AccessType": "Readonly",
                                        "Width": 0,
                                        "Type": "FieldComponent"
                                      },
                                      {
                                        "$type": "Comindware.Platform.Contracts.FieldComponentModel, Comindware.Platform.Contracts",
                                        "Label": {
                                          "$type": "Comindware.Platform.Contracts.LabelModel, Comindware.Platform.Contracts",
                                          "Hidden": false,
                                          "Alignment": "Top",
                                          "Text": {
                                            "$type": "Comindware.Platform.Contracts.LocalizedTextModel, Comindware.Platform.Contracts",
                                            "En": "Ответственный Digital КС",
                                            "De": "Ответственный Digital КС",
                                            "Ru": "Ответственный Digital КС"
                                          }
                                        },
                                        "FieldType": "Member",
                                        "Placeholder": {
                                          "$type": "Comindware.Platform.Contracts.LocalizedTextModel, Comindware.Platform.Contracts"
                                        },
                                        "HelpText": {
                                          "$type": "Comindware.Platform.Contracts.LocalizedTextModel, Comindware.Platform.Contracts"
                                        },
                                        "PropertyPath": {
                                          "$type": "Comindware.Platform.Contracts.GlobalAlias[], Comindware.Platform.Contracts",
                                          "$values": [
                                            {
                                              "$type": "Comindware.Platform.Contracts.GlobalAlias, Comindware.Platform.Contracts",
                                              "Type": "Attribute",
                                              "Owner": "Kontragenty",
                                              "Alias": "DidzhitalKS"
                                            }
                                          ]
                                        },
                                        "EditorType": "Radio",
                                        "CreationType": "None",
                                        "RemovalType": "None",
                                        "EditType": "None",
                                        "ValueFilterExpression": "from a in db->Organizatsionnoshtatnayastruktura where OR(a->Sotrudnik == $DidzhitalGH,a->RukovoditelRef->Sotrudnik == $DidzhitalGH) select a->Sotrudnik",
                                        "HideSearchBar": false,
                                        "ChildPropertyAlias": {
                                          "$type": "Comindware.Platform.Contracts.GlobalAlias, Comindware.Platform.Contracts",
                                          "Type": "Undefined"
                                        },
                                        "OrderPropertyAlias": {
                                          "$type": "Comindware.Platform.Contracts.GlobalAlias, Comindware.Platform.Contracts",
                                          "Type": "Undefined"
                                        },
                                        "NumberPropertyAlias": {
                                          "$type": "Comindware.Platform.Contracts.GlobalAlias, Comindware.Platform.Contracts",
                                          "Type": "Undefined"
                                        },
                                        "PrecedentPropertyAlias": {
                                          "$type": "Comindware.Platform.Contracts.GlobalAlias, Comindware.Platform.Contracts",
                                          "Type": "Undefined"
                                        },
                                        "SortingDirection": "Asc",
                                        "MaxCount": 0,
                                        "PopupFormAlias": {
                                          "$type": "Comindware.Platform.Contracts.GlobalAlias, Comindware.Platform.Contracts",
                                          "Type": "Undefined"
                                        },
                                        "DisplayFormat": "ShowAsPicture",
                                        "GlobalAlias": {
                                          "$type": "Comindware.Platform.Contracts.GlobalAlias, Comindware.Platform.Contracts",
                                          "Type": "FormComponent",
                                          "Alias": "DidzhitalKS2"
                                        },
                                        "AccessType": "Required",
                                        "Width": 0,
                                        "Type": "FieldComponent"
                                      }
                                    ]
                                  },
                                  "GlobalAlias": {
                                    "$type": "Comindware.Platform.Contracts.GlobalAlias, Comindware.Platform.Contracts",
                                    "Type": "FormComponent",
                                    "Alias": "VerticalLayout4"
                                  },
                                  "AccessType": "Undefined",
                                  "Width": 50,
                                  "Type": "VerticalLayout"
                                }
                              ]
                            },
                            "OriginalType": "HorizontalLayout",
                            "GlobalAlias": {
                              "$type": "Comindware.Platform.Contracts.GlobalAlias, Comindware.Platform.Contracts",
                              "Type": "FormComponent",
                              "Alias": "HorizontalLayout"
                            },
                            "AccessType": "Undefined",
                            "Width": 0,
                            "Type": "LayoutModel"
                          },
                          {
                            "$type": "Comindware.Platform.Contracts.FieldComponentModel, Comindware.Platform.Contracts",
                            "Label": {
                              "$type": "Comindware.Platform.Contracts.LabelModel, Comindware.Platform.Contracts",
                              "Hidden": false,
                              "Alignment": "Top",
                              "Text": {
                                "$type": "Comindware.Platform.Contracts.LocalizedTextModel, Comindware.Platform.Contracts",
                                "En": "Рабочая Digital группа",
                                "De": "Рабочая Digital группа",
                                "Ru": "Рабочая Digital группа"
                              }
                            },
                            "FieldType": "Member",
                            "Placeholder": {
                              "$type": "Comindware.Platform.Contracts.LocalizedTextModel, Comindware.Platform.Contracts"
                            },
                            "HelpText": {
                              "$type": "Comindware.Platform.Contracts.LocalizedTextModel, Comindware.Platform.Contracts"
                            },
                            "PropertyPath": {
                              "$type": "Comindware.Platform.Contracts.GlobalAlias[], Comindware.Platform.Contracts",
                              "$values": [
                                {
                                  "$type": "Comindware.Platform.Contracts.GlobalAlias, Comindware.Platform.Contracts",
                                  "Type": "Attribute",
                                  "Owner": "Kontragenty",
                                  "Alias": "Rabochayagruppadidzhital"
                                }
                              ]
                            },
                            "EditorType": "Radio",
                            "CreationType": "None",
                            "RemovalType": "None",
                            "EditType": "None",
                            "ValueFilterExpression": "from a in db->Organizatsionnoshtatnayastruktura where OR(a->Sotrudnik == $DidzhitalGH,a->RukovoditelRef->Sotrudnik == $DidzhitalGH) select a->Sotrudnik",
                            "HideSearchBar": false,
                            "ChildPropertyAlias": {
                              "$type": "Comindware.Platform.Contracts.GlobalAlias, Comindware.Platform.Contracts",
                              "Type": "Undefined"
                            },
                            "OrderPropertyAlias": {
                              "$type": "Comindware.Platform.Contracts.GlobalAlias, Comindware.Platform.Contracts",
                              "Type": "Undefined"
                            },
                            "NumberPropertyAlias": {
                              "$type": "Comindware.Platform.Contracts.GlobalAlias, Comindware.Platform.Contracts",
                              "Type": "Undefined"
                            },
                            "PrecedentPropertyAlias": {
                              "$type": "Comindware.Platform.Contracts.GlobalAlias, Comindware.Platform.Contracts",
                              "Type": "Undefined"
                            },
                            "SortingDirection": "Asc",
                            "MaxCount": 0,
                            "PopupFormAlias": {
                              "$type": "Comindware.Platform.Contracts.GlobalAlias, Comindware.Platform.Contracts",
                              "Type": "Undefined"
                            },
                            "DisplayFormat": "ShowAsPicture",
                            "GlobalAlias": {
                              "$type": "Comindware.Platform.Contracts.GlobalAlias, Comindware.Platform.Contracts",
                              "Type": "FormComponent",
                              "Alias": "Rabochayagruppadidzhital"
                            },
                            "AccessType": "Editable",
                            "Width": 0,
                            "Type": "FieldComponent"
                          }
                        ]
                      },
                      "GlobalAlias": {
                        "$type": "Comindware.Platform.Contracts.GlobalAlias, Comindware.Platform.Contracts",
                        "Type": "FormComponent",
                        "Alias": "VerticalLayout2"
                      },
                      "AccessType": "Undefined",
                      "Width": 0,
                      "Type": "VerticalLayout"
                    }
                  ]
                },
                "GlobalAlias": {
                  "$type": "Comindware.Platform.Contracts.GlobalAlias, Comindware.Platform.Contracts",
                  "Type": "FormComponent",
                  "Alias": "GroupPanelComponent2"
                },
                "AccessType": "Editable",
                "Width": 65,
                "Type": "PanelModel"
              }
            ]
          },
          "OriginalType": "HorizontalLayout",
          "GlobalAlias": {
            "$type": "Comindware.Platform.Contracts.GlobalAlias, Comindware.Platform.Contracts",
            "Type": "FormComponent",
            "Alias": "HorizontalLayout3"
          },
          "AccessType": "Undefined",
          "Width": 0,
          "Type": "LayoutModel"
        }
      ]
    },
    "GlobalAlias": {
      "$type": "Comindware.Platform.Contracts.GlobalAlias, Comindware.Platform.Contracts",
      "Type": "FormComponent",
      "Alias": "root"
    },
    "AccessType": "Undefined",
    "Width": 0,
    "Type": "VerticalLayout"
  },
  "Name": "Форма для назначения  Digital ответственных 2",
  "FormRules": {
    "$type": "System.Collections.Generic.List`1[[Comindware.Platform.Contracts.FormRuleModel, Comindware.Platform.Contracts]], mscorlib",
    "$values": [
      {
        "$type": "Comindware.Platform.Contracts.FormRuleModel, Comindware.Platform.Contracts",
        "RuleName": "Правило",
        "ConditionExpression": "false"
      },
      {
        "$type": "Comindware.Platform.Contracts.FormRuleModel, Comindware.Platform.Contracts",
        "RuleName": "Правило",
        "ConditionExpression": "false",
        "Actions": {
          "$type": "System.Collections.Generic.List`1[[Comindware.Platform.Contracts.RuleActionModel, Comindware.Platform.Contracts]], mscorlib",
          "$values": [
            {
              "$type": "Comindware.Platform.Contracts.RuleActionModel, Comindware.Platform.Contracts",
              "GlobalAlias": {
                "$type": "Comindware.Platform.Contracts.GlobalAlias, Comindware.Platform.Contracts",
                "Type": "FormComponent",
                "Owner": "FormadlyanaznacheniyaDigitalotvetstvennykh2",
                "Alias": "DidzhitalGH"
              },
              "Type": "SetAccessType",
              "ValueExpression": "CONST('Required')",
              "ConditionExpression": "$Status->Kod == \"dggroupheadassignment\"",
              "Severity": "Error"
            },
            {
              "$type": "Comindware.Platform.Contracts.RuleActionModel, Comindware.Platform.Contracts",
              "GlobalAlias": {
                "$type": "Comindware.Platform.Contracts.GlobalAlias, Comindware.Platform.Contracts",
                "Type": "FormComponent",
                "Owner": "FormadlyanaznacheniyaDigitalotvetstvennykh2",
                "Alias": "DidzhitalKS2"
              },
              "Type": "SetAccessType",
              "ValueExpression": "CONST('Required')",
              "ConditionExpression": "$Status->Kod == \"dgmanagerassignment\"",
              "Severity": "Error"
            },
            {
              "$type": "Comindware.Platform.Contracts.RuleActionModel, Comindware.Platform.Contracts",
              "GlobalAlias": {
                "$type": "Comindware.Platform.Contracts.GlobalAlias, Comindware.Platform.Contracts",
                "Type": "FormComponent",
                "Owner": "FormadlyanaznacheniyaDigitalotvetstvennykh2",
                "Alias": "Rabochayagruppadidzhital"
              },
              "Type": "SetAccessType",
              "ValueExpression": "CONST('Required')",
              "ConditionExpression": "$Status->Kod == \"dgmanagerassignment\"",
              "Severity": "Error"
            }
          ]
        }
      }
    ]
  },
  "Origination": "Undefined"
}