{
  "$type": "Comindware.Platform.Contracts.Models.Triggers.EventTrigger.TriggerModel, Comindware.Platform.Contracts",
  "GlobalAlias": {
    "$type": "Comindware.Platform.Contracts.GlobalAlias, Comindware.Platform.Contracts",
    "Type": "Trigger",
    "Alias": "PrisozdaniiMPsozdatshevrony"
  },
  "Name": "При создании МП создать шевроны",
  "ExecutionContext": "ByInitiator",
  "BehaviourState": "Suspend",
  "ActionsHead": {
    "$type": "Comindware.Platform.Contracts.Models.Triggers.EventTrigger.OnRecordCreate, Comindware.Platform.Contracts",
    "Kind": "OnRecordCreate",
    "Uid": "e0b521d5-e560-4afc-b2b6-e571dbd08226",
    "Name": "При создании записи для Медиапланы",
    "GlobalAlias": {
      "$type": "Comindware.Platform.Contracts.GlobalAlias, Comindware.Platform.Contracts",
      "Type": "TriggerEvent",
      "Alias": "e0b521d5-e560-4afc-b2b6-e571dbd08226"
    },
    "Description": "а",
    "Scope": {
      "$type": "System.Nullable`1[[Comindware.Platform.Contracts.GlobalAlias, Comindware.Platform.Contracts]], mscorlib",
      "Type": "RecordTemplate",
      "Alias": "Mediaplany"
    },
    "NextAction": {
      "$type": "Comindware.Platform.Contracts.Models.Triggers.EventTrigger.ReferenceObjectChange, Comindware.Platform.Contracts",
      "TargetContainer": {
        "$type": "System.Nullable`1[[Comindware.Platform.Contracts.GlobalAlias, Comindware.Platform.Contracts]], mscorlib",
        "Type": "RecordTemplate",
        "Alias": "Statusymediaplana"
      },
      "ReferenceExpression": "from a in db->Statusymediaplana where NOT(EMPTY(a->Nomeretapa)) select a->id",
      "Kind": "ReferenceObjectChange",
      "Uid": "72783ac8-4b75-4fbf-a8cf-7c1a85fbb453",
      "Name": "Перейти к из шаблона Медиапланы в шаблон Статусы медиаплана по выражению from a in db->Statusymediaplana where NOT(EMPTY(a->Nomeretapa)) select a->id",
      "GlobalAlias": {
        "$type": "Comindware.Platform.Contracts.GlobalAlias, Comindware.Platform.Contracts",
        "Type": "TriggerAction",
        "Alias": "72783ac8-4b75-4fbf-a8cf-7c1a85fbb453"
      },
      "Description": "п",
      "Scope": {
        "$type": "System.Nullable`1[[Comindware.Platform.Contracts.GlobalAlias, Comindware.Platform.Contracts]], mscorlib",
        "Type": "RecordTemplate",
        "Alias": "Mediaplany"
      },
      "SubAction": {
        "$type": "Comindware.Platform.Contracts.Models.Triggers.EventTrigger.ReferenceObjectCreate, Comindware.Platform.Contracts",
        "Property": {
          "$type": "System.Nullable`1[[Comindware.Platform.Contracts.GlobalAlias, Comindware.Platform.Contracts]], mscorlib",
          "Type": "Attribute",
          "Owner": "Statusymediaplana",
          "Alias": "Etapymediaplanov"
        },
        "TargetContainer": {
          "$type": "System.Nullable`1[[Comindware.Platform.Contracts.GlobalAlias, Comindware.Platform.Contracts]], mscorlib",
          "Type": "RecordTemplate",
          "Alias": "Etapymediaplanov"
        },
        "SetValueKind": "Add",
        "Kind": "ReferenceObjectCreate",
        "Uid": "c137c26f-ca47-470e-9620-d9dd14b145e0",
        "Name": "Создать из шаблона Статусы медиаплана в шаблон Этапы медиапланов и добавить значение атрибута Этапы медиапланов",
        "GlobalAlias": {
          "$type": "Comindware.Platform.Contracts.GlobalAlias, Comindware.Platform.Contracts",
          "Type": "TriggerAction",
          "Alias": "c137c26f-ca47-470e-9620-d9dd14b145e0"
        },
        "Description": "g",
        "Scope": {
          "$type": "System.Nullable`1[[Comindware.Platform.Contracts.GlobalAlias, Comindware.Platform.Contracts]], mscorlib",
          "Type": "RecordTemplate",
          "Alias": "Statusymediaplana"
        },
        "SubAction": {
          "$type": "Comindware.Platform.Contracts.Models.Triggers.EventTrigger.PropertySetValueAction, Comindware.Platform.Contracts",
          "Kind": "PropertySetValue",
          "SetValueProperties": {
            "$type": "Comindware.Platform.Contracts.Models.Triggers.EventTrigger.PropertySetValue[], Comindware.Platform.Contracts",
            "$values": [
              {
                "$type": "Comindware.Platform.Contracts.Models.Triggers.EventTrigger.PropertySetValue, Comindware.Platform.Contracts",
                "SetValueKind": "Replace",
                "PropertyPath": {
                  "$type": "Comindware.Platform.Contracts.GlobalAlias[], Comindware.Platform.Contracts",
                  "$values": [
                    {
                      "$type": "Comindware.Platform.Contracts.GlobalAlias, Comindware.Platform.Contracts",
                      "Type": "Attribute",
                      "Owner": "Etapymediaplanov",
                      "Alias": "Nazvanie"
                    }
                  ]
                },
                "ValueExpression": "$Etap->Nazvanie"
              },
              {
                "$type": "Comindware.Platform.Contracts.Models.Triggers.EventTrigger.PropertySetValue, Comindware.Platform.Contracts",
                "SetValueKind": "Replace",
                "PropertyPath": {
                  "$type": "Comindware.Platform.Contracts.GlobalAlias[], Comindware.Platform.Contracts",
                  "$values": [
                    {
                      "$type": "Comindware.Platform.Contracts.GlobalAlias, Comindware.Platform.Contracts",
                      "Type": "Attribute",
                      "Owner": "Etapymediaplanov",
                      "Alias": "Nomer"
                    }
                  ]
                },
                "ValueExpression": "$Etap->Nomeretapa"
              },
              {
                "$type": "Comindware.Platform.Contracts.Models.Triggers.EventTrigger.PropertySetValue, Comindware.Platform.Contracts",
                "SetValueKind": "Replace",
                "PropertyPath": {
                  "$type": "Comindware.Platform.Contracts.GlobalAlias[], Comindware.Platform.Contracts",
                  "$values": [
                    {
                      "$type": "Comindware.Platform.Contracts.GlobalAlias, Comindware.Platform.Contracts",
                      "Type": "Attribute",
                      "Owner": "Etapymediaplanov",
                      "Alias": "Mediaplan"
                    }
                  ]
                },
                "ValueExpression": "@prefix cmwsession: <http://comindware.com/ontology/session#>.\n@prefix var: <http://comindware.com/ontology/session/variable#>.\n{\ncmwsession:context cmwsession:origin ?value.\n}"
              }
            ]
          },
          "Uid": "e5a85d37-803b-4fa0-a00d-337059ba7292",
          "Name": "Измeнить значения для Этапы медиапланов",
          "GlobalAlias": {
            "$type": "Comindware.Platform.Contracts.GlobalAlias, Comindware.Platform.Contracts",
            "Type": "TriggerAction",
            "Alias": "e5a85d37-803b-4fa0-a00d-337059ba7292"
          },
          "Description": "п",
          "Scope": {
            "$type": "System.Nullable`1[[Comindware.Platform.Contracts.GlobalAlias, Comindware.Platform.Contracts]], mscorlib",
            "Type": "RecordTemplate",
            "Alias": "Etapymediaplanov"
          }
        }
      }
    }
  }
}