{
  "$type": "Comindware.Platform.Contracts.Models.Triggers.EventTrigger.TriggerModel, Comindware.Platform.Contracts",
  "GlobalAlias": {
    "$type": "Comindware.Platform.Contracts.GlobalAlias, Comindware.Platform.Contracts",
    "Type": "Trigger",
    "Alias": "TokenLeaves_userTask13_Process_Soglasovanieprilozheniya_V54_1_9487c0"
  },
  "Name": "Выход токена из элемента «Оформить заявку на доставку документов» процесса «Согласование приложения»",
  "ExecutionContext": "ByInitiator",
  "Description": "Сценарий при выходе токена из элемента «Оформить заявку на доставку документов» <userTask13>, процесс «Согласование приложения» <Soglasovanieprilozheniya>",
  "BehaviourState": "Active",
  "ActionsHead": {
    "$type": "Comindware.Platform.Contracts.Models.Triggers.EventTrigger.OnProcessActivityExit, Comindware.Platform.Contracts",
    "Activity": {
      "$type": "System.Nullable`1[[Comindware.Platform.Contracts.GlobalAlias, Comindware.Platform.Contracts]], mscorlib",
      "Type": "GlobalActivity",
      "Owner": "Soglasovanieprilozheniya",
      "Alias": "userTask13"
    },
    "Kind": "OnProcessActivityExit",
    "Uid": "7b2025720d8f43f490375191250890a1",
    "Name": "Токен вышел из элемента «Оформить заявку на доставку документов»",
    "GlobalAlias": {
      "$type": "Comindware.Platform.Contracts.GlobalAlias, Comindware.Platform.Contracts",
      "Type": "TriggerEvent",
      "Alias": "7b2025720d8f43f490375191250890a1"
    },
    "Description": "Токен вышел из элемента «Оформить заявку на доставку документов» <userTask13>, процесс «Согласование приложения» <Soglasovanieprilozheniya>",
    "Scope": {
      "$type": "System.Nullable`1[[Comindware.Platform.Contracts.GlobalAlias, Comindware.Platform.Contracts]], mscorlib",
      "Type": "ProcessTemplate",
      "Alias": "Soglasovanieprilozheniya"
    },
    "NextAction": {
      "$type": "Comindware.Platform.Contracts.Models.Triggers.EventTrigger.ReferenceObjectChange, Comindware.Platform.Contracts",
      "TargetContainer": {
        "$type": "System.Nullable`1[[Comindware.Platform.Contracts.GlobalAlias, Comindware.Platform.Contracts]], mscorlib",
        "Type": "RecordTemplate",
        "Alias": "Prilozheniyakdogovoram"
      },
      "ReferenceExpression": "$$BusinessObject",
      "Kind": "ReferenceObjectChange",
      "Uid": "48ad9767631d4f9e85b3099431a8535b",
      "GlobalAlias": {
        "$type": "Comindware.Platform.Contracts.GlobalAlias, Comindware.Platform.Contracts",
        "Type": "TriggerAction",
        "Alias": "48ad9767631d4f9e85b3099431a8535b"
      },
      "Scope": {
        "$type": "System.Nullable`1[[Comindware.Platform.Contracts.GlobalAlias, Comindware.Platform.Contracts]], mscorlib",
        "Type": "ProcessTemplate",
        "Alias": "Soglasovanieprilozheniya"
      }
    }
  }
}