{
  "$type": "Comindware.Platform.Contracts.Models.Triggers.EventTrigger.TriggerModel, Comindware.Platform.Contracts",
  "GlobalAlias": {
    "$type": "Comindware.Platform.Contracts.GlobalAlias, Comindware.Platform.Contracts",
    "Type": "Trigger",
    "Alias": "TokenLeaves_noneStartEvent1_Process_ProvedeniezakupkiAKhO_V1_1_306ee6"
  },
  "Name": "Выход токена из элемента «noneStartEvent1» процесса «Проведение закупки АХО»",
  "ExecutionContext": "ByInitiator",
  "Description": "Сценарий при выходе токена из элемента «noneStartEvent1» <noneStartEvent1>, процесс «Проведение закупки АХО» <ProvedeniezakupkiAKhO>",
  "BehaviourState": "Active",
  "ActionsHead": {
    "$type": "Comindware.Platform.Contracts.Models.Triggers.EventTrigger.OnProcessActivityExit, Comindware.Platform.Contracts",
    "Activity": {
      "$type": "System.Nullable`1[[Comindware.Platform.Contracts.GlobalAlias, Comindware.Platform.Contracts]], mscorlib",
      "Type": "GlobalActivity",
      "Owner": "ProvedeniezakupkiAKhO",
      "Alias": "noneStartEvent1"
    },
    "Kind": "OnProcessActivityExit",
    "Uid": "ae713b8c831449e7bc949c6dd4e2ebf0",
    "Name": "Токен вышел из элемента «»",
    "GlobalAlias": {
      "$type": "Comindware.Platform.Contracts.GlobalAlias, Comindware.Platform.Contracts",
      "Type": "TriggerEvent",
      "Alias": "ae713b8c831449e7bc949c6dd4e2ebf0"
    },
    "Description": "Токен вышел из элемента «» <noneStartEvent1>, процесс «Проведение закупки АХО» <ProvedeniezakupkiAKhO>",
    "Scope": {
      "$type": "System.Nullable`1[[Comindware.Platform.Contracts.GlobalAlias, Comindware.Platform.Contracts]], mscorlib",
      "Type": "ProcessTemplate",
      "Alias": "ProvedeniezakupkiAKhO"
    },
    "NextAction": {
      "$type": "Comindware.Platform.Contracts.Models.Triggers.EventTrigger.ReferenceObjectChange, Comindware.Platform.Contracts",
      "TargetContainer": {
        "$type": "System.Nullable`1[[Comindware.Platform.Contracts.GlobalAlias, Comindware.Platform.Contracts]], mscorlib",
        "Type": "RecordTemplate",
        "Alias": "ZakupkiAKhO"
      },
      "ReferenceExpression": "$$BusinessObject",
      "Kind": "ReferenceObjectChange",
      "Uid": "a5a6999b2e3f43d19f32f46afe99a0a1",
      "GlobalAlias": {
        "$type": "Comindware.Platform.Contracts.GlobalAlias, Comindware.Platform.Contracts",
        "Type": "TriggerAction",
        "Alias": "a5a6999b2e3f43d19f32f46afe99a0a1"
      },
      "Scope": {
        "$type": "System.Nullable`1[[Comindware.Platform.Contracts.GlobalAlias, Comindware.Platform.Contracts]], mscorlib",
        "Type": "ProcessTemplate",
        "Alias": "ProvedeniezakupkiAKhO"
      }
    }
  }
}