{
  "$type": "Comindware.Platform.Contracts.Models.Triggers.EventTrigger.TriggerModel, Comindware.Platform.Contracts",
  "GlobalAlias": {
    "$type": "Comindware.Platform.Contracts.GlobalAlias, Comindware.Platform.Contracts",
    "Type": "Trigger",
    "Alias": "TokenEnters_noneEndEvent1_Process_SoglasovaniemediaplananaTV_V39_0_fb57e8"
  },
  "Name": "TokenEnters_noneEndEvent1_Process_SoglasovaniemediaplananaTV_V39_0_fb57e8",
  "ExecutionContext": "ByInitiator",
  "BehaviourState": "Active",
  "ActionsHead": {
    "$type": "Comindware.Platform.Contracts.Models.Triggers.EventTrigger.OnProcessActivityEntry, Comindware.Platform.Contracts",
    "Activity": {
      "$type": "System.Nullable`1[[Comindware.Platform.Contracts.GlobalAlias, Comindware.Platform.Contracts]], mscorlib",
      "Type": "GlobalActivity",
      "Owner": "SoglasovaniemediaplananaTV",
      "Alias": "noneEndEvent1"
    },
    "Kind": "OnProcessActivityEntry",
    "Uid": "490a788e-4a2d-47b5-ab0d-17a839fc2bdb",
    "Name": "Вход токена в элемент «noneEndEvent1» процесса «Согласование медиаплана на ТВ (не используется!)»",
    "GlobalAlias": {
      "$type": "Comindware.Platform.Contracts.GlobalAlias, Comindware.Platform.Contracts",
      "Type": "TriggerEvent",
      "Alias": "490a788e-4a2d-47b5-ab0d-17a839fc2bdb"
    },
    "Description": "Сценарий при входе токена в элемент «noneEndEvent1» <noneEndEvent1>, процесс «Согласование медиаплана на ТВ (не используется!)» <SoglasovaniemediaplananaTV>",
    "Scope": {
      "$type": "System.Nullable`1[[Comindware.Platform.Contracts.GlobalAlias, Comindware.Platform.Contracts]], mscorlib",
      "Type": "ProcessTemplate",
      "Alias": "SoglasovaniemediaplananaTV"
    },
    "NextAction": {
      "$type": "Comindware.Platform.Contracts.Models.Triggers.EventTrigger.ReferenceObjectChange, Comindware.Platform.Contracts",
      "TargetContainer": {
        "$type": "System.Nullable`1[[Comindware.Platform.Contracts.GlobalAlias, Comindware.Platform.Contracts]], mscorlib",
        "Type": "RecordTemplate",
        "Alias": "Mediaplany"
      },
      "ReferenceExpression": "$$BusinessObject",
      "Kind": "ReferenceObjectChange",
      "Uid": "18654dd8-b4d5-4661-9905-ea8356c233bc",
      "GlobalAlias": {
        "$type": "Comindware.Platform.Contracts.GlobalAlias, Comindware.Platform.Contracts",
        "Type": "TriggerAction",
        "Alias": "18654dd8-b4d5-4661-9905-ea8356c233bc"
      },
      "Description": "description",
      "Scope": {
        "$type": "System.Nullable`1[[Comindware.Platform.Contracts.GlobalAlias, Comindware.Platform.Contracts]], mscorlib",
        "Type": "ProcessTemplate",
        "Alias": "SoglasovaniemediaplananaTV"
      },
      "SubAction": {
        "$type": "Comindware.Platform.Contracts.Models.Triggers.EventTrigger.PropertySetValueAction, Comindware.Platform.Contracts",
        "Kind": "PropertySetValue",
        "SetValueProperties": {
          "$type": "Comindware.Platform.Contracts.Models.Triggers.EventTrigger.PropertySetValue[], Comindware.Platform.Contracts",
          "$values": [
            {
              "$type": "Comindware.Platform.Contracts.Models.Triggers.EventTrigger.PropertySetValue, Comindware.Platform.Contracts",
              "SetValueKind": "Replace",
              "PropertyPath": {
                "$type": "Comindware.Platform.Contracts.GlobalAlias[], Comindware.Platform.Contracts",
                "$values": [
                  {
                    "$type": "Comindware.Platform.Contracts.GlobalAlias, Comindware.Platform.Contracts",
                    "Type": "Attribute",
                    "Owner": "Mediaplany",
                    "Alias": "Status"
                  }
                ]
              },
              "ValueExpression": "ID(58707)"
            }
          ]
        },
        "Uid": "ac545a14-4a81-4cf7-aed6-69f1267bbff1",
        "GlobalAlias": {
          "$type": "Comindware.Platform.Contracts.GlobalAlias, Comindware.Platform.Contracts",
          "Type": "TriggerAction",
          "Alias": "ac545a14-4a81-4cf7-aed6-69f1267bbff1"
        },
        "Scope": {
          "$type": "System.Nullable`1[[Comindware.Platform.Contracts.GlobalAlias, Comindware.Platform.Contracts]], mscorlib",
          "Type": "RecordTemplate",
          "Alias": "Mediaplany"
        }
      }
    }
  }
}