{
  "$type": "Comindware.Platform.Contracts.Models.Triggers.EventTrigger.TriggerModel, Comindware.Platform.Contracts",
  "GlobalAlias": {
    "$type": "Comindware.Platform.Contracts.GlobalAlias, Comindware.Platform.Contracts",
    "Type": "Trigger",
    "Alias": "TokenEnters_noneEndEvent1_Process_Soglasovaniemediaplananaruzhnayareklama_V42_0_b4cf71"
  },
  "Name": "TokenEnters_noneEndEvent1_Process_Soglasovaniemediaplananaruzhnayareklama_V42_0_b4cf71",
  "ExecutionContext": "ByInitiator",
  "BehaviourState": "Active",
  "ActionsHead": {
    "$type": "Comindware.Platform.Contracts.Models.Triggers.EventTrigger.OnProcessActivityEntry, Comindware.Platform.Contracts",
    "Activity": {
      "$type": "System.Nullable`1[[Comindware.Platform.Contracts.GlobalAlias, Comindware.Platform.Contracts]], mscorlib",
      "Type": "GlobalActivity",
      "Owner": "Soglasovaniemediaplananaruzhnayareklama",
      "Alias": "noneEndEvent1"
    },
    "Kind": "OnProcessActivityEntry",
    "Uid": "59744e31-d4bb-4d3c-93cf-02c9ce8264e1",
    "Name": "Вход токена в элемент «noneEndEvent1» процесса «Согласование медиаплана ТВ/наружка»",
    "GlobalAlias": {
      "$type": "Comindware.Platform.Contracts.GlobalAlias, Comindware.Platform.Contracts",
      "Type": "TriggerEvent",
      "Alias": "59744e31-d4bb-4d3c-93cf-02c9ce8264e1"
    },
    "Description": "Сценарий при входе токена в элемент «noneEndEvent1» <noneEndEvent1>, процесс «Согласование медиаплана ТВ/наружка» <Soglasovaniemediaplananaruzhnayareklama>",
    "Scope": {
      "$type": "System.Nullable`1[[Comindware.Platform.Contracts.GlobalAlias, Comindware.Platform.Contracts]], mscorlib",
      "Type": "ProcessTemplate",
      "Alias": "Soglasovaniemediaplananaruzhnayareklama"
    },
    "NextAction": {
      "$type": "Comindware.Platform.Contracts.Models.Triggers.EventTrigger.ReferenceObjectChange, Comindware.Platform.Contracts",
      "TargetContainer": {
        "$type": "System.Nullable`1[[Comindware.Platform.Contracts.GlobalAlias, Comindware.Platform.Contracts]], mscorlib",
        "Type": "RecordTemplate",
        "Alias": "Mediaplany"
      },
      "ReferenceExpression": "$$BusinessObject",
      "Kind": "ReferenceObjectChange",
      "Uid": "78b298c9-f776-4b3a-a242-d1e593556b13",
      "GlobalAlias": {
        "$type": "Comindware.Platform.Contracts.GlobalAlias, Comindware.Platform.Contracts",
        "Type": "TriggerAction",
        "Alias": "78b298c9-f776-4b3a-a242-d1e593556b13"
      },
      "Description": "description",
      "Scope": {
        "$type": "System.Nullable`1[[Comindware.Platform.Contracts.GlobalAlias, Comindware.Platform.Contracts]], mscorlib",
        "Type": "ProcessTemplate",
        "Alias": "Soglasovaniemediaplananaruzhnayareklama"
      },
      "SubAction": {
        "$type": "Comindware.Platform.Contracts.Models.Triggers.EventTrigger.PropertySetValueAction, Comindware.Platform.Contracts",
        "Kind": "PropertySetValue",
        "SetValueProperties": {
          "$type": "Comindware.Platform.Contracts.Models.Triggers.EventTrigger.PropertySetValue[], Comindware.Platform.Contracts",
          "$values": [
            {
              "$type": "Comindware.Platform.Contracts.Models.Triggers.EventTrigger.PropertySetValue, Comindware.Platform.Contracts",
              "SetValueKind": "Replace",
              "PropertyPath": {
                "$type": "Comindware.Platform.Contracts.GlobalAlias[], Comindware.Platform.Contracts",
                "$values": [
                  {
                    "$type": "Comindware.Platform.Contracts.GlobalAlias, Comindware.Platform.Contracts",
                    "Type": "Attribute",
                    "Owner": "Mediaplany",
                    "Alias": "Status"
                  }
                ]
              },
              "ValueExpression": "ID(58707)"
            }
          ]
        },
        "Uid": "70379143-e0e6-426b-aefb-801156c9ddcd",
        "GlobalAlias": {
          "$type": "Comindware.Platform.Contracts.GlobalAlias, Comindware.Platform.Contracts",
          "Type": "TriggerAction",
          "Alias": "70379143-e0e6-426b-aefb-801156c9ddcd"
        },
        "Scope": {
          "$type": "System.Nullable`1[[Comindware.Platform.Contracts.GlobalAlias, Comindware.Platform.Contracts]], mscorlib",
          "Type": "RecordTemplate",
          "Alias": "Mediaplany"
        },
        "NextAction": {
          "$type": "Comindware.Platform.Contracts.Models.Triggers.EventTrigger.PropertySetValueAction, Comindware.Platform.Contracts",
          "Kind": "PropertySetValue",
          "SetValueProperties": {
            "$type": "Comindware.Platform.Contracts.Models.Triggers.EventTrigger.PropertySetValue[], Comindware.Platform.Contracts",
            "$values": [
              {
                "$type": "Comindware.Platform.Contracts.Models.Triggers.EventTrigger.PropertySetValue, Comindware.Platform.Contracts",
                "SetValueKind": "Replace",
                "PropertyPath": {
                  "$type": "Comindware.Platform.Contracts.GlobalAlias[], Comindware.Platform.Contracts",
                  "$values": [
                    {
                      "$type": "Comindware.Platform.Contracts.GlobalAlias, Comindware.Platform.Contracts",
                      "Type": "Attribute",
                      "Owner": "Mediaplany",
                      "Alias": "DorabotanoGKh"
                    }
                  ]
                },
                "ValueExpression": "False"
              }
            ]
          },
          "Uid": "f34f2ef9-8a3a-4a31-9d37-73cc690f7143",
          "GlobalAlias": {
            "$type": "Comindware.Platform.Contracts.GlobalAlias, Comindware.Platform.Contracts",
            "Type": "TriggerAction",
            "Alias": "f34f2ef9-8a3a-4a31-9d37-73cc690f7143"
          },
          "Scope": {
            "$type": "System.Nullable`1[[Comindware.Platform.Contracts.GlobalAlias, Comindware.Platform.Contracts]], mscorlib",
            "Type": "RecordTemplate",
            "Alias": "Mediaplany"
          },
          "NextAction": {
            "$type": "Comindware.Platform.Contracts.Models.Triggers.EventTrigger.PropertySetValueAction, Comindware.Platform.Contracts",
            "Kind": "PropertySetValue",
            "SetValueProperties": {
              "$type": "Comindware.Platform.Contracts.Models.Triggers.EventTrigger.PropertySetValue[], Comindware.Platform.Contracts",
              "$values": [
                {
                  "$type": "Comindware.Platform.Contracts.Models.Triggers.EventTrigger.PropertySetValue, Comindware.Platform.Contracts",
                  "SetValueKind": "Replace",
                  "PropertyPath": {
                    "$type": "Comindware.Platform.Contracts.GlobalAlias[], Comindware.Platform.Contracts",
                    "$values": [
                      {
                        "$type": "Comindware.Platform.Contracts.GlobalAlias, Comindware.Platform.Contracts",
                        "Type": "Attribute",
                        "Owner": "Mediaplany",
                        "Alias": "DorabotanoKlient"
                      }
                    ]
                  },
                  "ValueExpression": "False"
                }
              ]
            },
            "Uid": "621e3b7e-25d5-4b6b-ba27-3403317b3d91",
            "GlobalAlias": {
              "$type": "Comindware.Platform.Contracts.GlobalAlias, Comindware.Platform.Contracts",
              "Type": "TriggerAction",
              "Alias": "621e3b7e-25d5-4b6b-ba27-3403317b3d91"
            },
            "Scope": {
              "$type": "System.Nullable`1[[Comindware.Platform.Contracts.GlobalAlias, Comindware.Platform.Contracts]], mscorlib",
              "Type": "RecordTemplate",
              "Alias": "Mediaplany"
            }
          }
        }
      }
    }
  }
}