{
  "$type": "Comindware.Platform.Contracts.Models.Triggers.EventTrigger.TriggerModel, Comindware.Platform.Contracts",
  "GlobalAlias": {
    "$type": "Comindware.Platform.Contracts.GlobalAlias, Comindware.Platform.Contracts",
    "Type": "Trigger",
    "Alias": "TokenEnters_userTask4_Process_Razrabotkastrategii_V25_1_57ca6e"
  },
  "Name": "TokenEnters_userTask4_Process_Razrabotkastrategii_V25_1_57ca6e",
  "ExecutionContext": "ByInitiator",
  "BehaviourState": "Active",
  "ActionsHead": {
    "$type": "Comindware.Platform.Contracts.Models.Triggers.EventTrigger.OnProcessActivityEntry, Comindware.Platform.Contracts",
    "Activity": {
      "$type": "System.Nullable`1[[Comindware.Platform.Contracts.GlobalAlias, Comindware.Platform.Contracts]], mscorlib",
      "Type": "GlobalActivity",
      "Owner": "Razrabotkastrategii",
      "Alias": "userTask4"
    },
    "Kind": "OnProcessActivityEntry",
    "Uid": "b54acb0f-6272-40ef-9572-8c44e0aca6e7",
    "Name": "Вход токена в элемент «Согласовать стратегию» процесса «Разработка стратегии»",
    "GlobalAlias": {
      "$type": "Comindware.Platform.Contracts.GlobalAlias, Comindware.Platform.Contracts",
      "Type": "TriggerEvent",
      "Alias": "b54acb0f-6272-40ef-9572-8c44e0aca6e7"
    },
    "Description": "Сценарий при входе токена в элемент «Согласовать стратегию» <userTask4>, процесс «Разработка стратегии» <Razrabotkastrategii>",
    "Scope": {
      "$type": "System.Nullable`1[[Comindware.Platform.Contracts.GlobalAlias, Comindware.Platform.Contracts]], mscorlib",
      "Type": "ProcessTemplate",
      "Alias": "Razrabotkastrategii"
    },
    "NextAction": {
      "$type": "Comindware.Platform.Contracts.Models.Triggers.EventTrigger.ReferenceObjectChange, Comindware.Platform.Contracts",
      "TargetContainer": {
        "$type": "System.Nullable`1[[Comindware.Platform.Contracts.GlobalAlias, Comindware.Platform.Contracts]], mscorlib",
        "Type": "RecordTemplate",
        "Alias": "Strategies"
      },
      "ReferenceExpression": "$$BusinessObject",
      "Kind": "ReferenceObjectChange",
      "Uid": "3cda3c1b-ae9a-4f4e-9f24-458622e659aa",
      "GlobalAlias": {
        "$type": "Comindware.Platform.Contracts.GlobalAlias, Comindware.Platform.Contracts",
        "Type": "TriggerAction",
        "Alias": "3cda3c1b-ae9a-4f4e-9f24-458622e659aa"
      },
      "Description": "description",
      "Scope": {
        "$type": "System.Nullable`1[[Comindware.Platform.Contracts.GlobalAlias, Comindware.Platform.Contracts]], mscorlib",
        "Type": "ProcessTemplate",
        "Alias": "Razrabotkastrategii"
      },
      "SubAction": {
        "$type": "Comindware.Platform.Contracts.Models.Triggers.EventTrigger.PropertySetValueAction, Comindware.Platform.Contracts",
        "Kind": "PropertySetValue",
        "SetValueProperties": {
          "$type": "Comindware.Platform.Contracts.Models.Triggers.EventTrigger.PropertySetValue[], Comindware.Platform.Contracts",
          "$values": [
            {
              "$type": "Comindware.Platform.Contracts.Models.Triggers.EventTrigger.PropertySetValue, Comindware.Platform.Contracts",
              "SetValueKind": "Replace",
              "PropertyPath": {
                "$type": "Comindware.Platform.Contracts.GlobalAlias[], Comindware.Platform.Contracts",
                "$values": [
                  {
                    "$type": "Comindware.Platform.Contracts.GlobalAlias, Comindware.Platform.Contracts",
                    "Type": "Attribute",
                    "Owner": "Strategies",
                    "Alias": "Soglasovanaklientom"
                  }
                ]
              },
              "ValueExpression": "$Pustayassylka"
            }
          ]
        },
        "Uid": "de186f64-f044-47cc-8dbc-584f5c3e2f62",
        "GlobalAlias": {
          "$type": "Comindware.Platform.Contracts.GlobalAlias, Comindware.Platform.Contracts",
          "Type": "TriggerAction",
          "Alias": "de186f64-f044-47cc-8dbc-584f5c3e2f62"
        },
        "Scope": {
          "$type": "System.Nullable`1[[Comindware.Platform.Contracts.GlobalAlias, Comindware.Platform.Contracts]], mscorlib",
          "Type": "RecordTemplate",
          "Alias": "Strategies"
        },
        "NextAction": {
          "$type": "Comindware.Platform.Contracts.Models.Triggers.EventTrigger.PropertySetValueAction, Comindware.Platform.Contracts",
          "Kind": "PropertySetValue",
          "SetValueProperties": {
            "$type": "Comindware.Platform.Contracts.Models.Triggers.EventTrigger.PropertySetValue[], Comindware.Platform.Contracts",
            "$values": [
              {
                "$type": "Comindware.Platform.Contracts.Models.Triggers.EventTrigger.PropertySetValue, Comindware.Platform.Contracts",
                "SetValueKind": "Replace",
                "PropertyPath": {
                  "$type": "Comindware.Platform.Contracts.GlobalAlias[], Comindware.Platform.Contracts",
                  "$values": [
                    {
                      "$type": "Comindware.Platform.Contracts.GlobalAlias, Comindware.Platform.Contracts",
                      "Type": "Attribute",
                      "Owner": "Strategies",
                      "Alias": "Status"
                    }
                  ]
                },
                "ValueExpression": "ID(52274)"
              }
            ]
          },
          "Uid": "d9962cdf-ca22-49df-9e72-18bb6966e579",
          "GlobalAlias": {
            "$type": "Comindware.Platform.Contracts.GlobalAlias, Comindware.Platform.Contracts",
            "Type": "TriggerAction",
            "Alias": "d9962cdf-ca22-49df-9e72-18bb6966e579"
          },
          "Scope": {
            "$type": "System.Nullable`1[[Comindware.Platform.Contracts.GlobalAlias, Comindware.Platform.Contracts]], mscorlib",
            "Type": "RecordTemplate",
            "Alias": "Strategies"
          }
        }
      }
    }
  }
}