{
  "$type": "Comindware.Platform.Contracts.Models.Triggers.EventTrigger.TriggerModel, Comindware.Platform.Contracts",
  "GlobalAlias": {
    "$type": "Comindware.Platform.Contracts.GlobalAlias, Comindware.Platform.Contracts",
    "Type": "Trigger",
    "Alias": "TokenEnters_userTask10_Process_Formirovaniedopsoglasheniya_V27_1_ac21dd"
  },
  "Name": "TokenEnters_userTask10_Process_Formirovaniedopsoglasheniya_V27_1_293087",
  "ExecutionContext": "ByInitiator",
  "BehaviourState": "Active",
  "ActionsHead": {
    "$type": "Comindware.Platform.Contracts.Models.Triggers.EventTrigger.OnProcessActivityEntry, Comindware.Platform.Contracts",
    "Activity": {
      "$type": "System.Nullable`1[[Comindware.Platform.Contracts.GlobalAlias, Comindware.Platform.Contracts]], mscorlib",
      "Type": "GlobalActivity",
      "Owner": "Formirovaniedopsoglasheniya",
      "Alias": "userTask10"
    },
    "Kind": "OnProcessActivityEntry",
    "Uid": "6d1db23b5e8e4cfc96ccc1613e1e5f22",
    "Name": "Вход токена в элемент «Доработать ДСП» процесса «Согласование доп. соглашения»",
    "GlobalAlias": {
      "$type": "Comindware.Platform.Contracts.GlobalAlias, Comindware.Platform.Contracts",
      "Type": "TriggerEvent",
      "Alias": "6d1db23b5e8e4cfc96ccc1613e1e5f22"
    },
    "Description": "Сценарий при входе токена в элемент «Доработать ДСП» <userTask10>, процесс «Согласование доп. соглашения» <Formirovaniedopsoglasheniya>",
    "Scope": {
      "$type": "System.Nullable`1[[Comindware.Platform.Contracts.GlobalAlias, Comindware.Platform.Contracts]], mscorlib",
      "Type": "ProcessTemplate",
      "Alias": "Formirovaniedopsoglasheniya"
    },
    "NextAction": {
      "$type": "Comindware.Platform.Contracts.Models.Triggers.EventTrigger.ReferenceObjectChange, Comindware.Platform.Contracts",
      "TargetContainer": {
        "$type": "System.Nullable`1[[Comindware.Platform.Contracts.GlobalAlias, Comindware.Platform.Contracts]], mscorlib",
        "Type": "RecordTemplate",
        "Alias": "Dopsoglasheniya"
      },
      "ReferenceExpression": "$$BusinessObject",
      "Kind": "ReferenceObjectChange",
      "Uid": "1e6c4d9a594845e9baf68d865eebaa12",
      "GlobalAlias": {
        "$type": "Comindware.Platform.Contracts.GlobalAlias, Comindware.Platform.Contracts",
        "Type": "TriggerAction",
        "Alias": "1e6c4d9a594845e9baf68d865eebaa12"
      },
      "Description": "description",
      "Scope": {
        "$type": "System.Nullable`1[[Comindware.Platform.Contracts.GlobalAlias, Comindware.Platform.Contracts]], mscorlib",
        "Type": "ProcessTemplate",
        "Alias": "Formirovaniedopsoglasheniya"
      },
      "SubAction": {
        "$type": "Comindware.Platform.Contracts.Models.Triggers.EventTrigger.PropertySetValueAction, Comindware.Platform.Contracts",
        "Kind": "PropertySetValue",
        "SetValueProperties": {
          "$type": "Comindware.Platform.Contracts.Models.Triggers.EventTrigger.PropertySetValue[], Comindware.Platform.Contracts",
          "$values": [
            {
              "$type": "Comindware.Platform.Contracts.Models.Triggers.EventTrigger.PropertySetValue, Comindware.Platform.Contracts",
              "SetValueKind": "Replace",
              "PropertyPath": {
                "$type": "Comindware.Platform.Contracts.GlobalAlias[], Comindware.Platform.Contracts",
                "$values": [
                  {
                    "$type": "Comindware.Platform.Contracts.GlobalAlias, Comindware.Platform.Contracts",
                    "Type": "Attribute",
                    "Owner": "Dopsoglasheniya",
                    "Alias": "Status"
                  }
                ]
              },
              "ValueExpression": "ID(82459)"
            }
          ]
        },
        "Uid": "50707325361d4a4a913084e04cb8af3d",
        "GlobalAlias": {
          "$type": "Comindware.Platform.Contracts.GlobalAlias, Comindware.Platform.Contracts",
          "Type": "TriggerAction",
          "Alias": "50707325361d4a4a913084e04cb8af3d"
        },
        "Scope": {
          "$type": "System.Nullable`1[[Comindware.Platform.Contracts.GlobalAlias, Comindware.Platform.Contracts]], mscorlib",
          "Type": "RecordTemplate",
          "Alias": "Dopsoglasheniya"
        }
      }
    }
  }
}