{
  "$type": "Comindware.Platform.Contracts.Models.Triggers.EventTrigger.TriggerModel, Comindware.Platform.Contracts",
  "GlobalAlias": {
    "$type": "Comindware.Platform.Contracts.GlobalAlias, Comindware.Platform.Contracts",
    "Type": "Trigger",
    "Alias": "TokenLeaves_userTask4_Process_Razrabotkastrategii_V25_1_157b0a"
  },
  "Name": "Выход токена из элемента «Согласовать стратегию» процесса «Разработка стратегии»",
  "ExecutionContext": "ByInitiator",
  "Description": "Сценарий при выходе токена из элемента «Согласовать стратегию» <userTask4>, процесс «Разработка стратегии» <Razrabotkastrategii>",
  "BehaviourState": "Active",
  "ActionsHead": {
    "$type": "Comindware.Platform.Contracts.Models.Triggers.EventTrigger.OnProcessActivityExit, Comindware.Platform.Contracts",
    "Activity": {
      "$type": "System.Nullable`1[[Comindware.Platform.Contracts.GlobalAlias, Comindware.Platform.Contracts]], mscorlib",
      "Type": "GlobalActivity",
      "Owner": "Razrabotkastrategii",
      "Alias": "userTask4"
    },
    "Kind": "OnProcessActivityExit",
    "Uid": "e02bf9f296e849cdb7c52716bc8f86d6",
    "Name": "Токен вышел из элемента «Согласовать стратегию»",
    "GlobalAlias": {
      "$type": "Comindware.Platform.Contracts.GlobalAlias, Comindware.Platform.Contracts",
      "Type": "TriggerEvent",
      "Alias": "e02bf9f296e849cdb7c52716bc8f86d6"
    },
    "Description": "Токен вышел из элемента «Согласовать стратегию» <userTask4>, процесс «Разработка стратегии» <Razrabotkastrategii>",
    "Scope": {
      "$type": "System.Nullable`1[[Comindware.Platform.Contracts.GlobalAlias, Comindware.Platform.Contracts]], mscorlib",
      "Type": "ProcessTemplate",
      "Alias": "Razrabotkastrategii"
    },
    "NextAction": {
      "$type": "Comindware.Platform.Contracts.Models.Triggers.EventTrigger.ReferenceObjectChange, Comindware.Platform.Contracts",
      "TargetContainer": {
        "$type": "System.Nullable`1[[Comindware.Platform.Contracts.GlobalAlias, Comindware.Platform.Contracts]], mscorlib",
        "Type": "RecordTemplate",
        "Alias": "Strategies"
      },
      "ReferenceExpression": "$$BusinessObject",
      "Kind": "ReferenceObjectChange",
      "Uid": "ed64df1af4f44185888f93cd60242f69",
      "GlobalAlias": {
        "$type": "Comindware.Platform.Contracts.GlobalAlias, Comindware.Platform.Contracts",
        "Type": "TriggerAction",
        "Alias": "ed64df1af4f44185888f93cd60242f69"
      },
      "Scope": {
        "$type": "System.Nullable`1[[Comindware.Platform.Contracts.GlobalAlias, Comindware.Platform.Contracts]], mscorlib",
        "Type": "ProcessTemplate",
        "Alias": "Razrabotkastrategii"
      }
    }
  }
}