{
  "$type": "Comindware.Platform.Contracts.Models.Triggers.EventTrigger.TriggerModel, Comindware.Platform.Contracts",
  "GlobalAlias": {
    "$type": "Comindware.Platform.Contracts.GlobalAlias, Comindware.Platform.Contracts",
    "Type": "Trigger",
    "Alias": "TokenEnters_noneEndEvent8_Process_Poluchenieelektronnogopisma_V10_1_00ac0e"
  },
  "Name": "TokenEnters_noneEndEvent8_Process_Poluchenieelektronnogopisma_V10_1_e3c16d",
  "ExecutionContext": "ByInitiator",
  "BehaviourState": "Active",
  "ActionsHead": {
    "$type": "Comindware.Platform.Contracts.Models.Triggers.EventTrigger.OnProcessActivityEntry, Comindware.Platform.Contracts",
    "Activity": {
      "$type": "System.Nullable`1[[Comindware.Platform.Contracts.GlobalAlias, Comindware.Platform.Contracts]], mscorlib",
      "Type": "GlobalActivity",
      "Owner": "Poluchenieelektronnogopisma",
      "Alias": "noneEndEvent8"
    },
    "Kind": "OnProcessActivityEntry",
    "Uid": "497b44c9aad34e828d9fa1a920bd3808",
    "Name": "Вход токена в элемент «noneEndEvent8» процесса «Получение электронного письма»",
    "GlobalAlias": {
      "$type": "Comindware.Platform.Contracts.GlobalAlias, Comindware.Platform.Contracts",
      "Type": "TriggerEvent",
      "Alias": "497b44c9aad34e828d9fa1a920bd3808"
    },
    "Description": "Сценарий при входе токена в элемент «noneEndEvent8» <noneEndEvent8>, процесс «Получение электронного письма» <Poluchenieelektronnogopisma>",
    "Scope": {
      "$type": "System.Nullable`1[[Comindware.Platform.Contracts.GlobalAlias, Comindware.Platform.Contracts]], mscorlib",
      "Type": "ProcessTemplate",
      "Alias": "Poluchenieelektronnogopisma"
    },
    "NextAction": {
      "$type": "Comindware.Platform.Contracts.Models.Triggers.EventTrigger.ReferenceObjectChange, Comindware.Platform.Contracts",
      "TargetContainer": {
        "$type": "System.Nullable`1[[Comindware.Platform.Contracts.GlobalAlias, Comindware.Platform.Contracts]], mscorlib",
        "Type": "RecordTemplate",
        "Alias": "Vkhodyaschieelektronnyepisma"
      },
      "ReferenceExpression": "$$BusinessObject",
      "Kind": "ReferenceObjectChange",
      "Uid": "00127571dacc4e26bf0549b674356357",
      "GlobalAlias": {
        "$type": "Comindware.Platform.Contracts.GlobalAlias, Comindware.Platform.Contracts",
        "Type": "TriggerAction",
        "Alias": "00127571dacc4e26bf0549b674356357"
      },
      "Description": "description",
      "Scope": {
        "$type": "System.Nullable`1[[Comindware.Platform.Contracts.GlobalAlias, Comindware.Platform.Contracts]], mscorlib",
        "Type": "ProcessTemplate",
        "Alias": "Poluchenieelektronnogopisma"
      },
      "SubAction": {
        "$type": "Comindware.Platform.Contracts.Models.Triggers.EventTrigger.PropertySetValueAction, Comindware.Platform.Contracts",
        "Kind": "PropertySetValue",
        "SetValueProperties": {
          "$type": "Comindware.Platform.Contracts.Models.Triggers.EventTrigger.PropertySetValue[], Comindware.Platform.Contracts",
          "$values": [
            {
              "$type": "Comindware.Platform.Contracts.Models.Triggers.EventTrigger.PropertySetValue, Comindware.Platform.Contracts",
              "SetValueKind": "Replace",
              "PropertyPath": {
                "$type": "Comindware.Platform.Contracts.GlobalAlias[], Comindware.Platform.Contracts",
                "$values": [
                  {
                    "$type": "Comindware.Platform.Contracts.GlobalAlias, Comindware.Platform.Contracts",
                    "Type": "Attribute",
                    "Owner": "Vkhodyaschieelektronnyepisma",
                    "Alias": "Raschet"
                  },
                  {
                    "$type": "Comindware.Platform.Contracts.GlobalAlias, Comindware.Platform.Contracts",
                    "Type": "Attribute",
                    "Owner": "Raschetypomediaplanam",
                    "Alias": "Srokpodtverzhdyonbaingom"
                  }
                ]
              },
              "ValueExpression": "False"
            }
          ]
        },
        "Uid": "b6bf76a3d03d4fbdb54759fbb2d5b706",
        "GlobalAlias": {
          "$type": "Comindware.Platform.Contracts.GlobalAlias, Comindware.Platform.Contracts",
          "Type": "TriggerAction",
          "Alias": "b6bf76a3d03d4fbdb54759fbb2d5b706"
        },
        "Scope": {
          "$type": "System.Nullable`1[[Comindware.Platform.Contracts.GlobalAlias, Comindware.Platform.Contracts]], mscorlib",
          "Type": "RecordTemplate",
          "Alias": "Vkhodyaschieelektronnyepisma"
        }
      }
    }
  }
}