{
  "$type": "Comindware.Platform.Contracts.Models.Triggers.EventTrigger.TriggerModel, Comindware.Platform.Contracts",
  "GlobalAlias": {
    "$type": "Comindware.Platform.Contracts.GlobalAlias, Comindware.Platform.Contracts",
    "Type": "Trigger",
    "Alias": "TokenEnters_noneEndEvent1_Process_ProvedeniezakupkiAKhO_V0_1_ce6eb5"
  },
  "Name": "Вход токена в элемент «Успех» процесса «Проведение закупки АХО»",
  "ExecutionContext": "ByInitiator",
  "Description": "Сценарий при входе токена в элемент «Успех» <noneEndEvent1>, процесс «Проведение закупки АХО» <ProvedeniezakupkiAKhO>",
  "BehaviourState": "Active",
  "ActionsHead": {
    "$type": "Comindware.Platform.Contracts.Models.Triggers.EventTrigger.OnUserCommand, Comindware.Platform.Contracts",
    "Kind": "OnUserCommand",
    "Uid": "c9cc2d9f-5ace-43f2-addb-0df529649979",
    "Name": "Нажатие кнопки",
    "GlobalAlias": {
      "$type": "Comindware.Platform.Contracts.GlobalAlias, Comindware.Platform.Contracts",
      "Type": "TriggerEvent",
      "Alias": "c9cc2d9f-5ace-43f2-addb-0df529649979"
    }
  }
}