{
  "$type": "Comindware.Platform.Contracts.Models.Triggers.EventTrigger.TriggerModel, Comindware.Platform.Contracts",
  "GlobalAlias": {
    "$type": "Comindware.Platform.Contracts.GlobalAlias, Comindware.Platform.Contracts",
    "Type": "Trigger",
    "Alias": "TokenLeaves_noneStartEvent1_Process_Menedzherskiyzapros_V5_0_063443"
  },
  "Name": "TokenLeaves_noneStartEvent1_Process_Menedzherskiyzapros_V5_0_063443",
  "ExecutionContext": "ByInitiator",
  "BehaviourState": "Active",
  "ActionsHead": {
    "$type": "Comindware.Platform.Contracts.Models.Triggers.EventTrigger.OnProcessActivityExit, Comindware.Platform.Contracts",
    "Activity": {
      "$type": "System.Nullable`1[[Comindware.Platform.Contracts.GlobalAlias, Comindware.Platform.Contracts]], mscorlib",
      "Type": "GlobalActivity",
      "Owner": "Menedzherskiyzapros",
      "Alias": "noneStartEvent1"
    },
    "Kind": "OnProcessActivityExit",
    "Uid": "f6969503-065e-49cf-b72a-ea044233b375",
    "Name": "Выход токена из элемента « » процесса «Менеджерский запрос»",
    "GlobalAlias": {
      "$type": "Comindware.Platform.Contracts.GlobalAlias, Comindware.Platform.Contracts",
      "Type": "TriggerEvent",
      "Alias": "f6969503-065e-49cf-b72a-ea044233b375"
    },
    "Description": "Сценарий при выходе токена из элемента « » <noneStartEvent1>, процесс «Менеджерский запрос» <Menedzherskiyzapros>",
    "Scope": {
      "$type": "System.Nullable`1[[Comindware.Platform.Contracts.GlobalAlias, Comindware.Platform.Contracts]], mscorlib",
      "Type": "ProcessTemplate",
      "Alias": "Menedzherskiyzapros"
    },
    "NextAction": {
      "$type": "Comindware.Platform.Contracts.Models.Triggers.EventTrigger.ReferenceObjectChange, Comindware.Platform.Contracts",
      "TargetContainer": {
        "$type": "System.Nullable`1[[Comindware.Platform.Contracts.GlobalAlias, Comindware.Platform.Contracts]], mscorlib",
        "Type": "RecordTemplate",
        "Alias": "Raschetypomediaplanam"
      },
      "ReferenceExpression": "$$BusinessObject",
      "Kind": "ReferenceObjectChange",
      "Uid": "e757d2bb-b0c0-451a-ba7f-f77554ecc53e",
      "GlobalAlias": {
        "$type": "Comindware.Platform.Contracts.GlobalAlias, Comindware.Platform.Contracts",
        "Type": "TriggerAction",
        "Alias": "e757d2bb-b0c0-451a-ba7f-f77554ecc53e"
      },
      "Description": "description",
      "Scope": {
        "$type": "System.Nullable`1[[Comindware.Platform.Contracts.GlobalAlias, Comindware.Platform.Contracts]], mscorlib",
        "Type": "ProcessTemplate",
        "Alias": "Menedzherskiyzapros"
      },
      "SubAction": {
        "$type": "Comindware.Platform.Contracts.Models.Triggers.EventTrigger.PropertySetValueAction, Comindware.Platform.Contracts",
        "Kind": "PropertySetValue",
        "SetValueProperties": {
          "$type": "Comindware.Platform.Contracts.Models.Triggers.EventTrigger.PropertySetValue[], Comindware.Platform.Contracts",
          "$values": [
            {
              "$type": "Comindware.Platform.Contracts.Models.Triggers.EventTrigger.PropertySetValue, Comindware.Platform.Contracts",
              "SetValueKind": "Replace",
              "PropertyPath": {
                "$type": "Comindware.Platform.Contracts.GlobalAlias[], Comindware.Platform.Contracts",
                "$values": [
                  {
                    "$type": "Comindware.Platform.Contracts.GlobalAlias, Comindware.Platform.Contracts",
                    "Type": "Attribute",
                    "Owner": "Raschetypomediaplanam",
                    "Alias": "Status"
                  }
                ]
              },
              "ValueExpression": "ID(11248)"
            }
          ]
        },
        "Uid": "dc0d52be-401f-48cb-8fa2-bf40bc59b507",
        "GlobalAlias": {
          "$type": "Comindware.Platform.Contracts.GlobalAlias, Comindware.Platform.Contracts",
          "Type": "TriggerAction",
          "Alias": "dc0d52be-401f-48cb-8fa2-bf40bc59b507"
        },
        "Scope": {
          "$type": "System.Nullable`1[[Comindware.Platform.Contracts.GlobalAlias, Comindware.Platform.Contracts]], mscorlib",
          "Type": "RecordTemplate",
          "Alias": "Raschetypomediaplanam"
        }
      }
    }
  }
}