{
  "$type": "Comindware.Platform.Contracts.Models.Triggers.EventTrigger.TriggerModel, Comindware.Platform.Contracts",
  "GlobalAlias": {
    "$type": "Comindware.Platform.Contracts.GlobalAlias, Comindware.Platform.Contracts",
    "Type": "Trigger",
    "Alias": "TokenEnters_userTask3_Process_Podpisaniedogovora_V39_0_eb37b6"
  },
  "Name": "TokenEnters_userTask3_Process_Podpisaniedogovora_V39_0_eb37b6",
  "ExecutionContext": "ByInitiator",
  "BehaviourState": "Active",
  "ActionsHead": {
    "$type": "Comindware.Platform.Contracts.Models.Triggers.EventTrigger.OnProcessActivityEntry, Comindware.Platform.Contracts",
    "Activity": {
      "$type": "System.Nullable`1[[Comindware.Platform.Contracts.GlobalAlias, Comindware.Platform.Contracts]], mscorlib",
      "Type": "GlobalActivity",
      "Owner": "Podpisaniedogovora",
      "Alias": "userTask3"
    },
    "Kind": "OnProcessActivityEntry",
    "Uid": "735ee5bf-9a80-41af-ae2a-7c37e99c5243",
    "Name": "Вход токена в элемент «Подписать документ» процесса «Подписание документа»",
    "GlobalAlias": {
      "$type": "Comindware.Platform.Contracts.GlobalAlias, Comindware.Platform.Contracts",
      "Type": "TriggerEvent",
      "Alias": "735ee5bf-9a80-41af-ae2a-7c37e99c5243"
    },
    "Description": "Сценарий при входе токена в элемент «Подписать документ» <userTask3>, процесс «Подписание документа» <Podpisaniedogovora>",
    "Scope": {
      "$type": "System.Nullable`1[[Comindware.Platform.Contracts.GlobalAlias, Comindware.Platform.Contracts]], mscorlib",
      "Type": "ProcessTemplate",
      "Alias": "Podpisaniedogovora"
    },
    "NextAction": {
      "$type": "Comindware.Platform.Contracts.Models.Triggers.EventTrigger.ReferenceObjectChange, Comindware.Platform.Contracts",
      "TargetContainer": {
        "$type": "System.Nullable`1[[Comindware.Platform.Contracts.GlobalAlias, Comindware.Platform.Contracts]], mscorlib",
        "Type": "RecordTemplate",
        "Alias": "Podpisaniya"
      },
      "ReferenceExpression": "$$BusinessObject",
      "Kind": "ReferenceObjectChange",
      "Uid": "ec572c73-1bdf-43a3-80f7-7d53d8137ca3",
      "GlobalAlias": {
        "$type": "Comindware.Platform.Contracts.GlobalAlias, Comindware.Platform.Contracts",
        "Type": "TriggerAction",
        "Alias": "ec572c73-1bdf-43a3-80f7-7d53d8137ca3"
      },
      "Description": "description",
      "Scope": {
        "$type": "System.Nullable`1[[Comindware.Platform.Contracts.GlobalAlias, Comindware.Platform.Contracts]], mscorlib",
        "Type": "ProcessTemplate",
        "Alias": "Podpisaniedogovora"
      },
      "SubAction": {
        "$type": "Comindware.Platform.Contracts.Models.Triggers.EventTrigger.PropertySetValueAction, Comindware.Platform.Contracts",
        "Kind": "PropertySetValue",
        "SetValueProperties": {
          "$type": "Comindware.Platform.Contracts.Models.Triggers.EventTrigger.PropertySetValue[], Comindware.Platform.Contracts",
          "$values": [
            {
              "$type": "Comindware.Platform.Contracts.Models.Triggers.EventTrigger.PropertySetValue, Comindware.Platform.Contracts",
              "SetValueKind": "Replace",
              "PropertyPath": {
                "$type": "Comindware.Platform.Contracts.GlobalAlias[], Comindware.Platform.Contracts",
                "$values": [
                  {
                    "$type": "Comindware.Platform.Contracts.GlobalAlias, Comindware.Platform.Contracts",
                    "Type": "Attribute",
                    "Owner": "Podpisaniya",
                    "Alias": "Statusdogovora"
                  }
                ]
              },
              "ValueExpression": "ID(77314)"
            }
          ]
        },
        "Uid": "9199b219-2e35-4fb8-80bc-4b55a537f03e",
        "GlobalAlias": {
          "$type": "Comindware.Platform.Contracts.GlobalAlias, Comindware.Platform.Contracts",
          "Type": "TriggerAction",
          "Alias": "9199b219-2e35-4fb8-80bc-4b55a537f03e"
        },
        "Scope": {
          "$type": "System.Nullable`1[[Comindware.Platform.Contracts.GlobalAlias, Comindware.Platform.Contracts]], mscorlib",
          "Type": "RecordTemplate",
          "Alias": "Podpisaniya"
        },
        "NextAction": {
          "$type": "Comindware.Platform.Contracts.Models.Triggers.EventTrigger.PropertySetValueAction, Comindware.Platform.Contracts",
          "Kind": "PropertySetValue",
          "SetValueProperties": {
            "$type": "Comindware.Platform.Contracts.Models.Triggers.EventTrigger.PropertySetValue[], Comindware.Platform.Contracts",
            "$values": [
              {
                "$type": "Comindware.Platform.Contracts.Models.Triggers.EventTrigger.PropertySetValue, Comindware.Platform.Contracts",
                "SetValueKind": "Replace",
                "PropertyPath": {
                  "$type": "Comindware.Platform.Contracts.GlobalAlias[], Comindware.Platform.Contracts",
                  "$values": [
                    {
                      "$type": "Comindware.Platform.Contracts.GlobalAlias, Comindware.Platform.Contracts",
                      "Type": "Attribute",
                      "Owner": "Podpisaniya",
                      "Alias": "Statusprilozheniya"
                    }
                  ]
                },
                "ValueExpression": "ID(77440)"
              }
            ]
          },
          "Uid": "111525d3-b98d-4a63-8141-4fbc661903b2",
          "GlobalAlias": {
            "$type": "Comindware.Platform.Contracts.GlobalAlias, Comindware.Platform.Contracts",
            "Type": "TriggerAction",
            "Alias": "111525d3-b98d-4a63-8141-4fbc661903b2"
          },
          "Scope": {
            "$type": "System.Nullable`1[[Comindware.Platform.Contracts.GlobalAlias, Comindware.Platform.Contracts]], mscorlib",
            "Type": "RecordTemplate",
            "Alias": "Podpisaniya"
          },
          "NextAction": {
            "$type": "Comindware.Platform.Contracts.Models.Triggers.EventTrigger.PropertySetValueAction, Comindware.Platform.Contracts",
            "Kind": "PropertySetValue",
            "SetValueProperties": {
              "$type": "Comindware.Platform.Contracts.Models.Triggers.EventTrigger.PropertySetValue[], Comindware.Platform.Contracts",
              "$values": [
                {
                  "$type": "Comindware.Platform.Contracts.Models.Triggers.EventTrigger.PropertySetValue, Comindware.Platform.Contracts",
                  "SetValueKind": "Replace",
                  "PropertyPath": {
                    "$type": "Comindware.Platform.Contracts.GlobalAlias[], Comindware.Platform.Contracts",
                    "$values": [
                      {
                        "$type": "Comindware.Platform.Contracts.GlobalAlias, Comindware.Platform.Contracts",
                        "Type": "Attribute",
                        "Owner": "Podpisaniya",
                        "Alias": "StatusDS"
                      }
                    ]
                  },
                  "ValueExpression": "ID(77447)"
                }
              ]
            },
            "Uid": "9022032f-6f92-41c9-bb27-99969ad55986",
            "GlobalAlias": {
              "$type": "Comindware.Platform.Contracts.GlobalAlias, Comindware.Platform.Contracts",
              "Type": "TriggerAction",
              "Alias": "9022032f-6f92-41c9-bb27-99969ad55986"
            },
            "Scope": {
              "$type": "System.Nullable`1[[Comindware.Platform.Contracts.GlobalAlias, Comindware.Platform.Contracts]], mscorlib",
              "Type": "RecordTemplate",
              "Alias": "Podpisaniya"
            }
          }
        }
      }
    }
  }
}