{
  "$type": "Comindware.Platform.Contracts.Models.Triggers.EventTrigger.TriggerModel, Comindware.Platform.Contracts",
  "GlobalAlias": {
    "$type": "Comindware.Platform.Contracts.GlobalAlias, Comindware.Platform.Contracts",
    "Type": "Trigger",
    "Alias": "TokenEnters_userTask5_Process_Izmeneniemediaplana_V1_1_dd3f86"
  },
  "Name": "Вход токена в элемент «Согласовать изменения МП с трафиком» процесса «Изменение медиаплана»",
  "ExecutionContext": "ByInitiator",
  "Description": "Сценарий при входе токена в элемент «Согласовать изменения МП с трафиком» <userTask5>, процесс «Изменение медиаплана» <Izmeneniemediaplana>",
  "BehaviourState": "Active",
  "ActionsHead": {
    "$type": "Comindware.Platform.Contracts.Models.Triggers.EventTrigger.OnProcessActivityEntry, Comindware.Platform.Contracts",
    "Activity": {
      "$type": "System.Nullable`1[[Comindware.Platform.Contracts.GlobalAlias, Comindware.Platform.Contracts]], mscorlib",
      "Type": "GlobalActivity",
      "Owner": "Izmeneniemediaplana",
      "Alias": "userTask5"
    },
    "Kind": "OnProcessActivityEntry",
    "Uid": "cf2e42272eec4ca1a81a73731985e3a6",
    "Name": "Токен вошел в элемент «Согласовать изменения МП с трафиком»",
    "GlobalAlias": {
      "$type": "Comindware.Platform.Contracts.GlobalAlias, Comindware.Platform.Contracts",
      "Type": "TriggerEvent",
      "Alias": "cf2e42272eec4ca1a81a73731985e3a6"
    },
    "Description": "Токен вошел в элемент «Согласовать изменения МП с трафиком» <userTask5>, процесс «Изменение медиаплана» <Izmeneniemediaplana>",
    "Scope": {
      "$type": "System.Nullable`1[[Comindware.Platform.Contracts.GlobalAlias, Comindware.Platform.Contracts]], mscorlib",
      "Type": "ProcessTemplate",
      "Alias": "Izmeneniemediaplana"
    },
    "NextAction": {
      "$type": "Comindware.Platform.Contracts.Models.Triggers.EventTrigger.ReferenceObjectChange, Comindware.Platform.Contracts",
      "TargetContainer": {
        "$type": "System.Nullable`1[[Comindware.Platform.Contracts.GlobalAlias, Comindware.Platform.Contracts]], mscorlib",
        "Type": "RecordTemplate",
        "Alias": "Mediaplany"
      },
      "ReferenceExpression": "$$BusinessObject",
      "Kind": "ReferenceObjectChange",
      "Uid": "9504167efaf44ed0a6931b905c0674ad",
      "GlobalAlias": {
        "$type": "Comindware.Platform.Contracts.GlobalAlias, Comindware.Platform.Contracts",
        "Type": "TriggerAction",
        "Alias": "9504167efaf44ed0a6931b905c0674ad"
      },
      "Scope": {
        "$type": "System.Nullable`1[[Comindware.Platform.Contracts.GlobalAlias, Comindware.Platform.Contracts]], mscorlib",
        "Type": "ProcessTemplate",
        "Alias": "Izmeneniemediaplana"
      }
    }
  }
}