{
  "$type": "Comindware.Platform.Contracts.Models.Triggers.EventTrigger.TriggerModel, Comindware.Platform.Contracts",
  "GlobalAlias": {
    "$type": "Comindware.Platform.Contracts.GlobalAlias, Comindware.Platform.Contracts",
    "Type": "Trigger",
    "Alias": "TokenEnters_userTask1_Process_ProvedeniezakupkiAKhO_V0_1_31f523"
  },
  "Name": "Вход токена в элемент «Согласовать заявку» процесса «Проведение закупки АХО»",
  "ExecutionContext": "ByInitiator",
  "Description": "Сценарий при входе токена в элемент «Согласовать заявку» <userTask1>, процесс «Проведение закупки АХО» <ProvedeniezakupkiAKhO>",
  "BehaviourState": "Active",
  "ActionsHead": {
    "$type": "Comindware.Platform.Contracts.Models.Triggers.EventTrigger.OnUserCommand, Comindware.Platform.Contracts",
    "Kind": "OnUserCommand",
    "Uid": "8a10554f-ea7d-476f-b92e-ed8891762ce0",
    "Name": "Нажатие кнопки",
    "GlobalAlias": {
      "$type": "Comindware.Platform.Contracts.GlobalAlias, Comindware.Platform.Contracts",
      "Type": "TriggerEvent",
      "Alias": "8a10554f-ea7d-476f-b92e-ed8891762ce0"
    }
  }
}