{
  "$type": "Comindware.Platform.Contracts.Models.Triggers.EventTrigger.TriggerModel, Comindware.Platform.Contracts",
  "GlobalAlias": {
    "$type": "Comindware.Platform.Contracts.GlobalAlias, Comindware.Platform.Contracts",
    "Type": "Trigger",
    "Alias": "TokenLeaves_noneStartEvent2_Process_Poluchenieelektronnogopisma_V10_1_a29d8b"
  },
  "Name": "TokenLeaves_noneStartEvent2_Process_Poluchenieelektronnogopisma_V10_1_7c7a49",
  "ExecutionContext": "ByInitiator",
  "BehaviourState": "Active",
  "ActionsHead": {
    "$type": "Comindware.Platform.Contracts.Models.Triggers.EventTrigger.OnProcessActivityExit, Comindware.Platform.Contracts",
    "Activity": {
      "$type": "System.Nullable`1[[Comindware.Platform.Contracts.GlobalAlias, Comindware.Platform.Contracts]], mscorlib",
      "Type": "GlobalActivity",
      "Owner": "Poluchenieelektronnogopisma",
      "Alias": "noneStartEvent2"
    },
    "Kind": "OnProcessActivityExit",
    "Uid": "8783434402c54c1ba626afabe33aafdb",
    "Name": "Выход токена из элемента «Входящее письмо (mail)» процесса «Получение электронного письма»",
    "GlobalAlias": {
      "$type": "Comindware.Platform.Contracts.GlobalAlias, Comindware.Platform.Contracts",
      "Type": "TriggerEvent",
      "Alias": "8783434402c54c1ba626afabe33aafdb"
    },
    "Description": "Сценарий при выходе токена из элемента «Входящее письмо (mail)» <noneStartEvent2>, процесс «Получение электронного письма» <Poluchenieelektronnogopisma>",
    "Scope": {
      "$type": "System.Nullable`1[[Comindware.Platform.Contracts.GlobalAlias, Comindware.Platform.Contracts]], mscorlib",
      "Type": "ProcessTemplate",
      "Alias": "Poluchenieelektronnogopisma"
    },
    "NextAction": {
      "$type": "Comindware.Platform.Contracts.Models.Triggers.EventTrigger.ReferenceObjectChange, Comindware.Platform.Contracts",
      "TargetContainer": {
        "$type": "System.Nullable`1[[Comindware.Platform.Contracts.GlobalAlias, Comindware.Platform.Contracts]], mscorlib",
        "Type": "RecordTemplate",
        "Alias": "Vkhodyaschieelektronnyepisma"
      },
      "ReferenceExpression": "$$BusinessObject",
      "Kind": "ReferenceObjectChange",
      "Uid": "d1d6a08268944361a0b1601364eecc04",
      "GlobalAlias": {
        "$type": "Comindware.Platform.Contracts.GlobalAlias, Comindware.Platform.Contracts",
        "Type": "TriggerAction",
        "Alias": "d1d6a08268944361a0b1601364eecc04"
      },
      "Description": "description",
      "Scope": {
        "$type": "System.Nullable`1[[Comindware.Platform.Contracts.GlobalAlias, Comindware.Platform.Contracts]], mscorlib",
        "Type": "ProcessTemplate",
        "Alias": "Poluchenieelektronnogopisma"
      },
      "SubAction": {
        "$type": "Comindware.Platform.Contracts.Models.Triggers.EventTrigger.PropertySetValueAction, Comindware.Platform.Contracts",
        "Kind": "PropertySetValue",
        "SetValueProperties": {
          "$type": "Comindware.Platform.Contracts.Models.Triggers.EventTrigger.PropertySetValue[], Comindware.Platform.Contracts",
          "$values": [
            {
              "$type": "Comindware.Platform.Contracts.Models.Triggers.EventTrigger.PropertySetValue, Comindware.Platform.Contracts",
              "SetValueKind": "Replace",
              "PropertyPath": {
                "$type": "Comindware.Platform.Contracts.GlobalAlias[], Comindware.Platform.Contracts",
                "$values": [
                  {
                    "$type": "Comindware.Platform.Contracts.GlobalAlias, Comindware.Platform.Contracts",
                    "Type": "Attribute",
                    "Owner": "Vkhodyaschieelektronnyepisma",
                    "Alias": "Raschet"
                  }
                ]
              },
              "ValueExpression": "from a in db->Raschetypomediaplanam where a->ObjectID == SUBSTRING($Temapisma,INDEXOF($Temapisma,\"[\") + 1,INDEXOF($Temapisma,\"]\") - INDEXOF($Temapisma,\"[\") - 1) select a->id"
            }
          ]
        },
        "Uid": "000174df69e9426d8f299616e17cff05",
        "GlobalAlias": {
          "$type": "Comindware.Platform.Contracts.GlobalAlias, Comindware.Platform.Contracts",
          "Type": "TriggerAction",
          "Alias": "000174df69e9426d8f299616e17cff05"
        },
        "Scope": {
          "$type": "System.Nullable`1[[Comindware.Platform.Contracts.GlobalAlias, Comindware.Platform.Contracts]], mscorlib",
          "Type": "RecordTemplate",
          "Alias": "Vkhodyaschieelektronnyepisma"
        },
        "NextAction": {
          "$type": "Comindware.Platform.Contracts.Models.Triggers.EventTrigger.PropertySetValueAction, Comindware.Platform.Contracts",
          "Kind": "PropertySetValue",
          "SetValueProperties": {
            "$type": "Comindware.Platform.Contracts.Models.Triggers.EventTrigger.PropertySetValue[], Comindware.Platform.Contracts",
            "$values": [
              {
                "$type": "Comindware.Platform.Contracts.Models.Triggers.EventTrigger.PropertySetValue, Comindware.Platform.Contracts",
                "SetValueKind": "Replace",
                "PropertyPath": {
                  "$type": "Comindware.Platform.Contracts.GlobalAlias[], Comindware.Platform.Contracts",
                  "$values": [
                    {
                      "$type": "Comindware.Platform.Contracts.GlobalAlias, Comindware.Platform.Contracts",
                      "Type": "Attribute",
                      "Owner": "Vkhodyaschieelektronnyepisma",
                      "Alias": "Mediaplan"
                    }
                  ]
                },
                "ValueExpression": "from a in db->Mediaplany where a->ObjectID == $ObjectID select a->id"
              }
            ]
          },
          "Uid": "8d3893a2e5554d2f9bb0737003dfc05f",
          "GlobalAlias": {
            "$type": "Comindware.Platform.Contracts.GlobalAlias, Comindware.Platform.Contracts",
            "Type": "TriggerAction",
            "Alias": "8d3893a2e5554d2f9bb0737003dfc05f"
          },
          "Scope": {
            "$type": "System.Nullable`1[[Comindware.Platform.Contracts.GlobalAlias, Comindware.Platform.Contracts]], mscorlib",
            "Type": "RecordTemplate",
            "Alias": "Vkhodyaschieelektronnyepisma"
          }
        }
      }
    }
  }
}