{
  "$type": "Comindware.Platform.Contracts.Models.Triggers.EventTrigger.TriggerModel, Comindware.Platform.Contracts",
  "GlobalAlias": {
    "$type": "Comindware.Platform.Contracts.GlobalAlias, Comindware.Platform.Contracts",
    "Type": "Trigger",
    "Alias": "TokenLeaves_userTask3_Process_SoglasovaniemediaplananaInternet_V22_1_59ff5d"
  },
  "Name": "Выход токена из элемента «Согласовать медиаплан» процесса «Согласование медиаплана на Интернет»",
  "ExecutionContext": "ByInitiator",
  "Description": "Сценарий при выходе токена из элемента «Согласовать медиаплан» <userTask3>, процесс «Согласование медиаплана на Интернет» <SoglasovaniemediaplananaInternet>",
  "BehaviourState": "Active",
  "ActionsHead": {
    "$type": "Comindware.Platform.Contracts.Models.Triggers.EventTrigger.OnProcessActivityExit, Comindware.Platform.Contracts",
    "Activity": {
      "$type": "System.Nullable`1[[Comindware.Platform.Contracts.GlobalAlias, Comindware.Platform.Contracts]], mscorlib",
      "Type": "GlobalActivity",
      "Owner": "SoglasovaniemediaplananaInternet",
      "Alias": "userTask3"
    },
    "Kind": "OnProcessActivityExit",
    "Uid": "1dc2eab4a3034c9280784644a1b8e79e",
    "Name": "Токен вышел из элемента «Согласовать медиаплан»",
    "GlobalAlias": {
      "$type": "Comindware.Platform.Contracts.GlobalAlias, Comindware.Platform.Contracts",
      "Type": "TriggerEvent",
      "Alias": "1dc2eab4a3034c9280784644a1b8e79e"
    },
    "Description": "Токен вышел из элемента «Согласовать медиаплан» <userTask3>, процесс «Согласование медиаплана на Интернет» <SoglasovaniemediaplananaInternet>",
    "Scope": {
      "$type": "System.Nullable`1[[Comindware.Platform.Contracts.GlobalAlias, Comindware.Platform.Contracts]], mscorlib",
      "Type": "ProcessTemplate",
      "Alias": "SoglasovaniemediaplananaInternet"
    },
    "NextAction": {
      "$type": "Comindware.Platform.Contracts.Models.Triggers.EventTrigger.ReferenceObjectChange, Comindware.Platform.Contracts",
      "TargetContainer": {
        "$type": "System.Nullable`1[[Comindware.Platform.Contracts.GlobalAlias, Comindware.Platform.Contracts]], mscorlib",
        "Type": "RecordTemplate",
        "Alias": "Mediaplany"
      },
      "ReferenceExpression": "$$BusinessObject",
      "Kind": "ReferenceObjectChange",
      "Uid": "76ce7dd7e4af40d3889d765d33cfca2c",
      "GlobalAlias": {
        "$type": "Comindware.Platform.Contracts.GlobalAlias, Comindware.Platform.Contracts",
        "Type": "TriggerAction",
        "Alias": "76ce7dd7e4af40d3889d765d33cfca2c"
      },
      "Scope": {
        "$type": "System.Nullable`1[[Comindware.Platform.Contracts.GlobalAlias, Comindware.Platform.Contracts]], mscorlib",
        "Type": "ProcessTemplate",
        "Alias": "SoglasovaniemediaplananaInternet"
      }
    }
  }
}