{
  "$type": "Comindware.Platform.Contracts.RoleConfigurationModel, Comindware.Platform.Contracts",
  "GlobalAlias": {
    "$type": "Comindware.Platform.Contracts.GlobalAlias, Comindware.Platform.Contracts",
    "Type": "RoleConfiguration",
    "Alias": "FinanceIII"
  },
  "Name": "Finance III",
  "IsActive": true,
  "Members": {
    "$type": "System.Collections.Generic.List`1[[Comindware.Platform.Contracts.GlobalAlias, Comindware.Platform.Contracts]], mscorlib",
    "$values": [
      {
        "$type": "Comindware.Platform.Contracts.GlobalAlias, Comindware.Platform.Contracts",
        "Type": "Group",
        "Alias": "CMW_Finance-III"
      }
    ]
  },
  "RootResource": {
    "$type": "Comindware.Platform.Contracts.ResourcePrivilegeDescriptorModel, Comindware.Platform.Contracts",
    "Role": {
      "$type": "Comindware.Platform.Contracts.GlobalAlias, Comindware.Platform.Contracts",
      "Type": "RoleConfiguration",
      "Alias": "FinanceIII"
    },
    "Name": "Экосистема рекламного рынка",
    "Target": {
      "$type": "Comindware.Platform.Contracts.GlobalAlias, Comindware.Platform.Contracts",
      "Type": "Solution",
      "Alias": "Ekosistemareklamnogorynka"
    },
    "Children": {
      "$type": "System.Collections.Generic.List`1[[Comindware.Platform.Contracts.ResourcePrivilegeDescriptorModel, Comindware.Platform.Contracts]], mscorlib",
      "$values": []
    },
    "TargetType": "BusinessApp",
    "Privileges": "Read",
    "AvailablePrivileges": "Read, Create, Update, Delete, FullAccess"
  }
}