{
  "$type": "Comindware.Platform.Contracts.RoleConfigurationModel, Comindware.Platform.Contracts",
  "GlobalAlias": {
    "$type": "Comindware.Platform.Contracts.GlobalAlias, Comindware.Platform.Contracts",
    "Type": "RoleConfiguration",
    "Alias": "HR"
  },
  "Name": "HR",
  "Description": "Роль для отдела кадров",
  "IsActive": true,
  "Members": {
    "$type": "System.Collections.Generic.List`1[[Comindware.Platform.Contracts.GlobalAlias, Comindware.Platform.Contracts]], mscorlib",
    "$values": [
      {
        "$type": "Comindware.Platform.Contracts.GlobalAlias, Comindware.Platform.Contracts",
        "Type": "Group",
        "Alias": "CMW_HR"
      }
    ]
  },
  "RootResource": {
    "$type": "Comindware.Platform.Contracts.ResourcePrivilegeDescriptorModel, Comindware.Platform.Contracts",
    "Role": {
      "$type": "Comindware.Platform.Contracts.GlobalAlias, Comindware.Platform.Contracts",
      "Type": "RoleConfiguration",
      "Alias": "HR"
    },
    "Name": "Экосистема рекламного рынка",
    "Target": {
      "$type": "Comindware.Platform.Contracts.GlobalAlias, Comindware.Platform.Contracts",
      "Type": "Solution",
      "Alias": "Ekosistemareklamnogorynka"
    },
    "Children": {
      "$type": "System.Collections.Generic.List`1[[Comindware.Platform.Contracts.ResourcePrivilegeDescriptorModel, Comindware.Platform.Contracts]], mscorlib",
      "$values": [
        {
          "$type": "Comindware.Platform.Contracts.ResourcePrivilegeDescriptorModel, Comindware.Platform.Contracts",
          "Role": {
            "$type": "Comindware.Platform.Contracts.GlobalAlias, Comindware.Platform.Contracts",
            "Type": "RoleConfiguration",
            "Alias": "HR"
          },
          "Name": "Уволенные сотрудники",
          "Target": {
            "$type": "Comindware.Platform.Contracts.GlobalAlias, Comindware.Platform.Contracts",
            "Type": "AccountTemplate",
            "Alias": "Uvolennyesotrudniki"
          },
          "Children": {
            "$type": "System.Collections.Generic.List`1[[Comindware.Platform.Contracts.ResourcePrivilegeDescriptorModel, Comindware.Platform.Contracts]], mscorlib",
            "$values": []
          },
          "TargetType": "AccountTemplate",
          "Privileges": "Read",
          "AvailablePrivileges": "ContextUserExpression, ContextObjectCondition, Read, Create, Update, Delete, FullAccess"
        }
      ]
    },
    "TargetType": "BusinessApp",
    "Privileges": "Undefined",
    "AvailablePrivileges": "Read, Create, Update, Delete, FullAccess"
  }
}