{
  "$type": "Comindware.Platform.Contracts.RoleConfigurationModel, Comindware.Platform.Contracts",
  "GlobalAlias": {
    "$type": "Comindware.Platform.Contracts.GlobalAlias, Comindware.Platform.Contracts",
    "Type": "RoleConfiguration",
    "Alias": "Korporativnyyportal"
  },
  "Name": "Корпоративный портал",
  "IsActive": true,
  "Members": {
    "$type": "System.Collections.Generic.List`1[[Comindware.Platform.Contracts.GlobalAlias, Comindware.Platform.Contracts]], mscorlib",
    "$values": [
      {
        "$type": "Comindware.Platform.Contracts.GlobalAlias, Comindware.Platform.Contracts",
        "Type": "Group",
        "Alias": "CMW_HR"
      },
      {
        "$type": "Comindware.Platform.Contracts.GlobalAlias, Comindware.Platform.Contracts",
        "Type": "Account",
        "Alias": "ks1"
      },
      {
        "$type": "Comindware.Platform.Contracts.GlobalAlias, Comindware.Platform.Contracts",
        "Type": "Account",
        "Alias": "mikhail.ivanov"
      }
    ]
  },
  "RootResource": {
    "$type": "Comindware.Platform.Contracts.ResourcePrivilegeDescriptorModel, Comindware.Platform.Contracts",
    "Role": {
      "$type": "Comindware.Platform.Contracts.GlobalAlias, Comindware.Platform.Contracts",
      "Type": "RoleConfiguration",
      "Alias": "Korporativnyyportal"
    },
    "Name": "Экосистема рекламного рынка",
    "Target": {
      "$type": "Comindware.Platform.Contracts.GlobalAlias, Comindware.Platform.Contracts",
      "Type": "Solution",
      "Alias": "Ekosistemareklamnogorynka"
    },
    "Children": {
      "$type": "System.Collections.Generic.List`1[[Comindware.Platform.Contracts.ResourcePrivilegeDescriptorModel, Comindware.Platform.Contracts]], mscorlib",
      "$values": [
        {
          "$type": "Comindware.Platform.Contracts.ResourcePrivilegeDescriptorModel, Comindware.Platform.Contracts",
          "Role": {
            "$type": "Comindware.Platform.Contracts.GlobalAlias, Comindware.Platform.Contracts",
            "Type": "RoleConfiguration",
            "Alias": "Korporativnyyportal"
          },
          "Name": "Создание совещания",
          "Target": {
            "$type": "Comindware.Platform.Contracts.GlobalAlias, Comindware.Platform.Contracts",
            "Type": "ProcessTemplate",
            "Alias": "Sozdaniesoveschaniya"
          },
          "Children": {
            "$type": "System.Collections.Generic.List`1[[Comindware.Platform.Contracts.ResourcePrivilegeDescriptorModel, Comindware.Platform.Contracts]], mscorlib",
            "$values": [
              {
                "$type": "Comindware.Platform.Contracts.ResourcePrivilegeDescriptorModel, Comindware.Platform.Contracts",
                "Role": {
                  "$type": "Comindware.Platform.Contracts.GlobalAlias, Comindware.Platform.Contracts",
                  "Type": "RoleConfiguration",
                  "Alias": "Korporativnyyportal"
                },
                "Name": "Завершить задачу",
                "Target": {
                  "$type": "Comindware.Platform.Contracts.GlobalAlias, Comindware.Platform.Contracts",
                  "Type": "UserCommand",
                  "Owner": "Sozdaniesoveschaniya",
                  "Alias": "completeTask"
                },
                "Children": {
                  "$type": "System.Collections.Generic.List`1[[Comindware.Platform.Contracts.ResourcePrivilegeDescriptorModel, Comindware.Platform.Contracts]], mscorlib",
                  "$values": []
                },
                "TargetType": "Operation",
                "Privileges": "Execute",
                "AvailablePrivileges": "Execute"
              }
            ]
          },
          "TargetType": "ProcessTemplate",
          "Privileges": "Read, Update",
          "AvailablePrivileges": "ContextUserExpression, ContextObjectCondition, Read, Create, Update, Delete, FullAccess"
        },
        {
          "$type": "Comindware.Platform.Contracts.ResourcePrivilegeDescriptorModel, Comindware.Platform.Contracts",
          "Role": {
            "$type": "Comindware.Platform.Contracts.GlobalAlias, Comindware.Platform.Contracts",
            "Type": "RoleConfiguration",
            "Alias": "Korporativnyyportal"
          },
          "Name": "Совещания",
          "Target": {
            "$type": "Comindware.Platform.Contracts.GlobalAlias, Comindware.Platform.Contracts",
            "Type": "RecordTemplate",
            "Alias": "Soveschaniya"
          },
          "Children": {
            "$type": "System.Collections.Generic.List`1[[Comindware.Platform.Contracts.ResourcePrivilegeDescriptorModel, Comindware.Platform.Contracts]], mscorlib",
            "$values": [
              {
                "$type": "Comindware.Platform.Contracts.ResourcePrivilegeDescriptorModel, Comindware.Platform.Contracts",
                "Role": {
                  "$type": "Comindware.Platform.Contracts.GlobalAlias, Comindware.Platform.Contracts",
                  "Type": "RoleConfiguration",
                  "Alias": "Korporativnyyportal"
                },
                "Name": "Форма по умолчанию",
                "Target": {
                  "$type": "Comindware.Platform.Contracts.GlobalAlias, Comindware.Platform.Contracts",
                  "Type": "Form",
                  "Owner": "Soveschaniya",
                  "Alias": "defaultForm"
                },
                "Children": {
                  "$type": "System.Collections.Generic.List`1[[Comindware.Platform.Contracts.ResourcePrivilegeDescriptorModel, Comindware.Platform.Contracts]], mscorlib",
                  "$values": []
                },
                "TargetType": "Form",
                "Privileges": "Read",
                "AvailablePrivileges": "Read"
              },
              {
                "$type": "Comindware.Platform.Contracts.ResourcePrivilegeDescriptorModel, Comindware.Platform.Contracts",
                "Role": {
                  "$type": "Comindware.Platform.Contracts.GlobalAlias, Comindware.Platform.Contracts",
                  "Type": "RoleConfiguration",
                  "Alias": "Korporativnyyportal"
                },
                "Name": "Стартовая форма",
                "Target": {
                  "$type": "Comindware.Platform.Contracts.GlobalAlias, Comindware.Platform.Contracts",
                  "Type": "Form",
                  "Owner": "Soveschaniya",
                  "Alias": "form18939"
                },
                "Children": {
                  "$type": "System.Collections.Generic.List`1[[Comindware.Platform.Contracts.ResourcePrivilegeDescriptorModel, Comindware.Platform.Contracts]], mscorlib",
                  "$values": []
                },
                "TargetType": "Form",
                "Privileges": "Read",
                "AvailablePrivileges": "Read"
              },
              {
                "$type": "Comindware.Platform.Contracts.ResourcePrivilegeDescriptorModel, Comindware.Platform.Contracts",
                "Role": {
                  "$type": "Comindware.Platform.Contracts.GlobalAlias, Comindware.Platform.Contracts",
                  "Type": "RoleConfiguration",
                  "Alias": "Korporativnyyportal"
                },
                "Name": "Сохранить",
                "Target": {
                  "$type": "Comindware.Platform.Contracts.GlobalAlias, Comindware.Platform.Contracts",
                  "Type": "UserCommand",
                  "Owner": "Soveschaniya",
                  "Alias": "edit"
                },
                "Children": {
                  "$type": "System.Collections.Generic.List`1[[Comindware.Platform.Contracts.ResourcePrivilegeDescriptorModel, Comindware.Platform.Contracts]], mscorlib",
                  "$values": []
                },
                "TargetType": "Operation",
                "Privileges": "Execute",
                "AvailablePrivileges": "Execute"
              },
              {
                "$type": "Comindware.Platform.Contracts.ResourcePrivilegeDescriptorModel, Comindware.Platform.Contracts",
                "Role": {
                  "$type": "Comindware.Platform.Contracts.GlobalAlias, Comindware.Platform.Contracts",
                  "Type": "RoleConfiguration",
                  "Alias": "Korporativnyyportal"
                },
                "Name": "Формирование протокола",
                "Target": {
                  "$type": "Comindware.Platform.Contracts.GlobalAlias, Comindware.Platform.Contracts",
                  "Type": "Form",
                  "Owner": "Soveschaniya",
                  "Alias": "form31720"
                },
                "Children": {
                  "$type": "System.Collections.Generic.List`1[[Comindware.Platform.Contracts.ResourcePrivilegeDescriptorModel, Comindware.Platform.Contracts]], mscorlib",
                  "$values": []
                },
                "TargetType": "Form",
                "Privileges": "Read",
                "AvailablePrivileges": "Read"
              },
              {
                "$type": "Comindware.Platform.Contracts.ResourcePrivilegeDescriptorModel, Comindware.Platform.Contracts",
                "Role": {
                  "$type": "Comindware.Platform.Contracts.GlobalAlias, Comindware.Platform.Contracts",
                  "Type": "RoleConfiguration",
                  "Alias": "Korporativnyyportal"
                },
                "Name": "Создать совещание",
                "Target": {
                  "$type": "Comindware.Platform.Contracts.GlobalAlias, Comindware.Platform.Contracts",
                  "Type": "UserCommand",
                  "Owner": "Soveschaniya",
                  "Alias": "Sozdatsoveschanie"
                },
                "Children": {
                  "$type": "System.Collections.Generic.List`1[[Comindware.Platform.Contracts.ResourcePrivilegeDescriptorModel, Comindware.Platform.Contracts]], mscorlib",
                  "$values": []
                },
                "TargetType": "Operation",
                "Privileges": "Execute",
                "AvailablePrivileges": "Execute"
              },
              {
                "$type": "Comindware.Platform.Contracts.ResourcePrivilegeDescriptorModel, Comindware.Platform.Contracts",
                "Role": {
                  "$type": "Comindware.Platform.Contracts.GlobalAlias, Comindware.Platform.Contracts",
                  "Type": "RoleConfiguration",
                  "Alias": "Korporativnyyportal"
                },
                "Name": "Протокол совещания",
                "Target": {
                  "$type": "Comindware.Platform.Contracts.GlobalAlias, Comindware.Platform.Contracts",
                  "Type": "Attribute",
                  "Owner": "Soveschaniya",
                  "Alias": "Protokolsoveschaniya"
                },
                "Children": {
                  "$type": "System.Collections.Generic.List`1[[Comindware.Platform.Contracts.ResourcePrivilegeDescriptorModel, Comindware.Platform.Contracts]], mscorlib",
                  "$values": []
                },
                "TargetType": "Document",
                "Privileges": "Execute",
                "AvailablePrivileges": "Execute"
              },
              {
                "$type": "Comindware.Platform.Contracts.ResourcePrivilegeDescriptorModel, Comindware.Platform.Contracts",
                "Role": {
                  "$type": "Comindware.Platform.Contracts.GlobalAlias, Comindware.Platform.Contracts",
                  "Type": "RoleConfiguration",
                  "Alias": "Korporativnyyportal"
                },
                "Name": "Документы ко встрече",
                "Target": {
                  "$type": "Comindware.Platform.Contracts.GlobalAlias, Comindware.Platform.Contracts",
                  "Type": "Attribute",
                  "Owner": "Soveschaniya",
                  "Alias": "Dokumentykovstreche"
                },
                "Children": {
                  "$type": "System.Collections.Generic.List`1[[Comindware.Platform.Contracts.ResourcePrivilegeDescriptorModel, Comindware.Platform.Contracts]], mscorlib",
                  "$values": []
                },
                "TargetType": "Document",
                "Privileges": "Execute",
                "AvailablePrivileges": "Execute"
              },
              {
                "$type": "Comindware.Platform.Contracts.ResourcePrivilegeDescriptorModel, Comindware.Platform.Contracts",
                "Role": {
                  "$type": "Comindware.Platform.Contracts.GlobalAlias, Comindware.Platform.Contracts",
                  "Type": "RoleConfiguration",
                  "Alias": "Korporativnyyportal"
                },
                "Name": "Все записи",
                "Target": {
                  "$type": "Comindware.Platform.Contracts.GlobalAlias, Comindware.Platform.Contracts",
                  "Type": "Dataset",
                  "Owner": "Soveschaniya",
                  "Alias": "defaultList"
                },
                "Children": {
                  "$type": "System.Collections.Generic.List`1[[Comindware.Platform.Contracts.ResourcePrivilegeDescriptorModel, Comindware.Platform.Contracts]], mscorlib",
                  "$values": []
                },
                "TargetType": "List",
                "Privileges": "Read",
                "AvailablePrivileges": "Read"
              }
            ]
          },
          "TargetType": "RecordTemplate",
          "Privileges": "Read, Create, Update",
          "AvailablePrivileges": "ContextUserExpression, ContextObjectCondition, Read, Create, Update, Delete, FullAccess"
        },
        {
          "$type": "Comindware.Platform.Contracts.ResourcePrivilegeDescriptorModel, Comindware.Platform.Contracts",
          "Role": {
            "$type": "Comindware.Platform.Contracts.GlobalAlias, Comindware.Platform.Contracts",
            "Type": "RoleConfiguration",
            "Alias": "Korporativnyyportal"
          },
          "Name": "Заявки в АХО",
          "Target": {
            "$type": "Comindware.Platform.Contracts.GlobalAlias, Comindware.Platform.Contracts",
            "Type": "RecordTemplate",
            "Alias": "ZayavkivAKhO"
          },
          "Children": {
            "$type": "System.Collections.Generic.List`1[[Comindware.Platform.Contracts.ResourcePrivilegeDescriptorModel, Comindware.Platform.Contracts]], mscorlib",
            "$values": [
              {
                "$type": "Comindware.Platform.Contracts.ResourcePrivilegeDescriptorModel, Comindware.Platform.Contracts",
                "Role": {
                  "$type": "Comindware.Platform.Contracts.GlobalAlias, Comindware.Platform.Contracts",
                  "Type": "RoleConfiguration",
                  "Alias": "Korporativnyyportal"
                },
                "Name": "Форма по умолчанию",
                "Target": {
                  "$type": "Comindware.Platform.Contracts.GlobalAlias, Comindware.Platform.Contracts",
                  "Type": "Form",
                  "Owner": "ZayavkivAKhO",
                  "Alias": "defaultForm"
                },
                "Children": {
                  "$type": "System.Collections.Generic.List`1[[Comindware.Platform.Contracts.ResourcePrivilegeDescriptorModel, Comindware.Platform.Contracts]], mscorlib",
                  "$values": []
                },
                "TargetType": "Form",
                "Privileges": "Read",
                "AvailablePrivileges": "Read"
              },
              {
                "$type": "Comindware.Platform.Contracts.ResourcePrivilegeDescriptorModel, Comindware.Platform.Contracts",
                "Role": {
                  "$type": "Comindware.Platform.Contracts.GlobalAlias, Comindware.Platform.Contracts",
                  "Type": "RoleConfiguration",
                  "Alias": "Korporativnyyportal"
                },
                "Name": "Уточнение заявки",
                "Target": {
                  "$type": "Comindware.Platform.Contracts.GlobalAlias, Comindware.Platform.Contracts",
                  "Type": "Form",
                  "Owner": "ZayavkivAKhO",
                  "Alias": "form2560"
                },
                "Children": {
                  "$type": "System.Collections.Generic.List`1[[Comindware.Platform.Contracts.ResourcePrivilegeDescriptorModel, Comindware.Platform.Contracts]], mscorlib",
                  "$values": []
                },
                "TargetType": "Form",
                "Privileges": "Read",
                "AvailablePrivileges": "Read"
              },
              {
                "$type": "Comindware.Platform.Contracts.ResourcePrivilegeDescriptorModel, Comindware.Platform.Contracts",
                "Role": {
                  "$type": "Comindware.Platform.Contracts.GlobalAlias, Comindware.Platform.Contracts",
                  "Type": "RoleConfiguration",
                  "Alias": "Korporativnyyportal"
                },
                "Name": "Сохранить",
                "Target": {
                  "$type": "Comindware.Platform.Contracts.GlobalAlias, Comindware.Platform.Contracts",
                  "Type": "UserCommand",
                  "Owner": "ZayavkivAKhO",
                  "Alias": "edit"
                },
                "Children": {
                  "$type": "System.Collections.Generic.List`1[[Comindware.Platform.Contracts.ResourcePrivilegeDescriptorModel, Comindware.Platform.Contracts]], mscorlib",
                  "$values": []
                },
                "TargetType": "Operation",
                "Privileges": "Execute",
                "AvailablePrivileges": "Execute"
              },
              {
                "$type": "Comindware.Platform.Contracts.ResourcePrivilegeDescriptorModel, Comindware.Platform.Contracts",
                "Role": {
                  "$type": "Comindware.Platform.Contracts.GlobalAlias, Comindware.Platform.Contracts",
                  "Type": "RoleConfiguration",
                  "Alias": "Korporativnyyportal"
                },
                "Name": "Создать заявку в АХО",
                "Target": {
                  "$type": "Comindware.Platform.Contracts.GlobalAlias, Comindware.Platform.Contracts",
                  "Type": "UserCommand",
                  "Owner": "ZayavkivAKhO",
                  "Alias": "SozdatzayavkuvAKhO"
                },
                "Children": {
                  "$type": "System.Collections.Generic.List`1[[Comindware.Platform.Contracts.ResourcePrivilegeDescriptorModel, Comindware.Platform.Contracts]], mscorlib",
                  "$values": []
                },
                "TargetType": "Operation",
                "Privileges": "Execute",
                "AvailablePrivileges": "Execute"
              },
              {
                "$type": "Comindware.Platform.Contracts.ResourcePrivilegeDescriptorModel, Comindware.Platform.Contracts",
                "Role": {
                  "$type": "Comindware.Platform.Contracts.GlobalAlias, Comindware.Platform.Contracts",
                  "Type": "RoleConfiguration",
                  "Alias": "Korporativnyyportal"
                },
                "Name": "Начальная форма",
                "Target": {
                  "$type": "Comindware.Platform.Contracts.GlobalAlias, Comindware.Platform.Contracts",
                  "Type": "Form",
                  "Owner": "ZayavkivAKhO",
                  "Alias": "form9582"
                },
                "Children": {
                  "$type": "System.Collections.Generic.List`1[[Comindware.Platform.Contracts.ResourcePrivilegeDescriptorModel, Comindware.Platform.Contracts]], mscorlib",
                  "$values": []
                },
                "TargetType": "Form",
                "Privileges": "Read",
                "AvailablePrivileges": "Read"
              },
              {
                "$type": "Comindware.Platform.Contracts.ResourcePrivilegeDescriptorModel, Comindware.Platform.Contracts",
                "Role": {
                  "$type": "Comindware.Platform.Contracts.GlobalAlias, Comindware.Platform.Contracts",
                  "Type": "RoleConfiguration",
                  "Alias": "Korporativnyyportal"
                },
                "Name": "Мои заявки",
                "Target": {
                  "$type": "Comindware.Platform.Contracts.GlobalAlias, Comindware.Platform.Contracts",
                  "Type": "Dataset",
                  "Owner": "ZayavkivAKhO",
                  "Alias": "Moizayavki"
                },
                "Children": {
                  "$type": "System.Collections.Generic.List`1[[Comindware.Platform.Contracts.ResourcePrivilegeDescriptorModel, Comindware.Platform.Contracts]], mscorlib",
                  "$values": []
                },
                "TargetType": "List",
                "Privileges": "Read",
                "AvailablePrivileges": "Read"
              },
              {
                "$type": "Comindware.Platform.Contracts.ResourcePrivilegeDescriptorModel, Comindware.Platform.Contracts",
                "Role": {
                  "$type": "Comindware.Platform.Contracts.GlobalAlias, Comindware.Platform.Contracts",
                  "Type": "RoleConfiguration",
                  "Alias": "Korporativnyyportal"
                },
                "Name": "Вложение",
                "Target": {
                  "$type": "Comindware.Platform.Contracts.GlobalAlias, Comindware.Platform.Contracts",
                  "Type": "Attribute",
                  "Owner": "ZayavkivAKhO",
                  "Alias": "Vlozhenie"
                },
                "Children": {
                  "$type": "System.Collections.Generic.List`1[[Comindware.Platform.Contracts.ResourcePrivilegeDescriptorModel, Comindware.Platform.Contracts]], mscorlib",
                  "$values": []
                },
                "TargetType": "Document",
                "Privileges": "Execute",
                "AvailablePrivileges": "Execute"
              }
            ]
          },
          "TargetType": "RecordTemplate",
          "Privileges": "Read, Create, Update",
          "AvailablePrivileges": "ContextUserExpression, ContextObjectCondition, Read, Create, Update, Delete, FullAccess"
        },
        {
          "$type": "Comindware.Platform.Contracts.ResourcePrivilegeDescriptorModel, Comindware.Platform.Contracts",
          "Role": {
            "$type": "Comindware.Platform.Contracts.GlobalAlias, Comindware.Platform.Contracts",
            "Type": "RoleConfiguration",
            "Alias": "Korporativnyyportal"
          },
          "Name": "Доска объявлений",
          "Target": {
            "$type": "Comindware.Platform.Contracts.GlobalAlias, Comindware.Platform.Contracts",
            "Type": "RecordTemplate",
            "Alias": "Doskaobyavleniy"
          },
          "Children": {
            "$type": "System.Collections.Generic.List`1[[Comindware.Platform.Contracts.ResourcePrivilegeDescriptorModel, Comindware.Platform.Contracts]], mscorlib",
            "$values": [
              {
                "$type": "Comindware.Platform.Contracts.ResourcePrivilegeDescriptorModel, Comindware.Platform.Contracts",
                "Role": {
                  "$type": "Comindware.Platform.Contracts.GlobalAlias, Comindware.Platform.Contracts",
                  "Type": "RoleConfiguration",
                  "Alias": "Korporativnyyportal"
                },
                "Name": "Начальная форма",
                "Target": {
                  "$type": "Comindware.Platform.Contracts.GlobalAlias, Comindware.Platform.Contracts",
                  "Type": "Form",
                  "Owner": "Doskaobyavleniy",
                  "Alias": "Nachalnayaforma"
                },
                "Children": {
                  "$type": "System.Collections.Generic.List`1[[Comindware.Platform.Contracts.ResourcePrivilegeDescriptorModel, Comindware.Platform.Contracts]], mscorlib",
                  "$values": []
                },
                "TargetType": "Form",
                "Privileges": "Read",
                "AvailablePrivileges": "Read"
              },
              {
                "$type": "Comindware.Platform.Contracts.ResourcePrivilegeDescriptorModel, Comindware.Platform.Contracts",
                "Role": {
                  "$type": "Comindware.Platform.Contracts.GlobalAlias, Comindware.Platform.Contracts",
                  "Type": "RoleConfiguration",
                  "Alias": "Korporativnyyportal"
                },
                "Name": "Удалить",
                "Target": {
                  "$type": "Comindware.Platform.Contracts.GlobalAlias, Comindware.Platform.Contracts",
                  "Type": "UserCommand",
                  "Owner": "Doskaobyavleniy",
                  "Alias": "delete"
                },
                "Children": {
                  "$type": "System.Collections.Generic.List`1[[Comindware.Platform.Contracts.ResourcePrivilegeDescriptorModel, Comindware.Platform.Contracts]], mscorlib",
                  "$values": []
                },
                "TargetType": "Operation",
                "Privileges": "Execute",
                "AvailablePrivileges": "Execute"
              },
              {
                "$type": "Comindware.Platform.Contracts.ResourcePrivilegeDescriptorModel, Comindware.Platform.Contracts",
                "Role": {
                  "$type": "Comindware.Platform.Contracts.GlobalAlias, Comindware.Platform.Contracts",
                  "Type": "RoleConfiguration",
                  "Alias": "Korporativnyyportal"
                },
                "Name": "Сохранить",
                "Target": {
                  "$type": "Comindware.Platform.Contracts.GlobalAlias, Comindware.Platform.Contracts",
                  "Type": "UserCommand",
                  "Owner": "Doskaobyavleniy",
                  "Alias": "edit"
                },
                "Children": {
                  "$type": "System.Collections.Generic.List`1[[Comindware.Platform.Contracts.ResourcePrivilegeDescriptorModel, Comindware.Platform.Contracts]], mscorlib",
                  "$values": []
                },
                "TargetType": "Operation",
                "Privileges": "Execute",
                "AvailablePrivileges": "Execute"
              },
              {
                "$type": "Comindware.Platform.Contracts.ResourcePrivilegeDescriptorModel, Comindware.Platform.Contracts",
                "Role": {
                  "$type": "Comindware.Platform.Contracts.GlobalAlias, Comindware.Platform.Contracts",
                  "Type": "RoleConfiguration",
                  "Alias": "Korporativnyyportal"
                },
                "Name": "Создать",
                "Target": {
                  "$type": "Comindware.Platform.Contracts.GlobalAlias, Comindware.Platform.Contracts",
                  "Type": "UserCommand",
                  "Owner": "Doskaobyavleniy",
                  "Alias": "create"
                },
                "Children": {
                  "$type": "System.Collections.Generic.List`1[[Comindware.Platform.Contracts.ResourcePrivilegeDescriptorModel, Comindware.Platform.Contracts]], mscorlib",
                  "$values": []
                },
                "TargetType": "Operation",
                "Privileges": "Execute",
                "AvailablePrivileges": "Execute"
              },
              {
                "$type": "Comindware.Platform.Contracts.ResourcePrivilegeDescriptorModel, Comindware.Platform.Contracts",
                "Role": {
                  "$type": "Comindware.Platform.Contracts.GlobalAlias, Comindware.Platform.Contracts",
                  "Type": "RoleConfiguration",
                  "Alias": "Korporativnyyportal"
                },
                "Name": "Основная форма",
                "Target": {
                  "$type": "Comindware.Platform.Contracts.GlobalAlias, Comindware.Platform.Contracts",
                  "Type": "Form",
                  "Owner": "Doskaobyavleniy",
                  "Alias": "defaultForm"
                },
                "Children": {
                  "$type": "System.Collections.Generic.List`1[[Comindware.Platform.Contracts.ResourcePrivilegeDescriptorModel, Comindware.Platform.Contracts]], mscorlib",
                  "$values": []
                },
                "TargetType": "Form",
                "Privileges": "Read",
                "AvailablePrivileges": "Read"
              },
              {
                "$type": "Comindware.Platform.Contracts.ResourcePrivilegeDescriptorModel, Comindware.Platform.Contracts",
                "Role": {
                  "$type": "Comindware.Platform.Contracts.GlobalAlias, Comindware.Platform.Contracts",
                  "Type": "RoleConfiguration",
                  "Alias": "Korporativnyyportal"
                },
                "Name": "Все записи",
                "Target": {
                  "$type": "Comindware.Platform.Contracts.GlobalAlias, Comindware.Platform.Contracts",
                  "Type": "Dataset",
                  "Owner": "Doskaobyavleniy",
                  "Alias": "defaultList"
                },
                "Children": {
                  "$type": "System.Collections.Generic.List`1[[Comindware.Platform.Contracts.ResourcePrivilegeDescriptorModel, Comindware.Platform.Contracts]], mscorlib",
                  "$values": []
                },
                "TargetType": "List",
                "Privileges": "Read",
                "AvailablePrivileges": "Read"
              }
            ]
          },
          "TargetType": "RecordTemplate",
          "Privileges": "Read, Create, Update, Delete",
          "AvailablePrivileges": "ContextUserExpression, ContextObjectCondition, Read, Create, Update, Delete, FullAccess"
        },
        {
          "$type": "Comindware.Platform.Contracts.ResourcePrivilegeDescriptorModel, Comindware.Platform.Contracts",
          "Role": {
            "$type": "Comindware.Platform.Contracts.GlobalAlias, Comindware.Platform.Contracts",
            "Type": "RoleConfiguration",
            "Alias": "Korporativnyyportal"
          },
          "Name": "Сотрудники Easy Media",
          "Description": "Для корпоративного портала",
          "Target": {
            "$type": "Comindware.Platform.Contracts.GlobalAlias, Comindware.Platform.Contracts",
            "Type": "AccountTemplate",
            "Alias": "SotrudnikEasyMedia"
          },
          "Children": {
            "$type": "System.Collections.Generic.List`1[[Comindware.Platform.Contracts.ResourcePrivilegeDescriptorModel, Comindware.Platform.Contracts]], mscorlib",
            "$values": [
              {
                "$type": "Comindware.Platform.Contracts.ResourcePrivilegeDescriptorModel, Comindware.Platform.Contracts",
                "Role": {
                  "$type": "Comindware.Platform.Contracts.GlobalAlias, Comindware.Platform.Contracts",
                  "Type": "RoleConfiguration",
                  "Alias": "Korporativnyyportal"
                },
                "Name": "Cотрудники Easy Media",
                "Target": {
                  "$type": "Comindware.Platform.Contracts.GlobalAlias, Comindware.Platform.Contracts",
                  "Type": "Dataset",
                  "Owner": "SotrudnikEasyMedia",
                  "Alias": "C2"
                },
                "Children": {
                  "$type": "System.Collections.Generic.List`1[[Comindware.Platform.Contracts.ResourcePrivilegeDescriptorModel, Comindware.Platform.Contracts]], mscorlib",
                  "$values": []
                },
                "TargetType": "List",
                "Privileges": "Read",
                "AvailablePrivileges": "Read"
              },
              {
                "$type": "Comindware.Platform.Contracts.ResourcePrivilegeDescriptorModel, Comindware.Platform.Contracts",
                "Role": {
                  "$type": "Comindware.Platform.Contracts.GlobalAlias, Comindware.Platform.Contracts",
                  "Type": "RoleConfiguration",
                  "Alias": "Korporativnyyportal"
                },
                "Name": "Основная форма",
                "Target": {
                  "$type": "Comindware.Platform.Contracts.GlobalAlias, Comindware.Platform.Contracts",
                  "Type": "Form",
                  "Owner": "SotrudnikEasyMedia",
                  "Alias": "defaultForm"
                },
                "Children": {
                  "$type": "System.Collections.Generic.List`1[[Comindware.Platform.Contracts.ResourcePrivilegeDescriptorModel, Comindware.Platform.Contracts]], mscorlib",
                  "$values": []
                },
                "TargetType": "Form",
                "Privileges": "Read",
                "AvailablePrivileges": "Read"
              }
            ]
          },
          "TargetType": "AccountTemplate",
          "Privileges": "Read",
          "AvailablePrivileges": "ContextUserExpression, ContextObjectCondition, Read, Create, Update, Delete, FullAccess"
        },
        {
          "$type": "Comindware.Platform.Contracts.ResourcePrivilegeDescriptorModel, Comindware.Platform.Contracts",
          "Role": {
            "$type": "Comindware.Platform.Contracts.GlobalAlias, Comindware.Platform.Contracts",
            "Type": "RoleConfiguration",
            "Alias": "Korporativnyyportal"
          },
          "Name": "Обращение в техподдержку",
          "Target": {
            "$type": "Comindware.Platform.Contracts.GlobalAlias, Comindware.Platform.Contracts",
            "Type": "ProcessTemplate",
            "Alias": "Obraschenievtekhpodderzhku"
          },
          "Children": {
            "$type": "System.Collections.Generic.List`1[[Comindware.Platform.Contracts.ResourcePrivilegeDescriptorModel, Comindware.Platform.Contracts]], mscorlib",
            "$values": [
              {
                "$type": "Comindware.Platform.Contracts.ResourcePrivilegeDescriptorModel, Comindware.Platform.Contracts",
                "Role": {
                  "$type": "Comindware.Platform.Contracts.GlobalAlias, Comindware.Platform.Contracts",
                  "Type": "RoleConfiguration",
                  "Alias": "Korporativnyyportal"
                },
                "Name": "Завершить задачу",
                "Target": {
                  "$type": "Comindware.Platform.Contracts.GlobalAlias, Comindware.Platform.Contracts",
                  "Type": "UserCommand",
                  "Owner": "Obraschenievtekhpodderzhku",
                  "Alias": "completeTask"
                },
                "Children": {
                  "$type": "System.Collections.Generic.List`1[[Comindware.Platform.Contracts.ResourcePrivilegeDescriptorModel, Comindware.Platform.Contracts]], mscorlib",
                  "$values": []
                },
                "TargetType": "Operation",
                "Privileges": "Execute",
                "AvailablePrivileges": "Execute"
              },
              {
                "$type": "Comindware.Platform.Contracts.ResourcePrivilegeDescriptorModel, Comindware.Platform.Contracts",
                "Role": {
                  "$type": "Comindware.Platform.Contracts.GlobalAlias, Comindware.Platform.Contracts",
                  "Type": "RoleConfiguration",
                  "Alias": "Korporativnyyportal"
                },
                "Name": "Создать",
                "Target": {
                  "$type": "Comindware.Platform.Contracts.GlobalAlias, Comindware.Platform.Contracts",
                  "Type": "UserCommand",
                  "Owner": "Obraschenievtekhpodderzhku",
                  "Alias": "createProcess"
                },
                "Children": {
                  "$type": "System.Collections.Generic.List`1[[Comindware.Platform.Contracts.ResourcePrivilegeDescriptorModel, Comindware.Platform.Contracts]], mscorlib",
                  "$values": []
                },
                "TargetType": "Operation",
                "Privileges": "Execute",
                "AvailablePrivileges": "Execute"
              }
            ]
          },
          "TargetType": "ProcessTemplate",
          "Privileges": "Read, Create, Update",
          "AvailablePrivileges": "ContextUserExpression, ContextObjectCondition, Read, Create, Update, Delete, FullAccess"
        },
        {
          "$type": "Comindware.Platform.Contracts.ResourcePrivilegeDescriptorModel, Comindware.Platform.Contracts",
          "Role": {
            "$type": "Comindware.Platform.Contracts.GlobalAlias, Comindware.Platform.Contracts",
            "Type": "RoleConfiguration",
            "Alias": "Korporativnyyportal"
          },
          "Name": "Обращения в техподдержку",
          "Description": "Обращения пользователей в техподдержку",
          "Target": {
            "$type": "Comindware.Platform.Contracts.GlobalAlias, Comindware.Platform.Contracts",
            "Type": "RecordTemplate",
            "Alias": "Obrascheniyavtekhpodderzhku"
          },
          "Children": {
            "$type": "System.Collections.Generic.List`1[[Comindware.Platform.Contracts.ResourcePrivilegeDescriptorModel, Comindware.Platform.Contracts]], mscorlib",
            "$values": [
              {
                "$type": "Comindware.Platform.Contracts.ResourcePrivilegeDescriptorModel, Comindware.Platform.Contracts",
                "Role": {
                  "$type": "Comindware.Platform.Contracts.GlobalAlias, Comindware.Platform.Contracts",
                  "Type": "RoleConfiguration",
                  "Alias": "Korporativnyyportal"
                },
                "Name": "Стартовая форма",
                "Target": {
                  "$type": "Comindware.Platform.Contracts.GlobalAlias, Comindware.Platform.Contracts",
                  "Type": "Form",
                  "Owner": "Obrascheniyavtekhpodderzhku",
                  "Alias": "defaultForm"
                },
                "Children": {
                  "$type": "System.Collections.Generic.List`1[[Comindware.Platform.Contracts.ResourcePrivilegeDescriptorModel, Comindware.Platform.Contracts]], mscorlib",
                  "$values": []
                },
                "TargetType": "Form",
                "Privileges": "Read",
                "AvailablePrivileges": "Read"
              },
              {
                "$type": "Comindware.Platform.Contracts.ResourcePrivilegeDescriptorModel, Comindware.Platform.Contracts",
                "Role": {
                  "$type": "Comindware.Platform.Contracts.GlobalAlias, Comindware.Platform.Contracts",
                  "Type": "RoleConfiguration",
                  "Alias": "Korporativnyyportal"
                },
                "Name": "Создать обращение",
                "Target": {
                  "$type": "Comindware.Platform.Contracts.GlobalAlias, Comindware.Platform.Contracts",
                  "Type": "UserCommand",
                  "Owner": "Obrascheniyavtekhpodderzhku",
                  "Alias": "Sozdatobraschenie"
                },
                "Children": {
                  "$type": "System.Collections.Generic.List`1[[Comindware.Platform.Contracts.ResourcePrivilegeDescriptorModel, Comindware.Platform.Contracts]], mscorlib",
                  "$values": []
                },
                "TargetType": "Operation",
                "Privileges": "Execute",
                "AvailablePrivileges": "Execute"
              },
              {
                "$type": "Comindware.Platform.Contracts.ResourcePrivilegeDescriptorModel, Comindware.Platform.Contracts",
                "Role": {
                  "$type": "Comindware.Platform.Contracts.GlobalAlias, Comindware.Platform.Contracts",
                  "Type": "RoleConfiguration",
                  "Alias": "Korporativnyyportal"
                },
                "Name": "Список моих обращений",
                "Target": {
                  "$type": "Comindware.Platform.Contracts.GlobalAlias, Comindware.Platform.Contracts",
                  "Type": "Dataset",
                  "Owner": "Obrascheniyavtekhpodderzhku",
                  "Alias": "defaultList"
                },
                "Children": {
                  "$type": "System.Collections.Generic.List`1[[Comindware.Platform.Contracts.ResourcePrivilegeDescriptorModel, Comindware.Platform.Contracts]], mscorlib",
                  "$values": []
                },
                "TargetType": "List",
                "Privileges": "Read",
                "AvailablePrivileges": "Read"
              }
            ]
          },
          "TargetType": "RecordTemplate",
          "Privileges": "Read, Create, Update",
          "AvailablePrivileges": "ContextUserExpression, ContextObjectCondition, Read, Create, Update, Delete, FullAccess"
        },
        {
          "$type": "Comindware.Platform.Contracts.ResourcePrivilegeDescriptorModel, Comindware.Platform.Contracts",
          "Role": {
            "$type": "Comindware.Platform.Contracts.GlobalAlias, Comindware.Platform.Contracts",
            "Type": "RoleConfiguration",
            "Alias": "Korporativnyyportal"
          },
          "Name": "ИТ-поддержка",
          "Target": {
            "$type": "Comindware.Platform.Contracts.GlobalAlias, Comindware.Platform.Contracts",
            "Type": "RecordTemplate",
            "Alias": "ITpodderzhka"
          },
          "Children": {
            "$type": "System.Collections.Generic.List`1[[Comindware.Platform.Contracts.ResourcePrivilegeDescriptorModel, Comindware.Platform.Contracts]], mscorlib",
            "$values": [
              {
                "$type": "Comindware.Platform.Contracts.ResourcePrivilegeDescriptorModel, Comindware.Platform.Contracts",
                "Role": {
                  "$type": "Comindware.Platform.Contracts.GlobalAlias, Comindware.Platform.Contracts",
                  "Type": "RoleConfiguration",
                  "Alias": "Korporativnyyportal"
                },
                "Name": "Основная форма",
                "Target": {
                  "$type": "Comindware.Platform.Contracts.GlobalAlias, Comindware.Platform.Contracts",
                  "Type": "Form",
                  "Owner": "ITpodderzhka",
                  "Alias": "defaultForm"
                },
                "Children": {
                  "$type": "System.Collections.Generic.List`1[[Comindware.Platform.Contracts.ResourcePrivilegeDescriptorModel, Comindware.Platform.Contracts]], mscorlib",
                  "$values": []
                },
                "TargetType": "Form",
                "Privileges": "Read",
                "AvailablePrivileges": "Read"
              },
              {
                "$type": "Comindware.Platform.Contracts.ResourcePrivilegeDescriptorModel, Comindware.Platform.Contracts",
                "Role": {
                  "$type": "Comindware.Platform.Contracts.GlobalAlias, Comindware.Platform.Contracts",
                  "Type": "RoleConfiguration",
                  "Alias": "Korporativnyyportal"
                },
                "Name": "Создать заявку",
                "Target": {
                  "$type": "Comindware.Platform.Contracts.GlobalAlias, Comindware.Platform.Contracts",
                  "Type": "UserCommand",
                  "Owner": "ITpodderzhka",
                  "Alias": "Sozdatzayavku"
                },
                "Children": {
                  "$type": "System.Collections.Generic.List`1[[Comindware.Platform.Contracts.ResourcePrivilegeDescriptorModel, Comindware.Platform.Contracts]], mscorlib",
                  "$values": []
                },
                "TargetType": "Operation",
                "Privileges": "Execute",
                "AvailablePrivileges": "Execute"
              },
              {
                "$type": "Comindware.Platform.Contracts.ResourcePrivilegeDescriptorModel, Comindware.Platform.Contracts",
                "Role": {
                  "$type": "Comindware.Platform.Contracts.GlobalAlias, Comindware.Platform.Contracts",
                  "Type": "RoleConfiguration",
                  "Alias": "Korporativnyyportal"
                },
                "Name": "Мои заявки",
                "Target": {
                  "$type": "Comindware.Platform.Contracts.GlobalAlias, Comindware.Platform.Contracts",
                  "Type": "Dataset",
                  "Owner": "ITpodderzhka",
                  "Alias": "defaultList"
                },
                "Children": {
                  "$type": "System.Collections.Generic.List`1[[Comindware.Platform.Contracts.ResourcePrivilegeDescriptorModel, Comindware.Platform.Contracts]], mscorlib",
                  "$values": []
                },
                "TargetType": "List",
                "Privileges": "Read",
                "AvailablePrivileges": "Read"
              }
            ]
          },
          "TargetType": "RecordTemplate",
          "Privileges": "Read, Create, Update",
          "AvailablePrivileges": "ContextUserExpression, ContextObjectCondition, Read, Create, Update, Delete, FullAccess"
        },
        {
          "$type": "Comindware.Platform.Contracts.ResourcePrivilegeDescriptorModel, Comindware.Platform.Contracts",
          "Role": {
            "$type": "Comindware.Platform.Contracts.GlobalAlias, Comindware.Platform.Contracts",
            "Type": "RoleConfiguration",
            "Alias": "Korporativnyyportal"
          },
          "Name": "ИТ-поддержка",
          "Target": {
            "$type": "Comindware.Platform.Contracts.GlobalAlias, Comindware.Platform.Contracts",
            "Type": "ProcessTemplate",
            "Alias": "ITpodderzhkaprocess"
          },
          "Children": {
            "$type": "System.Collections.Generic.List`1[[Comindware.Platform.Contracts.ResourcePrivilegeDescriptorModel, Comindware.Platform.Contracts]], mscorlib",
            "$values": [
              {
                "$type": "Comindware.Platform.Contracts.ResourcePrivilegeDescriptorModel, Comindware.Platform.Contracts",
                "Role": {
                  "$type": "Comindware.Platform.Contracts.GlobalAlias, Comindware.Platform.Contracts",
                  "Type": "RoleConfiguration",
                  "Alias": "Korporativnyyportal"
                },
                "Name": "Все записи",
                "Target": {
                  "$type": "Comindware.Platform.Contracts.GlobalAlias, Comindware.Platform.Contracts",
                  "Type": "Dataset",
                  "Owner": "ITpodderzhkaprocess",
                  "Alias": "defaultList"
                },
                "Children": {
                  "$type": "System.Collections.Generic.List`1[[Comindware.Platform.Contracts.ResourcePrivilegeDescriptorModel, Comindware.Platform.Contracts]], mscorlib",
                  "$values": []
                },
                "TargetType": "List",
                "Privileges": "Read",
                "AvailablePrivileges": "Read"
              }
            ]
          },
          "TargetType": "ProcessTemplate",
          "Privileges": "Read, Create",
          "AvailablePrivileges": "ContextUserExpression, ContextObjectCondition, Read, Create, Update, Delete, FullAccess"
        },
        {
          "$type": "Comindware.Platform.Contracts.ResourcePrivilegeDescriptorModel, Comindware.Platform.Contracts",
          "Role": {
            "$type": "Comindware.Platform.Contracts.GlobalAlias, Comindware.Platform.Contracts",
            "Type": "RoleConfiguration",
            "Alias": "Korporativnyyportal"
          },
          "Name": "Контрагенты",
          "Target": {
            "$type": "Comindware.Platform.Contracts.GlobalAlias, Comindware.Platform.Contracts",
            "Type": "RecordTemplate",
            "Alias": "Kontragenty"
          },
          "Children": {
            "$type": "System.Collections.Generic.List`1[[Comindware.Platform.Contracts.ResourcePrivilegeDescriptorModel, Comindware.Platform.Contracts]], mscorlib",
            "$values": []
          },
          "TargetType": "RecordTemplate",
          "Privileges": "Read, Update",
          "AvailablePrivileges": "ContextUserExpression, ContextObjectCondition, Read, Create, Update, Delete, FullAccess"
        },
        {
          "$type": "Comindware.Platform.Contracts.ResourcePrivilegeDescriptorModel, Comindware.Platform.Contracts",
          "Role": {
            "$type": "Comindware.Platform.Contracts.GlobalAlias, Comindware.Platform.Contracts",
            "Type": "RoleConfiguration",
            "Alias": "Korporativnyyportal"
          },
          "Name": "Свободный запрос",
          "Target": {
            "$type": "Comindware.Platform.Contracts.GlobalAlias, Comindware.Platform.Contracts",
            "Type": "RecordTemplate",
            "Alias": "Svobodnyyzapros"
          },
          "Children": {
            "$type": "System.Collections.Generic.List`1[[Comindware.Platform.Contracts.ResourcePrivilegeDescriptorModel, Comindware.Platform.Contracts]], mscorlib",
            "$values": [
              {
                "$type": "Comindware.Platform.Contracts.ResourcePrivilegeDescriptorModel, Comindware.Platform.Contracts",
                "Role": {
                  "$type": "Comindware.Platform.Contracts.GlobalAlias, Comindware.Platform.Contracts",
                  "Type": "RoleConfiguration",
                  "Alias": "Korporativnyyportal"
                },
                "Name": "Мои запросы",
                "Target": {
                  "$type": "Comindware.Platform.Contracts.GlobalAlias, Comindware.Platform.Contracts",
                  "Type": "Dataset",
                  "Owner": "Svobodnyyzapros",
                  "Alias": "defaultList"
                },
                "Children": {
                  "$type": "System.Collections.Generic.List`1[[Comindware.Platform.Contracts.ResourcePrivilegeDescriptorModel, Comindware.Platform.Contracts]], mscorlib",
                  "$values": []
                },
                "TargetType": "List",
                "Privileges": "Read",
                "AvailablePrivileges": "Read"
              },
              {
                "$type": "Comindware.Platform.Contracts.ResourcePrivilegeDescriptorModel, Comindware.Platform.Contracts",
                "Role": {
                  "$type": "Comindware.Platform.Contracts.GlobalAlias, Comindware.Platform.Contracts",
                  "Type": "RoleConfiguration",
                  "Alias": "Korporativnyyportal"
                },
                "Name": "Начальная форма",
                "Target": {
                  "$type": "Comindware.Platform.Contracts.GlobalAlias, Comindware.Platform.Contracts",
                  "Type": "Form",
                  "Owner": "Svobodnyyzapros",
                  "Alias": "defaultForm"
                },
                "Children": {
                  "$type": "System.Collections.Generic.List`1[[Comindware.Platform.Contracts.ResourcePrivilegeDescriptorModel, Comindware.Platform.Contracts]], mscorlib",
                  "$values": []
                },
                "TargetType": "Form",
                "Privileges": "Read",
                "AvailablePrivileges": "Read"
              },
              {
                "$type": "Comindware.Platform.Contracts.ResourcePrivilegeDescriptorModel, Comindware.Platform.Contracts",
                "Role": {
                  "$type": "Comindware.Platform.Contracts.GlobalAlias, Comindware.Platform.Contracts",
                  "Type": "RoleConfiguration",
                  "Alias": "Korporativnyyportal"
                },
                "Name": "Согласование",
                "Target": {
                  "$type": "Comindware.Platform.Contracts.GlobalAlias, Comindware.Platform.Contracts",
                  "Type": "Form",
                  "Owner": "Svobodnyyzapros",
                  "Alias": "form30299"
                },
                "Children": {
                  "$type": "System.Collections.Generic.List`1[[Comindware.Platform.Contracts.ResourcePrivilegeDescriptorModel, Comindware.Platform.Contracts]], mscorlib",
                  "$values": []
                },
                "TargetType": "Form",
                "Privileges": "Read",
                "AvailablePrivileges": "Read"
              },
              {
                "$type": "Comindware.Platform.Contracts.ResourcePrivilegeDescriptorModel, Comindware.Platform.Contracts",
                "Role": {
                  "$type": "Comindware.Platform.Contracts.GlobalAlias, Comindware.Platform.Contracts",
                  "Type": "RoleConfiguration",
                  "Alias": "Korporativnyyportal"
                },
                "Name": "Создать запрос",
                "Target": {
                  "$type": "Comindware.Platform.Contracts.GlobalAlias, Comindware.Platform.Contracts",
                  "Type": "UserCommand",
                  "Owner": "Svobodnyyzapros",
                  "Alias": "Sozdatzapros"
                },
                "Children": {
                  "$type": "System.Collections.Generic.List`1[[Comindware.Platform.Contracts.ResourcePrivilegeDescriptorModel, Comindware.Platform.Contracts]], mscorlib",
                  "$values": []
                },
                "TargetType": "Operation",
                "Privileges": "Execute",
                "AvailablePrivileges": "Execute"
              },
              {
                "$type": "Comindware.Platform.Contracts.ResourcePrivilegeDescriptorModel, Comindware.Platform.Contracts",
                "Role": {
                  "$type": "Comindware.Platform.Contracts.GlobalAlias, Comindware.Platform.Contracts",
                  "Type": "RoleConfiguration",
                  "Alias": "Korporativnyyportal"
                },
                "Name": "Уточнение",
                "Target": {
                  "$type": "Comindware.Platform.Contracts.GlobalAlias, Comindware.Platform.Contracts",
                  "Type": "Form",
                  "Owner": "Svobodnyyzapros",
                  "Alias": "Utochnenie"
                },
                "Children": {
                  "$type": "System.Collections.Generic.List`1[[Comindware.Platform.Contracts.ResourcePrivilegeDescriptorModel, Comindware.Platform.Contracts]], mscorlib",
                  "$values": []
                },
                "TargetType": "Form",
                "Privileges": "Read",
                "AvailablePrivileges": "Read"
              }
            ]
          },
          "TargetType": "RecordTemplate",
          "Privileges": "Read, Create, Update",
          "AvailablePrivileges": "ContextUserExpression, ContextObjectCondition, Read, Create, Update, Delete, FullAccess"
        },
        {
          "$type": "Comindware.Platform.Contracts.ResourcePrivilegeDescriptorModel, Comindware.Platform.Contracts",
          "Role": {
            "$type": "Comindware.Platform.Contracts.GlobalAlias, Comindware.Platform.Contracts",
            "Type": "RoleConfiguration",
            "Alias": "Korporativnyyportal"
          },
          "Name": "Свободный запрос",
          "Target": {
            "$type": "Comindware.Platform.Contracts.GlobalAlias, Comindware.Platform.Contracts",
            "Type": "ProcessTemplate",
            "Alias": "Svobodnyyzaprosprocess"
          },
          "Children": {
            "$type": "System.Collections.Generic.List`1[[Comindware.Platform.Contracts.ResourcePrivilegeDescriptorModel, Comindware.Platform.Contracts]], mscorlib",
            "$values": [
              {
                "$type": "Comindware.Platform.Contracts.ResourcePrivilegeDescriptorModel, Comindware.Platform.Contracts",
                "Role": {
                  "$type": "Comindware.Platform.Contracts.GlobalAlias, Comindware.Platform.Contracts",
                  "Type": "RoleConfiguration",
                  "Alias": "Korporativnyyportal"
                },
                "Name": "Завершить задачу",
                "Target": {
                  "$type": "Comindware.Platform.Contracts.GlobalAlias, Comindware.Platform.Contracts",
                  "Type": "UserCommand",
                  "Owner": "Svobodnyyzaprosprocess",
                  "Alias": "completeTask"
                },
                "Children": {
                  "$type": "System.Collections.Generic.List`1[[Comindware.Platform.Contracts.ResourcePrivilegeDescriptorModel, Comindware.Platform.Contracts]], mscorlib",
                  "$values": []
                },
                "TargetType": "Operation",
                "Privileges": "Execute",
                "AvailablePrivileges": "Execute"
              }
            ]
          },
          "TargetType": "ProcessTemplate",
          "Privileges": "Read, Create",
          "AvailablePrivileges": "ContextUserExpression, ContextObjectCondition, Read, Create, Update, Delete, FullAccess"
        },
        {
          "$type": "Comindware.Platform.Contracts.ResourcePrivilegeDescriptorModel, Comindware.Platform.Contracts",
          "Role": {
            "$type": "Comindware.Platform.Contracts.GlobalAlias, Comindware.Platform.Contracts",
            "Type": "RoleConfiguration",
            "Alias": "Korporativnyyportal"
          },
          "Name": "Согласование",
          "Target": {
            "$type": "Comindware.Platform.Contracts.GlobalAlias, Comindware.Platform.Contracts",
            "Type": "RecordTemplate",
            "Alias": "Soglasovanie"
          },
          "Children": {
            "$type": "System.Collections.Generic.List`1[[Comindware.Platform.Contracts.ResourcePrivilegeDescriptorModel, Comindware.Platform.Contracts]], mscorlib",
            "$values": []
          },
          "TargetType": "RecordTemplate",
          "Privileges": "Read",
          "AvailablePrivileges": "ContextUserExpression, ContextObjectCondition, Read, Create, Update, Delete, FullAccess"
        },
        {
          "$type": "Comindware.Platform.Contracts.ResourcePrivilegeDescriptorModel, Comindware.Platform.Contracts",
          "Role": {
            "$type": "Comindware.Platform.Contracts.GlobalAlias, Comindware.Platform.Contracts",
            "Type": "RoleConfiguration",
            "Alias": "Korporativnyyportal"
          },
          "Name": "Статусы обращений",
          "Description": "Статусы обращений в техподдержку",
          "Target": {
            "$type": "Comindware.Platform.Contracts.GlobalAlias, Comindware.Platform.Contracts",
            "Type": "RecordTemplate",
            "Alias": "Statusyobrascheniy"
          },
          "Children": {
            "$type": "System.Collections.Generic.List`1[[Comindware.Platform.Contracts.ResourcePrivilegeDescriptorModel, Comindware.Platform.Contracts]], mscorlib",
            "$values": []
          },
          "TargetType": "RecordTemplate",
          "Privileges": "Read",
          "AvailablePrivileges": "ContextUserExpression, ContextObjectCondition, Read, Create, Update, Delete, FullAccess"
        }
      ]
    },
    "TargetType": "BusinessApp",
    "Privileges": "Undefined",
    "AvailablePrivileges": "Read, Create, Update, Delete, FullAccess"
  }
}