{
  "$type": "Comindware.Platform.Contracts.RoleConfigurationModel, Comindware.Platform.Contracts",
  "GlobalAlias": {
    "$type": "Comindware.Platform.Contracts.GlobalAlias, Comindware.Platform.Contracts",
    "Type": "RoleConfiguration",
    "Alias": "LevelIII"
  },
  "Name": "Level III",
  "IsActive": false,
  "Members": {
    "$type": "System.Collections.Generic.List`1[[Comindware.Platform.Contracts.GlobalAlias, Comindware.Platform.Contracts]], mscorlib",
    "$values": []
  },
  "RootResource": {
    "$type": "Comindware.Platform.Contracts.ResourcePrivilegeDescriptorModel, Comindware.Platform.Contracts",
    "Role": {
      "$type": "Comindware.Platform.Contracts.GlobalAlias, Comindware.Platform.Contracts",
      "Type": "RoleConfiguration",
      "Alias": "LevelIII"
    },
    "Name": "Экосистема рекламного рынка",
    "Target": {
      "$type": "Comindware.Platform.Contracts.GlobalAlias, Comindware.Platform.Contracts",
      "Type": "Solution",
      "Alias": "Ekosistemareklamnogorynka"
    },
    "Children": {
      "$type": "System.Collections.Generic.List`1[[Comindware.Platform.Contracts.ResourcePrivilegeDescriptorModel, Comindware.Platform.Contracts]], mscorlib",
      "$values": [
        {
          "$type": "Comindware.Platform.Contracts.ResourcePrivilegeDescriptorModel, Comindware.Platform.Contracts",
          "Role": {
            "$type": "Comindware.Platform.Contracts.GlobalAlias, Comindware.Platform.Contracts",
            "Type": "RoleConfiguration",
            "Alias": "LevelIII"
          },
          "Name": "Контрагенты",
          "Target": {
            "$type": "Comindware.Platform.Contracts.GlobalAlias, Comindware.Platform.Contracts",
            "Type": "RecordTemplate",
            "Alias": "Kontragenty"
          },
          "Children": {
            "$type": "System.Collections.Generic.List`1[[Comindware.Platform.Contracts.ResourcePrivilegeDescriptorModel, Comindware.Platform.Contracts]], mscorlib",
            "$values": []
          },
          "TargetType": "RecordTemplate",
          "Privileges": "Create",
          "AvailablePrivileges": "ContextUserExpression, ContextObjectCondition, Read, Create, Update, Delete, FullAccess"
        },
        {
          "$type": "Comindware.Platform.Contracts.ResourcePrivilegeDescriptorModel, Comindware.Platform.Contracts",
          "Role": {
            "$type": "Comindware.Platform.Contracts.GlobalAlias, Comindware.Platform.Contracts",
            "Type": "RoleConfiguration",
            "Alias": "LevelIII"
          },
          "Name": "Организационно-штатная структура",
          "Target": {
            "$type": "Comindware.Platform.Contracts.GlobalAlias, Comindware.Platform.Contracts",
            "Type": "RecordTemplate",
            "Alias": "Organizatsionnoshtatnayastruktura"
          },
          "Children": {
            "$type": "System.Collections.Generic.List`1[[Comindware.Platform.Contracts.ResourcePrivilegeDescriptorModel, Comindware.Platform.Contracts]], mscorlib",
            "$values": []
          },
          "TargetType": "RecordTemplate",
          "Privileges": "Read, Update",
          "AvailablePrivileges": "ContextUserExpression, ContextObjectCondition, Read, Create, Update, Delete, FullAccess"
        },
        {
          "$type": "Comindware.Platform.Contracts.ResourcePrivilegeDescriptorModel, Comindware.Platform.Contracts",
          "Role": {
            "$type": "Comindware.Platform.Contracts.GlobalAlias, Comindware.Platform.Contracts",
            "Type": "RoleConfiguration",
            "Alias": "LevelIII"
          },
          "Name": "Статусы клиента",
          "Target": {
            "$type": "Comindware.Platform.Contracts.GlobalAlias, Comindware.Platform.Contracts",
            "Type": "RecordTemplate",
            "Alias": "Statusyklienta"
          },
          "Children": {
            "$type": "System.Collections.Generic.List`1[[Comindware.Platform.Contracts.ResourcePrivilegeDescriptorModel, Comindware.Platform.Contracts]], mscorlib",
            "$values": []
          },
          "TargetType": "RecordTemplate",
          "Privileges": "Read, Update",
          "AvailablePrivileges": "ContextUserExpression, ContextObjectCondition, Read, Create, Update, Delete, FullAccess"
        },
        {
          "$type": "Comindware.Platform.Contracts.ResourcePrivilegeDescriptorModel, Comindware.Platform.Contracts",
          "Role": {
            "$type": "Comindware.Platform.Contracts.GlobalAlias, Comindware.Platform.Contracts",
            "Type": "RoleConfiguration",
            "Alias": "LevelIII"
          },
          "Name": "Регистрация клиента",
          "Target": {
            "$type": "Comindware.Platform.Contracts.GlobalAlias, Comindware.Platform.Contracts",
            "Type": "ProcessTemplate",
            "Alias": "Sozdanieisoglasovaniekontragenta"
          },
          "Children": {
            "$type": "System.Collections.Generic.List`1[[Comindware.Platform.Contracts.ResourcePrivilegeDescriptorModel, Comindware.Platform.Contracts]], mscorlib",
            "$values": [
              {
                "$type": "Comindware.Platform.Contracts.ResourcePrivilegeDescriptorModel, Comindware.Platform.Contracts",
                "Role": {
                  "$type": "Comindware.Platform.Contracts.GlobalAlias, Comindware.Platform.Contracts",
                  "Type": "RoleConfiguration",
                  "Alias": "LevelIII"
                },
                "Name": "Завершить задачу",
                "Target": {
                  "$type": "Comindware.Platform.Contracts.GlobalAlias, Comindware.Platform.Contracts",
                  "Type": "UserCommand",
                  "Owner": "Sozdanieisoglasovaniekontragenta",
                  "Alias": "completeTask"
                },
                "Children": {
                  "$type": "System.Collections.Generic.List`1[[Comindware.Platform.Contracts.ResourcePrivilegeDescriptorModel, Comindware.Platform.Contracts]], mscorlib",
                  "$values": []
                },
                "TargetType": "Operation",
                "Privileges": "Execute",
                "AvailablePrivileges": "Execute"
              }
            ]
          },
          "TargetType": "ProcessTemplate",
          "Privileges": "Read, Create, Update, Delete, FullAccess",
          "AvailablePrivileges": "ContextUserExpression, ContextObjectCondition, Read, Create, Update, Delete, FullAccess"
        },
        {
          "$type": "Comindware.Platform.Contracts.ResourcePrivilegeDescriptorModel, Comindware.Platform.Contracts",
          "Role": {
            "$type": "Comindware.Platform.Contracts.GlobalAlias, Comindware.Platform.Contracts",
            "Type": "RoleConfiguration",
            "Alias": "LevelIII"
          },
          "Name": "Контрагенты",
          "Target": {
            "$type": "Comindware.Platform.Contracts.GlobalAlias, Comindware.Platform.Contracts",
            "Type": "RecordTemplate",
            "Alias": "Kontragenty"
          },
          "Children": {
            "$type": "System.Collections.Generic.List`1[[Comindware.Platform.Contracts.ResourcePrivilegeDescriptorModel, Comindware.Platform.Contracts]], mscorlib",
            "$values": [
              {
                "$type": "Comindware.Platform.Contracts.ResourcePrivilegeDescriptorModel, Comindware.Platform.Contracts",
                "Role": {
                  "$type": "Comindware.Platform.Contracts.GlobalAlias, Comindware.Platform.Contracts",
                  "Type": "RoleConfiguration",
                  "Alias": "LevelIII"
                },
                "Name": "Сохранить",
                "Target": {
                  "$type": "Comindware.Platform.Contracts.GlobalAlias, Comindware.Platform.Contracts",
                  "Type": "UserCommand",
                  "Owner": "Kontragenty",
                  "Alias": "edit"
                },
                "Children": {
                  "$type": "System.Collections.Generic.List`1[[Comindware.Platform.Contracts.ResourcePrivilegeDescriptorModel, Comindware.Platform.Contracts]], mscorlib",
                  "$values": []
                },
                "TargetType": "Operation",
                "Privileges": "Execute",
                "AvailablePrivileges": "Execute"
              },
              {
                "$type": "Comindware.Platform.Contracts.ResourcePrivilegeDescriptorModel, Comindware.Platform.Contracts",
                "Role": {
                  "$type": "Comindware.Platform.Contracts.GlobalAlias, Comindware.Platform.Contracts",
                  "Type": "RoleConfiguration",
                  "Alias": "LevelIII"
                },
                "Name": "Новый проект",
                "Target": {
                  "$type": "Comindware.Platform.Contracts.GlobalAlias, Comindware.Platform.Contracts",
                  "Type": "UserCommand",
                  "Owner": "Kontragenty",
                  "Alias": "Sozdatproekt"
                },
                "Children": {
                  "$type": "System.Collections.Generic.List`1[[Comindware.Platform.Contracts.ResourcePrivilegeDescriptorModel, Comindware.Platform.Contracts]], mscorlib",
                  "$values": []
                },
                "TargetType": "Operation",
                "Privileges": "Execute",
                "AvailablePrivileges": "Execute"
              },
              {
                "$type": "Comindware.Platform.Contracts.ResourcePrivilegeDescriptorModel, Comindware.Platform.Contracts",
                "Role": {
                  "$type": "Comindware.Platform.Contracts.GlobalAlias, Comindware.Platform.Contracts",
                  "Type": "RoleConfiguration",
                  "Alias": "LevelIII"
                },
                "Name": "Новый клиент",
                "Target": {
                  "$type": "Comindware.Platform.Contracts.GlobalAlias, Comindware.Platform.Contracts",
                  "Type": "UserCommand",
                  "Owner": "Kontragenty",
                  "Alias": "Noviykontragent"
                },
                "Children": {
                  "$type": "System.Collections.Generic.List`1[[Comindware.Platform.Contracts.ResourcePrivilegeDescriptorModel, Comindware.Platform.Contracts]], mscorlib",
                  "$values": []
                },
                "TargetType": "Operation",
                "Privileges": "Execute",
                "AvailablePrivileges": "Execute"
              },
              {
                "$type": "Comindware.Platform.Contracts.ResourcePrivilegeDescriptorModel, Comindware.Platform.Contracts",
                "Role": {
                  "$type": "Comindware.Platform.Contracts.GlobalAlias, Comindware.Platform.Contracts",
                  "Type": "RoleConfiguration",
                  "Alias": "LevelIII"
                },
                "Name": "Контрагенты - Основная форма",
                "Target": {
                  "$type": "Comindware.Platform.Contracts.GlobalAlias, Comindware.Platform.Contracts",
                  "Type": "Form",
                  "Owner": "Kontragenty",
                  "Alias": "defaultForm"
                },
                "Children": {
                  "$type": "System.Collections.Generic.List`1[[Comindware.Platform.Contracts.ResourcePrivilegeDescriptorModel, Comindware.Platform.Contracts]], mscorlib",
                  "$values": []
                },
                "TargetType": "Form",
                "Privileges": "Read",
                "AvailablePrivileges": "Read"
              },
              {
                "$type": "Comindware.Platform.Contracts.ResourcePrivilegeDescriptorModel, Comindware.Platform.Contracts",
                "Role": {
                  "$type": "Comindware.Platform.Contracts.GlobalAlias, Comindware.Platform.Contracts",
                  "Type": "RoleConfiguration",
                  "Alias": "LevelIII"
                },
                "Name": "Клиенты",
                "Target": {
                  "$type": "Comindware.Platform.Contracts.GlobalAlias, Comindware.Platform.Contracts",
                  "Type": "Dataset",
                  "Owner": "Kontragenty",
                  "Alias": "AllClients"
                },
                "Children": {
                  "$type": "System.Collections.Generic.List`1[[Comindware.Platform.Contracts.ResourcePrivilegeDescriptorModel, Comindware.Platform.Contracts]], mscorlib",
                  "$values": []
                },
                "TargetType": "List",
                "Privileges": "Undefined",
                "AvailablePrivileges": "Read"
              },
              {
                "$type": "Comindware.Platform.Contracts.ResourcePrivilegeDescriptorModel, Comindware.Platform.Contracts",
                "Role": {
                  "$type": "Comindware.Platform.Contracts.GlobalAlias, Comindware.Platform.Contracts",
                  "Type": "RoleConfiguration",
                  "Alias": "LevelIII"
                },
                "Name": "Добавить сотрудника",
                "Target": {
                  "$type": "Comindware.Platform.Contracts.GlobalAlias, Comindware.Platform.Contracts",
                  "Type": "UserCommand",
                  "Owner": "Kontragenty",
                  "Alias": "Dobavitsotrudnika"
                },
                "Children": {
                  "$type": "System.Collections.Generic.List`1[[Comindware.Platform.Contracts.ResourcePrivilegeDescriptorModel, Comindware.Platform.Contracts]], mscorlib",
                  "$values": []
                },
                "TargetType": "Operation",
                "Privileges": "Execute",
                "AvailablePrivileges": "Execute"
              },
              {
                "$type": "Comindware.Platform.Contracts.ResourcePrivilegeDescriptorModel, Comindware.Platform.Contracts",
                "Role": {
                  "$type": "Comindware.Platform.Contracts.GlobalAlias, Comindware.Platform.Contracts",
                  "Type": "RoleConfiguration",
                  "Alias": "LevelIII"
                },
                "Name": "Юр.лица",
                "Target": {
                  "$type": "Comindware.Platform.Contracts.GlobalAlias, Comindware.Platform.Contracts",
                  "Type": "Dataset",
                  "Owner": "Kontragenty",
                  "Alias": "defaultList"
                },
                "Children": {
                  "$type": "System.Collections.Generic.List`1[[Comindware.Platform.Contracts.ResourcePrivilegeDescriptorModel, Comindware.Platform.Contracts]], mscorlib",
                  "$values": []
                },
                "TargetType": "List",
                "Privileges": "Read",
                "AvailablePrivileges": "Read"
              },
              {
                "$type": "Comindware.Platform.Contracts.ResourcePrivilegeDescriptorModel, Comindware.Platform.Contracts",
                "Role": {
                  "$type": "Comindware.Platform.Contracts.GlobalAlias, Comindware.Platform.Contracts",
                  "Type": "RoleConfiguration",
                  "Alias": "LevelIII"
                },
                "Name": "Агентства",
                "Target": {
                  "$type": "Comindware.Platform.Contracts.GlobalAlias, Comindware.Platform.Contracts",
                  "Type": "Dataset",
                  "Owner": "Kontragenty",
                  "Alias": "AllAgencies"
                },
                "Children": {
                  "$type": "System.Collections.Generic.List`1[[Comindware.Platform.Contracts.ResourcePrivilegeDescriptorModel, Comindware.Platform.Contracts]], mscorlib",
                  "$values": []
                },
                "TargetType": "List",
                "Privileges": "Read",
                "AvailablePrivileges": "Read"
              }
            ]
          },
          "TargetType": "RecordTemplate",
          "Privileges": "Read, Update",
          "AvailablePrivileges": "ContextUserExpression, ContextObjectCondition, Read, Create, Update, Delete, FullAccess"
        }
      ]
    },
    "TargetType": "BusinessApp",
    "Privileges": "Read",
    "AvailablePrivileges": "Read, Create, Update, Delete, FullAccess"
  }
}