{
  "$type": "Comindware.Platform.Contracts.RoleConfigurationModel, Comindware.Platform.Contracts",
  "GlobalAlias": {
    "$type": "Comindware.Platform.Contracts.GlobalAlias, Comindware.Platform.Contracts",
    "Type": "RoleConfiguration",
    "Alias": "Obschieservisy"
  },
  "Name": "Общие сервисы",
  "IsActive": true,
  "Members": {
    "$type": "System.Collections.Generic.List`1[[Comindware.Platform.Contracts.GlobalAlias, Comindware.Platform.Contracts]], mscorlib",
    "$values": [
      {
        "$type": "Comindware.Platform.Contracts.GlobalAlias, Comindware.Platform.Contracts",
        "Type": "Group",
        "Alias": "~!EasyMedia!"
      }
    ]
  },
  "RootResource": {
    "$type": "Comindware.Platform.Contracts.ResourcePrivilegeDescriptorModel, Comindware.Platform.Contracts",
    "Role": {
      "$type": "Comindware.Platform.Contracts.GlobalAlias, Comindware.Platform.Contracts",
      "Type": "RoleConfiguration",
      "Alias": "Obschieservisy"
    },
    "Name": "Экосистема рекламного рынка",
    "Target": {
      "$type": "Comindware.Platform.Contracts.GlobalAlias, Comindware.Platform.Contracts",
      "Type": "Solution",
      "Alias": "Ekosistemareklamnogorynka"
    },
    "Children": {
      "$type": "System.Collections.Generic.List`1[[Comindware.Platform.Contracts.ResourcePrivilegeDescriptorModel, Comindware.Platform.Contracts]], mscorlib",
      "$values": [
        {
          "$type": "Comindware.Platform.Contracts.ResourcePrivilegeDescriptorModel, Comindware.Platform.Contracts",
          "Role": {
            "$type": "Comindware.Platform.Contracts.GlobalAlias, Comindware.Platform.Contracts",
            "Type": "RoleConfiguration",
            "Alias": "Obschieservisy"
          },
          "Name": "Статусы обращений",
          "Description": "Статусы обращений в техподдержку",
          "Target": {
            "$type": "Comindware.Platform.Contracts.GlobalAlias, Comindware.Platform.Contracts",
            "Type": "RecordTemplate",
            "Alias": "Statusyobrascheniy"
          },
          "Children": {
            "$type": "System.Collections.Generic.List`1[[Comindware.Platform.Contracts.ResourcePrivilegeDescriptorModel, Comindware.Platform.Contracts]], mscorlib",
            "$values": []
          },
          "TargetType": "RecordTemplate",
          "Privileges": "Read",
          "AvailablePrivileges": "ContextUserExpression, ContextObjectCondition, Read, Create, Update, Delete, FullAccess"
        },
        {
          "$type": "Comindware.Platform.Contracts.ResourcePrivilegeDescriptorModel, Comindware.Platform.Contracts",
          "Role": {
            "$type": "Comindware.Platform.Contracts.GlobalAlias, Comindware.Platform.Contracts",
            "Type": "RoleConfiguration",
            "Alias": "Obschieservisy"
          },
          "Name": "Согласование",
          "Target": {
            "$type": "Comindware.Platform.Contracts.GlobalAlias, Comindware.Platform.Contracts",
            "Type": "RecordTemplate",
            "Alias": "Soglasovanie"
          },
          "Children": {
            "$type": "System.Collections.Generic.List`1[[Comindware.Platform.Contracts.ResourcePrivilegeDescriptorModel, Comindware.Platform.Contracts]], mscorlib",
            "$values": []
          },
          "TargetType": "RecordTemplate",
          "Privileges": "Read",
          "AvailablePrivileges": "ContextUserExpression, ContextObjectCondition, Read, Create, Update, Delete, FullAccess"
        },
        {
          "$type": "Comindware.Platform.Contracts.ResourcePrivilegeDescriptorModel, Comindware.Platform.Contracts",
          "Role": {
            "$type": "Comindware.Platform.Contracts.GlobalAlias, Comindware.Platform.Contracts",
            "Type": "RoleConfiguration",
            "Alias": "Obschieservisy"
          },
          "Name": "Свободный запрос",
          "Target": {
            "$type": "Comindware.Platform.Contracts.GlobalAlias, Comindware.Platform.Contracts",
            "Type": "ProcessTemplate",
            "Alias": "Svobodnyyzaprosprocess"
          },
          "Children": {
            "$type": "System.Collections.Generic.List`1[[Comindware.Platform.Contracts.ResourcePrivilegeDescriptorModel, Comindware.Platform.Contracts]], mscorlib",
            "$values": [
              {
                "$type": "Comindware.Platform.Contracts.ResourcePrivilegeDescriptorModel, Comindware.Platform.Contracts",
                "Role": {
                  "$type": "Comindware.Platform.Contracts.GlobalAlias, Comindware.Platform.Contracts",
                  "Type": "RoleConfiguration",
                  "Alias": "Obschieservisy"
                },
                "Name": "Завершить задачу",
                "Target": {
                  "$type": "Comindware.Platform.Contracts.GlobalAlias, Comindware.Platform.Contracts",
                  "Type": "UserCommand",
                  "Owner": "Svobodnyyzaprosprocess",
                  "Alias": "completeTask"
                },
                "Children": {
                  "$type": "System.Collections.Generic.List`1[[Comindware.Platform.Contracts.ResourcePrivilegeDescriptorModel, Comindware.Platform.Contracts]], mscorlib",
                  "$values": []
                },
                "TargetType": "Operation",
                "Privileges": "Execute",
                "AvailablePrivileges": "Execute"
              }
            ]
          },
          "TargetType": "ProcessTemplate",
          "Privileges": "Read, Create",
          "AvailablePrivileges": "ContextUserExpression, ContextObjectCondition, Read, Create, Update, Delete, FullAccess"
        },
        {
          "$type": "Comindware.Platform.Contracts.ResourcePrivilegeDescriptorModel, Comindware.Platform.Contracts",
          "Role": {
            "$type": "Comindware.Platform.Contracts.GlobalAlias, Comindware.Platform.Contracts",
            "Type": "RoleConfiguration",
            "Alias": "Obschieservisy"
          },
          "Name": "Свободный запрос",
          "Target": {
            "$type": "Comindware.Platform.Contracts.GlobalAlias, Comindware.Platform.Contracts",
            "Type": "RecordTemplate",
            "Alias": "Svobodnyyzapros"
          },
          "Children": {
            "$type": "System.Collections.Generic.List`1[[Comindware.Platform.Contracts.ResourcePrivilegeDescriptorModel, Comindware.Platform.Contracts]], mscorlib",
            "$values": [
              {
                "$type": "Comindware.Platform.Contracts.ResourcePrivilegeDescriptorModel, Comindware.Platform.Contracts",
                "Role": {
                  "$type": "Comindware.Platform.Contracts.GlobalAlias, Comindware.Platform.Contracts",
                  "Type": "RoleConfiguration",
                  "Alias": "Obschieservisy"
                },
                "Name": "Уточнение",
                "Target": {
                  "$type": "Comindware.Platform.Contracts.GlobalAlias, Comindware.Platform.Contracts",
                  "Type": "Form",
                  "Owner": "Svobodnyyzapros",
                  "Alias": "Utochnenie"
                },
                "Children": {
                  "$type": "System.Collections.Generic.List`1[[Comindware.Platform.Contracts.ResourcePrivilegeDescriptorModel, Comindware.Platform.Contracts]], mscorlib",
                  "$values": []
                },
                "TargetType": "Form",
                "Privileges": "Read",
                "AvailablePrivileges": "Read"
              },
              {
                "$type": "Comindware.Platform.Contracts.ResourcePrivilegeDescriptorModel, Comindware.Platform.Contracts",
                "Role": {
                  "$type": "Comindware.Platform.Contracts.GlobalAlias, Comindware.Platform.Contracts",
                  "Type": "RoleConfiguration",
                  "Alias": "Obschieservisy"
                },
                "Name": "Создать запрос",
                "Target": {
                  "$type": "Comindware.Platform.Contracts.GlobalAlias, Comindware.Platform.Contracts",
                  "Type": "UserCommand",
                  "Owner": "Svobodnyyzapros",
                  "Alias": "Sozdatzapros"
                },
                "Children": {
                  "$type": "System.Collections.Generic.List`1[[Comindware.Platform.Contracts.ResourcePrivilegeDescriptorModel, Comindware.Platform.Contracts]], mscorlib",
                  "$values": []
                },
                "TargetType": "Operation",
                "Privileges": "Execute",
                "AvailablePrivileges": "Execute"
              },
              {
                "$type": "Comindware.Platform.Contracts.ResourcePrivilegeDescriptorModel, Comindware.Platform.Contracts",
                "Role": {
                  "$type": "Comindware.Platform.Contracts.GlobalAlias, Comindware.Platform.Contracts",
                  "Type": "RoleConfiguration",
                  "Alias": "Obschieservisy"
                },
                "Name": "Согласование",
                "Target": {
                  "$type": "Comindware.Platform.Contracts.GlobalAlias, Comindware.Platform.Contracts",
                  "Type": "Form",
                  "Owner": "Svobodnyyzapros",
                  "Alias": "form30299"
                },
                "Children": {
                  "$type": "System.Collections.Generic.List`1[[Comindware.Platform.Contracts.ResourcePrivilegeDescriptorModel, Comindware.Platform.Contracts]], mscorlib",
                  "$values": []
                },
                "TargetType": "Form",
                "Privileges": "Read",
                "AvailablePrivileges": "Read"
              },
              {
                "$type": "Comindware.Platform.Contracts.ResourcePrivilegeDescriptorModel, Comindware.Platform.Contracts",
                "Role": {
                  "$type": "Comindware.Platform.Contracts.GlobalAlias, Comindware.Platform.Contracts",
                  "Type": "RoleConfiguration",
                  "Alias": "Obschieservisy"
                },
                "Name": "Начальная форма",
                "Target": {
                  "$type": "Comindware.Platform.Contracts.GlobalAlias, Comindware.Platform.Contracts",
                  "Type": "Form",
                  "Owner": "Svobodnyyzapros",
                  "Alias": "defaultForm"
                },
                "Children": {
                  "$type": "System.Collections.Generic.List`1[[Comindware.Platform.Contracts.ResourcePrivilegeDescriptorModel, Comindware.Platform.Contracts]], mscorlib",
                  "$values": []
                },
                "TargetType": "Form",
                "Privileges": "Read",
                "AvailablePrivileges": "Read"
              },
              {
                "$type": "Comindware.Platform.Contracts.ResourcePrivilegeDescriptorModel, Comindware.Platform.Contracts",
                "Role": {
                  "$type": "Comindware.Platform.Contracts.GlobalAlias, Comindware.Platform.Contracts",
                  "Type": "RoleConfiguration",
                  "Alias": "Obschieservisy"
                },
                "Name": "Мои запросы",
                "Target": {
                  "$type": "Comindware.Platform.Contracts.GlobalAlias, Comindware.Platform.Contracts",
                  "Type": "Dataset",
                  "Owner": "Svobodnyyzapros",
                  "Alias": "defaultList"
                },
                "Children": {
                  "$type": "System.Collections.Generic.List`1[[Comindware.Platform.Contracts.ResourcePrivilegeDescriptorModel, Comindware.Platform.Contracts]], mscorlib",
                  "$values": []
                },
                "TargetType": "List",
                "Privileges": "Read",
                "AvailablePrivileges": "Read"
              }
            ]
          },
          "TargetType": "RecordTemplate",
          "Privileges": "Read, Create, Update",
          "AvailablePrivileges": "ContextUserExpression, ContextObjectCondition, Read, Create, Update, Delete, FullAccess"
        },
        {
          "$type": "Comindware.Platform.Contracts.ResourcePrivilegeDescriptorModel, Comindware.Platform.Contracts",
          "Role": {
            "$type": "Comindware.Platform.Contracts.GlobalAlias, Comindware.Platform.Contracts",
            "Type": "RoleConfiguration",
            "Alias": "Obschieservisy"
          },
          "Name": "Контрагенты",
          "Target": {
            "$type": "Comindware.Platform.Contracts.GlobalAlias, Comindware.Platform.Contracts",
            "Type": "RecordTemplate",
            "Alias": "Kontragenty"
          },
          "Children": {
            "$type": "System.Collections.Generic.List`1[[Comindware.Platform.Contracts.ResourcePrivilegeDescriptorModel, Comindware.Platform.Contracts]], mscorlib",
            "$values": []
          },
          "TargetType": "RecordTemplate",
          "Privileges": "Read, Update",
          "AvailablePrivileges": "ContextUserExpression, ContextObjectCondition, Read, Create, Update, Delete, FullAccess"
        },
        {
          "$type": "Comindware.Platform.Contracts.ResourcePrivilegeDescriptorModel, Comindware.Platform.Contracts",
          "Role": {
            "$type": "Comindware.Platform.Contracts.GlobalAlias, Comindware.Platform.Contracts",
            "Type": "RoleConfiguration",
            "Alias": "Obschieservisy"
          },
          "Name": "ИТ-поддержка",
          "Target": {
            "$type": "Comindware.Platform.Contracts.GlobalAlias, Comindware.Platform.Contracts",
            "Type": "ProcessTemplate",
            "Alias": "ITpodderzhkaprocess"
          },
          "Children": {
            "$type": "System.Collections.Generic.List`1[[Comindware.Platform.Contracts.ResourcePrivilegeDescriptorModel, Comindware.Platform.Contracts]], mscorlib",
            "$values": [
              {
                "$type": "Comindware.Platform.Contracts.ResourcePrivilegeDescriptorModel, Comindware.Platform.Contracts",
                "Role": {
                  "$type": "Comindware.Platform.Contracts.GlobalAlias, Comindware.Platform.Contracts",
                  "Type": "RoleConfiguration",
                  "Alias": "Obschieservisy"
                },
                "Name": "Все записи",
                "Target": {
                  "$type": "Comindware.Platform.Contracts.GlobalAlias, Comindware.Platform.Contracts",
                  "Type": "Dataset",
                  "Owner": "ITpodderzhkaprocess",
                  "Alias": "defaultList"
                },
                "Children": {
                  "$type": "System.Collections.Generic.List`1[[Comindware.Platform.Contracts.ResourcePrivilegeDescriptorModel, Comindware.Platform.Contracts]], mscorlib",
                  "$values": []
                },
                "TargetType": "List",
                "Privileges": "Read",
                "AvailablePrivileges": "Read"
              }
            ]
          },
          "TargetType": "ProcessTemplate",
          "Privileges": "Read, Create",
          "AvailablePrivileges": "ContextUserExpression, ContextObjectCondition, Read, Create, Update, Delete, FullAccess"
        },
        {
          "$type": "Comindware.Platform.Contracts.ResourcePrivilegeDescriptorModel, Comindware.Platform.Contracts",
          "Role": {
            "$type": "Comindware.Platform.Contracts.GlobalAlias, Comindware.Platform.Contracts",
            "Type": "RoleConfiguration",
            "Alias": "Obschieservisy"
          },
          "Name": "ИТ-поддержка",
          "Target": {
            "$type": "Comindware.Platform.Contracts.GlobalAlias, Comindware.Platform.Contracts",
            "Type": "RecordTemplate",
            "Alias": "ITpodderzhka"
          },
          "Children": {
            "$type": "System.Collections.Generic.List`1[[Comindware.Platform.Contracts.ResourcePrivilegeDescriptorModel, Comindware.Platform.Contracts]], mscorlib",
            "$values": [
              {
                "$type": "Comindware.Platform.Contracts.ResourcePrivilegeDescriptorModel, Comindware.Platform.Contracts",
                "Role": {
                  "$type": "Comindware.Platform.Contracts.GlobalAlias, Comindware.Platform.Contracts",
                  "Type": "RoleConfiguration",
                  "Alias": "Obschieservisy"
                },
                "Name": "Мои заявки",
                "Target": {
                  "$type": "Comindware.Platform.Contracts.GlobalAlias, Comindware.Platform.Contracts",
                  "Type": "Dataset",
                  "Owner": "ITpodderzhka",
                  "Alias": "defaultList"
                },
                "Children": {
                  "$type": "System.Collections.Generic.List`1[[Comindware.Platform.Contracts.ResourcePrivilegeDescriptorModel, Comindware.Platform.Contracts]], mscorlib",
                  "$values": []
                },
                "TargetType": "List",
                "Privileges": "Read",
                "AvailablePrivileges": "Read"
              },
              {
                "$type": "Comindware.Platform.Contracts.ResourcePrivilegeDescriptorModel, Comindware.Platform.Contracts",
                "Role": {
                  "$type": "Comindware.Platform.Contracts.GlobalAlias, Comindware.Platform.Contracts",
                  "Type": "RoleConfiguration",
                  "Alias": "Obschieservisy"
                },
                "Name": "Создать заявку",
                "Target": {
                  "$type": "Comindware.Platform.Contracts.GlobalAlias, Comindware.Platform.Contracts",
                  "Type": "UserCommand",
                  "Owner": "ITpodderzhka",
                  "Alias": "Sozdatzayavku"
                },
                "Children": {
                  "$type": "System.Collections.Generic.List`1[[Comindware.Platform.Contracts.ResourcePrivilegeDescriptorModel, Comindware.Platform.Contracts]], mscorlib",
                  "$values": []
                },
                "TargetType": "Operation",
                "Privileges": "Execute",
                "AvailablePrivileges": "Execute"
              },
              {
                "$type": "Comindware.Platform.Contracts.ResourcePrivilegeDescriptorModel, Comindware.Platform.Contracts",
                "Role": {
                  "$type": "Comindware.Platform.Contracts.GlobalAlias, Comindware.Platform.Contracts",
                  "Type": "RoleConfiguration",
                  "Alias": "Obschieservisy"
                },
                "Name": "Основная форма",
                "Target": {
                  "$type": "Comindware.Platform.Contracts.GlobalAlias, Comindware.Platform.Contracts",
                  "Type": "Form",
                  "Owner": "ITpodderzhka",
                  "Alias": "defaultForm"
                },
                "Children": {
                  "$type": "System.Collections.Generic.List`1[[Comindware.Platform.Contracts.ResourcePrivilegeDescriptorModel, Comindware.Platform.Contracts]], mscorlib",
                  "$values": []
                },
                "TargetType": "Form",
                "Privileges": "Read",
                "AvailablePrivileges": "Read"
              }
            ]
          },
          "TargetType": "RecordTemplate",
          "Privileges": "Read, Create, Update",
          "AvailablePrivileges": "ContextUserExpression, ContextObjectCondition, Read, Create, Update, Delete, FullAccess"
        },
        {
          "$type": "Comindware.Platform.Contracts.ResourcePrivilegeDescriptorModel, Comindware.Platform.Contracts",
          "Role": {
            "$type": "Comindware.Platform.Contracts.GlobalAlias, Comindware.Platform.Contracts",
            "Type": "RoleConfiguration",
            "Alias": "Obschieservisy"
          },
          "Name": "Обращения в техподдержку",
          "Description": "Обращения пользователей в техподдержку",
          "Target": {
            "$type": "Comindware.Platform.Contracts.GlobalAlias, Comindware.Platform.Contracts",
            "Type": "RecordTemplate",
            "Alias": "Obrascheniyavtekhpodderzhku"
          },
          "Children": {
            "$type": "System.Collections.Generic.List`1[[Comindware.Platform.Contracts.ResourcePrivilegeDescriptorModel, Comindware.Platform.Contracts]], mscorlib",
            "$values": [
              {
                "$type": "Comindware.Platform.Contracts.ResourcePrivilegeDescriptorModel, Comindware.Platform.Contracts",
                "Role": {
                  "$type": "Comindware.Platform.Contracts.GlobalAlias, Comindware.Platform.Contracts",
                  "Type": "RoleConfiguration",
                  "Alias": "Obschieservisy"
                },
                "Name": "Список моих обращений",
                "Target": {
                  "$type": "Comindware.Platform.Contracts.GlobalAlias, Comindware.Platform.Contracts",
                  "Type": "Dataset",
                  "Owner": "Obrascheniyavtekhpodderzhku",
                  "Alias": "defaultList"
                },
                "Children": {
                  "$type": "System.Collections.Generic.List`1[[Comindware.Platform.Contracts.ResourcePrivilegeDescriptorModel, Comindware.Platform.Contracts]], mscorlib",
                  "$values": []
                },
                "TargetType": "List",
                "Privileges": "Read",
                "AvailablePrivileges": "Read"
              },
              {
                "$type": "Comindware.Platform.Contracts.ResourcePrivilegeDescriptorModel, Comindware.Platform.Contracts",
                "Role": {
                  "$type": "Comindware.Platform.Contracts.GlobalAlias, Comindware.Platform.Contracts",
                  "Type": "RoleConfiguration",
                  "Alias": "Obschieservisy"
                },
                "Name": "Создать обращение",
                "Target": {
                  "$type": "Comindware.Platform.Contracts.GlobalAlias, Comindware.Platform.Contracts",
                  "Type": "UserCommand",
                  "Owner": "Obrascheniyavtekhpodderzhku",
                  "Alias": "Sozdatobraschenie"
                },
                "Children": {
                  "$type": "System.Collections.Generic.List`1[[Comindware.Platform.Contracts.ResourcePrivilegeDescriptorModel, Comindware.Platform.Contracts]], mscorlib",
                  "$values": []
                },
                "TargetType": "Operation",
                "Privileges": "Execute",
                "AvailablePrivileges": "Execute"
              },
              {
                "$type": "Comindware.Platform.Contracts.ResourcePrivilegeDescriptorModel, Comindware.Platform.Contracts",
                "Role": {
                  "$type": "Comindware.Platform.Contracts.GlobalAlias, Comindware.Platform.Contracts",
                  "Type": "RoleConfiguration",
                  "Alias": "Obschieservisy"
                },
                "Name": "Стартовая форма",
                "Target": {
                  "$type": "Comindware.Platform.Contracts.GlobalAlias, Comindware.Platform.Contracts",
                  "Type": "Form",
                  "Owner": "Obrascheniyavtekhpodderzhku",
                  "Alias": "defaultForm"
                },
                "Children": {
                  "$type": "System.Collections.Generic.List`1[[Comindware.Platform.Contracts.ResourcePrivilegeDescriptorModel, Comindware.Platform.Contracts]], mscorlib",
                  "$values": []
                },
                "TargetType": "Form",
                "Privileges": "Read",
                "AvailablePrivileges": "Read"
              }
            ]
          },
          "TargetType": "RecordTemplate",
          "Privileges": "Read, Create, Update",
          "AvailablePrivileges": "ContextUserExpression, ContextObjectCondition, Read, Create, Update, Delete, FullAccess"
        },
        {
          "$type": "Comindware.Platform.Contracts.ResourcePrivilegeDescriptorModel, Comindware.Platform.Contracts",
          "Role": {
            "$type": "Comindware.Platform.Contracts.GlobalAlias, Comindware.Platform.Contracts",
            "Type": "RoleConfiguration",
            "Alias": "Obschieservisy"
          },
          "Name": "Обращение в техподдержку",
          "Target": {
            "$type": "Comindware.Platform.Contracts.GlobalAlias, Comindware.Platform.Contracts",
            "Type": "ProcessTemplate",
            "Alias": "Obraschenievtekhpodderzhku"
          },
          "Children": {
            "$type": "System.Collections.Generic.List`1[[Comindware.Platform.Contracts.ResourcePrivilegeDescriptorModel, Comindware.Platform.Contracts]], mscorlib",
            "$values": [
              {
                "$type": "Comindware.Platform.Contracts.ResourcePrivilegeDescriptorModel, Comindware.Platform.Contracts",
                "Role": {
                  "$type": "Comindware.Platform.Contracts.GlobalAlias, Comindware.Platform.Contracts",
                  "Type": "RoleConfiguration",
                  "Alias": "Obschieservisy"
                },
                "Name": "Создать",
                "Target": {
                  "$type": "Comindware.Platform.Contracts.GlobalAlias, Comindware.Platform.Contracts",
                  "Type": "UserCommand",
                  "Owner": "Obraschenievtekhpodderzhku",
                  "Alias": "createProcess"
                },
                "Children": {
                  "$type": "System.Collections.Generic.List`1[[Comindware.Platform.Contracts.ResourcePrivilegeDescriptorModel, Comindware.Platform.Contracts]], mscorlib",
                  "$values": []
                },
                "TargetType": "Operation",
                "Privileges": "Execute",
                "AvailablePrivileges": "Execute"
              },
              {
                "$type": "Comindware.Platform.Contracts.ResourcePrivilegeDescriptorModel, Comindware.Platform.Contracts",
                "Role": {
                  "$type": "Comindware.Platform.Contracts.GlobalAlias, Comindware.Platform.Contracts",
                  "Type": "RoleConfiguration",
                  "Alias": "Obschieservisy"
                },
                "Name": "Завершить задачу",
                "Target": {
                  "$type": "Comindware.Platform.Contracts.GlobalAlias, Comindware.Platform.Contracts",
                  "Type": "UserCommand",
                  "Owner": "Obraschenievtekhpodderzhku",
                  "Alias": "completeTask"
                },
                "Children": {
                  "$type": "System.Collections.Generic.List`1[[Comindware.Platform.Contracts.ResourcePrivilegeDescriptorModel, Comindware.Platform.Contracts]], mscorlib",
                  "$values": []
                },
                "TargetType": "Operation",
                "Privileges": "Execute",
                "AvailablePrivileges": "Execute"
              }
            ]
          },
          "TargetType": "ProcessTemplate",
          "Privileges": "Read, Create, Update",
          "AvailablePrivileges": "ContextUserExpression, ContextObjectCondition, Read, Create, Update, Delete, FullAccess"
        }
      ]
    },
    "TargetType": "BusinessApp",
    "Privileges": "Undefined",
    "AvailablePrivileges": "Read, Create, Update, Delete, FullAccess"
  }
}