{
  "$type": "Comindware.Platform.Contracts.UserCommandConfigurationModel, Comindware.Platform.Contracts",
  "GlobalAlias": {
    "$type": "Comindware.Platform.Contracts.GlobalAlias, Comindware.Platform.Contracts",
    "Type": "UserCommand",
    "Owner": "Kontragenty",
    "Alias": "Dobavitsotrudnika"
  },
  "Name": "Добавить сотрудника",
  "IsSystem": false,
  "IsDisabled": false,
  "IsPrepare": false,
  "SkipValidation": false,
  "Context": "Record",
  "Multiplicity": "OneByOne",
  "Kind": "Script",
  "ResultType": "DataChange",
  "ScriptRule": {
    "$type": "Comindware.Platform.Contracts.UserCommandScriptRuleModel, Comindware.Platform.Contracts",
    "Type": "UserCommandScript",
    "Definition": {
      "$type": "Comindware.Platform.Contracts.CSharpRuleDefinitionModel, Comindware.Platform.Contracts",
      "EntryPoint": "Script",
      "Code": "using System; \nusing System.Collections.Generic;\nusing System.Linq;\nusing Comindware.Data.Entity;\nusing Comindware.TeamNetwork.Api.Data.UserCommands;\nusing Comindware.TeamNetwork.Api.Data;\n\nclass Script\n{\n\tpublic static UserCommandResult Main(UserCommandContext userCommandContext, Comindware.Entities entities)\n\t{\n\t\t//var data = GetValuesByProp_String(userCommandContext.ObjectIds[0], new[] {\"displayUser\", \"Email\"});\n\t\tvar result = new UserCommandResult\n\t\t{\n\t\t\tSuccess = true,\n\t\t\tCommited = true,\n\t\t\t/*ResultType = UserCommandResultType.Navigate,\n\t\t\tNavigationResult = new UserCommandNavigationResult\n\t\t\t{\n\t\t\t\tContext = ContextType.Task,\n\t\t\t\tObjectId = null\n\t\t\t},*/\n\t\t\tMessages = new[]\n\t\t\t{\n\t\t\t\tnew UserCommandMessage\n\t\t\t\t{\n\t\t\t\t\tSeverity = SeverityLevel.Normal,\n\t\t\t\t\tText = \"\"\n\t\t\t\t}\n\t\t\t}\n\t\t};\n\t\treturn result;\n\t}\n\t\n\tpublic static Dictionary<string, string> GetValuesByProp_String (string ObjectId, string[] Properties)\n\t{\n\t\tvar data = Api.TeamNetwork.ObjectService.GetPropertyValues(new[] {ObjectId}, Properties);\n\t\tDictionary<string, string> data_Dictionary = new Dictionary<string, string> {{\"id\", data.FirstOrDefault().Key}};\n\t\tforeach (string Property in Properties)\n\t\t{\n\t\t\tif (data.FirstOrDefault().Value.TryGetValue(Property, out object obj))\n\t\t\t{\n\t\t\t\tdata_Dictionary.Add(Property, obj.ToString());\n\t\t\t}\n\t\t\telse\n\t\t\t{\n\t\t\t\tdata_Dictionary.Add(Property, \"\");\n\t\t\t}\n\t\t}\n\t\treturn data_Dictionary;\n\t}\n}",
      "Type": "CSharpExpression"
    }
  },
  "RelatedEntityGlobalAlias": {
    "$type": "Comindware.Platform.Contracts.GlobalAlias, Comindware.Platform.Contracts",
    "Type": "Undefined"
  },
  "LockStateChangeType": "Undefined",
  "LockStateVisibilityType": "Undefined",
  "IsConfirmationActive": false,
  "NavigationTarget": "Undefined"
}