{
  "$type": "Comindware.Platform.Contracts.EndEventActivityModel, Comindware.Platform.Contracts",
  "GlobalAlias": {
    "$type": "Comindware.Platform.Contracts.GlobalAlias, Comindware.Platform.Contracts",
    "Type": "ClientActivity",
    "Owner": "Sozdaniesoveschaniya",
    "Alias": "noneEndEvent1"
  },
  "Kind": "ThrowingMessage",
  "IsInterrupting": false,
  "MessageDefinition": {
    "$type": "Comindware.Platform.Contracts.MessageEventDefinitionModel, Comindware.Platform.Contracts",
    "IsThrowing": true,
    "MessageType": {
      "$type": "Comindware.Platform.Contracts.GlobalAlias, Comindware.Platform.Contracts",
      "Type": "MessageTemplate",
      "Alias": "Otpravka_protokola_soveschaniyaf2e3"
    },
    "MessageName": "Отправка протокола совещания",
    "MessageReceiver": {
      "$type": "Comindware.Platform.Contracts.MessageReceiverExternalSocketDefinitionModel, Comindware.Platform.Contracts",
      "ReceiverAddressType": "ExternalSocket",
      "Type": "ExternalSocket"
    },
    "InputMapping": {
      "$type": "Comindware.Platform.Contracts.MessagePayloadDefinitionModel, Comindware.Platform.Contracts",
      "MessageType": {
        "$type": "Comindware.Platform.Contracts.GlobalAlias, Comindware.Platform.Contracts",
        "Type": "MessageTemplate",
        "Alias": "Otpravka_protokola_soveschaniyaf2e3"
      },
      "Data": {
        "$type": "Comindware.Platform.Contracts.MakeMessageRuleModel, Comindware.Platform.Contracts",
        "MessageType": {
          "$type": "Comindware.Platform.Contracts.GlobalAlias, Comindware.Platform.Contracts",
          "Type": "MessageTemplate",
          "Alias": "Otpravka_protokola_soveschaniyaf2e3"
        },
        "PropertyMap": {
          "$type": "Comindware.Platform.Contracts.PropertyMapKeyValueModel[], Comindware.Platform.Contracts",
          "$values": [
            {
              "$type": "Comindware.Platform.Contracts.PropertyMapKeyValueModel, Comindware.Platform.Contracts",
              "Key": {
                "$type": "Comindware.Platform.Contracts.ModificationActionModel, Comindware.Platform.Contracts",
                "PropertyPath": {
                  "$type": "Comindware.Platform.Contracts.GlobalAlias[], Comindware.Platform.Contracts",
                  "$values": [
                    {
                      "$type": "Comindware.Platform.Contracts.GlobalAlias, Comindware.Platform.Contracts",
                      "Type": "MessageTemplateProperty",
                      "Owner": "Otpravka_protokola_soveschaniyaf2e3",
                      "Alias": "attach"
                    }
                  ]
                },
                "PropertyAction": "Replace"
              },
              "Value": {
                "$type": "Comindware.Platform.Contracts.CalculationRuleModel, Comindware.Platform.Contracts",
                "Type": "Calculation",
                "Definition": {
                  "$type": "Comindware.Platform.Contracts.PropertyRuleDefinitionModel, Comindware.Platform.Contracts",
                  "PropertyPath": {
                    "$type": "Comindware.Platform.Contracts.GlobalAlias[], Comindware.Platform.Contracts",
                    "$values": [
                      {
                        "$type": "Comindware.Platform.Contracts.GlobalAlias, Comindware.Platform.Contracts",
                        "Type": "Attribute",
                        "Owner": "Soveschaniya",
                        "Alias": "Protokolsoveschaniya"
                      }
                    ]
                  },
                  "Type": "Property"
                }
              }
            },
            {
              "$type": "Comindware.Platform.Contracts.PropertyMapKeyValueModel, Comindware.Platform.Contracts",
              "Key": {
                "$type": "Comindware.Platform.Contracts.ModificationActionModel, Comindware.Platform.Contracts",
                "PropertyPath": {
                  "$type": "Comindware.Platform.Contracts.GlobalAlias[], Comindware.Platform.Contracts",
                  "$values": [
                    {
                      "$type": "Comindware.Platform.Contracts.GlobalAlias, Comindware.Platform.Contracts",
                      "Type": "MessageTemplateProperty",
                      "Owner": "Otpravka_protokola_soveschaniyaf2e3",
                      "Alias": "body"
                    }
                  ]
                },
                "PropertyAction": "Replace"
              },
              "Value": {
                "$type": "Comindware.Platform.Contracts.CalculationRuleModel, Comindware.Platform.Contracts",
                "Type": "Calculation"
              }
            },
            {
              "$type": "Comindware.Platform.Contracts.PropertyMapKeyValueModel, Comindware.Platform.Contracts",
              "Key": {
                "$type": "Comindware.Platform.Contracts.ModificationActionModel, Comindware.Platform.Contracts",
                "PropertyPath": {
                  "$type": "Comindware.Platform.Contracts.GlobalAlias[], Comindware.Platform.Contracts",
                  "$values": [
                    {
                      "$type": "Comindware.Platform.Contracts.GlobalAlias, Comindware.Platform.Contracts",
                      "Type": "MessageTemplateProperty",
                      "Owner": "Otpravka_protokola_soveschaniyaf2e3",
                      "Alias": "tema"
                    }
                  ]
                },
                "PropertyAction": "Replace"
              },
              "Value": {
                "$type": "Comindware.Platform.Contracts.CalculationRuleModel, Comindware.Platform.Contracts",
                "Type": "Calculation",
                "Definition": {
                  "$type": "Comindware.Platform.Contracts.PropertyRuleDefinitionModel, Comindware.Platform.Contracts",
                  "PropertyPath": {
                    "$type": "Comindware.Platform.Contracts.GlobalAlias[], Comindware.Platform.Contracts",
                    "$values": [
                      {
                        "$type": "Comindware.Platform.Contracts.GlobalAlias, Comindware.Platform.Contracts",
                        "Type": "Attribute",
                        "Owner": "Soveschaniya",
                        "Alias": "Temasoveschaniya"
                      }
                    ]
                  },
                  "Type": "Property"
                }
              }
            },
            {
              "$type": "Comindware.Platform.Contracts.PropertyMapKeyValueModel, Comindware.Platform.Contracts",
              "Key": {
                "$type": "Comindware.Platform.Contracts.ModificationActionModel, Comindware.Platform.Contracts",
                "PropertyPath": {
                  "$type": "Comindware.Platform.Contracts.GlobalAlias[], Comindware.Platform.Contracts",
                  "$values": [
                    {
                      "$type": "Comindware.Platform.Contracts.GlobalAlias, Comindware.Platform.Contracts",
                      "Type": "MessageTemplateProperty",
                      "Owner": "Otpravka_protokola_soveschaniyaf2e3",
                      "Alias": "to"
                    }
                  ]
                },
                "PropertyAction": "Replace"
              },
              "Value": {
                "$type": "Comindware.Platform.Contracts.CalculationRuleModel, Comindware.Platform.Contracts",
                "Type": "Calculation",
                "Definition": {
                  "$type": "Comindware.Platform.Contracts.ExpressionRuleDefinitionModel, Comindware.Platform.Contracts",
                  "Expression": "$Uchastniki->mbox",
                  "Type": "Expression"
                }
              }
            },
            {
              "$type": "Comindware.Platform.Contracts.PropertyMapKeyValueModel, Comindware.Platform.Contracts",
              "Key": {
                "$type": "Comindware.Platform.Contracts.ModificationActionModel, Comindware.Platform.Contracts",
                "PropertyPath": {
                  "$type": "Comindware.Platform.Contracts.GlobalAlias[], Comindware.Platform.Contracts",
                  "$values": [
                    {
                      "$type": "Comindware.Platform.Contracts.GlobalAlias, Comindware.Platform.Contracts",
                      "Type": "MessageTemplateProperty",
                      "Owner": "Otpravka_protokola_soveschaniyaf2e3",
                      "Alias": "storonnie"
                    }
                  ]
                },
                "PropertyAction": "Replace"
              },
              "Value": {
                "$type": "Comindware.Platform.Contracts.CalculationRuleModel, Comindware.Platform.Contracts",
                "Type": "Calculation",
                "Definition": {
                  "$type": "Comindware.Platform.Contracts.PropertyRuleDefinitionModel, Comindware.Platform.Contracts",
                  "PropertyPath": {
                    "$type": "Comindware.Platform.Contracts.GlobalAlias[], Comindware.Platform.Contracts",
                    "$values": [
                      {
                        "$type": "Comindware.Platform.Contracts.GlobalAlias, Comindware.Platform.Contracts",
                        "Type": "Attribute",
                        "Owner": "Soveschaniya",
                        "Alias": "Storonnieuchastniki"
                      }
                    ]
                  },
                  "Type": "Property"
                }
              }
            },
            {
              "$type": "Comindware.Platform.Contracts.PropertyMapKeyValueModel, Comindware.Platform.Contracts",
              "Key": {
                "$type": "Comindware.Platform.Contracts.ModificationActionModel, Comindware.Platform.Contracts",
                "PropertyPath": {
                  "$type": "Comindware.Platform.Contracts.GlobalAlias[], Comindware.Platform.Contracts",
                  "$values": [
                    {
                      "$type": "Comindware.Platform.Contracts.GlobalAlias, Comindware.Platform.Contracts",
                      "Type": "MessageTemplateProperty",
                      "Owner": "Otpravka_protokola_soveschaniyaf2e3",
                      "Alias": "subject"
                    }
                  ]
                },
                "PropertyAction": "Replace"
              },
              "Value": {
                "$type": "Comindware.Platform.Contracts.CalculationRuleModel, Comindware.Platform.Contracts",
                "Type": "Calculation",
                "Definition": {
                  "$type": "Comindware.Platform.Contracts.ExpressionRuleDefinitionModel, Comindware.Platform.Contracts",
                  "Expression": "FORMAT(\"Итоги совещания от {0:dd.MM.yyyy hh:mm}\",LIST($Dataivremyasoveschaniya))",
                  "Type": "Expression"
                }
              }
            },
            {
              "$type": "Comindware.Platform.Contracts.PropertyMapKeyValueModel, Comindware.Platform.Contracts",
              "Key": {
                "$type": "Comindware.Platform.Contracts.ModificationActionModel, Comindware.Platform.Contracts",
                "PropertyPath": {
                  "$type": "Comindware.Platform.Contracts.GlobalAlias[], Comindware.Platform.Contracts",
                  "$values": [
                    {
                      "$type": "Comindware.Platform.Contracts.GlobalAlias, Comindware.Platform.Contracts",
                      "Type": "MessageTemplateProperty",
                      "Owner": "Otpravka_protokola_soveschaniyaf2e3",
                      "Alias": "voprosi"
                    }
                  ]
                },
                "PropertyAction": "Replace"
              },
              "Value": {
                "$type": "Comindware.Platform.Contracts.CalculationRuleModel, Comindware.Platform.Contracts",
                "Type": "Calculation",
                "Definition": {
                  "$type": "Comindware.Platform.Contracts.PropertyRuleDefinitionModel, Comindware.Platform.Contracts",
                  "PropertyPath": {
                    "$type": "Comindware.Platform.Contracts.GlobalAlias[], Comindware.Platform.Contracts",
                    "$values": [
                      {
                        "$type": "Comindware.Platform.Contracts.GlobalAlias, Comindware.Platform.Contracts",
                        "Type": "Attribute",
                        "Owner": "Soveschaniya",
                        "Alias": "Voprosydlyaobsuzhdeniya"
                      }
                    ]
                  },
                  "Type": "Property"
                }
              }
            },
            {
              "$type": "Comindware.Platform.Contracts.PropertyMapKeyValueModel, Comindware.Platform.Contracts",
              "Key": {
                "$type": "Comindware.Platform.Contracts.ModificationActionModel, Comindware.Platform.Contracts",
                "PropertyPath": {
                  "$type": "Comindware.Platform.Contracts.GlobalAlias[], Comindware.Platform.Contracts",
                  "$values": [
                    {
                      "$type": "Comindware.Platform.Contracts.GlobalAlias, Comindware.Platform.Contracts",
                      "Type": "MessageTemplateProperty",
                      "Owner": "Otpravka_protokola_soveschaniyaf2e3",
                      "Alias": "itogi"
                    }
                  ]
                },
                "PropertyAction": "Replace"
              },
              "Value": {
                "$type": "Comindware.Platform.Contracts.CalculationRuleModel, Comindware.Platform.Contracts",
                "Type": "Calculation",
                "Definition": {
                  "$type": "Comindware.Platform.Contracts.PropertyRuleDefinitionModel, Comindware.Platform.Contracts",
                  "PropertyPath": {
                    "$type": "Comindware.Platform.Contracts.GlobalAlias[], Comindware.Platform.Contracts",
                    "$values": [
                      {
                        "$type": "Comindware.Platform.Contracts.GlobalAlias, Comindware.Platform.Contracts",
                        "Type": "Attribute",
                        "Owner": "Soveschaniya",
                        "Alias": "Itogivstrechi"
                      }
                    ]
                  },
                  "Type": "Property"
                }
              }
            },
            {
              "$type": "Comindware.Platform.Contracts.PropertyMapKeyValueModel, Comindware.Platform.Contracts",
              "Key": {
                "$type": "Comindware.Platform.Contracts.ModificationActionModel, Comindware.Platform.Contracts",
                "PropertyPath": {
                  "$type": "Comindware.Platform.Contracts.GlobalAlias[], Comindware.Platform.Contracts",
                  "$values": [
                    {
                      "$type": "Comindware.Platform.Contracts.GlobalAlias, Comindware.Platform.Contracts",
                      "Type": "MessageTemplateProperty",
                      "Owner": "Otpravka_protokola_soveschaniyaf2e3",
                      "Alias": "iniciator"
                    }
                  ]
                },
                "PropertyAction": "Replace"
              },
              "Value": {
                "$type": "Comindware.Platform.Contracts.CalculationRuleModel, Comindware.Platform.Contracts",
                "Type": "Calculation",
                "Definition": {
                  "$type": "Comindware.Platform.Contracts.ExpressionRuleDefinitionModel, Comindware.Platform.Contracts",
                  "Expression": "$_creator->fullName",
                  "Type": "Expression"
                }
              }
            },
            {
              "$type": "Comindware.Platform.Contracts.PropertyMapKeyValueModel, Comindware.Platform.Contracts",
              "Key": {
                "$type": "Comindware.Platform.Contracts.ModificationActionModel, Comindware.Platform.Contracts",
                "PropertyPath": {
                  "$type": "Comindware.Platform.Contracts.GlobalAlias[], Comindware.Platform.Contracts",
                  "$values": [
                    {
                      "$type": "Comindware.Platform.Contracts.GlobalAlias, Comindware.Platform.Contracts",
                      "Type": "MessageTemplateProperty",
                      "Owner": "Otpravka_protokola_soveschaniyaf2e3",
                      "Alias": "datetime"
                    }
                  ]
                },
                "PropertyAction": "Replace"
              },
              "Value": {
                "$type": "Comindware.Platform.Contracts.CalculationRuleModel, Comindware.Platform.Contracts",
                "Type": "Calculation",
                "Definition": {
                  "$type": "Comindware.Platform.Contracts.PropertyRuleDefinitionModel, Comindware.Platform.Contracts",
                  "PropertyPath": {
                    "$type": "Comindware.Platform.Contracts.GlobalAlias[], Comindware.Platform.Contracts",
                    "$values": [
                      {
                        "$type": "Comindware.Platform.Contracts.GlobalAlias, Comindware.Platform.Contracts",
                        "Type": "Attribute",
                        "Owner": "Soveschaniya",
                        "Alias": "Dataivremyasoveschaniya"
                      }
                    ]
                  },
                  "Type": "Property"
                }
              }
            },
            {
              "$type": "Comindware.Platform.Contracts.PropertyMapKeyValueModel, Comindware.Platform.Contracts",
              "Key": {
                "$type": "Comindware.Platform.Contracts.ModificationActionModel, Comindware.Platform.Contracts",
                "PropertyPath": {
                  "$type": "Comindware.Platform.Contracts.GlobalAlias[], Comindware.Platform.Contracts",
                  "$values": [
                    {
                      "$type": "Comindware.Platform.Contracts.GlobalAlias, Comindware.Platform.Contracts",
                      "Type": "MessageTemplateProperty",
                      "Owner": "Otpravka_protokola_soveschaniyaf2e3",
                      "Alias": "processID"
                    }
                  ]
                },
                "PropertyAction": "Replace"
              },
              "Value": {
                "$type": "Comindware.Platform.Contracts.CalculationRuleModel, Comindware.Platform.Contracts",
                "Type": "Calculation",
                "Definition": {
                  "$type": "Comindware.Platform.Contracts.PropertyRuleDefinitionModel, Comindware.Platform.Contracts",
                  "PropertyPath": {
                    "$type": "Comindware.Platform.Contracts.GlobalAlias[], Comindware.Platform.Contracts",
                    "$values": [
                      {
                        "$type": "Comindware.Platform.Contracts.GlobalAlias, Comindware.Platform.Contracts",
                        "Type": "Attribute",
                        "Alias": "id"
                      }
                    ]
                  },
                  "Type": "Property"
                }
              }
            }
          ]
        },
        "Type": "MakeMessage"
      }
    }
  },
  "BehaviourState": "Active",
  "Title": "Завершение совещания",
  "IsTitleSet": false,
  "Position": {
    "$type": "Comindware.Platform.Contracts.VectorModel, Comindware.Platform.Contracts",
    "X": 1240.0,
    "Y": 120.0
  },
  "Size": {
    "$type": "Comindware.Platform.Contracts.DimensionsModel, Comindware.Platform.Contracts",
    "Width": 40.0,
    "Height": 40.0
  },
  "Owner": {
    "$type": "Comindware.Platform.Contracts.GlobalAlias, Comindware.Platform.Contracts",
    "Type": "ClientActivity",
    "Owner": "Sozdaniesoveschaniya",
    "Alias": "pool1"
  },
  "OwnerEmbeddedProcessActivityAlias": {
    "$type": "Comindware.Platform.Contracts.GlobalAlias, Comindware.Platform.Contracts",
    "Type": "Undefined"
  },
  "MountedOnAlias": {
    "$type": "Comindware.Platform.Contracts.GlobalAlias, Comindware.Platform.Contracts",
    "Type": "Undefined"
  },
  "Type": "EndEvent",
  "OnEnterTrigger": {
    "$type": "Comindware.Platform.Contracts.GlobalAlias, Comindware.Platform.Contracts",
    "Type": "Undefined"
  },
  "OnExitTrigger": {
    "$type": "Comindware.Platform.Contracts.GlobalAlias, Comindware.Platform.Contracts",
    "Type": "Undefined"
  }
}