{
  "$type": "Comindware.Platform.Contracts.AttributeModel, Comindware.Platform.Contracts",
  "GlobalAlias": {
    "$type": "Comindware.Platform.Contracts.GlobalAlias, Comindware.Platform.Contracts",
    "Type": "Attribute",
    "Owner": "Raschetypomediaplanam",
    "Alias": "K2_Goroda_temp"
  },
  "Type": "Instance",
  "Format": "Link",
  "Name": "К2_Города_для_шаблона",
  "IsSystem": false,
  "IsDisabled": false,
  "IsUnique": false,
  "IsIndexed": false,
  "IsTracked": false,
  "IsMultiValue": true,
  "IsTitle": false,
  "IsMandatory": false,
  "IsOwnership": false,
  "IsCalculated": true,
  "Expression": "@prefix object: <http://comindware.com/ontology/object#>.\n@prefix cmw: <http://comindware.com/logics#>.\n\n{\n    \n    ?template object:alias \"K2Goroda\".\n    ?list cmw:container ?template.\n    ?list -> ?value.\n\n}",
  "InstanceGlobalAlias": {
    "$type": "Comindware.Platform.Contracts.GlobalAlias, Comindware.Platform.Contracts",
    "Type": "RecordTemplate",
    "Alias": "K2Goroda"
  },
  "ImageColorType": "Original",
  "ImagePreserveAspectRatio": false
}