{
  "$type": "Comindware.Platform.Contracts.ToolbarModel, Comindware.Platform.Contracts",
  "GlobalAlias": {
    "$type": "Comindware.Platform.Contracts.GlobalAlias, Comindware.Platform.Contracts",
    "Type": "Toolbar",
    "Owner": "Detalizatsiimediaplanovpodatam",
    "Alias": "toolbar330c330d"
  },
  "Name": "Детализация по датамtoolbar",
  "IsDefaultForLists": false,
  "IsDefaultForForms": false,
  "IsDefaultForProcess": true,
  "IsDefaultForProcessDesigner": false,
  "IsDefaultForTaskLists": false,
  "Items": {
    "$type": "System.Collections.Generic.List`1[[Comindware.Platform.Contracts.ToolbarItemModel, Comindware.Platform.Contracts]], mscorlib",
    "$values": [
      {
        "$type": "Comindware.Platform.Contracts.ToolbarItemModel, Comindware.Platform.Contracts",
        "CollectionAction": {
          "$type": "Comindware.Platform.Contracts.CollectionActionModel, Comindware.Platform.Contracts",
          "Type": "Create",
          "ExecutionFormat": "Inline"
        },
        "Name": "Создать",
        "Order": 0,
        "Type": "Action",
        "IconType": "Undefined",
        "IconClass": "plus",
        "Severity": "None"
      },
      {
        "$type": "Comindware.Platform.Contracts.ToolbarItemModel, Comindware.Platform.Contracts",
        "CollectionAction": {
          "$type": "Comindware.Platform.Contracts.CollectionActionModel, Comindware.Platform.Contracts",
          "Type": "Copy",
          "ExecutionFormat": "Undefined"
        },
        "Name": "Копировать",
        "Order": 1,
        "Type": "Action",
        "IconType": "Undefined",
        "IconClass": "plus",
        "Severity": "None"
      }
    ]
  }
}