{
  "$type": "Comindware.Platform.Contracts.FormModel, Comindware.Platform.Contracts",
  "GlobalAlias": {
    "$type": "Comindware.Platform.Contracts.GlobalAlias, Comindware.Platform.Contracts",
    "Type": "Form",
    "Owner": "Dopsoglasheniya",
    "Alias": "Dopsoglasheniyaadminskaya"
  },
  "Type": "PublicForm",
  "IsDefault": false,
  "Root": {
    "$type": "Comindware.Platform.Contracts.VerticalLayoutModel, Comindware.Platform.Contracts",
    "Rows": {
      "$type": "System.Collections.Generic.List`1[[Comindware.Platform.Contracts.FormComponentModel, Comindware.Platform.Contracts]], mscorlib",
      "$values": [
        {
          "$type": "Comindware.Platform.Contracts.LayoutModel, Comindware.Platform.Contracts",
          "Components": {
            "$type": "System.Collections.Generic.List`1[[Comindware.Platform.Contracts.FormComponentModel, Comindware.Platform.Contracts]], mscorlib",
            "$values": [
              {
                "$type": "Comindware.Platform.Contracts.PanelModel, Comindware.Platform.Contracts",
                "Text": {
                  "$type": "Comindware.Platform.Contracts.LocalizedTextModel, Comindware.Platform.Contracts",
                  "En": "Основная информация",
                  "De": "Основная информация",
                  "Ru": "Основная информация"
                },
                "OriginalType": "GroupPanel",
                "Rows": {
                  "$type": "System.Collections.Generic.List`1[[Comindware.Platform.Contracts.FormComponentModel, Comindware.Platform.Contracts]], mscorlib",
                  "$values": [
                    {
                      "$type": "Comindware.Platform.Contracts.VerticalLayoutModel, Comindware.Platform.Contracts",
                      "Rows": {
                        "$type": "System.Collections.Generic.List`1[[Comindware.Platform.Contracts.FormComponentModel, Comindware.Platform.Contracts]], mscorlib",
                        "$values": [
                          {
                            "$type": "Comindware.Platform.Contracts.LayoutModel, Comindware.Platform.Contracts",
                            "Components": {
                              "$type": "System.Collections.Generic.List`1[[Comindware.Platform.Contracts.FormComponentModel, Comindware.Platform.Contracts]], mscorlib",
                              "$values": [
                                {
                                  "$type": "Comindware.Platform.Contracts.VerticalLayoutModel, Comindware.Platform.Contracts",
                                  "Rows": {
                                    "$type": "System.Collections.Generic.List`1[[Comindware.Platform.Contracts.FormComponentModel, Comindware.Platform.Contracts]], mscorlib",
                                    "$values": [
                                      {
                                        "$type": "Comindware.Platform.Contracts.FieldComponentModel, Comindware.Platform.Contracts",
                                        "Label": {
                                          "$type": "Comindware.Platform.Contracts.LabelModel, Comindware.Platform.Contracts",
                                          "Hidden": false,
                                          "Alignment": "Top",
                                          "Text": {
                                            "$type": "Comindware.Platform.Contracts.LocalizedTextModel, Comindware.Platform.Contracts",
                                            "En": "Наименование",
                                            "De": "Наименование",
                                            "Ru": "Наименование"
                                          }
                                        },
                                        "FieldType": "Text",
                                        "Placeholder": {
                                          "$type": "Comindware.Platform.Contracts.LocalizedTextModel, Comindware.Platform.Contracts"
                                        },
                                        "HelpText": {
                                          "$type": "Comindware.Platform.Contracts.LocalizedTextModel, Comindware.Platform.Contracts"
                                        },
                                        "PropertyPath": {
                                          "$type": "Comindware.Platform.Contracts.GlobalAlias[], Comindware.Platform.Contracts",
                                          "$values": [
                                            {
                                              "$type": "Comindware.Platform.Contracts.GlobalAlias, Comindware.Platform.Contracts",
                                              "Type": "Attribute",
                                              "Owner": "Dopsoglasheniya",
                                              "Alias": "Naimenovanie"
                                            }
                                          ]
                                        },
                                        "TextHeight": 0,
                                        "TextHeightAuto": false,
                                        "MaxLength": 0,
                                        "EditorType": "Simple",
                                        "CreationType": "None",
                                        "RemovalType": "None",
                                        "EditType": "None",
                                        "ChildPropertyAlias": {
                                          "$type": "Comindware.Platform.Contracts.GlobalAlias, Comindware.Platform.Contracts",
                                          "Type": "Undefined"
                                        },
                                        "OrderPropertyAlias": {
                                          "$type": "Comindware.Platform.Contracts.GlobalAlias, Comindware.Platform.Contracts",
                                          "Type": "Undefined"
                                        },
                                        "NumberPropertyAlias": {
                                          "$type": "Comindware.Platform.Contracts.GlobalAlias, Comindware.Platform.Contracts",
                                          "Type": "Undefined"
                                        },
                                        "PrecedentPropertyAlias": {
                                          "$type": "Comindware.Platform.Contracts.GlobalAlias, Comindware.Platform.Contracts",
                                          "Type": "Undefined"
                                        },
                                        "SortingDirection": "Asc",
                                        "PopupFormAlias": {
                                          "$type": "Comindware.Platform.Contracts.GlobalAlias, Comindware.Platform.Contracts",
                                          "Type": "Undefined"
                                        },
                                        "DisplayFormat": "ShowAsPicture",
                                        "GlobalAlias": {
                                          "$type": "Comindware.Platform.Contracts.GlobalAlias, Comindware.Platform.Contracts",
                                          "Type": "FormComponent",
                                          "Alias": "Naimenovanie2"
                                        },
                                        "AccessType": "Editable",
                                        "Width": 0,
                                        "Type": "FieldComponent"
                                      },
                                      {
                                        "$type": "Comindware.Platform.Contracts.FieldComponentModel, Comindware.Platform.Contracts",
                                        "Label": {
                                          "$type": "Comindware.Platform.Contracts.LabelModel, Comindware.Platform.Contracts",
                                          "Hidden": false,
                                          "Alignment": "Top",
                                          "Text": {
                                            "$type": "Comindware.Platform.Contracts.LocalizedTextModel, Comindware.Platform.Contracts",
                                            "En": "Номер",
                                            "De": "Номер",
                                            "Ru": "Номер"
                                          }
                                        },
                                        "FieldType": "Text",
                                        "Placeholder": {
                                          "$type": "Comindware.Platform.Contracts.LocalizedTextModel, Comindware.Platform.Contracts"
                                        },
                                        "HelpText": {
                                          "$type": "Comindware.Platform.Contracts.LocalizedTextModel, Comindware.Platform.Contracts"
                                        },
                                        "PropertyPath": {
                                          "$type": "Comindware.Platform.Contracts.GlobalAlias[], Comindware.Platform.Contracts",
                                          "$values": [
                                            {
                                              "$type": "Comindware.Platform.Contracts.GlobalAlias, Comindware.Platform.Contracts",
                                              "Type": "Attribute",
                                              "Owner": "Dopsoglasheniya",
                                              "Alias": "Nomer"
                                            }
                                          ]
                                        },
                                        "TextHeight": 0,
                                        "TextHeightAuto": false,
                                        "MaxLength": 0,
                                        "EditorType": "Simple",
                                        "CreationType": "None",
                                        "RemovalType": "None",
                                        "EditType": "None",
                                        "ChildPropertyAlias": {
                                          "$type": "Comindware.Platform.Contracts.GlobalAlias, Comindware.Platform.Contracts",
                                          "Type": "Undefined"
                                        },
                                        "OrderPropertyAlias": {
                                          "$type": "Comindware.Platform.Contracts.GlobalAlias, Comindware.Platform.Contracts",
                                          "Type": "Undefined"
                                        },
                                        "NumberPropertyAlias": {
                                          "$type": "Comindware.Platform.Contracts.GlobalAlias, Comindware.Platform.Contracts",
                                          "Type": "Undefined"
                                        },
                                        "PrecedentPropertyAlias": {
                                          "$type": "Comindware.Platform.Contracts.GlobalAlias, Comindware.Platform.Contracts",
                                          "Type": "Undefined"
                                        },
                                        "SortingDirection": "Asc",
                                        "PopupFormAlias": {
                                          "$type": "Comindware.Platform.Contracts.GlobalAlias, Comindware.Platform.Contracts",
                                          "Type": "Undefined"
                                        },
                                        "DisplayFormat": "ShowAsPicture",
                                        "GlobalAlias": {
                                          "$type": "Comindware.Platform.Contracts.GlobalAlias, Comindware.Platform.Contracts",
                                          "Type": "FormComponent",
                                          "Alias": "Nomer"
                                        },
                                        "AccessType": "Editable",
                                        "Width": 0,
                                        "Type": "FieldComponent"
                                      },
                                      {
                                        "$type": "Comindware.Platform.Contracts.FieldComponentModel, Comindware.Platform.Contracts",
                                        "Label": {
                                          "$type": "Comindware.Platform.Contracts.LabelModel, Comindware.Platform.Contracts",
                                          "Hidden": false,
                                          "Alignment": "Top",
                                          "Text": {
                                            "$type": "Comindware.Platform.Contracts.LocalizedTextModel, Comindware.Platform.Contracts",
                                            "En": "Дата",
                                            "De": "Дата",
                                            "Ru": "Дата"
                                          }
                                        },
                                        "FieldType": "Date",
                                        "Placeholder": {
                                          "$type": "Comindware.Platform.Contracts.LocalizedTextModel, Comindware.Platform.Contracts"
                                        },
                                        "HelpText": {
                                          "$type": "Comindware.Platform.Contracts.LocalizedTextModel, Comindware.Platform.Contracts"
                                        },
                                        "PropertyPath": {
                                          "$type": "Comindware.Platform.Contracts.GlobalAlias[], Comindware.Platform.Contracts",
                                          "$values": [
                                            {
                                              "$type": "Comindware.Platform.Contracts.GlobalAlias, Comindware.Platform.Contracts",
                                              "Type": "Attribute",
                                              "Owner": "Dopsoglasheniya",
                                              "Alias": "Data"
                                            }
                                          ]
                                        },
                                        "EditorType": "Radio",
                                        "CreationType": "None",
                                        "RemovalType": "None",
                                        "EditType": "None",
                                        "DisplayTime": false,
                                        "ChildPropertyAlias": {
                                          "$type": "Comindware.Platform.Contracts.GlobalAlias, Comindware.Platform.Contracts",
                                          "Type": "Undefined"
                                        },
                                        "OrderPropertyAlias": {
                                          "$type": "Comindware.Platform.Contracts.GlobalAlias, Comindware.Platform.Contracts",
                                          "Type": "Undefined"
                                        },
                                        "NumberPropertyAlias": {
                                          "$type": "Comindware.Platform.Contracts.GlobalAlias, Comindware.Platform.Contracts",
                                          "Type": "Undefined"
                                        },
                                        "PrecedentPropertyAlias": {
                                          "$type": "Comindware.Platform.Contracts.GlobalAlias, Comindware.Platform.Contracts",
                                          "Type": "Undefined"
                                        },
                                        "SortingDirection": "Asc",
                                        "PopupFormAlias": {
                                          "$type": "Comindware.Platform.Contracts.GlobalAlias, Comindware.Platform.Contracts",
                                          "Type": "Undefined"
                                        },
                                        "DisplayFormat": "ShowAsPicture",
                                        "GlobalAlias": {
                                          "$type": "Comindware.Platform.Contracts.GlobalAlias, Comindware.Platform.Contracts",
                                          "Type": "FormComponent",
                                          "Alias": "Data"
                                        },
                                        "AccessType": "Editable",
                                        "Width": 0,
                                        "Type": "FieldComponent"
                                      }
                                    ]
                                  },
                                  "GlobalAlias": {
                                    "$type": "Comindware.Platform.Contracts.GlobalAlias, Comindware.Platform.Contracts",
                                    "Type": "FormComponent",
                                    "Alias": "VerticalLayout2"
                                  },
                                  "AccessType": "Undefined",
                                  "Width": 33,
                                  "Type": "VerticalLayout"
                                },
                                {
                                  "$type": "Comindware.Platform.Contracts.VerticalLayoutModel, Comindware.Platform.Contracts",
                                  "Rows": {
                                    "$type": "System.Collections.Generic.List`1[[Comindware.Platform.Contracts.FormComponentModel, Comindware.Platform.Contracts]], mscorlib",
                                    "$values": [
                                      {
                                        "$type": "Comindware.Platform.Contracts.FieldComponentModel, Comindware.Platform.Contracts",
                                        "Label": {
                                          "$type": "Comindware.Platform.Contracts.LabelModel, Comindware.Platform.Contracts",
                                          "Hidden": false,
                                          "Alignment": "Top",
                                          "Text": {
                                            "$type": "Comindware.Platform.Contracts.LocalizedTextModel, Comindware.Platform.Contracts",
                                            "En": "Договор",
                                            "De": "Договор",
                                            "Ru": "Договор"
                                          }
                                        },
                                        "FieldType": "Reference",
                                        "Placeholder": {
                                          "$type": "Comindware.Platform.Contracts.LocalizedTextModel, Comindware.Platform.Contracts"
                                        },
                                        "HelpText": {
                                          "$type": "Comindware.Platform.Contracts.LocalizedTextModel, Comindware.Platform.Contracts"
                                        },
                                        "PropertyPath": {
                                          "$type": "Comindware.Platform.Contracts.GlobalAlias[], Comindware.Platform.Contracts",
                                          "$values": [
                                            {
                                              "$type": "Comindware.Platform.Contracts.GlobalAlias, Comindware.Platform.Contracts",
                                              "Type": "Attribute",
                                              "Owner": "Dopsoglasheniya",
                                              "Alias": "Dogovor"
                                            }
                                          ]
                                        },
                                        "EditorType": "Radio",
                                        "CreationType": "None",
                                        "RemovalType": "None",
                                        "EditType": "None",
                                        "HideSearchBar": false,
                                        "ShowAsLink": false,
                                        "ChildPropertyAlias": {
                                          "$type": "Comindware.Platform.Contracts.GlobalAlias, Comindware.Platform.Contracts",
                                          "Type": "Undefined"
                                        },
                                        "OrderPropertyAlias": {
                                          "$type": "Comindware.Platform.Contracts.GlobalAlias, Comindware.Platform.Contracts",
                                          "Type": "Undefined"
                                        },
                                        "NumberPropertyAlias": {
                                          "$type": "Comindware.Platform.Contracts.GlobalAlias, Comindware.Platform.Contracts",
                                          "Type": "Undefined"
                                        },
                                        "PrecedentPropertyAlias": {
                                          "$type": "Comindware.Platform.Contracts.GlobalAlias, Comindware.Platform.Contracts",
                                          "Type": "Undefined"
                                        },
                                        "SortingDirection": "Asc",
                                        "PopupFormAlias": {
                                          "$type": "Comindware.Platform.Contracts.GlobalAlias, Comindware.Platform.Contracts",
                                          "Type": "Undefined"
                                        },
                                        "AllowEdit": false,
                                        "DisplayFormat": "ShowAsPicture",
                                        "GlobalAlias": {
                                          "$type": "Comindware.Platform.Contracts.GlobalAlias, Comindware.Platform.Contracts",
                                          "Type": "FormComponent",
                                          "Alias": "Dogovor"
                                        },
                                        "AccessType": "Editable",
                                        "Width": 0,
                                        "Type": "FieldComponent"
                                      },
                                      {
                                        "$type": "Comindware.Platform.Contracts.FieldComponentModel, Comindware.Platform.Contracts",
                                        "Label": {
                                          "$type": "Comindware.Platform.Contracts.LabelModel, Comindware.Platform.Contracts",
                                          "Hidden": false,
                                          "Alignment": "Top",
                                          "Text": {
                                            "$type": "Comindware.Platform.Contracts.LocalizedTextModel, Comindware.Platform.Contracts",
                                            "En": "Приложение",
                                            "De": "Приложение",
                                            "Ru": "Приложение"
                                          }
                                        },
                                        "FieldType": "Reference",
                                        "Placeholder": {
                                          "$type": "Comindware.Platform.Contracts.LocalizedTextModel, Comindware.Platform.Contracts"
                                        },
                                        "HelpText": {
                                          "$type": "Comindware.Platform.Contracts.LocalizedTextModel, Comindware.Platform.Contracts"
                                        },
                                        "PropertyPath": {
                                          "$type": "Comindware.Platform.Contracts.GlobalAlias[], Comindware.Platform.Contracts",
                                          "$values": [
                                            {
                                              "$type": "Comindware.Platform.Contracts.GlobalAlias, Comindware.Platform.Contracts",
                                              "Type": "Attribute",
                                              "Owner": "Dopsoglasheniya",
                                              "Alias": "Prilozhenie"
                                            }
                                          ]
                                        },
                                        "EditorType": "Radio",
                                        "CreationType": "None",
                                        "RemovalType": "None",
                                        "EditType": "None",
                                        "HideSearchBar": false,
                                        "ShowAsLink": false,
                                        "ChildPropertyAlias": {
                                          "$type": "Comindware.Platform.Contracts.GlobalAlias, Comindware.Platform.Contracts",
                                          "Type": "Undefined"
                                        },
                                        "OrderPropertyAlias": {
                                          "$type": "Comindware.Platform.Contracts.GlobalAlias, Comindware.Platform.Contracts",
                                          "Type": "Undefined"
                                        },
                                        "NumberPropertyAlias": {
                                          "$type": "Comindware.Platform.Contracts.GlobalAlias, Comindware.Platform.Contracts",
                                          "Type": "Undefined"
                                        },
                                        "PrecedentPropertyAlias": {
                                          "$type": "Comindware.Platform.Contracts.GlobalAlias, Comindware.Platform.Contracts",
                                          "Type": "Undefined"
                                        },
                                        "SortingDirection": "Asc",
                                        "PopupFormAlias": {
                                          "$type": "Comindware.Platform.Contracts.GlobalAlias, Comindware.Platform.Contracts",
                                          "Type": "Undefined"
                                        },
                                        "AllowEdit": false,
                                        "DisplayFormat": "ShowAsPicture",
                                        "GlobalAlias": {
                                          "$type": "Comindware.Platform.Contracts.GlobalAlias, Comindware.Platform.Contracts",
                                          "Type": "FormComponent",
                                          "Alias": "Prilozhenie"
                                        },
                                        "AccessType": "Editable",
                                        "Width": 0,
                                        "Type": "FieldComponent"
                                      },
                                      {
                                        "$type": "Comindware.Platform.Contracts.FieldComponentModel, Comindware.Platform.Contracts",
                                        "Label": {
                                          "$type": "Comindware.Platform.Contracts.LabelModel, Comindware.Platform.Contracts",
                                          "Hidden": false,
                                          "Alignment": "Top",
                                          "Text": {
                                            "$type": "Comindware.Platform.Contracts.LocalizedTextModel, Comindware.Platform.Contracts",
                                            "En": "Доп. соглашение",
                                            "De": "Доп. соглашение",
                                            "Ru": "Доп. соглашение"
                                          }
                                        },
                                        "FieldType": "Reference",
                                        "Placeholder": {
                                          "$type": "Comindware.Platform.Contracts.LocalizedTextModel, Comindware.Platform.Contracts"
                                        },
                                        "HelpText": {
                                          "$type": "Comindware.Platform.Contracts.LocalizedTextModel, Comindware.Platform.Contracts"
                                        },
                                        "PropertyPath": {
                                          "$type": "Comindware.Platform.Contracts.GlobalAlias[], Comindware.Platform.Contracts",
                                          "$values": [
                                            {
                                              "$type": "Comindware.Platform.Contracts.GlobalAlias, Comindware.Platform.Contracts",
                                              "Type": "Attribute",
                                              "Owner": "Dopsoglasheniya",
                                              "Alias": "Dopsoglashenie"
                                            }
                                          ]
                                        },
                                        "EditorType": "Radio",
                                        "CreationType": "None",
                                        "RemovalType": "None",
                                        "EditType": "None",
                                        "HideSearchBar": false,
                                        "ShowAsLink": false,
                                        "ChildPropertyAlias": {
                                          "$type": "Comindware.Platform.Contracts.GlobalAlias, Comindware.Platform.Contracts",
                                          "Type": "Undefined"
                                        },
                                        "OrderPropertyAlias": {
                                          "$type": "Comindware.Platform.Contracts.GlobalAlias, Comindware.Platform.Contracts",
                                          "Type": "Undefined"
                                        },
                                        "NumberPropertyAlias": {
                                          "$type": "Comindware.Platform.Contracts.GlobalAlias, Comindware.Platform.Contracts",
                                          "Type": "Undefined"
                                        },
                                        "PrecedentPropertyAlias": {
                                          "$type": "Comindware.Platform.Contracts.GlobalAlias, Comindware.Platform.Contracts",
                                          "Type": "Undefined"
                                        },
                                        "SortingDirection": "Asc",
                                        "PopupFormAlias": {
                                          "$type": "Comindware.Platform.Contracts.GlobalAlias, Comindware.Platform.Contracts",
                                          "Type": "Undefined"
                                        },
                                        "AllowEdit": false,
                                        "DisplayFormat": "ShowAsPicture",
                                        "GlobalAlias": {
                                          "$type": "Comindware.Platform.Contracts.GlobalAlias, Comindware.Platform.Contracts",
                                          "Type": "FormComponent",
                                          "Alias": "Dopsoglashenie"
                                        },
                                        "AccessType": "Editable",
                                        "Width": 0,
                                        "Type": "FieldComponent"
                                      },
                                      {
                                        "$type": "Comindware.Platform.Contracts.FieldComponentModel, Comindware.Platform.Contracts",
                                        "Label": {
                                          "$type": "Comindware.Platform.Contracts.LabelModel, Comindware.Platform.Contracts",
                                          "Hidden": false,
                                          "Alignment": "Top",
                                          "Text": {
                                            "$type": "Comindware.Platform.Contracts.LocalizedTextModel, Comindware.Platform.Contracts",
                                            "En": "Клиент",
                                            "De": "Клиент",
                                            "Ru": "Клиент"
                                          }
                                        },
                                        "FieldType": "Reference",
                                        "Placeholder": {
                                          "$type": "Comindware.Platform.Contracts.LocalizedTextModel, Comindware.Platform.Contracts"
                                        },
                                        "HelpText": {
                                          "$type": "Comindware.Platform.Contracts.LocalizedTextModel, Comindware.Platform.Contracts"
                                        },
                                        "PropertyPath": {
                                          "$type": "Comindware.Platform.Contracts.GlobalAlias[], Comindware.Platform.Contracts",
                                          "$values": [
                                            {
                                              "$type": "Comindware.Platform.Contracts.GlobalAlias, Comindware.Platform.Contracts",
                                              "Type": "Attribute",
                                              "Owner": "Dopsoglasheniya",
                                              "Alias": "Kontragent"
                                            }
                                          ]
                                        },
                                        "EditorType": "Radio",
                                        "CreationType": "None",
                                        "RemovalType": "None",
                                        "EditType": "None",
                                        "HideSearchBar": false,
                                        "ShowAsLink": false,
                                        "ChildPropertyAlias": {
                                          "$type": "Comindware.Platform.Contracts.GlobalAlias, Comindware.Platform.Contracts",
                                          "Type": "Undefined"
                                        },
                                        "OrderPropertyAlias": {
                                          "$type": "Comindware.Platform.Contracts.GlobalAlias, Comindware.Platform.Contracts",
                                          "Type": "Undefined"
                                        },
                                        "NumberPropertyAlias": {
                                          "$type": "Comindware.Platform.Contracts.GlobalAlias, Comindware.Platform.Contracts",
                                          "Type": "Undefined"
                                        },
                                        "PrecedentPropertyAlias": {
                                          "$type": "Comindware.Platform.Contracts.GlobalAlias, Comindware.Platform.Contracts",
                                          "Type": "Undefined"
                                        },
                                        "SortingDirection": "Asc",
                                        "PopupFormAlias": {
                                          "$type": "Comindware.Platform.Contracts.GlobalAlias, Comindware.Platform.Contracts",
                                          "Type": "Undefined"
                                        },
                                        "AllowEdit": false,
                                        "DisplayFormat": "ShowAsPicture",
                                        "GlobalAlias": {
                                          "$type": "Comindware.Platform.Contracts.GlobalAlias, Comindware.Platform.Contracts",
                                          "Type": "FormComponent",
                                          "Alias": "Kontragent"
                                        },
                                        "AccessType": "Editable",
                                        "Width": 0,
                                        "Type": "FieldComponent"
                                      }
                                    ]
                                  },
                                  "GlobalAlias": {
                                    "$type": "Comindware.Platform.Contracts.GlobalAlias, Comindware.Platform.Contracts",
                                    "Type": "FormComponent",
                                    "Alias": "VerticalLayout4"
                                  },
                                  "AccessType": "Undefined",
                                  "Width": 33,
                                  "Type": "VerticalLayout"
                                },
                                {
                                  "$type": "Comindware.Platform.Contracts.VerticalLayoutModel, Comindware.Platform.Contracts",
                                  "Rows": {
                                    "$type": "System.Collections.Generic.List`1[[Comindware.Platform.Contracts.FormComponentModel, Comindware.Platform.Contracts]], mscorlib",
                                    "$values": [
                                      {
                                        "$type": "Comindware.Platform.Contracts.FieldComponentModel, Comindware.Platform.Contracts",
                                        "Label": {
                                          "$type": "Comindware.Platform.Contracts.LabelModel, Comindware.Platform.Contracts",
                                          "Hidden": false,
                                          "Alignment": "Top",
                                          "Text": {
                                            "$type": "Comindware.Platform.Contracts.LocalizedTextModel, Comindware.Platform.Contracts",
                                            "En": "Подготовил доп.соглашение",
                                            "De": "Подготовил доп.соглашение",
                                            "Ru": "Подготовил доп.соглашение"
                                          }
                                        },
                                        "FieldType": "Member",
                                        "Placeholder": {
                                          "$type": "Comindware.Platform.Contracts.LocalizedTextModel, Comindware.Platform.Contracts"
                                        },
                                        "HelpText": {
                                          "$type": "Comindware.Platform.Contracts.LocalizedTextModel, Comindware.Platform.Contracts"
                                        },
                                        "PropertyPath": {
                                          "$type": "Comindware.Platform.Contracts.GlobalAlias[], Comindware.Platform.Contracts",
                                          "$values": [
                                            {
                                              "$type": "Comindware.Platform.Contracts.GlobalAlias, Comindware.Platform.Contracts",
                                              "Type": "Attribute",
                                              "Owner": "Dopsoglasheniya",
                                              "Alias": "Podgotovildopsoglashenie"
                                            }
                                          ]
                                        },
                                        "EditorType": "Radio",
                                        "CreationType": "None",
                                        "RemovalType": "None",
                                        "EditType": "None",
                                        "HideSearchBar": false,
                                        "ChildPropertyAlias": {
                                          "$type": "Comindware.Platform.Contracts.GlobalAlias, Comindware.Platform.Contracts",
                                          "Type": "Undefined"
                                        },
                                        "OrderPropertyAlias": {
                                          "$type": "Comindware.Platform.Contracts.GlobalAlias, Comindware.Platform.Contracts",
                                          "Type": "Undefined"
                                        },
                                        "NumberPropertyAlias": {
                                          "$type": "Comindware.Platform.Contracts.GlobalAlias, Comindware.Platform.Contracts",
                                          "Type": "Undefined"
                                        },
                                        "PrecedentPropertyAlias": {
                                          "$type": "Comindware.Platform.Contracts.GlobalAlias, Comindware.Platform.Contracts",
                                          "Type": "Undefined"
                                        },
                                        "SortingDirection": "Asc",
                                        "MaxCount": 0,
                                        "PopupFormAlias": {
                                          "$type": "Comindware.Platform.Contracts.GlobalAlias, Comindware.Platform.Contracts",
                                          "Type": "Undefined"
                                        },
                                        "DisplayFormat": "ShowAsPicture",
                                        "GlobalAlias": {
                                          "$type": "Comindware.Platform.Contracts.GlobalAlias, Comindware.Platform.Contracts",
                                          "Type": "FormComponent",
                                          "Alias": "Podgotovildopsoglashenie"
                                        },
                                        "AccessType": "Editable",
                                        "Width": 0,
                                        "Type": "FieldComponent"
                                      },
                                      {
                                        "$type": "Comindware.Platform.Contracts.FieldComponentModel, Comindware.Platform.Contracts",
                                        "Label": {
                                          "$type": "Comindware.Platform.Contracts.LabelModel, Comindware.Platform.Contracts",
                                          "Hidden": false,
                                          "Alignment": "Top",
                                          "Text": {
                                            "$type": "Comindware.Platform.Contracts.LocalizedTextModel, Comindware.Platform.Contracts",
                                            "En": "Статус",
                                            "De": "Статус",
                                            "Ru": "Статус"
                                          }
                                        },
                                        "FieldType": "Reference",
                                        "Placeholder": {
                                          "$type": "Comindware.Platform.Contracts.LocalizedTextModel, Comindware.Platform.Contracts"
                                        },
                                        "HelpText": {
                                          "$type": "Comindware.Platform.Contracts.LocalizedTextModel, Comindware.Platform.Contracts"
                                        },
                                        "PropertyPath": {
                                          "$type": "Comindware.Platform.Contracts.GlobalAlias[], Comindware.Platform.Contracts",
                                          "$values": [
                                            {
                                              "$type": "Comindware.Platform.Contracts.GlobalAlias, Comindware.Platform.Contracts",
                                              "Type": "Attribute",
                                              "Owner": "Dopsoglasheniya",
                                              "Alias": "Status"
                                            }
                                          ]
                                        },
                                        "EditorType": "Radio",
                                        "CreationType": "None",
                                        "RemovalType": "None",
                                        "EditType": "None",
                                        "HideSearchBar": false,
                                        "ShowAsLink": false,
                                        "ChildPropertyAlias": {
                                          "$type": "Comindware.Platform.Contracts.GlobalAlias, Comindware.Platform.Contracts",
                                          "Type": "Undefined"
                                        },
                                        "OrderPropertyAlias": {
                                          "$type": "Comindware.Platform.Contracts.GlobalAlias, Comindware.Platform.Contracts",
                                          "Type": "Undefined"
                                        },
                                        "NumberPropertyAlias": {
                                          "$type": "Comindware.Platform.Contracts.GlobalAlias, Comindware.Platform.Contracts",
                                          "Type": "Undefined"
                                        },
                                        "PrecedentPropertyAlias": {
                                          "$type": "Comindware.Platform.Contracts.GlobalAlias, Comindware.Platform.Contracts",
                                          "Type": "Undefined"
                                        },
                                        "SortingDirection": "Asc",
                                        "PopupFormAlias": {
                                          "$type": "Comindware.Platform.Contracts.GlobalAlias, Comindware.Platform.Contracts",
                                          "Type": "Undefined"
                                        },
                                        "AllowEdit": false,
                                        "DisplayFormat": "ShowAsPicture",
                                        "GlobalAlias": {
                                          "$type": "Comindware.Platform.Contracts.GlobalAlias, Comindware.Platform.Contracts",
                                          "Type": "FormComponent",
                                          "Alias": "Status"
                                        },
                                        "AccessType": "Editable",
                                        "Width": 0,
                                        "Type": "FieldComponent"
                                      }
                                    ]
                                  },
                                  "GlobalAlias": {
                                    "$type": "Comindware.Platform.Contracts.GlobalAlias, Comindware.Platform.Contracts",
                                    "Type": "FormComponent",
                                    "Alias": "VerticalLayout3"
                                  },
                                  "AccessType": "Undefined",
                                  "Width": 33,
                                  "Type": "VerticalLayout"
                                }
                              ]
                            },
                            "OriginalType": "HorizontalLayout",
                            "GlobalAlias": {
                              "$type": "Comindware.Platform.Contracts.GlobalAlias, Comindware.Platform.Contracts",
                              "Type": "FormComponent",
                              "Alias": "HorizontalLayout"
                            },
                            "AccessType": "Undefined",
                            "Width": 0,
                            "Type": "LayoutModel"
                          },
                          {
                            "$type": "Comindware.Platform.Contracts.LayoutModel, Comindware.Platform.Contracts",
                            "Components": {
                              "$type": "System.Collections.Generic.List`1[[Comindware.Platform.Contracts.FormComponentModel, Comindware.Platform.Contracts]], mscorlib",
                              "$values": [
                                {
                                  "$type": "Comindware.Platform.Contracts.VerticalLayoutModel, Comindware.Platform.Contracts",
                                  "Rows": {
                                    "$type": "System.Collections.Generic.List`1[[Comindware.Platform.Contracts.FormComponentModel, Comindware.Platform.Contracts]], mscorlib",
                                    "$values": [
                                      {
                                        "$type": "Comindware.Platform.Contracts.FieldComponentModel, Comindware.Platform.Contracts",
                                        "Label": {
                                          "$type": "Comindware.Platform.Contracts.LabelModel, Comindware.Platform.Contracts",
                                          "Hidden": false,
                                          "Alignment": "Top",
                                          "Text": {
                                            "$type": "Comindware.Platform.Contracts.LocalizedTextModel, Comindware.Platform.Contracts",
                                            "En": "Агентство подписывает первым?",
                                            "De": "Агентство подписывает первым?",
                                            "Ru": "Агентство подписывает первым?"
                                          }
                                        },
                                        "FieldType": "Boolean",
                                        "Placeholder": {
                                          "$type": "Comindware.Platform.Contracts.LocalizedTextModel, Comindware.Platform.Contracts"
                                        },
                                        "HelpText": {
                                          "$type": "Comindware.Platform.Contracts.LocalizedTextModel, Comindware.Platform.Contracts"
                                        },
                                        "PropertyPath": {
                                          "$type": "Comindware.Platform.Contracts.GlobalAlias[], Comindware.Platform.Contracts",
                                          "$values": [
                                            {
                                              "$type": "Comindware.Platform.Contracts.GlobalAlias, Comindware.Platform.Contracts",
                                              "Type": "Attribute",
                                              "Owner": "Dopsoglasheniya",
                                              "Alias": "Agentstvopodpisyvaetpervym"
                                            }
                                          ]
                                        },
                                        "TrueText": {
                                          "$type": "Comindware.Platform.Contracts.LocalizedTextModel, Comindware.Platform.Contracts"
                                        },
                                        "FalseText": {
                                          "$type": "Comindware.Platform.Contracts.LocalizedTextModel, Comindware.Platform.Contracts"
                                        },
                                        "UseTrueFalseText": false,
                                        "EditorType": "Radio",
                                        "CreationType": "None",
                                        "RemovalType": "None",
                                        "EditType": "None",
                                        "ChildPropertyAlias": {
                                          "$type": "Comindware.Platform.Contracts.GlobalAlias, Comindware.Platform.Contracts",
                                          "Type": "Undefined"
                                        },
                                        "OrderPropertyAlias": {
                                          "$type": "Comindware.Platform.Contracts.GlobalAlias, Comindware.Platform.Contracts",
                                          "Type": "Undefined"
                                        },
                                        "NumberPropertyAlias": {
                                          "$type": "Comindware.Platform.Contracts.GlobalAlias, Comindware.Platform.Contracts",
                                          "Type": "Undefined"
                                        },
                                        "PrecedentPropertyAlias": {
                                          "$type": "Comindware.Platform.Contracts.GlobalAlias, Comindware.Platform.Contracts",
                                          "Type": "Undefined"
                                        },
                                        "SortingDirection": "Asc",
                                        "PopupFormAlias": {
                                          "$type": "Comindware.Platform.Contracts.GlobalAlias, Comindware.Platform.Contracts",
                                          "Type": "Undefined"
                                        },
                                        "DisplayFormat": "ShowAsPicture",
                                        "GlobalAlias": {
                                          "$type": "Comindware.Platform.Contracts.GlobalAlias, Comindware.Platform.Contracts",
                                          "Type": "FormComponent",
                                          "Alias": "Agentstvopodpisyvaetpervym"
                                        },
                                        "AccessType": "Editable",
                                        "Width": 0,
                                        "Type": "FieldComponent"
                                      }
                                    ]
                                  },
                                  "GlobalAlias": {
                                    "$type": "Comindware.Platform.Contracts.GlobalAlias, Comindware.Platform.Contracts",
                                    "Type": "FormComponent",
                                    "Alias": "VerticalLayout5"
                                  },
                                  "AccessType": "Undefined",
                                  "Width": 25,
                                  "Type": "VerticalLayout"
                                },
                                {
                                  "$type": "Comindware.Platform.Contracts.VerticalLayoutModel, Comindware.Platform.Contracts",
                                  "Rows": {
                                    "$type": "System.Collections.Generic.List`1[[Comindware.Platform.Contracts.FormComponentModel, Comindware.Platform.Contracts]], mscorlib",
                                    "$values": [
                                      {
                                        "$type": "Comindware.Platform.Contracts.FieldComponentModel, Comindware.Platform.Contracts",
                                        "Label": {
                                          "$type": "Comindware.Platform.Contracts.LabelModel, Comindware.Platform.Contracts",
                                          "Hidden": false,
                                          "Alignment": "Top",
                                          "Text": {
                                            "$type": "Comindware.Platform.Contracts.LocalizedTextModel, Comindware.Platform.Contracts",
                                            "En": "Кто подписывает?",
                                            "De": "Кто подписывает?",
                                            "Ru": "Кто подписывает?"
                                          }
                                        },
                                        "FieldType": "Boolean",
                                        "Placeholder": {
                                          "$type": "Comindware.Platform.Contracts.LocalizedTextModel, Comindware.Platform.Contracts"
                                        },
                                        "HelpText": {
                                          "$type": "Comindware.Platform.Contracts.LocalizedTextModel, Comindware.Platform.Contracts"
                                        },
                                        "PropertyPath": {
                                          "$type": "Comindware.Platform.Contracts.GlobalAlias[], Comindware.Platform.Contracts",
                                          "$values": [
                                            {
                                              "$type": "Comindware.Platform.Contracts.GlobalAlias, Comindware.Platform.Contracts",
                                              "Type": "Attribute",
                                              "Owner": "Dopsoglasheniya",
                                              "Alias": "Ktopodpisyvaet"
                                            }
                                          ]
                                        },
                                        "TrueText": {
                                          "$type": "Comindware.Platform.Contracts.LocalizedTextModel, Comindware.Platform.Contracts",
                                          "En": "Руководитель",
                                          "De": "Руководитель",
                                          "Ru": "Руководитель"
                                        },
                                        "FalseText": {
                                          "$type": "Comindware.Platform.Contracts.LocalizedTextModel, Comindware.Platform.Contracts",
                                          "En": "Бухгалтер",
                                          "De": "Бухгалтер",
                                          "Ru": "Бухгалтер"
                                        },
                                        "UseTrueFalseText": true,
                                        "EditorType": "Radio",
                                        "CreationType": "None",
                                        "RemovalType": "None",
                                        "EditType": "None",
                                        "ChildPropertyAlias": {
                                          "$type": "Comindware.Platform.Contracts.GlobalAlias, Comindware.Platform.Contracts",
                                          "Type": "Undefined"
                                        },
                                        "OrderPropertyAlias": {
                                          "$type": "Comindware.Platform.Contracts.GlobalAlias, Comindware.Platform.Contracts",
                                          "Type": "Undefined"
                                        },
                                        "NumberPropertyAlias": {
                                          "$type": "Comindware.Platform.Contracts.GlobalAlias, Comindware.Platform.Contracts",
                                          "Type": "Undefined"
                                        },
                                        "PrecedentPropertyAlias": {
                                          "$type": "Comindware.Platform.Contracts.GlobalAlias, Comindware.Platform.Contracts",
                                          "Type": "Undefined"
                                        },
                                        "SortingDirection": "Asc",
                                        "PopupFormAlias": {
                                          "$type": "Comindware.Platform.Contracts.GlobalAlias, Comindware.Platform.Contracts",
                                          "Type": "Undefined"
                                        },
                                        "DisplayFormat": "ShowAsPicture",
                                        "GlobalAlias": {
                                          "$type": "Comindware.Platform.Contracts.GlobalAlias, Comindware.Platform.Contracts",
                                          "Type": "FormComponent",
                                          "Alias": "Ktopodpisyvaet"
                                        },
                                        "AccessType": "Editable",
                                        "Width": 0,
                                        "Type": "FieldComponent"
                                      }
                                    ]
                                  },
                                  "GlobalAlias": {
                                    "$type": "Comindware.Platform.Contracts.GlobalAlias, Comindware.Platform.Contracts",
                                    "Type": "FormComponent",
                                    "Alias": "VerticalLayout8"
                                  },
                                  "AccessType": "Undefined",
                                  "Width": 25,
                                  "Type": "VerticalLayout"
                                },
                                {
                                  "$type": "Comindware.Platform.Contracts.VerticalLayoutModel, Comindware.Platform.Contracts",
                                  "Rows": {
                                    "$type": "System.Collections.Generic.List`1[[Comindware.Platform.Contracts.FormComponentModel, Comindware.Platform.Contracts]], mscorlib",
                                    "$values": [
                                      {
                                        "$type": "Comindware.Platform.Contracts.FieldComponentModel, Comindware.Platform.Contracts",
                                        "Label": {
                                          "$type": "Comindware.Platform.Contracts.LabelModel, Comindware.Platform.Contracts",
                                          "Hidden": false,
                                          "Alignment": "Top",
                                          "Text": {
                                            "$type": "Comindware.Platform.Contracts.LocalizedTextModel, Comindware.Platform.Contracts",
                                            "En": "Согласовано клиентом?",
                                            "De": "Согласовано клиентом?",
                                            "Ru": "Согласовано клиентом?"
                                          }
                                        },
                                        "FieldType": "Boolean",
                                        "Placeholder": {
                                          "$type": "Comindware.Platform.Contracts.LocalizedTextModel, Comindware.Platform.Contracts"
                                        },
                                        "HelpText": {
                                          "$type": "Comindware.Platform.Contracts.LocalizedTextModel, Comindware.Platform.Contracts"
                                        },
                                        "PropertyPath": {
                                          "$type": "Comindware.Platform.Contracts.GlobalAlias[], Comindware.Platform.Contracts",
                                          "$values": [
                                            {
                                              "$type": "Comindware.Platform.Contracts.GlobalAlias, Comindware.Platform.Contracts",
                                              "Type": "Attribute",
                                              "Owner": "Dopsoglasheniya",
                                              "Alias": "Soglasovanoklientom"
                                            }
                                          ]
                                        },
                                        "TrueText": {
                                          "$type": "Comindware.Platform.Contracts.LocalizedTextModel, Comindware.Platform.Contracts"
                                        },
                                        "FalseText": {
                                          "$type": "Comindware.Platform.Contracts.LocalizedTextModel, Comindware.Platform.Contracts"
                                        },
                                        "UseTrueFalseText": false,
                                        "EditorType": "Radio",
                                        "CreationType": "None",
                                        "RemovalType": "None",
                                        "EditType": "None",
                                        "ChildPropertyAlias": {
                                          "$type": "Comindware.Platform.Contracts.GlobalAlias, Comindware.Platform.Contracts",
                                          "Type": "Undefined"
                                        },
                                        "OrderPropertyAlias": {
                                          "$type": "Comindware.Platform.Contracts.GlobalAlias, Comindware.Platform.Contracts",
                                          "Type": "Undefined"
                                        },
                                        "NumberPropertyAlias": {
                                          "$type": "Comindware.Platform.Contracts.GlobalAlias, Comindware.Platform.Contracts",
                                          "Type": "Undefined"
                                        },
                                        "PrecedentPropertyAlias": {
                                          "$type": "Comindware.Platform.Contracts.GlobalAlias, Comindware.Platform.Contracts",
                                          "Type": "Undefined"
                                        },
                                        "SortingDirection": "Asc",
                                        "PopupFormAlias": {
                                          "$type": "Comindware.Platform.Contracts.GlobalAlias, Comindware.Platform.Contracts",
                                          "Type": "Undefined"
                                        },
                                        "DisplayFormat": "ShowAsPicture",
                                        "GlobalAlias": {
                                          "$type": "Comindware.Platform.Contracts.GlobalAlias, Comindware.Platform.Contracts",
                                          "Type": "FormComponent",
                                          "Alias": "Soglasovanoklientom"
                                        },
                                        "AccessType": "Editable",
                                        "Width": 0,
                                        "Type": "FieldComponent"
                                      }
                                    ]
                                  },
                                  "GlobalAlias": {
                                    "$type": "Comindware.Platform.Contracts.GlobalAlias, Comindware.Platform.Contracts",
                                    "Type": "FormComponent",
                                    "Alias": "VerticalLayout9"
                                  },
                                  "AccessType": "Undefined",
                                  "Width": 25,
                                  "Type": "VerticalLayout"
                                },
                                {
                                  "$type": "Comindware.Platform.Contracts.VerticalLayoutModel, Comindware.Platform.Contracts",
                                  "Rows": {
                                    "$type": "System.Collections.Generic.List`1[[Comindware.Platform.Contracts.FormComponentModel, Comindware.Platform.Contracts]], mscorlib",
                                    "$values": [
                                      {
                                        "$type": "Comindware.Platform.Contracts.FieldComponentModel, Comindware.Platform.Contracts",
                                        "Label": {
                                          "$type": "Comindware.Platform.Contracts.LabelModel, Comindware.Platform.Contracts",
                                          "Hidden": false,
                                          "Alignment": "Top",
                                          "Text": {
                                            "$type": "Comindware.Platform.Contracts.LocalizedTextModel, Comindware.Platform.Contracts",
                                            "En": "Подписано?",
                                            "De": "Подписано?",
                                            "Ru": "Подписано?"
                                          }
                                        },
                                        "FieldType": "Boolean",
                                        "Placeholder": {
                                          "$type": "Comindware.Platform.Contracts.LocalizedTextModel, Comindware.Platform.Contracts"
                                        },
                                        "HelpText": {
                                          "$type": "Comindware.Platform.Contracts.LocalizedTextModel, Comindware.Platform.Contracts"
                                        },
                                        "PropertyPath": {
                                          "$type": "Comindware.Platform.Contracts.GlobalAlias[], Comindware.Platform.Contracts",
                                          "$values": [
                                            {
                                              "$type": "Comindware.Platform.Contracts.GlobalAlias, Comindware.Platform.Contracts",
                                              "Type": "Attribute",
                                              "Owner": "Dopsoglasheniya",
                                              "Alias": "Podpisano"
                                            }
                                          ]
                                        },
                                        "TrueText": {
                                          "$type": "Comindware.Platform.Contracts.LocalizedTextModel, Comindware.Platform.Contracts"
                                        },
                                        "FalseText": {
                                          "$type": "Comindware.Platform.Contracts.LocalizedTextModel, Comindware.Platform.Contracts"
                                        },
                                        "UseTrueFalseText": false,
                                        "EditorType": "Radio",
                                        "CreationType": "None",
                                        "RemovalType": "None",
                                        "EditType": "None",
                                        "ChildPropertyAlias": {
                                          "$type": "Comindware.Platform.Contracts.GlobalAlias, Comindware.Platform.Contracts",
                                          "Type": "Undefined"
                                        },
                                        "OrderPropertyAlias": {
                                          "$type": "Comindware.Platform.Contracts.GlobalAlias, Comindware.Platform.Contracts",
                                          "Type": "Undefined"
                                        },
                                        "NumberPropertyAlias": {
                                          "$type": "Comindware.Platform.Contracts.GlobalAlias, Comindware.Platform.Contracts",
                                          "Type": "Undefined"
                                        },
                                        "PrecedentPropertyAlias": {
                                          "$type": "Comindware.Platform.Contracts.GlobalAlias, Comindware.Platform.Contracts",
                                          "Type": "Undefined"
                                        },
                                        "SortingDirection": "Asc",
                                        "PopupFormAlias": {
                                          "$type": "Comindware.Platform.Contracts.GlobalAlias, Comindware.Platform.Contracts",
                                          "Type": "Undefined"
                                        },
                                        "DisplayFormat": "ShowAsPicture",
                                        "GlobalAlias": {
                                          "$type": "Comindware.Platform.Contracts.GlobalAlias, Comindware.Platform.Contracts",
                                          "Type": "FormComponent",
                                          "Alias": "Podpisano"
                                        },
                                        "AccessType": "Editable",
                                        "Width": 0,
                                        "Type": "FieldComponent"
                                      }
                                    ]
                                  },
                                  "GlobalAlias": {
                                    "$type": "Comindware.Platform.Contracts.GlobalAlias, Comindware.Platform.Contracts",
                                    "Type": "FormComponent",
                                    "Alias": "VerticalLayout10"
                                  },
                                  "AccessType": "Undefined",
                                  "Width": 25,
                                  "Type": "VerticalLayout"
                                }
                              ]
                            },
                            "OriginalType": "HorizontalLayout",
                            "GlobalAlias": {
                              "$type": "Comindware.Platform.Contracts.GlobalAlias, Comindware.Platform.Contracts",
                              "Type": "FormComponent",
                              "Alias": "HorizontalLayout3"
                            },
                            "AccessType": "Undefined",
                            "Width": 0,
                            "Type": "LayoutModel"
                          }
                        ]
                      },
                      "GlobalAlias": {
                        "$type": "Comindware.Platform.Contracts.GlobalAlias, Comindware.Platform.Contracts",
                        "Type": "FormComponent",
                        "Alias": "VerticalLayout"
                      },
                      "AccessType": "Undefined",
                      "Width": 0,
                      "Type": "VerticalLayout"
                    }
                  ]
                },
                "GlobalAlias": {
                  "$type": "Comindware.Platform.Contracts.GlobalAlias, Comindware.Platform.Contracts",
                  "Type": "FormComponent",
                  "Alias": "GroupPanelComponent"
                },
                "AccessType": "Editable",
                "Width": 80,
                "Type": "PanelModel"
              },
              {
                "$type": "Comindware.Platform.Contracts.PanelModel, Comindware.Platform.Contracts",
                "Text": {
                  "$type": "Comindware.Platform.Contracts.LocalizedTextModel, Comindware.Platform.Contracts",
                  "En": "Вложения",
                  "De": "Вложения",
                  "Ru": "Вложения"
                },
                "OriginalType": "GroupPanel",
                "Rows": {
                  "$type": "System.Collections.Generic.List`1[[Comindware.Platform.Contracts.FormComponentModel, Comindware.Platform.Contracts]], mscorlib",
                  "$values": [
                    {
                      "$type": "Comindware.Platform.Contracts.VerticalLayoutModel, Comindware.Platform.Contracts",
                      "Rows": {
                        "$type": "System.Collections.Generic.List`1[[Comindware.Platform.Contracts.FormComponentModel, Comindware.Platform.Contracts]], mscorlib",
                        "$values": [
                          {
                            "$type": "Comindware.Platform.Contracts.FieldComponentModel, Comindware.Platform.Contracts",
                            "Label": {
                              "$type": "Comindware.Platform.Contracts.LabelModel, Comindware.Platform.Contracts",
                              "Hidden": false,
                              "Alignment": "Top",
                              "Text": {
                                "$type": "Comindware.Platform.Contracts.LocalizedTextModel, Comindware.Platform.Contracts",
                                "En": "Доп. соглашение (без подписей)",
                                "De": "Доп. соглашение (без подписей)",
                                "Ru": "Доп. соглашение (без подписей)"
                              }
                            },
                            "FieldType": "Document",
                            "Placeholder": {
                              "$type": "Comindware.Platform.Contracts.LocalizedTextModel, Comindware.Platform.Contracts"
                            },
                            "HelpText": {
                              "$type": "Comindware.Platform.Contracts.LocalizedTextModel, Comindware.Platform.Contracts"
                            },
                            "PropertyPath": {
                              "$type": "Comindware.Platform.Contracts.GlobalAlias[], Comindware.Platform.Contracts",
                              "$values": [
                                {
                                  "$type": "Comindware.Platform.Contracts.GlobalAlias, Comindware.Platform.Contracts",
                                  "Type": "Attribute",
                                  "Owner": "Dopsoglasheniya",
                                  "Alias": "FaylDS"
                                }
                              ]
                            },
                            "EditorType": "Radio",
                            "CreationType": "None",
                            "RemovalType": "Delete",
                            "EditType": "None",
                            "ChildPropertyAlias": {
                              "$type": "Comindware.Platform.Contracts.GlobalAlias, Comindware.Platform.Contracts",
                              "Type": "Undefined"
                            },
                            "OrderPropertyAlias": {
                              "$type": "Comindware.Platform.Contracts.GlobalAlias, Comindware.Platform.Contracts",
                              "Type": "Undefined"
                            },
                            "NumberPropertyAlias": {
                              "$type": "Comindware.Platform.Contracts.GlobalAlias, Comindware.Platform.Contracts",
                              "Type": "Undefined"
                            },
                            "PrecedentPropertyAlias": {
                              "$type": "Comindware.Platform.Contracts.GlobalAlias, Comindware.Platform.Contracts",
                              "Type": "Undefined"
                            },
                            "SortingDirection": "Asc",
                            "MaxCount": 0,
                            "PopupFormAlias": {
                              "$type": "Comindware.Platform.Contracts.GlobalAlias, Comindware.Platform.Contracts",
                              "Type": "Undefined"
                            },
                            "DisplayFormat": "ShowAsPicture",
                            "GlobalAlias": {
                              "$type": "Comindware.Platform.Contracts.GlobalAlias, Comindware.Platform.Contracts",
                              "Type": "FormComponent",
                              "Alias": "FaylDS"
                            },
                            "AccessType": "Editable",
                            "Width": 0,
                            "Type": "FieldComponent"
                          },
                          {
                            "$type": "Comindware.Platform.Contracts.FieldComponentModel, Comindware.Platform.Contracts",
                            "Label": {
                              "$type": "Comindware.Platform.Contracts.LabelModel, Comindware.Platform.Contracts",
                              "Hidden": false,
                              "Alignment": "Top",
                              "Text": {
                                "$type": "Comindware.Platform.Contracts.LocalizedTextModel, Comindware.Platform.Contracts",
                                "En": "Доп.соглашение (подписано с одной стороны)",
                                "De": "Доп.соглашение (подписано с одной стороны)",
                                "Ru": "Доп.соглашение (подписано с одной стороны)"
                              }
                            },
                            "FieldType": "Document",
                            "Placeholder": {
                              "$type": "Comindware.Platform.Contracts.LocalizedTextModel, Comindware.Platform.Contracts"
                            },
                            "HelpText": {
                              "$type": "Comindware.Platform.Contracts.LocalizedTextModel, Comindware.Platform.Contracts"
                            },
                            "PropertyPath": {
                              "$type": "Comindware.Platform.Contracts.GlobalAlias[], Comindware.Platform.Contracts",
                              "$values": [
                                {
                                  "$type": "Comindware.Platform.Contracts.GlobalAlias, Comindware.Platform.Contracts",
                                  "Type": "Attribute",
                                  "Owner": "Dopsoglasheniya",
                                  "Alias": "Dopsoglasheniepodpisanosodnoystorony"
                                }
                              ]
                            },
                            "EditorType": "Radio",
                            "CreationType": "None",
                            "RemovalType": "Delete",
                            "EditType": "None",
                            "ChildPropertyAlias": {
                              "$type": "Comindware.Platform.Contracts.GlobalAlias, Comindware.Platform.Contracts",
                              "Type": "Undefined"
                            },
                            "OrderPropertyAlias": {
                              "$type": "Comindware.Platform.Contracts.GlobalAlias, Comindware.Platform.Contracts",
                              "Type": "Undefined"
                            },
                            "NumberPropertyAlias": {
                              "$type": "Comindware.Platform.Contracts.GlobalAlias, Comindware.Platform.Contracts",
                              "Type": "Undefined"
                            },
                            "PrecedentPropertyAlias": {
                              "$type": "Comindware.Platform.Contracts.GlobalAlias, Comindware.Platform.Contracts",
                              "Type": "Undefined"
                            },
                            "SortingDirection": "Asc",
                            "MaxCount": 0,
                            "PopupFormAlias": {
                              "$type": "Comindware.Platform.Contracts.GlobalAlias, Comindware.Platform.Contracts",
                              "Type": "Undefined"
                            },
                            "DisplayFormat": "ShowAsPicture",
                            "GlobalAlias": {
                              "$type": "Comindware.Platform.Contracts.GlobalAlias, Comindware.Platform.Contracts",
                              "Type": "FormComponent",
                              "Alias": "Dopsoglasheniepodpisanosodnoystorony"
                            },
                            "AccessType": "Editable",
                            "Width": 0,
                            "Type": "FieldComponent"
                          },
                          {
                            "$type": "Comindware.Platform.Contracts.FieldComponentModel, Comindware.Platform.Contracts",
                            "Label": {
                              "$type": "Comindware.Platform.Contracts.LabelModel, Comindware.Platform.Contracts",
                              "Hidden": false,
                              "Alignment": "Top",
                              "Text": {
                                "$type": "Comindware.Platform.Contracts.LocalizedTextModel, Comindware.Platform.Contracts",
                                "En": "Доп.соглашение (подписано с обеих сторон)",
                                "De": "Доп.соглашение (подписано с обеих сторон)",
                                "Ru": "Доп.соглашение (подписано с обеих сторон)"
                              }
                            },
                            "FieldType": "Document",
                            "Placeholder": {
                              "$type": "Comindware.Platform.Contracts.LocalizedTextModel, Comindware.Platform.Contracts"
                            },
                            "HelpText": {
                              "$type": "Comindware.Platform.Contracts.LocalizedTextModel, Comindware.Platform.Contracts"
                            },
                            "PropertyPath": {
                              "$type": "Comindware.Platform.Contracts.GlobalAlias[], Comindware.Platform.Contracts",
                              "$values": [
                                {
                                  "$type": "Comindware.Platform.Contracts.GlobalAlias, Comindware.Platform.Contracts",
                                  "Type": "Attribute",
                                  "Owner": "Dopsoglasheniya",
                                  "Alias": "Dopsoglasheniepodpisanosobeikhstoron"
                                }
                              ]
                            },
                            "EditorType": "Radio",
                            "CreationType": "None",
                            "RemovalType": "Delete",
                            "EditType": "None",
                            "ChildPropertyAlias": {
                              "$type": "Comindware.Platform.Contracts.GlobalAlias, Comindware.Platform.Contracts",
                              "Type": "Undefined"
                            },
                            "OrderPropertyAlias": {
                              "$type": "Comindware.Platform.Contracts.GlobalAlias, Comindware.Platform.Contracts",
                              "Type": "Undefined"
                            },
                            "NumberPropertyAlias": {
                              "$type": "Comindware.Platform.Contracts.GlobalAlias, Comindware.Platform.Contracts",
                              "Type": "Undefined"
                            },
                            "PrecedentPropertyAlias": {
                              "$type": "Comindware.Platform.Contracts.GlobalAlias, Comindware.Platform.Contracts",
                              "Type": "Undefined"
                            },
                            "SortingDirection": "Asc",
                            "MaxCount": 0,
                            "PopupFormAlias": {
                              "$type": "Comindware.Platform.Contracts.GlobalAlias, Comindware.Platform.Contracts",
                              "Type": "Undefined"
                            },
                            "DisplayFormat": "ShowAsPicture",
                            "GlobalAlias": {
                              "$type": "Comindware.Platform.Contracts.GlobalAlias, Comindware.Platform.Contracts",
                              "Type": "FormComponent",
                              "Alias": "Dopsoglasheniepodpisanosobeikhstoron"
                            },
                            "AccessType": "Editable",
                            "Width": 0,
                            "Type": "FieldComponent"
                          }
                        ]
                      },
                      "GlobalAlias": {
                        "$type": "Comindware.Platform.Contracts.GlobalAlias, Comindware.Platform.Contracts",
                        "Type": "FormComponent",
                        "Alias": "VerticalLayout6"
                      },
                      "AccessType": "Undefined",
                      "Width": 0,
                      "Type": "VerticalLayout"
                    },
                    {
                      "$type": "Comindware.Platform.Contracts.VerticalLayoutModel, Comindware.Platform.Contracts",
                      "GlobalAlias": {
                        "$type": "Comindware.Platform.Contracts.GlobalAlias, Comindware.Platform.Contracts",
                        "Type": "FormComponent",
                        "Alias": "VerticalLayout7"
                      },
                      "AccessType": "Undefined",
                      "Width": 0,
                      "Type": "VerticalLayout"
                    }
                  ]
                },
                "GlobalAlias": {
                  "$type": "Comindware.Platform.Contracts.GlobalAlias, Comindware.Platform.Contracts",
                  "Type": "FormComponent",
                  "Alias": "GroupPanelComponent2"
                },
                "AccessType": "Editable",
                "Width": 20,
                "Type": "PanelModel"
              }
            ]
          },
          "OriginalType": "HorizontalLayout",
          "GlobalAlias": {
            "$type": "Comindware.Platform.Contracts.GlobalAlias, Comindware.Platform.Contracts",
            "Type": "FormComponent",
            "Alias": "HorizontalLayout2"
          },
          "AccessType": "Undefined",
          "Width": 0,
          "Type": "LayoutModel"
        }
      ]
    },
    "GlobalAlias": {
      "$type": "Comindware.Platform.Contracts.GlobalAlias, Comindware.Platform.Contracts",
      "Type": "FormComponent",
      "Alias": "default_Root"
    },
    "AccessType": "Undefined",
    "Width": 0,
    "Type": "VerticalLayout"
  },
  "Name": "Доп. соглашения - админская",
  "Origination": "Undefined"
}