{
  "$type": "Comindware.Platform.Contracts.FormModel, Comindware.Platform.Contracts",
  "GlobalAlias": {
    "$type": "Comindware.Platform.Contracts.GlobalAlias, Comindware.Platform.Contracts",
    "Type": "Form",
    "Owner": "Dopsoglasheniya",
    "Alias": "Formadlyazakrytiya"
  },
  "Type": "InternalForm",
  "IsDefault": false,
  "Root": {
    "$type": "Comindware.Platform.Contracts.VerticalLayoutModel, Comindware.Platform.Contracts",
    "Rows": {
      "$type": "System.Collections.Generic.List`1[[Comindware.Platform.Contracts.FormComponentModel, Comindware.Platform.Contracts]], mscorlib",
      "$values": [
        {
          "$type": "Comindware.Platform.Contracts.LayoutModel, Comindware.Platform.Contracts",
          "Components": {
            "$type": "System.Collections.Generic.List`1[[Comindware.Platform.Contracts.FormComponentModel, Comindware.Platform.Contracts]], mscorlib",
            "$values": [
              {
                "$type": "Comindware.Platform.Contracts.PanelModel, Comindware.Platform.Contracts",
                "Text": {
                  "$type": "Comindware.Platform.Contracts.LocalizedTextModel, Comindware.Platform.Contracts",
                  "En": "Основная информация по доп.соглашению",
                  "De": "Основная информация по доп.соглашению",
                  "Ru": "Основная информация по доп.соглашению"
                },
                "OriginalType": "GroupPanel",
                "Rows": {
                  "$type": "System.Collections.Generic.List`1[[Comindware.Platform.Contracts.FormComponentModel, Comindware.Platform.Contracts]], mscorlib",
                  "$values": [
                    {
                      "$type": "Comindware.Platform.Contracts.VerticalLayoutModel, Comindware.Platform.Contracts",
                      "Rows": {
                        "$type": "System.Collections.Generic.List`1[[Comindware.Platform.Contracts.FormComponentModel, Comindware.Platform.Contracts]], mscorlib",
                        "$values": [
                          {
                            "$type": "Comindware.Platform.Contracts.FieldComponentModel, Comindware.Platform.Contracts",
                            "Label": {
                              "$type": "Comindware.Platform.Contracts.LabelModel, Comindware.Platform.Contracts",
                              "Hidden": false,
                              "Alignment": "Top",
                              "Text": {
                                "$type": "Comindware.Platform.Contracts.LocalizedTextModel, Comindware.Platform.Contracts",
                                "En": "Наименование",
                                "De": "Наименование",
                                "Ru": "Наименование"
                              }
                            },
                            "FieldType": "Text",
                            "Placeholder": {
                              "$type": "Comindware.Platform.Contracts.LocalizedTextModel, Comindware.Platform.Contracts"
                            },
                            "HelpText": {
                              "$type": "Comindware.Platform.Contracts.LocalizedTextModel, Comindware.Platform.Contracts"
                            },
                            "PropertyPath": {
                              "$type": "Comindware.Platform.Contracts.GlobalAlias[], Comindware.Platform.Contracts",
                              "$values": [
                                {
                                  "$type": "Comindware.Platform.Contracts.GlobalAlias, Comindware.Platform.Contracts",
                                  "Type": "Attribute",
                                  "Owner": "Dopsoglasheniya",
                                  "Alias": "Naimenovanie"
                                }
                              ]
                            },
                            "TextHeight": 0,
                            "TextHeightAuto": false,
                            "MaxLength": 0,
                            "EditorType": "Simple",
                            "CreationType": "None",
                            "RemovalType": "None",
                            "EditType": "None",
                            "ChildPropertyAlias": {
                              "$type": "Comindware.Platform.Contracts.GlobalAlias, Comindware.Platform.Contracts",
                              "Type": "Undefined"
                            },
                            "OrderPropertyAlias": {
                              "$type": "Comindware.Platform.Contracts.GlobalAlias, Comindware.Platform.Contracts",
                              "Type": "Undefined"
                            },
                            "NumberPropertyAlias": {
                              "$type": "Comindware.Platform.Contracts.GlobalAlias, Comindware.Platform.Contracts",
                              "Type": "Undefined"
                            },
                            "PrecedentPropertyAlias": {
                              "$type": "Comindware.Platform.Contracts.GlobalAlias, Comindware.Platform.Contracts",
                              "Type": "Undefined"
                            },
                            "SortingDirection": "Asc",
                            "PopupFormAlias": {
                              "$type": "Comindware.Platform.Contracts.GlobalAlias, Comindware.Platform.Contracts",
                              "Type": "Undefined"
                            },
                            "DisplayFormat": "ShowAsPicture",
                            "GlobalAlias": {
                              "$type": "Comindware.Platform.Contracts.GlobalAlias, Comindware.Platform.Contracts",
                              "Type": "FormComponent",
                              "Alias": "Naimenovanie"
                            },
                            "AccessType": "Readonly",
                            "Width": 0,
                            "Type": "FieldComponent"
                          },
                          {
                            "$type": "Comindware.Platform.Contracts.LayoutModel, Comindware.Platform.Contracts",
                            "Components": {
                              "$type": "System.Collections.Generic.List`1[[Comindware.Platform.Contracts.FormComponentModel, Comindware.Platform.Contracts]], mscorlib",
                              "$values": [
                                {
                                  "$type": "Comindware.Platform.Contracts.VerticalLayoutModel, Comindware.Platform.Contracts",
                                  "Rows": {
                                    "$type": "System.Collections.Generic.List`1[[Comindware.Platform.Contracts.FormComponentModel, Comindware.Platform.Contracts]], mscorlib",
                                    "$values": [
                                      {
                                        "$type": "Comindware.Platform.Contracts.FieldComponentModel, Comindware.Platform.Contracts",
                                        "Label": {
                                          "$type": "Comindware.Platform.Contracts.LabelModel, Comindware.Platform.Contracts",
                                          "Hidden": false,
                                          "Alignment": "Top",
                                          "Text": {
                                            "$type": "Comindware.Platform.Contracts.LocalizedTextModel, Comindware.Platform.Contracts",
                                            "En": "Номер ДС",
                                            "De": "Номер ДС",
                                            "Ru": "Номер ДС"
                                          }
                                        },
                                        "FieldType": "Text",
                                        "Placeholder": {
                                          "$type": "Comindware.Platform.Contracts.LocalizedTextModel, Comindware.Platform.Contracts"
                                        },
                                        "HelpText": {
                                          "$type": "Comindware.Platform.Contracts.LocalizedTextModel, Comindware.Platform.Contracts"
                                        },
                                        "PropertyPath": {
                                          "$type": "Comindware.Platform.Contracts.GlobalAlias[], Comindware.Platform.Contracts",
                                          "$values": [
                                            {
                                              "$type": "Comindware.Platform.Contracts.GlobalAlias, Comindware.Platform.Contracts",
                                              "Type": "Attribute",
                                              "Owner": "Dopsoglasheniya",
                                              "Alias": "Nomer"
                                            }
                                          ]
                                        },
                                        "TextHeight": 0,
                                        "TextHeightAuto": false,
                                        "MaxLength": 0,
                                        "EditorType": "Simple",
                                        "CreationType": "None",
                                        "RemovalType": "None",
                                        "EditType": "None",
                                        "ChildPropertyAlias": {
                                          "$type": "Comindware.Platform.Contracts.GlobalAlias, Comindware.Platform.Contracts",
                                          "Type": "Undefined"
                                        },
                                        "OrderPropertyAlias": {
                                          "$type": "Comindware.Platform.Contracts.GlobalAlias, Comindware.Platform.Contracts",
                                          "Type": "Undefined"
                                        },
                                        "NumberPropertyAlias": {
                                          "$type": "Comindware.Platform.Contracts.GlobalAlias, Comindware.Platform.Contracts",
                                          "Type": "Undefined"
                                        },
                                        "PrecedentPropertyAlias": {
                                          "$type": "Comindware.Platform.Contracts.GlobalAlias, Comindware.Platform.Contracts",
                                          "Type": "Undefined"
                                        },
                                        "SortingDirection": "Asc",
                                        "PopupFormAlias": {
                                          "$type": "Comindware.Platform.Contracts.GlobalAlias, Comindware.Platform.Contracts",
                                          "Type": "Undefined"
                                        },
                                        "DisplayFormat": "ShowAsPicture",
                                        "GlobalAlias": {
                                          "$type": "Comindware.Platform.Contracts.GlobalAlias, Comindware.Platform.Contracts",
                                          "Type": "FormComponent",
                                          "Alias": "Nomer"
                                        },
                                        "AccessType": "Required",
                                        "Width": 0,
                                        "Type": "FieldComponent"
                                      },
                                      {
                                        "$type": "Comindware.Platform.Contracts.FieldComponentModel, Comindware.Platform.Contracts",
                                        "Label": {
                                          "$type": "Comindware.Platform.Contracts.LabelModel, Comindware.Platform.Contracts",
                                          "Hidden": false,
                                          "Alignment": "Top",
                                          "Text": {
                                            "$type": "Comindware.Platform.Contracts.LocalizedTextModel, Comindware.Platform.Contracts",
                                            "En": "Дата",
                                            "De": "Дата",
                                            "Ru": "Дата"
                                          }
                                        },
                                        "FieldType": "Date",
                                        "Placeholder": {
                                          "$type": "Comindware.Platform.Contracts.LocalizedTextModel, Comindware.Platform.Contracts"
                                        },
                                        "HelpText": {
                                          "$type": "Comindware.Platform.Contracts.LocalizedTextModel, Comindware.Platform.Contracts"
                                        },
                                        "PropertyPath": {
                                          "$type": "Comindware.Platform.Contracts.GlobalAlias[], Comindware.Platform.Contracts",
                                          "$values": [
                                            {
                                              "$type": "Comindware.Platform.Contracts.GlobalAlias, Comindware.Platform.Contracts",
                                              "Type": "Attribute",
                                              "Owner": "Dopsoglasheniya",
                                              "Alias": "Data"
                                            }
                                          ]
                                        },
                                        "EditorType": "Radio",
                                        "CreationType": "None",
                                        "RemovalType": "None",
                                        "EditType": "None",
                                        "DisplayTime": false,
                                        "ChildPropertyAlias": {
                                          "$type": "Comindware.Platform.Contracts.GlobalAlias, Comindware.Platform.Contracts",
                                          "Type": "Undefined"
                                        },
                                        "OrderPropertyAlias": {
                                          "$type": "Comindware.Platform.Contracts.GlobalAlias, Comindware.Platform.Contracts",
                                          "Type": "Undefined"
                                        },
                                        "NumberPropertyAlias": {
                                          "$type": "Comindware.Platform.Contracts.GlobalAlias, Comindware.Platform.Contracts",
                                          "Type": "Undefined"
                                        },
                                        "PrecedentPropertyAlias": {
                                          "$type": "Comindware.Platform.Contracts.GlobalAlias, Comindware.Platform.Contracts",
                                          "Type": "Undefined"
                                        },
                                        "SortingDirection": "Asc",
                                        "PopupFormAlias": {
                                          "$type": "Comindware.Platform.Contracts.GlobalAlias, Comindware.Platform.Contracts",
                                          "Type": "Undefined"
                                        },
                                        "DisplayFormat": "ShowAsPicture",
                                        "GlobalAlias": {
                                          "$type": "Comindware.Platform.Contracts.GlobalAlias, Comindware.Platform.Contracts",
                                          "Type": "FormComponent",
                                          "Alias": "Data"
                                        },
                                        "AccessType": "Required",
                                        "Width": 0,
                                        "Type": "FieldComponent"
                                      },
                                      {
                                        "$type": "Comindware.Platform.Contracts.FieldComponentModel, Comindware.Platform.Contracts",
                                        "Label": {
                                          "$type": "Comindware.Platform.Contracts.LabelModel, Comindware.Platform.Contracts",
                                          "Hidden": false,
                                          "Alignment": "Top",
                                          "Text": {
                                            "$type": "Comindware.Platform.Contracts.LocalizedTextModel, Comindware.Platform.Contracts",
                                            "En": "Статус",
                                            "De": "Статус",
                                            "Ru": "Статус"
                                          }
                                        },
                                        "FieldType": "Reference",
                                        "Placeholder": {
                                          "$type": "Comindware.Platform.Contracts.LocalizedTextModel, Comindware.Platform.Contracts"
                                        },
                                        "HelpText": {
                                          "$type": "Comindware.Platform.Contracts.LocalizedTextModel, Comindware.Platform.Contracts"
                                        },
                                        "PropertyPath": {
                                          "$type": "Comindware.Platform.Contracts.GlobalAlias[], Comindware.Platform.Contracts",
                                          "$values": [
                                            {
                                              "$type": "Comindware.Platform.Contracts.GlobalAlias, Comindware.Platform.Contracts",
                                              "Type": "Attribute",
                                              "Owner": "Dopsoglasheniya",
                                              "Alias": "Status"
                                            }
                                          ]
                                        },
                                        "EditorType": "Radio",
                                        "CreationType": "None",
                                        "RemovalType": "None",
                                        "EditType": "None",
                                        "HideSearchBar": false,
                                        "ShowAsLink": false,
                                        "ChildPropertyAlias": {
                                          "$type": "Comindware.Platform.Contracts.GlobalAlias, Comindware.Platform.Contracts",
                                          "Type": "Undefined"
                                        },
                                        "OrderPropertyAlias": {
                                          "$type": "Comindware.Platform.Contracts.GlobalAlias, Comindware.Platform.Contracts",
                                          "Type": "Undefined"
                                        },
                                        "NumberPropertyAlias": {
                                          "$type": "Comindware.Platform.Contracts.GlobalAlias, Comindware.Platform.Contracts",
                                          "Type": "Undefined"
                                        },
                                        "PrecedentPropertyAlias": {
                                          "$type": "Comindware.Platform.Contracts.GlobalAlias, Comindware.Platform.Contracts",
                                          "Type": "Undefined"
                                        },
                                        "SortingDirection": "Asc",
                                        "PopupFormAlias": {
                                          "$type": "Comindware.Platform.Contracts.GlobalAlias, Comindware.Platform.Contracts",
                                          "Type": "Undefined"
                                        },
                                        "AllowEdit": false,
                                        "DisplayFormat": "ShowAsPicture",
                                        "GlobalAlias": {
                                          "$type": "Comindware.Platform.Contracts.GlobalAlias, Comindware.Platform.Contracts",
                                          "Type": "FormComponent",
                                          "Alias": "Status"
                                        },
                                        "AccessType": "Editable",
                                        "Width": 0,
                                        "Type": "FieldComponent"
                                      }
                                    ]
                                  },
                                  "GlobalAlias": {
                                    "$type": "Comindware.Platform.Contracts.GlobalAlias, Comindware.Platform.Contracts",
                                    "Type": "FormComponent",
                                    "Alias": "VerticalLayout2"
                                  },
                                  "AccessType": "Undefined",
                                  "Width": 50,
                                  "Type": "VerticalLayout"
                                },
                                {
                                  "$type": "Comindware.Platform.Contracts.VerticalLayoutModel, Comindware.Platform.Contracts",
                                  "Rows": {
                                    "$type": "System.Collections.Generic.List`1[[Comindware.Platform.Contracts.FormComponentModel, Comindware.Platform.Contracts]], mscorlib",
                                    "$values": [
                                      {
                                        "$type": "Comindware.Platform.Contracts.FieldComponentModel, Comindware.Platform.Contracts",
                                        "Label": {
                                          "$type": "Comindware.Platform.Contracts.LabelModel, Comindware.Platform.Contracts",
                                          "Hidden": false,
                                          "Alignment": "Top",
                                          "Text": {
                                            "$type": "Comindware.Platform.Contracts.LocalizedTextModel, Comindware.Platform.Contracts",
                                            "En": "Приложение",
                                            "De": "Приложение",
                                            "Ru": "Приложение"
                                          }
                                        },
                                        "FieldType": "Reference",
                                        "Placeholder": {
                                          "$type": "Comindware.Platform.Contracts.LocalizedTextModel, Comindware.Platform.Contracts"
                                        },
                                        "HelpText": {
                                          "$type": "Comindware.Platform.Contracts.LocalizedTextModel, Comindware.Platform.Contracts"
                                        },
                                        "PropertyPath": {
                                          "$type": "Comindware.Platform.Contracts.GlobalAlias[], Comindware.Platform.Contracts",
                                          "$values": [
                                            {
                                              "$type": "Comindware.Platform.Contracts.GlobalAlias, Comindware.Platform.Contracts",
                                              "Type": "Attribute",
                                              "Owner": "Dopsoglasheniya",
                                              "Alias": "Prilozhenie"
                                            }
                                          ]
                                        },
                                        "EditorType": "Radio",
                                        "CreationType": "None",
                                        "RemovalType": "None",
                                        "EditType": "None",
                                        "HideSearchBar": false,
                                        "ShowAsLink": false,
                                        "ChildPropertyAlias": {
                                          "$type": "Comindware.Platform.Contracts.GlobalAlias, Comindware.Platform.Contracts",
                                          "Type": "Undefined"
                                        },
                                        "OrderPropertyAlias": {
                                          "$type": "Comindware.Platform.Contracts.GlobalAlias, Comindware.Platform.Contracts",
                                          "Type": "Undefined"
                                        },
                                        "NumberPropertyAlias": {
                                          "$type": "Comindware.Platform.Contracts.GlobalAlias, Comindware.Platform.Contracts",
                                          "Type": "Undefined"
                                        },
                                        "PrecedentPropertyAlias": {
                                          "$type": "Comindware.Platform.Contracts.GlobalAlias, Comindware.Platform.Contracts",
                                          "Type": "Undefined"
                                        },
                                        "SortingDirection": "Asc",
                                        "PopupFormAlias": {
                                          "$type": "Comindware.Platform.Contracts.GlobalAlias, Comindware.Platform.Contracts",
                                          "Type": "Undefined"
                                        },
                                        "AllowEdit": false,
                                        "DisplayFormat": "ShowAsPicture",
                                        "GlobalAlias": {
                                          "$type": "Comindware.Platform.Contracts.GlobalAlias, Comindware.Platform.Contracts",
                                          "Type": "FormComponent",
                                          "Alias": "Prilozhenie"
                                        },
                                        "AccessType": "Required",
                                        "Width": 0,
                                        "Type": "FieldComponent"
                                      },
                                      {
                                        "$type": "Comindware.Platform.Contracts.FieldComponentModel, Comindware.Platform.Contracts",
                                        "Label": {
                                          "$type": "Comindware.Platform.Contracts.LabelModel, Comindware.Platform.Contracts",
                                          "Hidden": false,
                                          "Alignment": "Top",
                                          "Text": {
                                            "$type": "Comindware.Platform.Contracts.LocalizedTextModel, Comindware.Platform.Contracts",
                                            "En": "Договор",
                                            "De": "Договор",
                                            "Ru": "Договор"
                                          }
                                        },
                                        "FieldType": "Reference",
                                        "Placeholder": {
                                          "$type": "Comindware.Platform.Contracts.LocalizedTextModel, Comindware.Platform.Contracts"
                                        },
                                        "HelpText": {
                                          "$type": "Comindware.Platform.Contracts.LocalizedTextModel, Comindware.Platform.Contracts"
                                        },
                                        "PropertyPath": {
                                          "$type": "Comindware.Platform.Contracts.GlobalAlias[], Comindware.Platform.Contracts",
                                          "$values": [
                                            {
                                              "$type": "Comindware.Platform.Contracts.GlobalAlias, Comindware.Platform.Contracts",
                                              "Type": "Attribute",
                                              "Owner": "Dopsoglasheniya",
                                              "Alias": "Dogovor"
                                            }
                                          ]
                                        },
                                        "EditorType": "Radio",
                                        "CreationType": "None",
                                        "RemovalType": "None",
                                        "EditType": "None",
                                        "HideSearchBar": false,
                                        "ShowAsLink": false,
                                        "ChildPropertyAlias": {
                                          "$type": "Comindware.Platform.Contracts.GlobalAlias, Comindware.Platform.Contracts",
                                          "Type": "Undefined"
                                        },
                                        "OrderPropertyAlias": {
                                          "$type": "Comindware.Platform.Contracts.GlobalAlias, Comindware.Platform.Contracts",
                                          "Type": "Undefined"
                                        },
                                        "NumberPropertyAlias": {
                                          "$type": "Comindware.Platform.Contracts.GlobalAlias, Comindware.Platform.Contracts",
                                          "Type": "Undefined"
                                        },
                                        "PrecedentPropertyAlias": {
                                          "$type": "Comindware.Platform.Contracts.GlobalAlias, Comindware.Platform.Contracts",
                                          "Type": "Undefined"
                                        },
                                        "SortingDirection": "Asc",
                                        "PopupFormAlias": {
                                          "$type": "Comindware.Platform.Contracts.GlobalAlias, Comindware.Platform.Contracts",
                                          "Type": "Undefined"
                                        },
                                        "AllowEdit": false,
                                        "DisplayFormat": "ShowAsPicture",
                                        "GlobalAlias": {
                                          "$type": "Comindware.Platform.Contracts.GlobalAlias, Comindware.Platform.Contracts",
                                          "Type": "FormComponent",
                                          "Alias": "Dogovor"
                                        },
                                        "AccessType": "Readonly",
                                        "Width": 0,
                                        "Type": "FieldComponent"
                                      },
                                      {
                                        "$type": "Comindware.Platform.Contracts.FieldComponentModel, Comindware.Platform.Contracts",
                                        "Label": {
                                          "$type": "Comindware.Platform.Contracts.LabelModel, Comindware.Platform.Contracts",
                                          "Hidden": false,
                                          "Alignment": "Top",
                                          "Text": {
                                            "$type": "Comindware.Platform.Contracts.LocalizedTextModel, Comindware.Platform.Contracts",
                                            "En": "Клиент",
                                            "De": "Клиент",
                                            "Ru": "Клиент"
                                          }
                                        },
                                        "FieldType": "Reference",
                                        "Placeholder": {
                                          "$type": "Comindware.Platform.Contracts.LocalizedTextModel, Comindware.Platform.Contracts"
                                        },
                                        "HelpText": {
                                          "$type": "Comindware.Platform.Contracts.LocalizedTextModel, Comindware.Platform.Contracts"
                                        },
                                        "PropertyPath": {
                                          "$type": "Comindware.Platform.Contracts.GlobalAlias[], Comindware.Platform.Contracts",
                                          "$values": [
                                            {
                                              "$type": "Comindware.Platform.Contracts.GlobalAlias, Comindware.Platform.Contracts",
                                              "Type": "Attribute",
                                              "Owner": "Dopsoglasheniya",
                                              "Alias": "Kontragent"
                                            }
                                          ]
                                        },
                                        "EditorType": "Radio",
                                        "CreationType": "None",
                                        "RemovalType": "None",
                                        "EditType": "None",
                                        "HideSearchBar": false,
                                        "ShowAsLink": false,
                                        "ChildPropertyAlias": {
                                          "$type": "Comindware.Platform.Contracts.GlobalAlias, Comindware.Platform.Contracts",
                                          "Type": "Undefined"
                                        },
                                        "OrderPropertyAlias": {
                                          "$type": "Comindware.Platform.Contracts.GlobalAlias, Comindware.Platform.Contracts",
                                          "Type": "Undefined"
                                        },
                                        "NumberPropertyAlias": {
                                          "$type": "Comindware.Platform.Contracts.GlobalAlias, Comindware.Platform.Contracts",
                                          "Type": "Undefined"
                                        },
                                        "PrecedentPropertyAlias": {
                                          "$type": "Comindware.Platform.Contracts.GlobalAlias, Comindware.Platform.Contracts",
                                          "Type": "Undefined"
                                        },
                                        "SortingDirection": "Asc",
                                        "PopupFormAlias": {
                                          "$type": "Comindware.Platform.Contracts.GlobalAlias, Comindware.Platform.Contracts",
                                          "Type": "Undefined"
                                        },
                                        "AllowEdit": false,
                                        "DisplayFormat": "ShowAsPicture",
                                        "GlobalAlias": {
                                          "$type": "Comindware.Platform.Contracts.GlobalAlias, Comindware.Platform.Contracts",
                                          "Type": "FormComponent",
                                          "Alias": "Kontragent"
                                        },
                                        "AccessType": "Readonly",
                                        "Width": 0,
                                        "Type": "FieldComponent"
                                      }
                                    ]
                                  },
                                  "GlobalAlias": {
                                    "$type": "Comindware.Platform.Contracts.GlobalAlias, Comindware.Platform.Contracts",
                                    "Type": "FormComponent",
                                    "Alias": "VerticalLayout4"
                                  },
                                  "AccessType": "Undefined",
                                  "Width": 50,
                                  "Type": "VerticalLayout"
                                }
                              ]
                            },
                            "OriginalType": "HorizontalLayout",
                            "GlobalAlias": {
                              "$type": "Comindware.Platform.Contracts.GlobalAlias, Comindware.Platform.Contracts",
                              "Type": "FormComponent",
                              "Alias": "HorizontalLayout"
                            },
                            "AccessType": "Undefined",
                            "Width": 0,
                            "Type": "LayoutModel"
                          }
                        ]
                      },
                      "GlobalAlias": {
                        "$type": "Comindware.Platform.Contracts.GlobalAlias, Comindware.Platform.Contracts",
                        "Type": "FormComponent",
                        "Alias": "VerticalLayout"
                      },
                      "AccessType": "Undefined",
                      "Width": 0,
                      "Type": "VerticalLayout"
                    }
                  ]
                },
                "GlobalAlias": {
                  "$type": "Comindware.Platform.Contracts.GlobalAlias, Comindware.Platform.Contracts",
                  "Type": "FormComponent",
                  "Alias": "GroupPanelComponent"
                },
                "AccessType": "Editable",
                "Width": 80,
                "Type": "PanelModel"
              },
              {
                "$type": "Comindware.Platform.Contracts.PanelModel, Comindware.Platform.Contracts",
                "Text": {
                  "$type": "Comindware.Platform.Contracts.LocalizedTextModel, Comindware.Platform.Contracts",
                  "En": "Вложения",
                  "De": "Вложения",
                  "Ru": "Вложения"
                },
                "OriginalType": "GroupPanel",
                "Rows": {
                  "$type": "System.Collections.Generic.List`1[[Comindware.Platform.Contracts.FormComponentModel, Comindware.Platform.Contracts]], mscorlib",
                  "$values": [
                    {
                      "$type": "Comindware.Platform.Contracts.VerticalLayoutModel, Comindware.Platform.Contracts",
                      "Rows": {
                        "$type": "System.Collections.Generic.List`1[[Comindware.Platform.Contracts.FormComponentModel, Comindware.Platform.Contracts]], mscorlib",
                        "$values": [
                          {
                            "$type": "Comindware.Platform.Contracts.FieldComponentModel, Comindware.Platform.Contracts",
                            "Label": {
                              "$type": "Comindware.Platform.Contracts.LabelModel, Comindware.Platform.Contracts",
                              "Hidden": false,
                              "Alignment": "Top",
                              "Text": {
                                "$type": "Comindware.Platform.Contracts.LocalizedTextModel, Comindware.Platform.Contracts",
                                "En": "Шаблон доп.соглашения",
                                "De": "Шаблон доп.соглашения",
                                "Ru": "Шаблон доп.соглашения"
                              }
                            },
                            "FieldType": "Reference",
                            "Placeholder": {
                              "$type": "Comindware.Platform.Contracts.LocalizedTextModel, Comindware.Platform.Contracts"
                            },
                            "HelpText": {
                              "$type": "Comindware.Platform.Contracts.LocalizedTextModel, Comindware.Platform.Contracts"
                            },
                            "PropertyPath": {
                              "$type": "Comindware.Platform.Contracts.GlobalAlias[], Comindware.Platform.Contracts",
                              "$values": [
                                {
                                  "$type": "Comindware.Platform.Contracts.GlobalAlias, Comindware.Platform.Contracts",
                                  "Type": "Attribute",
                                  "Owner": "Dopsoglasheniya",
                                  "Alias": "Shablondopsoglasheniya"
                                }
                              ]
                            },
                            "EditorType": "Radio",
                            "CreationType": "None",
                            "RemovalType": "None",
                            "EditType": "None",
                            "ValueFilterExpression": "from a in db->Shablonydokumentov where a->TipRef->Kod == \"ds\" select a->id",
                            "HideSearchBar": false,
                            "ShowAsLink": false,
                            "ChildPropertyAlias": {
                              "$type": "Comindware.Platform.Contracts.GlobalAlias, Comindware.Platform.Contracts",
                              "Type": "Undefined"
                            },
                            "OrderPropertyAlias": {
                              "$type": "Comindware.Platform.Contracts.GlobalAlias, Comindware.Platform.Contracts",
                              "Type": "Undefined"
                            },
                            "NumberPropertyAlias": {
                              "$type": "Comindware.Platform.Contracts.GlobalAlias, Comindware.Platform.Contracts",
                              "Type": "Undefined"
                            },
                            "PrecedentPropertyAlias": {
                              "$type": "Comindware.Platform.Contracts.GlobalAlias, Comindware.Platform.Contracts",
                              "Type": "Undefined"
                            },
                            "SortingDirection": "Asc",
                            "PopupFormAlias": {
                              "$type": "Comindware.Platform.Contracts.GlobalAlias, Comindware.Platform.Contracts",
                              "Type": "Undefined"
                            },
                            "AllowEdit": false,
                            "DisplayFormat": "ShowAsPicture",
                            "GlobalAlias": {
                              "$type": "Comindware.Platform.Contracts.GlobalAlias, Comindware.Platform.Contracts",
                              "Type": "FormComponent",
                              "Alias": "Shablondopsoglasheniya"
                            },
                            "AccessType": "Required",
                            "Width": 0,
                            "Type": "FieldComponent"
                          },
                          {
                            "$type": "Comindware.Platform.Contracts.ActionButtonModel, Comindware.Platform.Contracts",
                            "Label": {
                              "$type": "Comindware.Platform.Contracts.LocalizedTextModel, Comindware.Platform.Contracts",
                              "En": "Сформировать доп.соглашение",
                              "De": "Сформировать доп.соглашение",
                              "Ru": "Сформировать доп.соглашение"
                            },
                            "HelpText": {
                              "$type": "Comindware.Platform.Contracts.LocalizedTextModel, Comindware.Platform.Contracts"
                            },
                            "UserCommand": {
                              "$type": "Comindware.Platform.Contracts.ActionItemView, Comindware.Platform.Contracts",
                              "UserCommandGlobalAlias": {
                                "$type": "Comindware.Platform.Contracts.GlobalAlias, Comindware.Platform.Contracts",
                                "Type": "UserCommand",
                                "Owner": "Dopsoglasheniya",
                                "Alias": "Sformirovatdopsoglashenie"
                              },
                              "Severity": "None"
                            },
                            "GlobalAlias": {
                              "$type": "Comindware.Platform.Contracts.GlobalAlias, Comindware.Platform.Contracts",
                              "Type": "FormComponent",
                              "Alias": "Sformirovatdopsoglashenie"
                            },
                            "AccessType": "Editable",
                            "Width": 0,
                            "Type": "ActionButton"
                          },
                          {
                            "$type": "Comindware.Platform.Contracts.FieldComponentModel, Comindware.Platform.Contracts",
                            "Label": {
                              "$type": "Comindware.Platform.Contracts.LabelModel, Comindware.Platform.Contracts",
                              "Hidden": false,
                              "Alignment": "Top",
                              "Text": {
                                "$type": "Comindware.Platform.Contracts.LocalizedTextModel, Comindware.Platform.Contracts",
                                "En": "Доп. соглашение (без подписей)",
                                "De": "Доп. соглашение (без подписей)",
                                "Ru": "Доп. соглашение (без подписей)"
                              }
                            },
                            "FieldType": "Document",
                            "Placeholder": {
                              "$type": "Comindware.Platform.Contracts.LocalizedTextModel, Comindware.Platform.Contracts"
                            },
                            "HelpText": {
                              "$type": "Comindware.Platform.Contracts.LocalizedTextModel, Comindware.Platform.Contracts"
                            },
                            "PropertyPath": {
                              "$type": "Comindware.Platform.Contracts.GlobalAlias[], Comindware.Platform.Contracts",
                              "$values": [
                                {
                                  "$type": "Comindware.Platform.Contracts.GlobalAlias, Comindware.Platform.Contracts",
                                  "Type": "Attribute",
                                  "Owner": "Dopsoglasheniya",
                                  "Alias": "FaylDS"
                                }
                              ]
                            },
                            "EditorType": "Radio",
                            "CreationType": "None",
                            "RemovalType": "Delete",
                            "EditType": "None",
                            "ChildPropertyAlias": {
                              "$type": "Comindware.Platform.Contracts.GlobalAlias, Comindware.Platform.Contracts",
                              "Type": "Undefined"
                            },
                            "OrderPropertyAlias": {
                              "$type": "Comindware.Platform.Contracts.GlobalAlias, Comindware.Platform.Contracts",
                              "Type": "Undefined"
                            },
                            "NumberPropertyAlias": {
                              "$type": "Comindware.Platform.Contracts.GlobalAlias, Comindware.Platform.Contracts",
                              "Type": "Undefined"
                            },
                            "PrecedentPropertyAlias": {
                              "$type": "Comindware.Platform.Contracts.GlobalAlias, Comindware.Platform.Contracts",
                              "Type": "Undefined"
                            },
                            "SortingDirection": "Asc",
                            "MaxCount": 0,
                            "PopupFormAlias": {
                              "$type": "Comindware.Platform.Contracts.GlobalAlias, Comindware.Platform.Contracts",
                              "Type": "Undefined"
                            },
                            "DisplayFormat": "ShowAsPicture",
                            "GlobalAlias": {
                              "$type": "Comindware.Platform.Contracts.GlobalAlias, Comindware.Platform.Contracts",
                              "Type": "FormComponent",
                              "Alias": "FaylDS"
                            },
                            "AccessType": "Required",
                            "Width": 0,
                            "Type": "FieldComponent"
                          }
                        ]
                      },
                      "GlobalAlias": {
                        "$type": "Comindware.Platform.Contracts.GlobalAlias, Comindware.Platform.Contracts",
                        "Type": "FormComponent",
                        "Alias": "VerticalLayout6"
                      },
                      "AccessType": "Undefined",
                      "Width": 0,
                      "Type": "VerticalLayout"
                    }
                  ]
                },
                "GlobalAlias": {
                  "$type": "Comindware.Platform.Contracts.GlobalAlias, Comindware.Platform.Contracts",
                  "Type": "FormComponent",
                  "Alias": "GroupPanelComponent2"
                },
                "AccessType": "Editable",
                "Width": 20,
                "Type": "PanelModel"
              }
            ]
          },
          "OriginalType": "HorizontalLayout",
          "GlobalAlias": {
            "$type": "Comindware.Platform.Contracts.GlobalAlias, Comindware.Platform.Contracts",
            "Type": "FormComponent",
            "Alias": "HorizontalLayout2"
          },
          "AccessType": "Undefined",
          "Width": 0,
          "Type": "LayoutModel"
        }
      ]
    },
    "GlobalAlias": {
      "$type": "Comindware.Platform.Contracts.GlobalAlias, Comindware.Platform.Contracts",
      "Type": "FormComponent",
      "Alias": "default_Root"
    },
    "AccessType": "Undefined",
    "Width": 0,
    "Type": "VerticalLayout"
  },
  "Name": "Форма для закрытия",
  "FormRules": {
    "$type": "System.Collections.Generic.List`1[[Comindware.Platform.Contracts.FormRuleModel, Comindware.Platform.Contracts]], mscorlib",
    "$values": [
      {
        "$type": "Comindware.Platform.Contracts.FormRuleModel, Comindware.Platform.Contracts",
        "RuleName": "Правило",
        "ConditionExpression": "",
        "Actions": {
          "$type": "System.Collections.Generic.List`1[[Comindware.Platform.Contracts.RuleActionModel, Comindware.Platform.Contracts]], mscorlib",
          "$values": [
            {
              "$type": "Comindware.Platform.Contracts.RuleActionModel, Comindware.Platform.Contracts",
              "GlobalAlias": {
                "$type": "Comindware.Platform.Contracts.GlobalAlias, Comindware.Platform.Contracts",
                "Type": "FormComponent",
                "Owner": "Formadlyazakrytiya",
                "Alias": "Shablondopsoglasheniya"
              },
              "Type": "SetValue",
              "ValueExpression": "from a in db->Shablonydokumentov where a->Tip->Kod == \"ds\" && a->Mediakanal == $Prilozhenie->Mediaplan->Mediakanal && a->Tipdogovora == $Dogovor->Tip select a->id",
              "ConditionExpression": "EMPTY($Shablondopsoglasheniya)",
              "Severity": "Error"
            },
            {
              "$type": "Comindware.Platform.Contracts.RuleActionModel, Comindware.Platform.Contracts",
              "GlobalAlias": {
                "$type": "Comindware.Platform.Contracts.GlobalAlias, Comindware.Platform.Contracts",
                "Type": "FormComponent",
                "Owner": "Formadlyazakrytiya",
                "Alias": "Status"
              },
              "Type": "SetValue",
              "ValueExpression": "ID('51127')",
              "ConditionExpression": "AND(NOT(OR($Status->Kod == \"approved\",$Status->Kod == \"inapproval\")),NOT(EMPTY($FaylDS)))",
              "Severity": "Error"
            },
            {
              "$type": "Comindware.Platform.Contracts.RuleActionModel, Comindware.Platform.Contracts",
              "GlobalAlias": {
                "$type": "Comindware.Platform.Contracts.GlobalAlias, Comindware.Platform.Contracts",
                "Type": "FormComponent",
                "Owner": "Formadlyazakrytiya",
                "Alias": "Status"
              },
              "Type": "SetValue",
              "ValueExpression": "ID('51126')",
              "ConditionExpression": "AND(NOT(OR($Status->Kod == \"approved\",$Status->Kod == \"inapproval\")),EMPTY($FaylDS))",
              "Severity": "Error"
            }
          ]
        }
      }
    ]
  },
  "Origination": "Undefined"
}