{
  "$type": "Comindware.Platform.Contracts.MessageTypeConfigurationModel, Comindware.Platform.Contracts",
  "Name": "noneIntermediateEvent2ba60",
  "GlobalAlias": {
    "$type": "Comindware.Platform.Contracts.GlobalAlias, Comindware.Platform.Contracts",
    "Type": "MessageTemplate",
    "Alias": "noneIntermediateEvent2ba60"
  },
  "Kind": "ReadableKind"
}