{
  "$type": "Comindware.Platform.Contracts.IntermediateEventActivityModel, Comindware.Platform.Contracts",
  "GlobalAlias": {
    "$type": "Comindware.Platform.Contracts.GlobalAlias, Comindware.Platform.Contracts",
    "Type": "ClientActivity",
    "Owner": "SoglasovaniemediaplananaInternet",
    "Alias": "timerIntermediateEvent1"
  },
  "Kind": "ThrowingMessage",
  "IsInterrupting": false,
  "MessageDefinition": {
    "$type": "Comindware.Platform.Contracts.MessageEventDefinitionModel, Comindware.Platform.Contracts",
    "IsThrowing": true,
    "MessageType": {
      "$type": "Comindware.Platform.Contracts.GlobalAlias, Comindware.Platform.Contracts",
      "Type": "MessageTemplate",
      "Alias": "Podtverzhdeniesrokov2"
    },
    "MessageName": "Отправка уведомления руководителю интернет баинга",
    "MessageReceiver": {
      "$type": "Comindware.Platform.Contracts.MessageReceiverExternalSocketDefinitionModel, Comindware.Platform.Contracts",
      "ReceiverAddressType": "ExternalSocket",
      "Type": "ExternalSocket"
    },
    "InputMapping": {
      "$type": "Comindware.Platform.Contracts.MessagePayloadDefinitionModel, Comindware.Platform.Contracts",
      "MessageType": {
        "$type": "Comindware.Platform.Contracts.GlobalAlias, Comindware.Platform.Contracts",
        "Type": "MessageTemplate",
        "Alias": "Podtverzhdeniesrokov2"
      },
      "Data": {
        "$type": "Comindware.Platform.Contracts.MakeMessageRuleModel, Comindware.Platform.Contracts",
        "MessageType": {
          "$type": "Comindware.Platform.Contracts.GlobalAlias, Comindware.Platform.Contracts",
          "Type": "MessageTemplate",
          "Alias": "Podtverzhdeniesrokov2"
        },
        "PropertyMap": {
          "$type": "Comindware.Platform.Contracts.PropertyMapKeyValueModel[], Comindware.Platform.Contracts",
          "$values": [
            {
              "$type": "Comindware.Platform.Contracts.PropertyMapKeyValueModel, Comindware.Platform.Contracts",
              "Key": {
                "$type": "Comindware.Platform.Contracts.ModificationActionModel, Comindware.Platform.Contracts",
                "PropertyPath": {
                  "$type": "Comindware.Platform.Contracts.GlobalAlias[], Comindware.Platform.Contracts",
                  "$values": [
                    {
                      "$type": "Comindware.Platform.Contracts.GlobalAlias, Comindware.Platform.Contracts",
                      "Type": "MessageTemplateProperty",
                      "Owner": "Podtverzhdeniesrokov2",
                      "Alias": "deadline_text"
                    }
                  ]
                },
                "PropertyAction": "Replace"
              },
              "Value": {
                "$type": "Comindware.Platform.Contracts.CalculationRuleModel, Comindware.Platform.Contracts",
                "Type": "Calculation"
              }
            },
            {
              "$type": "Comindware.Platform.Contracts.PropertyMapKeyValueModel, Comindware.Platform.Contracts",
              "Key": {
                "$type": "Comindware.Platform.Contracts.ModificationActionModel, Comindware.Platform.Contracts",
                "PropertyPath": {
                  "$type": "Comindware.Platform.Contracts.GlobalAlias[], Comindware.Platform.Contracts",
                  "$values": [
                    {
                      "$type": "Comindware.Platform.Contracts.GlobalAlias, Comindware.Platform.Contracts",
                      "Type": "MessageTemplateProperty",
                      "Owner": "Podtverzhdeniesrokov2",
                      "Alias": "comment"
                    }
                  ]
                },
                "PropertyAction": "Replace"
              },
              "Value": {
                "$type": "Comindware.Platform.Contracts.CalculationRuleModel, Comindware.Platform.Contracts",
                "Type": "Calculation"
              }
            },
            {
              "$type": "Comindware.Platform.Contracts.PropertyMapKeyValueModel, Comindware.Platform.Contracts",
              "Key": {
                "$type": "Comindware.Platform.Contracts.ModificationActionModel, Comindware.Platform.Contracts",
                "PropertyPath": {
                  "$type": "Comindware.Platform.Contracts.GlobalAlias[], Comindware.Platform.Contracts",
                  "$values": [
                    {
                      "$type": "Comindware.Platform.Contracts.GlobalAlias, Comindware.Platform.Contracts",
                      "Type": "MessageTemplateProperty",
                      "Owner": "Podtverzhdeniesrokov2",
                      "Alias": "body"
                    }
                  ]
                },
                "PropertyAction": "Replace"
              },
              "Value": {
                "$type": "Comindware.Platform.Contracts.CalculationRuleModel, Comindware.Platform.Contracts",
                "Type": "Calculation"
              }
            },
            {
              "$type": "Comindware.Platform.Contracts.PropertyMapKeyValueModel, Comindware.Platform.Contracts",
              "Key": {
                "$type": "Comindware.Platform.Contracts.ModificationActionModel, Comindware.Platform.Contracts",
                "PropertyPath": {
                  "$type": "Comindware.Platform.Contracts.GlobalAlias[], Comindware.Platform.Contracts",
                  "$values": [
                    {
                      "$type": "Comindware.Platform.Contracts.GlobalAlias, Comindware.Platform.Contracts",
                      "Type": "MessageTemplateProperty",
                      "Owner": "Podtverzhdeniesrokov2",
                      "Alias": "ProcessID"
                    }
                  ]
                },
                "PropertyAction": "Replace"
              },
              "Value": {
                "$type": "Comindware.Platform.Contracts.CalculationRuleModel, Comindware.Platform.Contracts",
                "Type": "Calculation",
                "Definition": {
                  "$type": "Comindware.Platform.Contracts.ExpressionRuleDefinitionModel, Comindware.Platform.Contracts",
                  "Expression": "FORMAT(\"{0}\",LIST($id))",
                  "Type": "Expression"
                }
              }
            },
            {
              "$type": "Comindware.Platform.Contracts.PropertyMapKeyValueModel, Comindware.Platform.Contracts",
              "Key": {
                "$type": "Comindware.Platform.Contracts.ModificationActionModel, Comindware.Platform.Contracts",
                "PropertyPath": {
                  "$type": "Comindware.Platform.Contracts.GlobalAlias[], Comindware.Platform.Contracts",
                  "$values": [
                    {
                      "$type": "Comindware.Platform.Contracts.GlobalAlias, Comindware.Platform.Contracts",
                      "Type": "MessageTemplateProperty",
                      "Owner": "Podtverzhdeniesrokov2",
                      "Alias": "Result"
                    }
                  ]
                },
                "PropertyAction": "Replace"
              },
              "Value": {
                "$type": "Comindware.Platform.Contracts.CalculationRuleModel, Comindware.Platform.Contracts",
                "Type": "Calculation"
              }
            },
            {
              "$type": "Comindware.Platform.Contracts.PropertyMapKeyValueModel, Comindware.Platform.Contracts",
              "Key": {
                "$type": "Comindware.Platform.Contracts.ModificationActionModel, Comindware.Platform.Contracts",
                "PropertyPath": {
                  "$type": "Comindware.Platform.Contracts.GlobalAlias[], Comindware.Platform.Contracts",
                  "$values": [
                    {
                      "$type": "Comindware.Platform.Contracts.GlobalAlias, Comindware.Platform.Contracts",
                      "Type": "MessageTemplateProperty",
                      "Owner": "Podtverzhdeniesrokov2",
                      "Alias": "DeadLine"
                    }
                  ]
                },
                "PropertyAction": "Replace"
              },
              "Value": {
                "$type": "Comindware.Platform.Contracts.CalculationRuleModel, Comindware.Platform.Contracts",
                "Type": "Calculation"
              }
            },
            {
              "$type": "Comindware.Platform.Contracts.PropertyMapKeyValueModel, Comindware.Platform.Contracts",
              "Key": {
                "$type": "Comindware.Platform.Contracts.ModificationActionModel, Comindware.Platform.Contracts",
                "PropertyPath": {
                  "$type": "Comindware.Platform.Contracts.GlobalAlias[], Comindware.Platform.Contracts",
                  "$values": [
                    {
                      "$type": "Comindware.Platform.Contracts.GlobalAlias, Comindware.Platform.Contracts",
                      "Type": "MessageTemplateProperty",
                      "Owner": "Podtverzhdeniesrokov2",
                      "Alias": "Attach"
                    }
                  ]
                },
                "PropertyAction": "Replace"
              },
              "Value": {
                "$type": "Comindware.Platform.Contracts.CalculationRuleModel, Comindware.Platform.Contracts",
                "Type": "Calculation",
                "Definition": {
                  "$type": "Comindware.Platform.Contracts.PropertyRuleDefinitionModel, Comindware.Platform.Contracts",
                  "PropertyPath": {
                    "$type": "Comindware.Platform.Contracts.GlobalAlias[], Comindware.Platform.Contracts",
                    "$values": [
                      {
                        "$type": "Comindware.Platform.Contracts.GlobalAlias, Comindware.Platform.Contracts",
                        "Type": "Attribute",
                        "Owner": "Mediaplany",
                        "Alias": "Finalnyymediaplandootkrutki"
                      }
                    ]
                  },
                  "Type": "Property"
                }
              }
            },
            {
              "$type": "Comindware.Platform.Contracts.PropertyMapKeyValueModel, Comindware.Platform.Contracts",
              "Key": {
                "$type": "Comindware.Platform.Contracts.ModificationActionModel, Comindware.Platform.Contracts",
                "PropertyPath": {
                  "$type": "Comindware.Platform.Contracts.GlobalAlias[], Comindware.Platform.Contracts",
                  "$values": [
                    {
                      "$type": "Comindware.Platform.Contracts.GlobalAlias, Comindware.Platform.Contracts",
                      "Type": "MessageTemplateProperty",
                      "Owner": "Podtverzhdeniesrokov2",
                      "Alias": "Subject"
                    }
                  ]
                },
                "PropertyAction": "Replace"
              },
              "Value": {
                "$type": "Comindware.Platform.Contracts.CalculationRuleModel, Comindware.Platform.Contracts",
                "Type": "Calculation",
                "Definition": {
                  "$type": "Comindware.Platform.Contracts.ExpressionRuleDefinitionModel, Comindware.Platform.Contracts",
                  "Expression": "FORMAT(\"Подтверждение финального медиаплана для {0} / [{1}]\",LIST($Kontragent->Kratkoenazvanie,$id))",
                  "Type": "Expression"
                }
              }
            },
            {
              "$type": "Comindware.Platform.Contracts.PropertyMapKeyValueModel, Comindware.Platform.Contracts",
              "Key": {
                "$type": "Comindware.Platform.Contracts.ModificationActionModel, Comindware.Platform.Contracts",
                "PropertyPath": {
                  "$type": "Comindware.Platform.Contracts.GlobalAlias[], Comindware.Platform.Contracts",
                  "$values": [
                    {
                      "$type": "Comindware.Platform.Contracts.GlobalAlias, Comindware.Platform.Contracts",
                      "Type": "MessageTemplateProperty",
                      "Owner": "Podtverzhdeniesrokov2",
                      "Alias": "To"
                    }
                  ]
                },
                "PropertyAction": "Replace"
              },
              "Value": {
                "$type": "Comindware.Platform.Contracts.CalculationRuleModel, Comindware.Platform.Contracts",
                "Type": "Calculation",
                "Definition": {
                  "$type": "Comindware.Platform.Contracts.PropertyRuleDefinitionModel, Comindware.Platform.Contracts",
                  "PropertyPath": {
                    "$type": "Comindware.Platform.Contracts.GlobalAlias[], Comindware.Platform.Contracts",
                    "$values": [
                      {
                        "$type": "Comindware.Platform.Contracts.GlobalAlias, Comindware.Platform.Contracts",
                        "Type": "Attribute",
                        "Owner": "Mediaplany",
                        "Alias": "Email"
                      }
                    ]
                  },
                  "Type": "Property"
                }
              }
            }
          ]
        },
        "ContextObject": "task",
        "Type": "MakeMessage"
      }
    }
  },
  "BehaviourState": "Undefined",
  "Title": "Отправка уведомления руководителю баинга",
  "IsTitleSet": false,
  "Position": {
    "$type": "Comindware.Platform.Contracts.VectorModel, Comindware.Platform.Contracts",
    "X": 440.0,
    "Y": 120.0
  },
  "Size": {
    "$type": "Comindware.Platform.Contracts.DimensionsModel, Comindware.Platform.Contracts",
    "Width": 40.0,
    "Height": 40.0
  },
  "Owner": {
    "$type": "Comindware.Platform.Contracts.GlobalAlias, Comindware.Platform.Contracts",
    "Type": "ClientActivity",
    "Owner": "SoglasovaniemediaplananaInternet",
    "Alias": "lane2"
  },
  "OwnerEmbeddedProcessActivityAlias": {
    "$type": "Comindware.Platform.Contracts.GlobalAlias, Comindware.Platform.Contracts",
    "Type": "Undefined"
  },
  "MountedOnAlias": {
    "$type": "Comindware.Platform.Contracts.GlobalAlias, Comindware.Platform.Contracts",
    "Type": "Undefined"
  },
  "Type": "IntermediateEvent",
  "OnEnterTrigger": {
    "$type": "Comindware.Platform.Contracts.GlobalAlias, Comindware.Platform.Contracts",
    "Type": "Undefined"
  },
  "OnExitTrigger": {
    "$type": "Comindware.Platform.Contracts.GlobalAlias, Comindware.Platform.Contracts",
    "Type": "Undefined"
  }
}