{
  "$type": "Comindware.Platform.Contracts.AttributeModel, Comindware.Platform.Contracts",
  "GlobalAlias": {
    "$type": "Comindware.Platform.Contracts.GlobalAlias, Comindware.Platform.Contracts",
    "Type": "Attribute",
    "Owner": "Organizatsionnoshtatnayastruktura",
    "Alias": "RukovoditelLevel2"
  },
  "Type": "Account",
  "Format": "Undefined",
  "Name": "Руководитель Level 2",
  "Description": "наработки для рекурсивной тройки\n\n@prefix cmw: <http://comindware.com/logics#>.\n@prefix object: <http://comindware.com/ontology/object#>.\n\n{\n(\"Organizatsionnoshtatnayastruktura\" \"Sotrudnik\") object:findProperty ?userProp.\n(\"Organizatsionnoshtatnayastruktura\" \"Rol\") object:findProperty ?RolProp.\n(\"Organizatsionnoshtatnayastruktura\" \"Rukovoditel\") object:findProperty ?RukovoditelProperty.\n\n    ?item ?userProp ?workitems.\n    ?workitemsTemplate object:alias \"Organizatsionnoshtatnayastruktura\".\n    ?WorkitemItems cmw:container ?workitemsTemplate.\n\n\t?WorkitemItems ?RukovoditelProperty ?us1.\n\n\t(?us1 ?userProp) object:getRootByParentProperty ?workitems.\n\t#?WorkitemItems ?RolProp \"Level III\".\n\t?us1 ?userProp ?value.\n}\n\n\nтройка, показывающая нижние уровни\n\n@prefix cmw: <http://comindware.com/logics#>.\n@prefix object: <http://comindware.com/ontology/object#>.\n{\n  (\"Organizatsionnoshtatnayastruktura\" \"Sotrudnik\") object:findProperty ?userProp.\n  (\"Organizatsionnoshtatnayastruktura\" \"Rukovoditel\") object:findProperty ?RukovoditelProperty.\n\n    ?item ?userProp ?workitems.\n    ?workitemsTemplate object:alias \"Organizatsionnoshtatnayastruktura\".\n    ?WorkitemItems cmw:container ?workitemsTemplate.\n\n  (?WorkitemItems ?RukovoditelProperty) object:getRootByParentProperty ?item.\n  ?WorkitemItems ?userProp ?value.\n}",
  "IsSystem": false,
  "IsDisabled": false,
  "IsUnique": false,
  "IsIndexed": false,
  "IsTracked": false,
  "IsMultiValue": false,
  "IsTitle": false,
  "IsMandatory": false,
  "IsOwnership": false,
  "IsCalculated": true,
  "Expression": "@prefix cmw: <http://comindware.com/logics#>.\n@prefix object: <http://comindware.com/ontology/object#>.\n@prefix assert: <http://comindware.com/logics/assert#>.\n\n{\n\n(\"Organizatsionnoshtatnayastruktura\" \"Rukovoditel\") object:findProperty ?RukovoditelProp.\n(\"Organizatsionnoshtatnayastruktura\" \"Sotrudnik\") object:findProperty ?userProp.\n(\"Organizatsionnoshtatnayastruktura\" \"Rol\") object:findProperty ?RolProp.\n\n?item ?RukovoditelProp ?us_up1.\n?us_up1 ?RolProp ?Rol_value1.\nif {?Rol_value1 == \"Level II\"}\nthen {\n?us_up1 ?userProp ?value. ### FOR LEVEL 3\n}\nelse\n{\n\t?us_up1 ?RukovoditelProp ?us_up2.\n\t?us_up2 ?RolProp ?Rol_value2.\n\tif {?Rol_value2 == \"Level II\"}\n\tthen {\n\t?us_up2 ?userProp ?value. #### FOR LEVEL 4\n\t}\n\telse\n\t{\n\t\t?us_up2 ?RukovoditelProp ?us_up3.\n\t\t?us_up3 ?RolProp ?Rol_value3.\n\t\tif {?Rol_value3 == \"Level II\"}\n\t\tthen {\n\t\t?us_up3 ?userProp ?value. #### FOR LEVEL 5\n\t\t}\n\t}\n}\n\n}",
  "InstanceGlobalAlias": {
    "$type": "Comindware.Platform.Contracts.GlobalAlias, Comindware.Platform.Contracts",
    "Type": "RecordTemplate",
    "Alias": "_Account"
  },
  "ImageColorType": "Original",
  "ImagePreserveAspectRatio": false
}