{
  "$type": "Comindware.Platform.Contracts.FormModel, Comindware.Platform.Contracts",
  "GlobalAlias": {
    "$type": "Comindware.Platform.Contracts.GlobalAlias, Comindware.Platform.Contracts",
    "Type": "Form",
    "Owner": "Raschetypomediaplanam",
    "Alias": "Menedzherskiyzaprosadminskaya"
  },
  "Type": "InternalForm",
  "IsDefault": false,
  "Root": {
    "$type": "Comindware.Platform.Contracts.VerticalLayoutModel, Comindware.Platform.Contracts",
    "Rows": {
      "$type": "System.Collections.Generic.List`1[[Comindware.Platform.Contracts.FormComponentModel, Comindware.Platform.Contracts]], mscorlib",
      "$values": [
        {
          "$type": "Comindware.Platform.Contracts.LayoutModel, Comindware.Platform.Contracts",
          "Components": {
            "$type": "System.Collections.Generic.List`1[[Comindware.Platform.Contracts.FormComponentModel, Comindware.Platform.Contracts]], mscorlib",
            "$values": [
              {
                "$type": "Comindware.Platform.Contracts.PanelModel, Comindware.Platform.Contracts",
                "Text": {
                  "$type": "Comindware.Platform.Contracts.LocalizedTextModel, Comindware.Platform.Contracts",
                  "En": "Основная информация по расчету",
                  "De": "Основная информация по расчету",
                  "Ru": "Основная информация по расчету"
                },
                "OriginalType": "GroupPanel",
                "Rows": {
                  "$type": "System.Collections.Generic.List`1[[Comindware.Platform.Contracts.FormComponentModel, Comindware.Platform.Contracts]], mscorlib",
                  "$values": [
                    {
                      "$type": "Comindware.Platform.Contracts.VerticalLayoutModel, Comindware.Platform.Contracts",
                      "Rows": {
                        "$type": "System.Collections.Generic.List`1[[Comindware.Platform.Contracts.FormComponentModel, Comindware.Platform.Contracts]], mscorlib",
                        "$values": [
                          {
                            "$type": "Comindware.Platform.Contracts.LayoutModel, Comindware.Platform.Contracts",
                            "Components": {
                              "$type": "System.Collections.Generic.List`1[[Comindware.Platform.Contracts.FormComponentModel, Comindware.Platform.Contracts]], mscorlib",
                              "$values": [
                                {
                                  "$type": "Comindware.Platform.Contracts.VerticalLayoutModel, Comindware.Platform.Contracts",
                                  "Rows": {
                                    "$type": "System.Collections.Generic.List`1[[Comindware.Platform.Contracts.FormComponentModel, Comindware.Platform.Contracts]], mscorlib",
                                    "$values": [
                                      {
                                        "$type": "Comindware.Platform.Contracts.FieldComponentModel, Comindware.Platform.Contracts",
                                        "Label": {
                                          "$type": "Comindware.Platform.Contracts.LabelModel, Comindware.Platform.Contracts",
                                          "Hidden": false,
                                          "Alignment": "Top",
                                          "Text": {
                                            "$type": "Comindware.Platform.Contracts.LocalizedTextModel, Comindware.Platform.Contracts",
                                            "En": "Медиаканал",
                                            "De": "Медиаканал",
                                            "Ru": "Медиаканал"
                                          }
                                        },
                                        "FieldType": "Reference",
                                        "Placeholder": {
                                          "$type": "Comindware.Platform.Contracts.LocalizedTextModel, Comindware.Platform.Contracts"
                                        },
                                        "HelpText": {
                                          "$type": "Comindware.Platform.Contracts.LocalizedTextModel, Comindware.Platform.Contracts"
                                        },
                                        "PropertyPath": {
                                          "$type": "Comindware.Platform.Contracts.GlobalAlias[], Comindware.Platform.Contracts",
                                          "$values": [
                                            {
                                              "$type": "Comindware.Platform.Contracts.GlobalAlias, Comindware.Platform.Contracts",
                                              "Type": "Attribute",
                                              "Owner": "Raschetypomediaplanam",
                                              "Alias": "Mediakanal"
                                            }
                                          ]
                                        },
                                        "EditorType": "Radio",
                                        "CreationType": "None",
                                        "RemovalType": "None",
                                        "EditType": "None",
                                        "HideSearchBar": false,
                                        "ShowAsLink": false,
                                        "ChildPropertyAlias": {
                                          "$type": "Comindware.Platform.Contracts.GlobalAlias, Comindware.Platform.Contracts",
                                          "Type": "Undefined"
                                        },
                                        "OrderPropertyAlias": {
                                          "$type": "Comindware.Platform.Contracts.GlobalAlias, Comindware.Platform.Contracts",
                                          "Type": "Undefined"
                                        },
                                        "NumberPropertyAlias": {
                                          "$type": "Comindware.Platform.Contracts.GlobalAlias, Comindware.Platform.Contracts",
                                          "Type": "Undefined"
                                        },
                                        "PrecedentPropertyAlias": {
                                          "$type": "Comindware.Platform.Contracts.GlobalAlias, Comindware.Platform.Contracts",
                                          "Type": "Undefined"
                                        },
                                        "SortingDirection": "Asc",
                                        "PopupFormAlias": {
                                          "$type": "Comindware.Platform.Contracts.GlobalAlias, Comindware.Platform.Contracts",
                                          "Type": "Undefined"
                                        },
                                        "AllowEdit": false,
                                        "DisplayFormat": "ShowAsPicture",
                                        "GlobalAlias": {
                                          "$type": "Comindware.Platform.Contracts.GlobalAlias, Comindware.Platform.Contracts",
                                          "Type": "FormComponent",
                                          "Alias": "Mediakanal"
                                        },
                                        "AccessType": "Required",
                                        "Width": 0,
                                        "Type": "FieldComponent"
                                      },
                                      {
                                        "$type": "Comindware.Platform.Contracts.FieldComponentModel, Comindware.Platform.Contracts",
                                        "Label": {
                                          "$type": "Comindware.Platform.Contracts.LabelModel, Comindware.Platform.Contracts",
                                          "Hidden": false,
                                          "Alignment": "Top",
                                          "Text": {
                                            "$type": "Comindware.Platform.Contracts.LocalizedTextModel, Comindware.Platform.Contracts",
                                            "En": "Направление",
                                            "De": "Направление",
                                            "Ru": "Направление"
                                          }
                                        },
                                        "FieldType": "Reference",
                                        "Placeholder": {
                                          "$type": "Comindware.Platform.Contracts.LocalizedTextModel, Comindware.Platform.Contracts"
                                        },
                                        "HelpText": {
                                          "$type": "Comindware.Platform.Contracts.LocalizedTextModel, Comindware.Platform.Contracts"
                                        },
                                        "PropertyPath": {
                                          "$type": "Comindware.Platform.Contracts.GlobalAlias[], Comindware.Platform.Contracts",
                                          "$values": [
                                            {
                                              "$type": "Comindware.Platform.Contracts.GlobalAlias, Comindware.Platform.Contracts",
                                              "Type": "Attribute",
                                              "Owner": "Raschetypomediaplanam",
                                              "Alias": "Napravlenie"
                                            }
                                          ]
                                        },
                                        "EditorType": "Radio",
                                        "CreationType": "None",
                                        "RemovalType": "None",
                                        "EditType": "None",
                                        "HideSearchBar": false,
                                        "ShowAsLink": false,
                                        "ChildPropertyAlias": {
                                          "$type": "Comindware.Platform.Contracts.GlobalAlias, Comindware.Platform.Contracts",
                                          "Type": "Undefined"
                                        },
                                        "OrderPropertyAlias": {
                                          "$type": "Comindware.Platform.Contracts.GlobalAlias, Comindware.Platform.Contracts",
                                          "Type": "Undefined"
                                        },
                                        "NumberPropertyAlias": {
                                          "$type": "Comindware.Platform.Contracts.GlobalAlias, Comindware.Platform.Contracts",
                                          "Type": "Undefined"
                                        },
                                        "PrecedentPropertyAlias": {
                                          "$type": "Comindware.Platform.Contracts.GlobalAlias, Comindware.Platform.Contracts",
                                          "Type": "Undefined"
                                        },
                                        "SortingDirection": "Asc",
                                        "PopupFormAlias": {
                                          "$type": "Comindware.Platform.Contracts.GlobalAlias, Comindware.Platform.Contracts",
                                          "Type": "Undefined"
                                        },
                                        "AllowEdit": false,
                                        "DisplayFormat": "ShowAsPicture",
                                        "GlobalAlias": {
                                          "$type": "Comindware.Platform.Contracts.GlobalAlias, Comindware.Platform.Contracts",
                                          "Type": "FormComponent",
                                          "Alias": "Napravlenie"
                                        },
                                        "AccessType": "Hidden",
                                        "Width": 0,
                                        "Type": "FieldComponent"
                                      }
                                    ]
                                  },
                                  "GlobalAlias": {
                                    "$type": "Comindware.Platform.Contracts.GlobalAlias, Comindware.Platform.Contracts",
                                    "Type": "FormComponent",
                                    "Alias": "VerticalLayout4"
                                  },
                                  "AccessType": "Undefined",
                                  "Width": 50,
                                  "Type": "VerticalLayout"
                                },
                                {
                                  "$type": "Comindware.Platform.Contracts.VerticalLayoutModel, Comindware.Platform.Contracts",
                                  "Rows": {
                                    "$type": "System.Collections.Generic.List`1[[Comindware.Platform.Contracts.FormComponentModel, Comindware.Platform.Contracts]], mscorlib",
                                    "$values": [
                                      {
                                        "$type": "Comindware.Platform.Contracts.FieldComponentModel, Comindware.Platform.Contracts",
                                        "Label": {
                                          "$type": "Comindware.Platform.Contracts.LabelModel, Comindware.Platform.Contracts",
                                          "Hidden": false,
                                          "Alignment": "Top",
                                          "Text": {
                                            "$type": "Comindware.Platform.Contracts.LocalizedTextModel, Comindware.Platform.Contracts",
                                            "En": "Баинговое подразделение",
                                            "De": "Баинговое подразделение",
                                            "Ru": "Баинговое подразделение"
                                          }
                                        },
                                        "FieldType": "Reference",
                                        "Placeholder": {
                                          "$type": "Comindware.Platform.Contracts.LocalizedTextModel, Comindware.Platform.Contracts"
                                        },
                                        "HelpText": {
                                          "$type": "Comindware.Platform.Contracts.LocalizedTextModel, Comindware.Platform.Contracts"
                                        },
                                        "PropertyPath": {
                                          "$type": "Comindware.Platform.Contracts.GlobalAlias[], Comindware.Platform.Contracts",
                                          "$values": [
                                            {
                                              "$type": "Comindware.Platform.Contracts.GlobalAlias, Comindware.Platform.Contracts",
                                              "Type": "Attribute",
                                              "Owner": "Raschetypomediaplanam",
                                              "Alias": "Baingovoepodrazdelenie"
                                            }
                                          ]
                                        },
                                        "EditorType": "Radio",
                                        "CreationType": "None",
                                        "RemovalType": "None",
                                        "EditType": "None",
                                        "ValueFilterExpression": "from a in db->Baingovyepodrazdeleniya where AND(NOT(EMPTY(a->Mediakanal)),AND(NOT(EMPTY($Mediakanal)),AND(a->Pokazyvatvspiske == true,a->Mediakanal == $Mediakanal))) select a->id",
                                        "HideSearchBar": false,
                                        "ShowAsLink": false,
                                        "ChildPropertyAlias": {
                                          "$type": "Comindware.Platform.Contracts.GlobalAlias, Comindware.Platform.Contracts",
                                          "Type": "Undefined"
                                        },
                                        "OrderPropertyAlias": {
                                          "$type": "Comindware.Platform.Contracts.GlobalAlias, Comindware.Platform.Contracts",
                                          "Type": "Undefined"
                                        },
                                        "NumberPropertyAlias": {
                                          "$type": "Comindware.Platform.Contracts.GlobalAlias, Comindware.Platform.Contracts",
                                          "Type": "Undefined"
                                        },
                                        "PrecedentPropertyAlias": {
                                          "$type": "Comindware.Platform.Contracts.GlobalAlias, Comindware.Platform.Contracts",
                                          "Type": "Undefined"
                                        },
                                        "SortingDirection": "Asc",
                                        "PopupFormAlias": {
                                          "$type": "Comindware.Platform.Contracts.GlobalAlias, Comindware.Platform.Contracts",
                                          "Type": "Undefined"
                                        },
                                        "AllowEdit": false,
                                        "DisplayFormat": "ShowAsPicture",
                                        "GlobalAlias": {
                                          "$type": "Comindware.Platform.Contracts.GlobalAlias, Comindware.Platform.Contracts",
                                          "Type": "FormComponent",
                                          "Alias": "Baingovoepodrazdelenie"
                                        },
                                        "AccessType": "Editable",
                                        "Width": 0,
                                        "Type": "FieldComponent"
                                      }
                                    ]
                                  },
                                  "GlobalAlias": {
                                    "$type": "Comindware.Platform.Contracts.GlobalAlias, Comindware.Platform.Contracts",
                                    "Type": "FormComponent",
                                    "Alias": "VerticalLayout6"
                                  },
                                  "AccessType": "Undefined",
                                  "Width": 50,
                                  "Type": "VerticalLayout"
                                }
                              ]
                            },
                            "OriginalType": "HorizontalLayout",
                            "GlobalAlias": {
                              "$type": "Comindware.Platform.Contracts.GlobalAlias, Comindware.Platform.Contracts",
                              "Type": "FormComponent",
                              "Alias": "HorizontalLayout"
                            },
                            "AccessType": "Undefined",
                            "Width": 0,
                            "Type": "LayoutModel"
                          },
                          {
                            "$type": "Comindware.Platform.Contracts.LayoutModel, Comindware.Platform.Contracts",
                            "Components": {
                              "$type": "System.Collections.Generic.List`1[[Comindware.Platform.Contracts.FormComponentModel, Comindware.Platform.Contracts]], mscorlib",
                              "$values": [
                                {
                                  "$type": "Comindware.Platform.Contracts.VerticalLayoutModel, Comindware.Platform.Contracts",
                                  "Rows": {
                                    "$type": "System.Collections.Generic.List`1[[Comindware.Platform.Contracts.FormComponentModel, Comindware.Platform.Contracts]], mscorlib",
                                    "$values": [
                                      {
                                        "$type": "Comindware.Platform.Contracts.FieldComponentModel, Comindware.Platform.Contracts",
                                        "Label": {
                                          "$type": "Comindware.Platform.Contracts.LabelModel, Comindware.Platform.Contracts",
                                          "Hidden": false,
                                          "Alignment": "Top",
                                          "Text": {
                                            "$type": "Comindware.Platform.Contracts.LocalizedTextModel, Comindware.Platform.Contracts",
                                            "En": "Описание запроса",
                                            "De": "Описание запроса",
                                            "Ru": "Описание запроса"
                                          }
                                        },
                                        "FieldType": "Text",
                                        "Placeholder": {
                                          "$type": "Comindware.Platform.Contracts.LocalizedTextModel, Comindware.Platform.Contracts"
                                        },
                                        "HelpText": {
                                          "$type": "Comindware.Platform.Contracts.LocalizedTextModel, Comindware.Platform.Contracts"
                                        },
                                        "PropertyPath": {
                                          "$type": "Comindware.Platform.Contracts.GlobalAlias[], Comindware.Platform.Contracts",
                                          "$values": [
                                            {
                                              "$type": "Comindware.Platform.Contracts.GlobalAlias, Comindware.Platform.Contracts",
                                              "Type": "Attribute",
                                              "Owner": "Raschetypomediaplanam",
                                              "Alias": "Opisaniezaprosa"
                                            }
                                          ]
                                        },
                                        "TextHeight": 10,
                                        "TextHeightAuto": false,
                                        "MaxLength": 0,
                                        "EditorType": "Multiline",
                                        "CreationType": "None",
                                        "RemovalType": "None",
                                        "EditType": "None",
                                        "ChildPropertyAlias": {
                                          "$type": "Comindware.Platform.Contracts.GlobalAlias, Comindware.Platform.Contracts",
                                          "Type": "Undefined"
                                        },
                                        "OrderPropertyAlias": {
                                          "$type": "Comindware.Platform.Contracts.GlobalAlias, Comindware.Platform.Contracts",
                                          "Type": "Undefined"
                                        },
                                        "NumberPropertyAlias": {
                                          "$type": "Comindware.Platform.Contracts.GlobalAlias, Comindware.Platform.Contracts",
                                          "Type": "Undefined"
                                        },
                                        "PrecedentPropertyAlias": {
                                          "$type": "Comindware.Platform.Contracts.GlobalAlias, Comindware.Platform.Contracts",
                                          "Type": "Undefined"
                                        },
                                        "SortingDirection": "Asc",
                                        "PopupFormAlias": {
                                          "$type": "Comindware.Platform.Contracts.GlobalAlias, Comindware.Platform.Contracts",
                                          "Type": "Undefined"
                                        },
                                        "DisplayFormat": "ShowAsPicture",
                                        "GlobalAlias": {
                                          "$type": "Comindware.Platform.Contracts.GlobalAlias, Comindware.Platform.Contracts",
                                          "Type": "FormComponent",
                                          "Alias": "Opisaniezaprosa"
                                        },
                                        "AccessType": "Editable",
                                        "Width": 0,
                                        "Type": "FieldComponent"
                                      }
                                    ]
                                  },
                                  "GlobalAlias": {
                                    "$type": "Comindware.Platform.Contracts.GlobalAlias, Comindware.Platform.Contracts",
                                    "Type": "FormComponent",
                                    "Alias": "VerticalLayout8"
                                  },
                                  "AccessType": "Undefined",
                                  "Width": 33,
                                  "Type": "VerticalLayout"
                                },
                                {
                                  "$type": "Comindware.Platform.Contracts.VerticalLayoutModel, Comindware.Platform.Contracts",
                                  "Rows": {
                                    "$type": "System.Collections.Generic.List`1[[Comindware.Platform.Contracts.FormComponentModel, Comindware.Platform.Contracts]], mscorlib",
                                    "$values": [
                                      {
                                        "$type": "Comindware.Platform.Contracts.FieldComponentModel, Comindware.Platform.Contracts",
                                        "Label": {
                                          "$type": "Comindware.Platform.Contracts.LabelModel, Comindware.Platform.Contracts",
                                          "Hidden": false,
                                          "Alignment": "Top",
                                          "Text": {
                                            "$type": "Comindware.Platform.Contracts.LocalizedTextModel, Comindware.Platform.Contracts",
                                            "En": "E-mail (кому):",
                                            "De": "E-mail (кому):",
                                            "Ru": "E-mail (кому):"
                                          }
                                        },
                                        "FieldType": "Text",
                                        "Placeholder": {
                                          "$type": "Comindware.Platform.Contracts.LocalizedTextModel, Comindware.Platform.Contracts"
                                        },
                                        "HelpText": {
                                          "$type": "Comindware.Platform.Contracts.LocalizedTextModel, Comindware.Platform.Contracts"
                                        },
                                        "PropertyPath": {
                                          "$type": "Comindware.Platform.Contracts.GlobalAlias[], Comindware.Platform.Contracts",
                                          "$values": [
                                            {
                                              "$type": "Comindware.Platform.Contracts.GlobalAlias, Comindware.Platform.Contracts",
                                              "Type": "Attribute",
                                              "Owner": "Raschetypomediaplanam",
                                              "Alias": "Email"
                                            }
                                          ]
                                        },
                                        "TextHeight": 0,
                                        "TextHeightAuto": false,
                                        "MaxLength": 0,
                                        "EditorType": "Simple",
                                        "CreationType": "None",
                                        "RemovalType": "None",
                                        "EditType": "None",
                                        "ChildPropertyAlias": {
                                          "$type": "Comindware.Platform.Contracts.GlobalAlias, Comindware.Platform.Contracts",
                                          "Type": "Undefined"
                                        },
                                        "OrderPropertyAlias": {
                                          "$type": "Comindware.Platform.Contracts.GlobalAlias, Comindware.Platform.Contracts",
                                          "Type": "Undefined"
                                        },
                                        "NumberPropertyAlias": {
                                          "$type": "Comindware.Platform.Contracts.GlobalAlias, Comindware.Platform.Contracts",
                                          "Type": "Undefined"
                                        },
                                        "PrecedentPropertyAlias": {
                                          "$type": "Comindware.Platform.Contracts.GlobalAlias, Comindware.Platform.Contracts",
                                          "Type": "Undefined"
                                        },
                                        "SortingDirection": "Asc",
                                        "PopupFormAlias": {
                                          "$type": "Comindware.Platform.Contracts.GlobalAlias, Comindware.Platform.Contracts",
                                          "Type": "Undefined"
                                        },
                                        "DisplayFormat": "ShowAsPicture",
                                        "GlobalAlias": {
                                          "$type": "Comindware.Platform.Contracts.GlobalAlias, Comindware.Platform.Contracts",
                                          "Type": "FormComponent",
                                          "Alias": "Email"
                                        },
                                        "AccessType": "Editable",
                                        "Width": 0,
                                        "Type": "FieldComponent"
                                      },
                                      {
                                        "$type": "Comindware.Platform.Contracts.FieldComponentModel, Comindware.Platform.Contracts",
                                        "Label": {
                                          "$type": "Comindware.Platform.Contracts.LabelModel, Comindware.Platform.Contracts",
                                          "Hidden": false,
                                          "Alignment": "Top",
                                          "Text": {
                                            "$type": "Comindware.Platform.Contracts.LocalizedTextModel, Comindware.Platform.Contracts",
                                            "En": "E-mail (CC):",
                                            "De": "E-mail (CC):",
                                            "Ru": "E-mail (CC):"
                                          }
                                        },
                                        "FieldType": "Text",
                                        "Placeholder": {
                                          "$type": "Comindware.Platform.Contracts.LocalizedTextModel, Comindware.Platform.Contracts"
                                        },
                                        "HelpText": {
                                          "$type": "Comindware.Platform.Contracts.LocalizedTextModel, Comindware.Platform.Contracts"
                                        },
                                        "PropertyPath": {
                                          "$type": "Comindware.Platform.Contracts.GlobalAlias[], Comindware.Platform.Contracts",
                                          "$values": [
                                            {
                                              "$type": "Comindware.Platform.Contracts.GlobalAlias, Comindware.Platform.Contracts",
                                              "Type": "Attribute",
                                              "Owner": "Raschetypomediaplanam",
                                              "Alias": "EmailCC"
                                            }
                                          ]
                                        },
                                        "TextHeight": 0,
                                        "TextHeightAuto": false,
                                        "MaxLength": 0,
                                        "EditorType": "Simple",
                                        "CreationType": "None",
                                        "RemovalType": "None",
                                        "EditType": "None",
                                        "ChildPropertyAlias": {
                                          "$type": "Comindware.Platform.Contracts.GlobalAlias, Comindware.Platform.Contracts",
                                          "Type": "Undefined"
                                        },
                                        "OrderPropertyAlias": {
                                          "$type": "Comindware.Platform.Contracts.GlobalAlias, Comindware.Platform.Contracts",
                                          "Type": "Undefined"
                                        },
                                        "NumberPropertyAlias": {
                                          "$type": "Comindware.Platform.Contracts.GlobalAlias, Comindware.Platform.Contracts",
                                          "Type": "Undefined"
                                        },
                                        "PrecedentPropertyAlias": {
                                          "$type": "Comindware.Platform.Contracts.GlobalAlias, Comindware.Platform.Contracts",
                                          "Type": "Undefined"
                                        },
                                        "SortingDirection": "Asc",
                                        "PopupFormAlias": {
                                          "$type": "Comindware.Platform.Contracts.GlobalAlias, Comindware.Platform.Contracts",
                                          "Type": "Undefined"
                                        },
                                        "DisplayFormat": "ShowAsPicture",
                                        "GlobalAlias": {
                                          "$type": "Comindware.Platform.Contracts.GlobalAlias, Comindware.Platform.Contracts",
                                          "Type": "FormComponent",
                                          "Alias": "EmailCC"
                                        },
                                        "AccessType": "Editable",
                                        "Width": 0,
                                        "Type": "FieldComponent"
                                      },
                                      {
                                        "$type": "Comindware.Platform.Contracts.FieldComponentModel, Comindware.Platform.Contracts",
                                        "Label": {
                                          "$type": "Comindware.Platform.Contracts.LabelModel, Comindware.Platform.Contracts",
                                          "Hidden": false,
                                          "Alignment": "Top",
                                          "Text": {
                                            "$type": "Comindware.Platform.Contracts.LocalizedTextModel, Comindware.Platform.Contracts",
                                            "En": "Изменить почту",
                                            "De": "Изменить почту",
                                            "Ru": "Изменить почту"
                                          }
                                        },
                                        "FieldType": "Boolean",
                                        "Placeholder": {
                                          "$type": "Comindware.Platform.Contracts.LocalizedTextModel, Comindware.Platform.Contracts"
                                        },
                                        "HelpText": {
                                          "$type": "Comindware.Platform.Contracts.LocalizedTextModel, Comindware.Platform.Contracts"
                                        },
                                        "PropertyPath": {
                                          "$type": "Comindware.Platform.Contracts.GlobalAlias[], Comindware.Platform.Contracts",
                                          "$values": [
                                            {
                                              "$type": "Comindware.Platform.Contracts.GlobalAlias, Comindware.Platform.Contracts",
                                              "Type": "Attribute",
                                              "Owner": "Raschetypomediaplanam",
                                              "Alias": "Izmenitpochtu"
                                            }
                                          ]
                                        },
                                        "TrueText": {
                                          "$type": "Comindware.Platform.Contracts.LocalizedTextModel, Comindware.Platform.Contracts"
                                        },
                                        "FalseText": {
                                          "$type": "Comindware.Platform.Contracts.LocalizedTextModel, Comindware.Platform.Contracts"
                                        },
                                        "UseTrueFalseText": false,
                                        "EditorType": "Checkbox",
                                        "CreationType": "None",
                                        "RemovalType": "None",
                                        "EditType": "None",
                                        "ChildPropertyAlias": {
                                          "$type": "Comindware.Platform.Contracts.GlobalAlias, Comindware.Platform.Contracts",
                                          "Type": "Undefined"
                                        },
                                        "OrderPropertyAlias": {
                                          "$type": "Comindware.Platform.Contracts.GlobalAlias, Comindware.Platform.Contracts",
                                          "Type": "Undefined"
                                        },
                                        "NumberPropertyAlias": {
                                          "$type": "Comindware.Platform.Contracts.GlobalAlias, Comindware.Platform.Contracts",
                                          "Type": "Undefined"
                                        },
                                        "PrecedentPropertyAlias": {
                                          "$type": "Comindware.Platform.Contracts.GlobalAlias, Comindware.Platform.Contracts",
                                          "Type": "Undefined"
                                        },
                                        "SortingDirection": "Asc",
                                        "PopupFormAlias": {
                                          "$type": "Comindware.Platform.Contracts.GlobalAlias, Comindware.Platform.Contracts",
                                          "Type": "Undefined"
                                        },
                                        "DisplayFormat": "ShowAsPicture",
                                        "GlobalAlias": {
                                          "$type": "Comindware.Platform.Contracts.GlobalAlias, Comindware.Platform.Contracts",
                                          "Type": "FormComponent",
                                          "Alias": "Izmenitpochtu"
                                        },
                                        "AccessType": "Editable",
                                        "Width": 0,
                                        "Type": "FieldComponent"
                                      }
                                    ]
                                  },
                                  "GlobalAlias": {
                                    "$type": "Comindware.Platform.Contracts.GlobalAlias, Comindware.Platform.Contracts",
                                    "Type": "FormComponent",
                                    "Alias": "VerticalLayout7"
                                  },
                                  "AccessType": "Undefined",
                                  "Width": 33,
                                  "Type": "VerticalLayout"
                                },
                                {
                                  "$type": "Comindware.Platform.Contracts.VerticalLayoutModel, Comindware.Platform.Contracts",
                                  "Rows": {
                                    "$type": "System.Collections.Generic.List`1[[Comindware.Platform.Contracts.FormComponentModel, Comindware.Platform.Contracts]], mscorlib",
                                    "$values": [
                                      {
                                        "$type": "Comindware.Platform.Contracts.FieldComponentModel, Comindware.Platform.Contracts",
                                        "Label": {
                                          "$type": "Comindware.Platform.Contracts.LabelModel, Comindware.Platform.Contracts",
                                          "Hidden": false,
                                          "Alignment": "Top",
                                          "Text": {
                                            "$type": "Comindware.Platform.Contracts.LocalizedTextModel, Comindware.Platform.Contracts",
                                            "En": "Крайний срок для ответа:",
                                            "De": "Крайний срок для ответа:",
                                            "Ru": "Крайний срок для ответа:"
                                          }
                                        },
                                        "FieldType": "Date",
                                        "Placeholder": {
                                          "$type": "Comindware.Platform.Contracts.LocalizedTextModel, Comindware.Platform.Contracts"
                                        },
                                        "HelpText": {
                                          "$type": "Comindware.Platform.Contracts.LocalizedTextModel, Comindware.Platform.Contracts"
                                        },
                                        "PropertyPath": {
                                          "$type": "Comindware.Platform.Contracts.GlobalAlias[], Comindware.Platform.Contracts",
                                          "$values": [
                                            {
                                              "$type": "Comindware.Platform.Contracts.GlobalAlias, Comindware.Platform.Contracts",
                                              "Type": "Attribute",
                                              "Owner": "Raschetypomediaplanam",
                                              "Alias": "Krayniysrok"
                                            }
                                          ]
                                        },
                                        "EditorType": "Radio",
                                        "CreationType": "None",
                                        "RemovalType": "None",
                                        "EditType": "None",
                                        "DisplayTime": false,
                                        "ChildPropertyAlias": {
                                          "$type": "Comindware.Platform.Contracts.GlobalAlias, Comindware.Platform.Contracts",
                                          "Type": "Undefined"
                                        },
                                        "OrderPropertyAlias": {
                                          "$type": "Comindware.Platform.Contracts.GlobalAlias, Comindware.Platform.Contracts",
                                          "Type": "Undefined"
                                        },
                                        "NumberPropertyAlias": {
                                          "$type": "Comindware.Platform.Contracts.GlobalAlias, Comindware.Platform.Contracts",
                                          "Type": "Undefined"
                                        },
                                        "PrecedentPropertyAlias": {
                                          "$type": "Comindware.Platform.Contracts.GlobalAlias, Comindware.Platform.Contracts",
                                          "Type": "Undefined"
                                        },
                                        "SortingDirection": "Asc",
                                        "PopupFormAlias": {
                                          "$type": "Comindware.Platform.Contracts.GlobalAlias, Comindware.Platform.Contracts",
                                          "Type": "Undefined"
                                        },
                                        "DisplayFormat": "ShowAsPicture",
                                        "GlobalAlias": {
                                          "$type": "Comindware.Platform.Contracts.GlobalAlias, Comindware.Platform.Contracts",
                                          "Type": "FormComponent",
                                          "Alias": "Krayniysrok"
                                        },
                                        "AccessType": "Editable",
                                        "Width": 0,
                                        "Type": "FieldComponent"
                                      },
                                      {
                                        "$type": "Comindware.Platform.Contracts.FieldComponentModel, Comindware.Platform.Contracts",
                                        "Label": {
                                          "$type": "Comindware.Platform.Contracts.LabelModel, Comindware.Platform.Contracts",
                                          "Hidden": false,
                                          "Alignment": "Top",
                                          "Text": {
                                            "$type": "Comindware.Platform.Contracts.LocalizedTextModel, Comindware.Platform.Contracts",
                                            "En": "Ответственный КС",
                                            "De": "Ответственный КС",
                                            "Ru": "Ответственный КС"
                                          }
                                        },
                                        "FieldType": "Member",
                                        "Placeholder": {
                                          "$type": "Comindware.Platform.Contracts.LocalizedTextModel, Comindware.Platform.Contracts"
                                        },
                                        "HelpText": {
                                          "$type": "Comindware.Platform.Contracts.LocalizedTextModel, Comindware.Platform.Contracts"
                                        },
                                        "PropertyPath": {
                                          "$type": "Comindware.Platform.Contracts.GlobalAlias[], Comindware.Platform.Contracts",
                                          "$values": [
                                            {
                                              "$type": "Comindware.Platform.Contracts.GlobalAlias, Comindware.Platform.Contracts",
                                              "Type": "Attribute",
                                              "Owner": "Raschetypomediaplanam",
                                              "Alias": "OtvetstvennyyKS"
                                            }
                                          ]
                                        },
                                        "EditorType": "Radio",
                                        "CreationType": "None",
                                        "RemovalType": "None",
                                        "EditType": "None",
                                        "HideSearchBar": false,
                                        "ChildPropertyAlias": {
                                          "$type": "Comindware.Platform.Contracts.GlobalAlias, Comindware.Platform.Contracts",
                                          "Type": "Undefined"
                                        },
                                        "OrderPropertyAlias": {
                                          "$type": "Comindware.Platform.Contracts.GlobalAlias, Comindware.Platform.Contracts",
                                          "Type": "Undefined"
                                        },
                                        "NumberPropertyAlias": {
                                          "$type": "Comindware.Platform.Contracts.GlobalAlias, Comindware.Platform.Contracts",
                                          "Type": "Undefined"
                                        },
                                        "PrecedentPropertyAlias": {
                                          "$type": "Comindware.Platform.Contracts.GlobalAlias, Comindware.Platform.Contracts",
                                          "Type": "Undefined"
                                        },
                                        "SortingDirection": "Asc",
                                        "MaxCount": 0,
                                        "PopupFormAlias": {
                                          "$type": "Comindware.Platform.Contracts.GlobalAlias, Comindware.Platform.Contracts",
                                          "Type": "Undefined"
                                        },
                                        "DisplayFormat": "ShowAsPicture",
                                        "GlobalAlias": {
                                          "$type": "Comindware.Platform.Contracts.GlobalAlias, Comindware.Platform.Contracts",
                                          "Type": "FormComponent",
                                          "Alias": "OtvetstvennyyKS"
                                        },
                                        "AccessType": "Editable",
                                        "Width": 0,
                                        "Type": "FieldComponent"
                                      }
                                    ]
                                  },
                                  "GlobalAlias": {
                                    "$type": "Comindware.Platform.Contracts.GlobalAlias, Comindware.Platform.Contracts",
                                    "Type": "FormComponent",
                                    "Alias": "VerticalLayout10"
                                  },
                                  "AccessType": "Undefined",
                                  "Width": 33,
                                  "Type": "VerticalLayout"
                                }
                              ]
                            },
                            "OriginalType": "HorizontalLayout",
                            "GlobalAlias": {
                              "$type": "Comindware.Platform.Contracts.GlobalAlias, Comindware.Platform.Contracts",
                              "Type": "FormComponent",
                              "Alias": "HorizontalLayout3"
                            },
                            "AccessType": "Undefined",
                            "Width": 0,
                            "Type": "LayoutModel"
                          },
                          {
                            "$type": "Comindware.Platform.Contracts.FieldComponentModel, Comindware.Platform.Contracts",
                            "Label": {
                              "$type": "Comindware.Platform.Contracts.LabelModel, Comindware.Platform.Contracts",
                              "Hidden": false,
                              "Alignment": "Top",
                              "Text": {
                                "$type": "Comindware.Platform.Contracts.LocalizedTextModel, Comindware.Platform.Contracts",
                                "En": "Менеджерский запрос",
                                "De": "Менеджерский запрос",
                                "Ru": "Менеджерский запрос"
                              }
                            },
                            "FieldType": "Boolean",
                            "Placeholder": {
                              "$type": "Comindware.Platform.Contracts.LocalizedTextModel, Comindware.Platform.Contracts"
                            },
                            "HelpText": {
                              "$type": "Comindware.Platform.Contracts.LocalizedTextModel, Comindware.Platform.Contracts"
                            },
                            "PropertyPath": {
                              "$type": "Comindware.Platform.Contracts.GlobalAlias[], Comindware.Platform.Contracts",
                              "$values": [
                                {
                                  "$type": "Comindware.Platform.Contracts.GlobalAlias, Comindware.Platform.Contracts",
                                  "Type": "Attribute",
                                  "Owner": "Raschetypomediaplanam",
                                  "Alias": "Menedzherskiyzapros"
                                }
                              ]
                            },
                            "TrueText": {
                              "$type": "Comindware.Platform.Contracts.LocalizedTextModel, Comindware.Platform.Contracts"
                            },
                            "FalseText": {
                              "$type": "Comindware.Platform.Contracts.LocalizedTextModel, Comindware.Platform.Contracts"
                            },
                            "UseTrueFalseText": false,
                            "EditorType": "Checkbox",
                            "CreationType": "None",
                            "RemovalType": "None",
                            "EditType": "None",
                            "ChildPropertyAlias": {
                              "$type": "Comindware.Platform.Contracts.GlobalAlias, Comindware.Platform.Contracts",
                              "Type": "Undefined"
                            },
                            "OrderPropertyAlias": {
                              "$type": "Comindware.Platform.Contracts.GlobalAlias, Comindware.Platform.Contracts",
                              "Type": "Undefined"
                            },
                            "NumberPropertyAlias": {
                              "$type": "Comindware.Platform.Contracts.GlobalAlias, Comindware.Platform.Contracts",
                              "Type": "Undefined"
                            },
                            "PrecedentPropertyAlias": {
                              "$type": "Comindware.Platform.Contracts.GlobalAlias, Comindware.Platform.Contracts",
                              "Type": "Undefined"
                            },
                            "SortingDirection": "Asc",
                            "PopupFormAlias": {
                              "$type": "Comindware.Platform.Contracts.GlobalAlias, Comindware.Platform.Contracts",
                              "Type": "Undefined"
                            },
                            "DisplayFormat": "ShowAsPicture",
                            "GlobalAlias": {
                              "$type": "Comindware.Platform.Contracts.GlobalAlias, Comindware.Platform.Contracts",
                              "Type": "FormComponent",
                              "Alias": "Menedzherskiyzapros"
                            },
                            "AccessType": "Hidden",
                            "Width": 0,
                            "Type": "FieldComponent"
                          }
                        ]
                      },
                      "GlobalAlias": {
                        "$type": "Comindware.Platform.Contracts.GlobalAlias, Comindware.Platform.Contracts",
                        "Type": "FormComponent",
                        "Alias": "VerticalLayout"
                      },
                      "AccessType": "Undefined",
                      "Width": 0,
                      "Type": "VerticalLayout"
                    }
                  ]
                },
                "GlobalAlias": {
                  "$type": "Comindware.Platform.Contracts.GlobalAlias, Comindware.Platform.Contracts",
                  "Type": "FormComponent",
                  "Alias": "GroupPanelComponent"
                },
                "AccessType": "Editable",
                "Width": 75,
                "Type": "PanelModel"
              },
              {
                "$type": "Comindware.Platform.Contracts.PanelModel, Comindware.Platform.Contracts",
                "Text": {
                  "$type": "Comindware.Platform.Contracts.LocalizedTextModel, Comindware.Platform.Contracts",
                  "En": "Вложения",
                  "De": "Вложения",
                  "Ru": "Вложения"
                },
                "OriginalType": "GroupPanel",
                "Rows": {
                  "$type": "System.Collections.Generic.List`1[[Comindware.Platform.Contracts.FormComponentModel, Comindware.Platform.Contracts]], mscorlib",
                  "$values": [
                    {
                      "$type": "Comindware.Platform.Contracts.VerticalLayoutModel, Comindware.Platform.Contracts",
                      "Rows": {
                        "$type": "System.Collections.Generic.List`1[[Comindware.Platform.Contracts.FormComponentModel, Comindware.Platform.Contracts]], mscorlib",
                        "$values": [
                          {
                            "$type": "Comindware.Platform.Contracts.FieldComponentModel, Comindware.Platform.Contracts",
                            "Label": {
                              "$type": "Comindware.Platform.Contracts.LabelModel, Comindware.Platform.Contracts",
                              "Hidden": false,
                              "Alignment": "Top",
                              "Text": {
                                "$type": "Comindware.Platform.Contracts.LocalizedTextModel, Comindware.Platform.Contracts",
                                "En": "Шаблон брифа",
                                "De": "Шаблон брифа",
                                "Ru": "Шаблон брифа"
                              }
                            },
                            "FieldType": "Reference",
                            "Placeholder": {
                              "$type": "Comindware.Platform.Contracts.LocalizedTextModel, Comindware.Platform.Contracts"
                            },
                            "HelpText": {
                              "$type": "Comindware.Platform.Contracts.LocalizedTextModel, Comindware.Platform.Contracts"
                            },
                            "PropertyPath": {
                              "$type": "Comindware.Platform.Contracts.GlobalAlias[], Comindware.Platform.Contracts",
                              "$values": [
                                {
                                  "$type": "Comindware.Platform.Contracts.GlobalAlias, Comindware.Platform.Contracts",
                                  "Type": "Attribute",
                                  "Owner": "Raschetypomediaplanam",
                                  "Alias": "Shablonbrifa"
                                }
                              ]
                            },
                            "EditorType": "Radio",
                            "CreationType": "None",
                            "RemovalType": "None",
                            "EditType": "None",
                            "ValueFilterExpression": "from a in db->Shablonydokumentov where a->TipRef->Kod == \"brief\" select a->id",
                            "HideSearchBar": false,
                            "ShowAsLink": false,
                            "ChildPropertyAlias": {
                              "$type": "Comindware.Platform.Contracts.GlobalAlias, Comindware.Platform.Contracts",
                              "Type": "Undefined"
                            },
                            "OrderPropertyAlias": {
                              "$type": "Comindware.Platform.Contracts.GlobalAlias, Comindware.Platform.Contracts",
                              "Type": "Undefined"
                            },
                            "NumberPropertyAlias": {
                              "$type": "Comindware.Platform.Contracts.GlobalAlias, Comindware.Platform.Contracts",
                              "Type": "Undefined"
                            },
                            "PrecedentPropertyAlias": {
                              "$type": "Comindware.Platform.Contracts.GlobalAlias, Comindware.Platform.Contracts",
                              "Type": "Undefined"
                            },
                            "SortingDirection": "Asc",
                            "PopupFormAlias": {
                              "$type": "Comindware.Platform.Contracts.GlobalAlias, Comindware.Platform.Contracts",
                              "Type": "Undefined"
                            },
                            "AllowEdit": false,
                            "DisplayFormat": "ShowAsPicture",
                            "GlobalAlias": {
                              "$type": "Comindware.Platform.Contracts.GlobalAlias, Comindware.Platform.Contracts",
                              "Type": "FormComponent",
                              "Alias": "Shablonbrifa"
                            },
                            "AccessType": "Editable",
                            "Width": 0,
                            "Type": "FieldComponent"
                          },
                          {
                            "$type": "Comindware.Platform.Contracts.ActionButtonModel, Comindware.Platform.Contracts",
                            "Label": {
                              "$type": "Comindware.Platform.Contracts.LocalizedTextModel, Comindware.Platform.Contracts",
                              "En": "Скачать шаблон брифа",
                              "De": "Скачать шаблон брифа",
                              "Ru": "Скачать шаблон брифа"
                            },
                            "HelpText": {
                              "$type": "Comindware.Platform.Contracts.LocalizedTextModel, Comindware.Platform.Contracts"
                            },
                            "UserCommand": {
                              "$type": "Comindware.Platform.Contracts.ActionItemView, Comindware.Platform.Contracts",
                              "UserCommandGlobalAlias": {
                                "$type": "Comindware.Platform.Contracts.GlobalAlias, Comindware.Platform.Contracts",
                                "Type": "UserCommand",
                                "Owner": "Raschetypomediaplanam",
                                "Alias": "Skachatshablonbrifa"
                              },
                              "Severity": "None"
                            },
                            "GlobalAlias": {
                              "$type": "Comindware.Platform.Contracts.GlobalAlias, Comindware.Platform.Contracts",
                              "Type": "FormComponent",
                              "Alias": "Skachatshablonbrifa"
                            },
                            "AccessType": "Editable",
                            "Width": 0,
                            "Type": "ActionButton"
                          },
                          {
                            "$type": "Comindware.Platform.Contracts.FieldComponentModel, Comindware.Platform.Contracts",
                            "Label": {
                              "$type": "Comindware.Platform.Contracts.LabelModel, Comindware.Platform.Contracts",
                              "Hidden": false,
                              "Alignment": "Top",
                              "Text": {
                                "$type": "Comindware.Platform.Contracts.LocalizedTextModel, Comindware.Platform.Contracts",
                                "En": "Вложения для баинга",
                                "De": "Вложения для баинга",
                                "Ru": "Вложения для баинга"
                              }
                            },
                            "FieldType": "Document",
                            "Placeholder": {
                              "$type": "Comindware.Platform.Contracts.LocalizedTextModel, Comindware.Platform.Contracts"
                            },
                            "HelpText": {
                              "$type": "Comindware.Platform.Contracts.LocalizedTextModel, Comindware.Platform.Contracts"
                            },
                            "PropertyPath": {
                              "$type": "Comindware.Platform.Contracts.GlobalAlias[], Comindware.Platform.Contracts",
                              "$values": [
                                {
                                  "$type": "Comindware.Platform.Contracts.GlobalAlias, Comindware.Platform.Contracts",
                                  "Type": "Attribute",
                                  "Owner": "Raschetypomediaplanam",
                                  "Alias": "Vlozheniyadlyabainga"
                                }
                              ]
                            },
                            "EditorType": "Radio",
                            "CreationType": "None",
                            "RemovalType": "Delete",
                            "EditType": "None",
                            "ChildPropertyAlias": {
                              "$type": "Comindware.Platform.Contracts.GlobalAlias, Comindware.Platform.Contracts",
                              "Type": "Undefined"
                            },
                            "OrderPropertyAlias": {
                              "$type": "Comindware.Platform.Contracts.GlobalAlias, Comindware.Platform.Contracts",
                              "Type": "Undefined"
                            },
                            "NumberPropertyAlias": {
                              "$type": "Comindware.Platform.Contracts.GlobalAlias, Comindware.Platform.Contracts",
                              "Type": "Undefined"
                            },
                            "PrecedentPropertyAlias": {
                              "$type": "Comindware.Platform.Contracts.GlobalAlias, Comindware.Platform.Contracts",
                              "Type": "Undefined"
                            },
                            "SortingDirection": "Asc",
                            "MaxCount": 0,
                            "PopupFormAlias": {
                              "$type": "Comindware.Platform.Contracts.GlobalAlias, Comindware.Platform.Contracts",
                              "Type": "Undefined"
                            },
                            "DisplayFormat": "ShowAsPicture",
                            "GlobalAlias": {
                              "$type": "Comindware.Platform.Contracts.GlobalAlias, Comindware.Platform.Contracts",
                              "Type": "FormComponent",
                              "Alias": "Vlozheniyadlyabainga"
                            },
                            "AccessType": "Editable",
                            "Width": 0,
                            "Type": "FieldComponent"
                          }
                        ]
                      },
                      "GlobalAlias": {
                        "$type": "Comindware.Platform.Contracts.GlobalAlias, Comindware.Platform.Contracts",
                        "Type": "FormComponent",
                        "Alias": "VerticalLayout9"
                      },
                      "AccessType": "Undefined",
                      "Width": 0,
                      "Type": "VerticalLayout"
                    }
                  ]
                },
                "GlobalAlias": {
                  "$type": "Comindware.Platform.Contracts.GlobalAlias, Comindware.Platform.Contracts",
                  "Type": "FormComponent",
                  "Alias": "GroupPanelComponent2"
                },
                "AccessType": "Editable",
                "Width": 25,
                "Type": "PanelModel"
              }
            ]
          },
          "OriginalType": "HorizontalLayout",
          "GlobalAlias": {
            "$type": "Comindware.Platform.Contracts.GlobalAlias, Comindware.Platform.Contracts",
            "Type": "FormComponent",
            "Alias": "HorizontalLayout4"
          },
          "AccessType": "Undefined",
          "Width": 0,
          "Type": "LayoutModel"
        }
      ]
    },
    "GlobalAlias": {
      "$type": "Comindware.Platform.Contracts.GlobalAlias, Comindware.Platform.Contracts",
      "Type": "FormComponent",
      "Alias": "default_Root"
    },
    "AccessType": "Undefined",
    "Width": 0,
    "Type": "VerticalLayout"
  },
  "Name": "Менеджерский запрос - админская",
  "FormRules": {
    "$type": "System.Collections.Generic.List`1[[Comindware.Platform.Contracts.FormRuleModel, Comindware.Platform.Contracts]], mscorlib",
    "$values": [
      {
        "$type": "Comindware.Platform.Contracts.FormRuleModel, Comindware.Platform.Contracts",
        "RuleName": "Правило",
        "ConditionExpression": "",
        "Actions": {
          "$type": "System.Collections.Generic.List`1[[Comindware.Platform.Contracts.RuleActionModel, Comindware.Platform.Contracts]], mscorlib",
          "$values": [
            {
              "$type": "Comindware.Platform.Contracts.RuleActionModel, Comindware.Platform.Contracts",
              "GlobalAlias": {
                "$type": "Comindware.Platform.Contracts.GlobalAlias, Comindware.Platform.Contracts",
                "Type": "FormComponent",
                "Owner": "Menedzherskiyzaprosadminskaya",
                "Alias": "Baingovoepodrazdelenie"
              },
              "Type": "SetAccessType",
              "ValueExpression": "CONST('Required')",
              "ConditionExpression": "AND(NOT(EMPTY($Mediakanal)),OR($Mediakanal->Kod == \"internet\",$Mediakanal->Kod == \"internetcc\"))",
              "Severity": "Error"
            },
            {
              "$type": "Comindware.Platform.Contracts.RuleActionModel, Comindware.Platform.Contracts",
              "GlobalAlias": {
                "$type": "Comindware.Platform.Contracts.GlobalAlias, Comindware.Platform.Contracts",
                "Type": "FormComponent",
                "Owner": "Menedzherskiyzaprosadminskaya",
                "Alias": "VerticalLayout6"
              },
              "Type": "SetAccessType",
              "ValueExpression": "CONST('Hidden')",
              "ConditionExpression": "NOT(AND(NOT(EMPTY($Mediakanal)),$Mediakanal->Kod == \"internet\"))",
              "Severity": "Error"
            },
            {
              "$type": "Comindware.Platform.Contracts.RuleActionModel, Comindware.Platform.Contracts",
              "GlobalAlias": {
                "$type": "Comindware.Platform.Contracts.GlobalAlias, Comindware.Platform.Contracts",
                "Type": "FormComponent",
                "Owner": "Menedzherskiyzaprosadminskaya",
                "Alias": "Menedzherskiyzapros"
              },
              "Type": "SetValue",
              "ValueExpression": "true",
              "ConditionExpression": "EMPTY($Menedzherskiyzapros)",
              "Severity": "Error"
            },
            {
              "$type": "Comindware.Platform.Contracts.RuleActionModel, Comindware.Platform.Contracts",
              "GlobalAlias": {
                "$type": "Comindware.Platform.Contracts.GlobalAlias, Comindware.Platform.Contracts",
                "Type": "FormComponent",
                "Owner": "Menedzherskiyzaprosadminskaya",
                "Alias": "Shablonbrifa"
              },
              "Type": "SetValue",
              "ValueExpression": "from a in db->Shablonydokumentov where AND(a->Tip->Kod == \"brief\",a->Mediakanal == $Mediakanal) select a->id",
              "ConditionExpression": "AND(EMPTY($Shablonbrifa),GREATEREQ(COUNT((from a in db->Shablonydokumentov where AND(a->Tip->Kod == \"brief\",a->Mediakanal == $Mediakanal) select a->id)),1))",
              "Severity": "Error"
            },
            {
              "$type": "Comindware.Platform.Contracts.RuleActionModel, Comindware.Platform.Contracts",
              "GlobalAlias": {
                "$type": "Comindware.Platform.Contracts.GlobalAlias, Comindware.Platform.Contracts",
                "Type": "FormComponent",
                "Owner": "Menedzherskiyzaprosadminskaya",
                "Alias": "Napravlenie"
              },
              "Type": "SetAccessType",
              "ValueExpression": "CONST('Required')",
              "ConditionExpression": "AND(NOT(EMPTY($Mediakanal)),$Mediakanal->Kod == \"tv\")",
              "Severity": "Error"
            },
            {
              "$type": "Comindware.Platform.Contracts.RuleActionModel, Comindware.Platform.Contracts",
              "GlobalAlias": {
                "$type": "Comindware.Platform.Contracts.GlobalAlias, Comindware.Platform.Contracts",
                "Type": "FormComponent",
                "Owner": "Menedzherskiyzaprosadminskaya",
                "Alias": "VerticalLayout7"
              },
              "Type": "SetAccessType",
              "ValueExpression": "CONST('Hidden')",
              "ConditionExpression": "OR($Mediakanal->Kod == \"tv\",AND($Mediakanal->Kod == \"internet\",$Baingovoepodrazdelenie->Kod == \"161\"))",
              "Severity": "Error"
            },
            {
              "$type": "Comindware.Platform.Contracts.RuleActionModel, Comindware.Platform.Contracts",
              "GlobalAlias": {
                "$type": "Comindware.Platform.Contracts.GlobalAlias, Comindware.Platform.Contracts",
                "Type": "FormComponent",
                "Owner": "Menedzherskiyzaprosadminskaya",
                "Alias": "OtvetstvennyyKS"
              },
              "Type": "SetValue",
              "ValueExpression": "USER()",
              "ConditionExpression": "EMPTY($OtvetstvennyyKS)",
              "Severity": "Error"
            }
          ]
        }
      },
      {
        "$type": "Comindware.Platform.Contracts.FormRuleModel, Comindware.Platform.Contracts",
        "RuleName": "Не изменять почту",
        "ConditionExpression": "NOT($Izmenitpochtu == true)",
        "Actions": {
          "$type": "System.Collections.Generic.List`1[[Comindware.Platform.Contracts.RuleActionModel, Comindware.Platform.Contracts]], mscorlib",
          "$values": [
            {
              "$type": "Comindware.Platform.Contracts.RuleActionModel, Comindware.Platform.Contracts",
              "GlobalAlias": {
                "$type": "Comindware.Platform.Contracts.GlobalAlias, Comindware.Platform.Contracts",
                "Type": "FormComponent",
                "Owner": "Menedzherskiyzaprosadminskaya",
                "Alias": "Email"
              },
              "Type": "SetValue",
              "ValueExpression": "$Baingovoepodrazdelenie->Email",
              "ConditionExpression": "AND(NOT(EMPTY($Mediakanal)),OR($Mediakanal->Kod == \"internet\",$Mediakanal->Kod == \"internetcc\"))",
              "Severity": "Error"
            },
            {
              "$type": "Comindware.Platform.Contracts.RuleActionModel, Comindware.Platform.Contracts",
              "GlobalAlias": {
                "$type": "Comindware.Platform.Contracts.GlobalAlias, Comindware.Platform.Contracts",
                "Type": "FormComponent",
                "Owner": "Menedzherskiyzaprosadminskaya",
                "Alias": "Email"
              },
              "Type": "SetValue",
              "ValueExpression": "DISTINCT((from a in db->Baingovyepodrazdeleniya where AND(NOT(EMPTY(a->Mediakanal)),AND(NOT(EMPTY($Mediakanal)),a->Mediakanal == $Mediakanal)) select a->Email))",
              "ConditionExpression": "AND(NOT(EMPTY($Mediakanal)),NOT(OR($Mediakanal->Kod == \"internetcc\",$Mediakanal->Kod == \"internet\")))",
              "Severity": "Error"
            }
          ]
        }
      },
      {
        "$type": "Comindware.Platform.Contracts.FormRuleModel, Comindware.Platform.Contracts",
        "RuleName": "Изменять почту",
        "ConditionExpression": "$Izmenitpochtu == true",
        "Actions": {
          "$type": "System.Collections.Generic.List`1[[Comindware.Platform.Contracts.RuleActionModel, Comindware.Platform.Contracts]], mscorlib",
          "$values": [
            {
              "$type": "Comindware.Platform.Contracts.RuleActionModel, Comindware.Platform.Contracts",
              "GlobalAlias": {
                "$type": "Comindware.Platform.Contracts.GlobalAlias, Comindware.Platform.Contracts",
                "Type": "FormComponent",
                "Owner": "Menedzherskiyzaprosadminskaya",
                "Alias": "Email"
              },
              "Type": "SetAccessType",
              "ValueExpression": "CONST('Editable')",
              "ConditionExpression": "",
              "Severity": "Error"
            },
            {
              "$type": "Comindware.Platform.Contracts.RuleActionModel, Comindware.Platform.Contracts",
              "GlobalAlias": {
                "$type": "Comindware.Platform.Contracts.GlobalAlias, Comindware.Platform.Contracts",
                "Type": "FormComponent",
                "Owner": "Menedzherskiyzaprosadminskaya",
                "Alias": "EmailCC"
              },
              "Type": "SetAccessType",
              "ValueExpression": "CONST('Editable')",
              "ConditionExpression": "",
              "Severity": "Error"
            }
          ]
        }
      }
    ]
  },
  "Origination": "Undefined"
}