{
  "$type": "Comindware.Platform.Contracts.FlowActivityModel, Comindware.Platform.Contracts",
  "GlobalAlias": {
    "$type": "Comindware.Platform.Contracts.GlobalAlias, Comindware.Platform.Contracts",
    "Type": "ClientActivity",
    "Owner": "Izmeneniemediaplana",
    "Alias": "executionFlow4"
  },
  "TargetActivity": {
    "$type": "Comindware.Platform.Contracts.ConnectorModel, Comindware.Platform.Contracts",
    "Target": {
      "$type": "Comindware.Platform.Contracts.GlobalAlias, Comindware.Platform.Contracts",
      "Type": "ClientActivity",
      "Owner": "Izmeneniemediaplana",
      "Alias": "exclusiveGate8"
    },
    "TargetConnectorIndex": 30
  },
  "SourceActivity": {
    "$type": "Comindware.Platform.Contracts.ConnectorModel, Comindware.Platform.Contracts",
    "Target": {
      "$type": "Comindware.Platform.Contracts.GlobalAlias, Comindware.Platform.Contracts",
      "Type": "ClientActivity",
      "Owner": "Izmeneniemediaplana",
      "Alias": "exclusiveGate10"
    },
    "TargetConnectorIndex": 10
  },
  "Points": {
    "$type": "Comindware.Platform.Contracts.VectorModel[], Comindware.Platform.Contracts",
    "$values": [
      {
        "$type": "Comindware.Platform.Contracts.VectorModel, Comindware.Platform.Contracts",
        "X": 183.0,
        "Y": -192.908557574415
      },
      {
        "$type": "Comindware.Platform.Contracts.VectorModel, Comindware.Platform.Contracts",
        "X": 203.0,
        "Y": -192.908557574415
      },
      {
        "$type": "Comindware.Platform.Contracts.VectorModel, Comindware.Platform.Contracts",
        "X": 297.0,
        "Y": -192.908557574415
      },
      {
        "$type": "Comindware.Platform.Contracts.VectorModel, Comindware.Platform.Contracts",
        "X": 297.0,
        "Y": 27.091442425585
      },
      {
        "$type": "Comindware.Platform.Contracts.VectorModel, Comindware.Platform.Contracts",
        "X": 317.0,
        "Y": 27.091442425585
      }
    ]
  },
  "SequenceDefinition": {
    "$type": "Comindware.Platform.Contracts.SequenceFlowDefinitionModel, Comindware.Platform.Contracts",
    "IsDefault": true
  },
  "IsTitleSet": false,
  "Position": {
    "$type": "Comindware.Platform.Contracts.VectorModel, Comindware.Platform.Contracts",
    "X": 860.0,
    "Y": 732.908557574415
  },
  "Size": {
    "$type": "Comindware.Platform.Contracts.DimensionsModel, Comindware.Platform.Contracts",
    "Width": 0.0,
    "Height": 0.0
  },
  "Owner": {
    "$type": "Comindware.Platform.Contracts.GlobalAlias, Comindware.Platform.Contracts",
    "Type": "ClientActivity",
    "Owner": "Izmeneniemediaplana",
    "Alias": "lane3"
  },
  "OwnerEmbeddedProcessActivityAlias": {
    "$type": "Comindware.Platform.Contracts.GlobalAlias, Comindware.Platform.Contracts",
    "Type": "Undefined"
  },
  "MountedOnAlias": {
    "$type": "Comindware.Platform.Contracts.GlobalAlias, Comindware.Platform.Contracts",
    "Type": "Undefined"
  },
  "Type": "ExecutionFlow",
  "OnEnterTrigger": {
    "$type": "Comindware.Platform.Contracts.GlobalAlias, Comindware.Platform.Contracts",
    "Type": "Undefined"
  },
  "OnExitTrigger": {
    "$type": "Comindware.Platform.Contracts.GlobalAlias, Comindware.Platform.Contracts",
    "Type": "Undefined"
  }
}