{
  "$type": "Comindware.Platform.Contracts.IntermediateEventActivityModel, Comindware.Platform.Contracts",
  "GlobalAlias": {
    "$type": "Comindware.Platform.Contracts.GlobalAlias, Comindware.Platform.Contracts",
    "Type": "ClientActivity",
    "Owner": "Izmeneniemediaplana",
    "Alias": "timerIntermediateEvent3"
  },
  "Kind": "ThrowingMessage",
  "IsInterrupting": false,
  "MessageDefinition": {
    "$type": "Comindware.Platform.Contracts.MessageEventDefinitionModel, Comindware.Platform.Contracts",
    "IsThrowing": true,
    "MessageType": {
      "$type": "Comindware.Platform.Contracts.GlobalAlias, Comindware.Platform.Contracts",
      "Type": "MessageTemplate",
      "Alias": "Otpravka_soobscheniya_v_baing_dlya_dorabotki_izmenennogo_MP7aca"
    },
    "MessageName": "Отправка сообщения в баинг для доработки измененного МП",
    "MessageReceiver": {
      "$type": "Comindware.Platform.Contracts.MessageReceiverExternalSocketDefinitionModel, Comindware.Platform.Contracts",
      "ReceiverAddressType": "ExternalSocket",
      "Type": "ExternalSocket"
    },
    "InputMapping": {
      "$type": "Comindware.Platform.Contracts.MessagePayloadDefinitionModel, Comindware.Platform.Contracts",
      "MessageType": {
        "$type": "Comindware.Platform.Contracts.GlobalAlias, Comindware.Platform.Contracts",
        "Type": "MessageTemplate",
        "Alias": "Otpravka_soobscheniya_v_baing_dlya_dorabotki_izmenennogo_MP7aca"
      },
      "Data": {
        "$type": "Comindware.Platform.Contracts.MakeMessageRuleModel, Comindware.Platform.Contracts",
        "MessageType": {
          "$type": "Comindware.Platform.Contracts.GlobalAlias, Comindware.Platform.Contracts",
          "Type": "MessageTemplate",
          "Alias": "Otpravka_soobscheniya_v_baing_dlya_dorabotki_izmenennogo_MP7aca"
        },
        "PropertyMap": {
          "$type": "Comindware.Platform.Contracts.PropertyMapKeyValueModel[], Comindware.Platform.Contracts",
          "$values": [
            {
              "$type": "Comindware.Platform.Contracts.PropertyMapKeyValueModel, Comindware.Platform.Contracts",
              "Key": {
                "$type": "Comindware.Platform.Contracts.ModificationActionModel, Comindware.Platform.Contracts",
                "PropertyPath": {
                  "$type": "Comindware.Platform.Contracts.GlobalAlias[], Comindware.Platform.Contracts",
                  "$values": [
                    {
                      "$type": "Comindware.Platform.Contracts.GlobalAlias, Comindware.Platform.Contracts",
                      "Type": "MessageTemplateProperty",
                      "Owner": "Otpravka_soobscheniya_v_baing_dlya_dorabotki_izmenennogo_MP7aca",
                      "Alias": "correct"
                    }
                  ]
                },
                "PropertyAction": "Replace"
              },
              "Value": {
                "$type": "Comindware.Platform.Contracts.CalculationRuleModel, Comindware.Platform.Contracts",
                "Type": "Calculation",
                "Definition": {
                  "$type": "Comindware.Platform.Contracts.PropertyRuleDefinitionModel, Comindware.Platform.Contracts",
                  "PropertyPath": {
                    "$type": "Comindware.Platform.Contracts.GlobalAlias[], Comindware.Platform.Contracts",
                    "$values": [
                      {
                        "$type": "Comindware.Platform.Contracts.GlobalAlias, Comindware.Platform.Contracts",
                        "Type": "Attribute",
                        "Owner": "Mediaplany",
                        "Alias": "KommentariymenedzheraKSkdorabotkeizmenennogomediaplana"
                      }
                    ]
                  },
                  "Type": "Property"
                }
              }
            },
            {
              "$type": "Comindware.Platform.Contracts.PropertyMapKeyValueModel, Comindware.Platform.Contracts",
              "Key": {
                "$type": "Comindware.Platform.Contracts.ModificationActionModel, Comindware.Platform.Contracts",
                "PropertyPath": {
                  "$type": "Comindware.Platform.Contracts.GlobalAlias[], Comindware.Platform.Contracts",
                  "$values": [
                    {
                      "$type": "Comindware.Platform.Contracts.GlobalAlias, Comindware.Platform.Contracts",
                      "Type": "MessageTemplateProperty",
                      "Owner": "Otpravka_soobscheniya_v_baing_dlya_dorabotki_izmenennogo_MP7aca",
                      "Alias": "comment"
                    }
                  ]
                },
                "PropertyAction": "Replace"
              },
              "Value": {
                "$type": "Comindware.Platform.Contracts.CalculationRuleModel, Comindware.Platform.Contracts",
                "Type": "Calculation",
                "Definition": {
                  "$type": "Comindware.Platform.Contracts.PropertyRuleDefinitionModel, Comindware.Platform.Contracts",
                  "PropertyPath": {
                    "$type": "Comindware.Platform.Contracts.GlobalAlias[], Comindware.Platform.Contracts",
                    "$values": [
                      {
                        "$type": "Comindware.Platform.Contracts.GlobalAlias, Comindware.Platform.Contracts",
                        "Type": "Attribute",
                        "Owner": "Mediaplany",
                        "Alias": "IzmeneniyakotoryeneobkhodimovnestivMP"
                      }
                    ]
                  },
                  "Type": "Property"
                }
              }
            },
            {
              "$type": "Comindware.Platform.Contracts.PropertyMapKeyValueModel, Comindware.Platform.Contracts",
              "Key": {
                "$type": "Comindware.Platform.Contracts.ModificationActionModel, Comindware.Platform.Contracts",
                "PropertyPath": {
                  "$type": "Comindware.Platform.Contracts.GlobalAlias[], Comindware.Platform.Contracts",
                  "$values": [
                    {
                      "$type": "Comindware.Platform.Contracts.GlobalAlias, Comindware.Platform.Contracts",
                      "Type": "MessageTemplateProperty",
                      "Owner": "Otpravka_soobscheniya_v_baing_dlya_dorabotki_izmenennogo_MP7aca",
                      "Alias": "Attach"
                    }
                  ]
                },
                "PropertyAction": "Replace"
              },
              "Value": {
                "$type": "Comindware.Platform.Contracts.CalculationRuleModel, Comindware.Platform.Contracts",
                "Type": "Calculation",
                "Definition": {
                  "$type": "Comindware.Platform.Contracts.PropertyRuleDefinitionModel, Comindware.Platform.Contracts",
                  "PropertyPath": {
                    "$type": "Comindware.Platform.Contracts.GlobalAlias[], Comindware.Platform.Contracts",
                    "$values": [
                      {
                        "$type": "Comindware.Platform.Contracts.GlobalAlias, Comindware.Platform.Contracts",
                        "Type": "Attribute",
                        "Owner": "Mediaplany",
                        "Alias": "Mediaplansizmeneniyami"
                      }
                    ]
                  },
                  "Type": "Property"
                }
              }
            },
            {
              "$type": "Comindware.Platform.Contracts.PropertyMapKeyValueModel, Comindware.Platform.Contracts",
              "Key": {
                "$type": "Comindware.Platform.Contracts.ModificationActionModel, Comindware.Platform.Contracts",
                "PropertyPath": {
                  "$type": "Comindware.Platform.Contracts.GlobalAlias[], Comindware.Platform.Contracts",
                  "$values": [
                    {
                      "$type": "Comindware.Platform.Contracts.GlobalAlias, Comindware.Platform.Contracts",
                      "Type": "MessageTemplateProperty",
                      "Owner": "Otpravka_soobscheniya_v_baing_dlya_dorabotki_izmenennogo_MP7aca",
                      "Alias": "Body"
                    }
                  ]
                },
                "PropertyAction": "Replace"
              },
              "Value": {
                "$type": "Comindware.Platform.Contracts.CalculationRuleModel, Comindware.Platform.Contracts",
                "Type": "Calculation"
              }
            },
            {
              "$type": "Comindware.Platform.Contracts.PropertyMapKeyValueModel, Comindware.Platform.Contracts",
              "Key": {
                "$type": "Comindware.Platform.Contracts.ModificationActionModel, Comindware.Platform.Contracts",
                "PropertyPath": {
                  "$type": "Comindware.Platform.Contracts.GlobalAlias[], Comindware.Platform.Contracts",
                  "$values": [
                    {
                      "$type": "Comindware.Platform.Contracts.GlobalAlias, Comindware.Platform.Contracts",
                      "Type": "MessageTemplateProperty",
                      "Owner": "Otpravka_soobscheniya_v_baing_dlya_dorabotki_izmenennogo_MP7aca",
                      "Alias": "Subject"
                    }
                  ]
                },
                "PropertyAction": "Replace"
              },
              "Value": {
                "$type": "Comindware.Platform.Contracts.CalculationRuleModel, Comindware.Platform.Contracts",
                "Type": "Calculation",
                "Definition": {
                  "$type": "Comindware.Platform.Contracts.ExpressionRuleDefinitionModel, Comindware.Platform.Contracts",
                  "Expression": "FORMAT(\"Доработать измененный медиаплан «{0}» для клиента {1}\", LIST($Naimenovanie,$Kontragent->Kratkoenazvanie))",
                  "Type": "Expression"
                }
              }
            },
            {
              "$type": "Comindware.Platform.Contracts.PropertyMapKeyValueModel, Comindware.Platform.Contracts",
              "Key": {
                "$type": "Comindware.Platform.Contracts.ModificationActionModel, Comindware.Platform.Contracts",
                "PropertyPath": {
                  "$type": "Comindware.Platform.Contracts.GlobalAlias[], Comindware.Platform.Contracts",
                  "$values": [
                    {
                      "$type": "Comindware.Platform.Contracts.GlobalAlias, Comindware.Platform.Contracts",
                      "Type": "MessageTemplateProperty",
                      "Owner": "Otpravka_soobscheniya_v_baing_dlya_dorabotki_izmenennogo_MP7aca",
                      "Alias": "To"
                    }
                  ]
                },
                "PropertyAction": "Replace"
              },
              "Value": {
                "$type": "Comindware.Platform.Contracts.CalculationRuleModel, Comindware.Platform.Contracts",
                "Type": "Calculation",
                "Definition": {
                  "$type": "Comindware.Platform.Contracts.PropertyRuleDefinitionModel, Comindware.Platform.Contracts",
                  "PropertyPath": {
                    "$type": "Comindware.Platform.Contracts.GlobalAlias[], Comindware.Platform.Contracts",
                    "$values": [
                      {
                        "$type": "Comindware.Platform.Contracts.GlobalAlias, Comindware.Platform.Contracts",
                        "Type": "Attribute",
                        "Owner": "Mediaplany",
                        "Alias": "Emailkomu"
                      }
                    ]
                  },
                  "Type": "Property"
                }
              }
            }
          ]
        },
        "Type": "MakeMessage"
      }
    }
  },
  "BehaviourState": "Active",
  "Title": "Отправка сообщения в баинг для доработки",
  "IsTitleSet": false,
  "Position": {
    "$type": "Comindware.Platform.Contracts.VectorModel, Comindware.Platform.Contracts",
    "X": 1000.0,
    "Y": 740.0
  },
  "Size": {
    "$type": "Comindware.Platform.Contracts.DimensionsModel, Comindware.Platform.Contracts",
    "Width": 40.0,
    "Height": 40.0
  },
  "Owner": {
    "$type": "Comindware.Platform.Contracts.GlobalAlias, Comindware.Platform.Contracts",
    "Type": "ClientActivity",
    "Owner": "Izmeneniemediaplana",
    "Alias": "lane3"
  },
  "OwnerEmbeddedProcessActivityAlias": {
    "$type": "Comindware.Platform.Contracts.GlobalAlias, Comindware.Platform.Contracts",
    "Type": "Undefined"
  },
  "MountedOnAlias": {
    "$type": "Comindware.Platform.Contracts.GlobalAlias, Comindware.Platform.Contracts",
    "Type": "Undefined"
  },
  "Type": "IntermediateEvent",
  "OnEnterTrigger": {
    "$type": "Comindware.Platform.Contracts.GlobalAlias, Comindware.Platform.Contracts",
    "Type": "Undefined"
  },
  "OnExitTrigger": {
    "$type": "Comindware.Platform.Contracts.GlobalAlias, Comindware.Platform.Contracts",
    "Type": "Undefined"
  }
}