{
  "$type": "Comindware.Platform.Contracts.TaskActivityModel, Comindware.Platform.Contracts",
  "GlobalAlias": {
    "$type": "Comindware.Platform.Contracts.GlobalAlias, Comindware.Platform.Contracts",
    "Type": "ClientActivity",
    "Owner": "Izmeneniemediaplana",
    "Alias": "userTask1"
  },
  "Kind": "User",
  "UserDefinition": {
    "$type": "Comindware.Platform.Contracts.UserTaskDefinitionModel, Comindware.Platform.Contracts",
    "Modifiers": {
      "$type": "Comindware.Platform.Contracts.ModificationRuleModel[], Comindware.Platform.Contracts",
      "$values": [
        {
          "$type": "Comindware.Platform.Contracts.ModificationRuleModel, Comindware.Platform.Contracts",
          "Action": {
            "$type": "Comindware.Platform.Contracts.ModificationActionModel, Comindware.Platform.Contracts",
            "PropertyPath": {
              "$type": "Comindware.Platform.Contracts.GlobalAlias[], Comindware.Platform.Contracts",
              "$values": [
                {
                  "$type": "Comindware.Platform.Contracts.GlobalAlias, Comindware.Platform.Contracts",
                  "Type": "Attribute",
                  "Owner": "_Case",
                  "Alias": "description"
                }
              ]
            },
            "PropertyAction": "Replace"
          },
          "Type": "Modification",
          "Definition": {
            "$type": "Comindware.Platform.Contracts.ValuesRuleDefinitionModel, Comindware.Platform.Contracts",
            "Type": "Values"
          }
        },
        {
          "$type": "Comindware.Platform.Contracts.ModificationRuleModel, Comindware.Platform.Contracts",
          "Action": {
            "$type": "Comindware.Platform.Contracts.ModificationActionModel, Comindware.Platform.Contracts",
            "PropertyPath": {
              "$type": "Comindware.Platform.Contracts.GlobalAlias[], Comindware.Platform.Contracts",
              "$values": [
                {
                  "$type": "Comindware.Platform.Contracts.GlobalAlias, Comindware.Platform.Contracts",
                  "Type": "Attribute",
                  "Alias": "dueDate"
                }
              ]
            },
            "PropertyAction": "Replace"
          },
          "Type": "Modification",
          "Definition": {
            "$type": "Comindware.Platform.Contracts.ValuesRuleDefinitionModel, Comindware.Platform.Contracts",
            "Type": "Values"
          }
        },
        {
          "$type": "Comindware.Platform.Contracts.ModificationRuleModel, Comindware.Platform.Contracts",
          "Action": {
            "$type": "Comindware.Platform.Contracts.ModificationActionModel, Comindware.Platform.Contracts",
            "PropertyPath": {
              "$type": "Comindware.Platform.Contracts.GlobalAlias[], Comindware.Platform.Contracts",
              "$values": [
                {
                  "$type": "Comindware.Platform.Contracts.GlobalAlias, Comindware.Platform.Contracts",
                  "Type": "Attribute",
                  "Owner": "_UserTask",
                  "Alias": "isReassignProhibited"
                }
              ]
            },
            "PropertyAction": "Replace"
          },
          "Type": "Modification",
          "Definition": {
            "$type": "Comindware.Platform.Contracts.ValuesRuleDefinitionModel, Comindware.Platform.Contracts",
            "Values": {
              "$type": "System.Object[], mscorlib",
              "$values": [
                false
              ]
            },
            "Type": "Values"
          }
        },
        {
          "$type": "Comindware.Platform.Contracts.MemberValuesModificationRuleModel, Comindware.Platform.Contracts",
          "Action": {
            "$type": "Comindware.Platform.Contracts.ModificationActionModel, Comindware.Platform.Contracts",
            "PropertyPath": {
              "$type": "Comindware.Platform.Contracts.GlobalAlias[], Comindware.Platform.Contracts",
              "$values": [
                {
                  "$type": "Comindware.Platform.Contracts.GlobalAlias, Comindware.Platform.Contracts",
                  "Type": "Attribute",
                  "Alias": "possibleAssignee"
                }
              ]
            },
            "PropertyAction": "Replace"
          },
          "Type": "Modification",
          "Definition": {
            "$type": "Comindware.Platform.Contracts.ValuesRuleDefinitionModel, Comindware.Platform.Contracts",
            "Values": {
              "$type": "System.Object[], mscorlib",
              "$values": [
                {
                  "$type": "Comindware.Platform.Contracts.GlobalAlias, Comindware.Platform.Contracts",
                  "Type": "Account",
                  "Alias": "valeriya.novoselova@dbs-soft.ru"
                }
              ]
            },
            "Type": "Values"
          }
        },
        {
          "$type": "Comindware.Platform.Contracts.ModificationRuleModel, Comindware.Platform.Contracts",
          "Action": {
            "$type": "Comindware.Platform.Contracts.ModificationActionModel, Comindware.Platform.Contracts",
            "PropertyPath": {
              "$type": "Comindware.Platform.Contracts.GlobalAlias[], Comindware.Platform.Contracts",
              "$values": [
                {
                  "$type": "Comindware.Platform.Contracts.GlobalAlias, Comindware.Platform.Contracts",
                  "Type": "Attribute",
                  "Alias": "title"
                }
              ]
            },
            "PropertyAction": "Replace"
          },
          "Type": "Modification",
          "Definition": {
            "$type": "Comindware.Platform.Contracts.ExpressionRuleDefinitionModel, Comindware.Platform.Contracts",
            "Expression": "FORMAT(\"Описать изменения по медиаплану «{0}» для клиента {1}\", LIST($Naimenovanie,$Kontragent->Kratkoenazvanie))",
            "Type": "Expression"
          }
        }
      ]
    }
  },
  "FormAlias": {
    "$type": "Comindware.Platform.Contracts.GlobalAlias, Comindware.Platform.Contracts",
    "Type": "ProcessForm",
    "Owner": "Izmeneniemediaplana",
    "Alias": "form91b9ed60afd44969a9a04912bcd0e563"
  },
  "BehaviourState": "Active",
  "Title": "Описание необходимых изменений",
  "IsTitleSet": false,
  "Position": {
    "$type": "Comindware.Platform.Contracts.VectorModel, Comindware.Platform.Contracts",
    "X": 540.0,
    "Y": 365.0
  },
  "Size": {
    "$type": "Comindware.Platform.Contracts.DimensionsModel, Comindware.Platform.Contracts",
    "Width": 120.0,
    "Height": 70.0
  },
  "Owner": {
    "$type": "Comindware.Platform.Contracts.GlobalAlias, Comindware.Platform.Contracts",
    "Type": "ClientActivity",
    "Owner": "Izmeneniemediaplana",
    "Alias": "lane2"
  },
  "OwnerEmbeddedProcessActivityAlias": {
    "$type": "Comindware.Platform.Contracts.GlobalAlias, Comindware.Platform.Contracts",
    "Type": "Undefined"
  },
  "MountedOnAlias": {
    "$type": "Comindware.Platform.Contracts.GlobalAlias, Comindware.Platform.Contracts",
    "Type": "Undefined"
  },
  "Type": "Task",
  "OnEnterTrigger": {
    "$type": "Comindware.Platform.Contracts.GlobalAlias, Comindware.Platform.Contracts",
    "Type": "Trigger",
    "Alias": "TokenEnters_userTask1_Process_Izmeneniemediaplana_V1_1_1e64bf"
  },
  "OnExitTrigger": {
    "$type": "Comindware.Platform.Contracts.GlobalAlias, Comindware.Platform.Contracts",
    "Type": "Trigger",
    "Alias": "TokenLeaves_userTask1_Process_Izmeneniemediaplana_V1_1_9aafd9"
  }
}