{
  "$type": "Comindware.Platform.Contracts.UserCommandConfigurationModel, Comindware.Platform.Contracts",
  "GlobalAlias": {
    "$type": "Comindware.Platform.Contracts.GlobalAlias, Comindware.Platform.Contracts",
    "Type": "UserCommand",
    "Owner": "Mediaplany",
    "Alias": "Naruzhka"
  },
  "Name": "Наружка",
  "IsSystem": false,
  "IsDisabled": false,
  "IsPrepare": false,
  "SkipValidation": false,
  "Context": "Record",
  "Multiplicity": "OneByOne",
  "Kind": "ExportObject",
  "ResultType": "File",
  "ConfirmationModelConfiguration": {
    "$type": "Comindware.Platform.Contracts.UserCommandConfirmationModel, Comindware.Platform.Contracts",
    "Form": {
      "$type": "Comindware.Platform.Contracts.GlobalAlias, Comindware.Platform.Contracts",
      "Type": "Undefined"
    },
    "Template": {
      "$type": "Comindware.Platform.Contracts.GlobalAlias, Comindware.Platform.Contracts",
      "Type": "MessageTemplate",
      "Alias": "Naruzhka7df3"
    }
  },
  "ConditionRule": "$Mediakanal->Kod == \"ad\"",
  "RelatedEntityGlobalAlias": {
    "$type": "Comindware.Platform.Contracts.GlobalAlias, Comindware.Platform.Contracts",
    "Type": "ExportTemplate",
    "Owner": "Mediaplany",
    "Alias": "Naruzhka"
  },
  "LockStateChangeType": "Undefined",
  "LockStateVisibilityType": "Undefined",
  "IsConfirmationActive": false,
  "NavigationTarget": "Undefined"
}