{
  "$type": "Comindware.Platform.Contracts.UserCommandConfigurationModel, Comindware.Platform.Contracts",
  "GlobalAlias": {
    "$type": "Comindware.Platform.Contracts.GlobalAlias, Comindware.Platform.Contracts",
    "Type": "UserCommand",
    "Owner": "Mediaplany",
    "Alias": "Parsingradio"
  },
  "Name": "Парсинг радио",
  "IsSystem": false,
  "IsDisabled": false,
  "IsPrepare": false,
  "SkipValidation": false,
  "Context": "Record",
  "Multiplicity": "OneByOne",
  "Kind": "Script",
  "ResultType": "DataChange",
  "ScriptRule": {
    "$type": "Comindware.Platform.Contracts.UserCommandScriptRuleModel, Comindware.Platform.Contracts",
    "Type": "UserCommandScript",
    "Definition": {
      "$type": "Comindware.Platform.Contracts.CSharpRuleDefinitionModel, Comindware.Platform.Contracts",
      "EntryPoint": "Script",
      "Code": "using Comindware.Platform.Api.Data;\nusing System;\nusing System.IO;\nusing System.Collections.Generic;\nusing System.Linq;\nusing Comindware.Data.Entity;\nusing Comindware.TeamNetwork.Api.Data.UserCommands;\nusing Comindware.TeamNetwork.Api.Data;\nusing Aspose.Cells;\nusing Aspose.Cells.Pivot;\n\nclass Script\n{\n\tpublic static UserCommandResult Main(UserCommandContext userCommandContext, Comindware.Entities entities)\n    {\n        string localError = \"\";\n        string str = \"Ошибка при открытии документа\";\n        string MP_object_id = userCommandContext.ObjectIds[0];\n        var data = Api.TeamNetwork.ObjectService.GetWithAlias(\"Mediaplany\", MP_object_id) as Dictionary<string,object>;\n\t\tstring doc_id = getValue(\"Finalnyymediaplandootkrutki\", data);\n        \n        try\n        {\n            if (doc_id != null)\n            {\n                string date_start = \"\";\n                string date_end = \"\";\n                string SMI = \"\";\n                List<string> Kod_bainga = new List<string>();\n                List<Job> Jobs = new List<Job>();\n                var content = Api.TeamNetwork.DocumentService.GetContent(doc_id).Data;\n                using (MemoryStream ms = new MemoryStream(content))\n                {\n                    Workbook workbook = new Workbook(ms);\n                    Worksheet worksheet = null;\n                    foreach (Worksheet _worksheet in workbook.Worksheets)\n                    {\n                        if (_worksheet.Name == \"для_К2\") worksheet = _worksheet;\n                    }\n                    date_start = worksheet.Cells.GetCell(9, 9).DisplayStringValue;\n                    date_end = worksheet.Cells.GetCell(9, 10).DisplayStringValue;\n                    SMI = worksheet.Cells.GetCell(6, 6).DisplayStringValue;\n                    \n                    int i = 11;\n                    while (i < 1000)\n                    {\n                        str = \"[Критическая ошибка в строке \" + (i + 1).ToString() + \" при формировании джобов]\";\n                        try\n                        {\n                            if (worksheet.Cells.GetCell(i, 5).DisplayStringValue == String.Empty) // пока указан медианоситель\n                                break;\n                        }\n                        catch\n                        {\n                            str = string.Empty;\n                            break;\n                        }\n                        if (worksheet.Cells.GetCell(i, 30).DisplayStringValue == \"0\")\n                        {\n                            i++;\n                            localError += \"[Код баинга не указан в строке \" + (i + 1).ToString() + \"]\";\n                            continue;\n                        }\n                        if (!Kod_bainga.Contains(worksheet.Cells.GetCell(i, 30).DisplayStringValue))\n                        \tKod_bainga.Add(worksheet.Cells.GetCell(i, 30).DisplayStringValue);\n                        \n                        Job job_ = new Job(\n                            worksheet.Cells.GetCell(i, 26).DisplayStringValue, // 2022,02\n                            worksheet.Cells.GetCell(i, 30).DisplayStringValue); // код баинга (в последних столбцах)\n                        \n                        DateTime.TryParse(worksheet.Cells.GetCell(i, 9).DisplayStringValue, out DateTime min_date);\n                        DateTime.TryParse(worksheet.Cells.GetCell(i, 10).DisplayStringValue, out DateTime max_date);\n                        int index = Jobs.FindIndex(x => x.Period == job_.Period && x.Kod_Bainga == job_.Kod_Bainga);\n                        if (index == -1)\n                        {\n                            job_.Month = job_.Period.Split(',')[1];\n                            job_.Year = job_.Period.Split(',')[0];\n                            job_.min_date = min_date;\n                            job_.max_date = max_date;\n                            job_.items = new List<int>() {i};\n                            Jobs.Add(job_);\n                        }\n                        else\n                        { // записать минимальную и максимальную даты\n                            if (Jobs[index].min_date > min_date) Jobs[index].min_date = min_date;\n                            if (Jobs[index].max_date < max_date) Jobs[index].max_date = max_date;\n                            Jobs[index].items.Add(i);\n                        }\n                        i++;\n                    }\n                    \n                    string K2_Activation = Api.TeamNetwork.ObjectService.\n                        CreateWithAlias(\"K2Aktivatsiya\", new Dictionary<string,object>\n\t\t\t\t\t\t{\n                            { \"Strana\", \"69907\" },\n                            { \"Klient\", getValue(\"Kontragent\", data) },\n                            { \"Brend\", getValue(\"Brendy\", data) },\n                            { \"Datanachala\", date_start },\n                            { \"Dataokonchaniya\", date_end },\n                            { \"Nazvaniereklamnoykampanii\", getByRef(\"Kratkoenazvanie\", getValue(\"Kontragent\", data)) +\n                                \"_\" + getByRef(\"Naimenovanie\", getValue(\"Brendy\", data)) + \"_\" + SMI +\n                                \"_\" + date_start + \"_\" + date_end},\n                        });\n                    \n                    /* ниже создание проектов */\n                    var Baings = Api.TeamNetwork.ObjectService.ListWithAlias(\"Baingovyepodrazdeleniya\");\n                    data.TryGetValue(\"Agentskayakomissiya\", out object Agentskayakomissiya);\n                    data.TryGetValue(\"RabochayagruppaKS\", out object RabochayagruppaKS);\n                    data.TryGetValue(\"GKhKS\", out object GKhKS);\n                    data.TryGetValue(\"DKSOtvetstvennyy\", out object DKSOtvetstvennyy);\n                    data.TryGetValue(\"Rabochayagruppabaing\", out object Rabochayagruppabaing);\n                    foreach (string Kod_bainga_item in Kod_bainga)\n                    {\n                        string Baing_id = \"\";\n                        string Baing_Departament_id = \"\";\n                        foreach (var Baing in Baings)\n                        { // поиск ссылок на Тип проекта (Баинговое подразделение) и на Департамент\n                            var Baing_data = Baing as Dictionary<string,object>;\n                            if (Baing_data.TryGetValue(\"Kod\", out object Kod_object))\n                            {\n                                if (Kod_object.ToString() == Kod_bainga_item)\n                                {\n                                    Baing_id = getValue(\"id\", Baing_data);\n                                    if (Baing_data.TryGetValue(\"Departament\", out object Departament_object))\n                                    {\n                                        Baing_Departament_id = Departament_object.ToString();\n                                    }\n                                    break;\n                                }\n                            }\n                        }\n                        string proekt_id = Api.TeamNetwork.ObjectService.\n                            CreateWithAlias(\"ProektyK2\", new Dictionary<string,object>\n\t\t\t\t\t\t\t\t{\n                                    { \"Mediaplan\", MP_object_id },\n                                    { \"StranaK2\", \"69907\" },\n                                    { \"AktivatsiyaK2\", K2_Activation },\n                                    { \"AgentstvoK2\", getValue(\"Agentstvo\", data) },\n                                    { \"KlientK2\", getValue(\"Kontragent\", data) },\n                                    { \"BrendK2\", getValue(\"Brendy\", data) },\n                                    { \"Periodprovedeniyakampaniis\", date_start },\n                                    { \"Periodprovedeniyakampaniipo\", date_end },\n                                    { \"Agentskayakomissiya\", Agentskayakomissiya },\n                                    { \"LiderproektasostoronyKS\", RabochayagruppaKS },\n                                    { \"GKhKS\", GKhKS },\n                                    { \"DKSOtvetstvennyy\", DKSOtvetstvennyy },\n                                    { \"LiderproektasostoronyBaing\", Rabochayagruppabaing },\n                                    { \"DepartamentK2\", Baing_Departament_id },\n                                    { \"TipproektaK2\", Baing_id },\n                                    { \"NaimenovanieK2\", getByRef(\"Kratkoenazvanie\", getValue(\"Kontragent\", data)) +\n                                     \"_\" + getByRef(\"Naimenovanie\", getValue(\"Brendy\", data)) + \"_\" + SMI + \"_\" + Kod_bainga_item +\n                                     \"_\" + date_start + \"_\" + date_end},\n                                    { \"PolnoenaimenovanieK2\", getByRef(\"Kratkoenazvanie\", getValue(\"Kontragent\", data)) +\n                                     \"_\" + getByRef(\"Naimenovanie\", getValue(\"Brendy\", data)) + \"_\" + SMI + \"_\" + Kod_bainga_item +\n                                     \"_\" + date_start + \"_\" + date_end},\n                                    { \"DeystvievK2\", \"51129\" },\n                                });\n                        Jobs.ForEach(x => {if (x.Kod_Bainga == Kod_bainga_item) {x.K2_Proekt_link = proekt_id;}});\n                    }\n            RabochayagruppaKS = null;\n            GKhKS = null;\n            DKSOtvetstvennyy = null;\n            Rabochayagruppabaing = null;\n            \n                data.TryGetValue(\"OtvetstvennyyKS\", out object OtvetstvennyyKS);\n                var Periods = Api.TeamNetwork.ObjectService.ListWithAlias(\"Periody\");\n                var Vidy_Media = Api.TeamNetwork.ObjectService.ListWithAlias(\"K2Vidymedia\");\n                var Uslugi = Api.TeamNetwork.ObjectService.ListWithAlias(\"K2Uslugi\");\n                var Medianositeli = Api.TeamNetwork.ObjectService.ListWithAlias(\"K2Medianositeli\");\n                var SMIs = Api.TeamNetwork.ObjectService.ListWithAlias(\"K2SMI\");\n                var Goroda = Api.TeamNetwork.ObjectService.ListWithAlias(\"K2Goroda\");\n                    \n                    /* создать джобы */\n            foreach (Job job_ in Jobs)\n            {\n                string Period_id = string.Empty;\n                foreach (var Period in Periods)\n                {\n                    var Period_data = Period as Dictionary<string,object>;\n                    if (int.Parse(getValue(\"Nomermesyatsa\", Period_data)) == int.Parse(job_.Month) &&\n                        getValue(\"Godtsifrytekstom\", Period_data) == job_.Year)\n                    {\n                        Period_id = getValue(\"id\", Period_data);\n                        break;\n                    }\n                }\n                string job_id = Api.TeamNetwork.ObjectService.\n                    CreateWithAlias(\"Dzhoby\", new Dictionary<string,object>\n                                    {\n                                        { \"Mediaplan\", MP_object_id },\n                                        { \"Period\", Period_id },\n                                        { \"Periods\", job_.min_date },\n                                        { \"Periodpo\", job_.max_date },\n                                        { \"ProektK2\", job_.K2_Proekt_link },\n                                        { \"Agentstvo\", getValue(\"Agentstvo\", data) },\n                                        { \"Klient\", getValue(\"Kontragent\", data) },\n                                        { \"YuLagentstva\", getValue(\"YuLagentstva\", data) },\n                                        { \"YuLklienta\", getValue(\"YuLklienta\", data) },\n                                        { \"Brend\", getValue(\"Brendy\", data) },\n                                        { \"Tipdogovora\", getValue(\"Tipdogovora\", data) },\n                                        { \"Valyuta\", \"585\" },\n                                        { \"Kurs\", 1 },\n                                        { \"Agentskayakomissiya\", Agentskayakomissiya },\n                                        { \"NDSAK\", \"11283\" },\n                                        { \"OtvetstvennyyKS\", OtvetstvennyyKS },\n                                        { \"NaimenovanieJOK2\", getByRef(\"Kratkoenazvanie\", getValue(\"Kontragent\", data)) +\n                                            \"_\" + getByRef(\"Naimenovanie\", getValue(\"Brendy\", data)) + \"_\" + SMI + \"_\" +\n                                            job_.Kod_Bainga + \"_\" + job_.Month + \".\" + job_.Year},\n                                        { \"DeystvievK2\", \"51129\" },\n                                    });\n                \n                /* ниже позиции экселя */\n                foreach (int item in job_.items)\n                {\n                    str = \"[Критическая ошибка в строке \" + (item + 1).ToString() + \" при формировании детализации]\";\n                    string Vid_Media_id = worksheet.Cells.GetCell(item, 31).DisplayStringValue;\n                    foreach (var Vid_Media in Vidy_Media)\n                    {\n                        if (getValue(\"Kod\", Vid_Media) == Vid_Media_id)\n                        {\n                            Vid_Media_id = getValue(\"id\", Vid_Media);\n                            break;\n                        }\n                    }\n                    \n                    string Usluga_id = worksheet.Cells.GetCell(item, 32).DisplayStringValue;\n                    if (Usluga_id != \"0\" && Usluga_id != \"\")\n                    {\n                        foreach (var Usluga in Uslugi)\n                        {\n                            if (getValue(\"Kod\", Usluga) == Usluga_id)\n                            {\n                                Usluga_id = getValue(\"id\", Usluga);\n                                break;\n                            }\n                        }\n                    }\n                    else\n                    {\n                        Usluga_id = null;\n                        localError += \"[Код услуги не указан в строке \" + (item + 1).ToString() + \"]\";\n                    }\n                    if (Usluga_id == worksheet.Cells.GetCell(item, 32).DisplayStringValue)\n                    {\n                        Usluga_id = null;\n                        localError += \"[Услуга по коду не найдена (строка \" + (item + 1).ToString() + \")]\";\n                    }\n                    \n                    bool exist = false;\n                    string Medianositel_id = worksheet.Cells.GetCell(item, 33).DisplayStringValue;\n                    if (Medianositel_id != \"0\")\n                    {\n                        foreach (var Medianositel in Medianositeli)\n                        {\n                            if (getValue(\"Kod\", Medianositel) == Medianositel_id)\n                            {\n                                Medianositel_id = getValue(\"id\", Medianositel);\n                                exist = true;\n                                break;\n                            }\n                        }\n                    }\n                    if (!exist)\n                    {\n                        Medianositel_id = Api.TeamNetwork.ObjectService.\n                            CreateWithAlias(\"K2Medianositeli\", new Dictionary<string,object> {{\"Naimenovanie\", worksheet.Cells.GetCell(item, 5).DisplayStringValue}});\n                        localError += \"[Создан медианоситель (\" + Medianositel_id + \") для строки \" + (item + 1).ToString() + \"]\";\n                    }\n                    \n                    string SMI_id = worksheet.Cells.GetCell(item, 27).DisplayStringValue;\n                    foreach (var SMI_data in SMIs)\n                    {\n                        if (getValue(\"Kod\", SMI_data) == SMI_id)\n                        {\n                            SMI_id = getValue(\"id\", SMI_data);\n                            break;\n                        }\n                    }\n                    \n                    string Gorod_id = worksheet.Cells.GetCell(item, 28).DisplayStringValue;\n                    foreach (var Gorod in Goroda)\n                    {\n                        if (getValue(\"Kod\", Gorod) == Gorod_id)\n                        {\n                            Gorod_id = getValue(\"id\", Gorod);\n                            break;\n                        }\n                    }\n                    \n                    double Agentskayakomissiya_double = 0;\n                    try\n                    {\n                        if (worksheet.Cells.GetCell(5, 8).DisplayStringValue == \"агентский\")\n                            Agentskayakomissiya_double = double.Parse(worksheet.Cells.GetCell(5, 9).DisplayStringValue.Split('%')[0]);\n                    }\n                    catch\n                    {\n                        localError += \"[Проблема с распознаванием АК в шапке]\";\n                    }\n                    string NDS_link = string.Empty;\n                    try\n                    {\n                        NDS_link = worksheet.Cells.GetCell(item, 34).DisplayStringValue;\n                    }\n                    catch {}\n                    switch (NDS_link)\n                    {\n                        case \"20%\":\n                            NDS_link = \"11283\";\n                            break;\n                        case \"18%\":\n                            NDS_link = \"11280\";\n                            break;\n                        case \"15%\":\n                            NDS_link = \"11284\";\n                            break;\n                        case \"10%\":\n                            NDS_link = \"11281\";\n                            break;\n                        default:\n                            NDS_link = \"11282\";\n                            break;\n                    }\n                    Api.TeamNetwork.ObjectService.\n                        CreateWithAlias(\"Detalizatsiimediaplanov\", new Dictionary<string,object>\n                                        {\n                                            { \"Mediaplan\", MP_object_id },\n                                            { \"ProektK2\", job_.K2_Proekt_link },\n                                            { \"Dzhob\", job_id },\n                                            \n                                            { \"Periods\", worksheet.Cells.GetCell(item, 9).DisplayStringValue },\n                                            { \"Periodpo\", worksheet.Cells.GetCell(item, 10).DisplayStringValue },\n\n                                            { \"Valyuta\", \"585\" },\n                                            { \"DeystvievK2\", \"51129\" },\n                                            { \"Kurs\", 1 },\n                                            { \"Vidmedia\", Vid_Media_id },\n                                            { \"Detaliuslugi\", Usluga_id },\n                                            { \"Medianositel\", Medianositel_id },\n                                            { \"SMI\", SMI_id },\n                                            { \"Geografiya\", Gorod_id },\n                                            { \"KolichestvoK2\", 1 },\n                                            { \"Agentskayakomissiya\", Agentskayakomissiya_double },\n                                            { \"NDS\", NDS_link },\n                                            { \"GEO\", worksheet.Cells.GetCell(item, 7).DisplayStringValue },\n                                            \n                                            { \"_RADIOTekhnicheskayainformatsiya\", worksheet.Cells.GetCell(item, 3).DisplayStringValue },\n                                            { \"_RADIOTip\", worksheet.Cells.GetCell(item, 4).DisplayStringValue },\n                                            { \"_RADIOFormatvremyapozitsionirovanie\", worksheet.Cells.GetCell(item, 8).DisplayStringValue },\n                                            { \"_PRESSZayavka\", worksheet.Cells.GetCell(item, 12).DisplayStringValue },\n                                            { \"_PRESSMaket\", worksheet.Cells.GetCell(item, 13).DisplayStringValue },\n                                            { \"_PRESSOtkazotrazmescheniya\", worksheet.Cells.GetCell(item, 14).DisplayStringValue },\n                                            { \"_RADIOSummarnodneytranslyatsii\", worksheet.Cells.GetCell(item, 11).DisplayStringValue.Equals(string.Empty) ?\n                                                null : worksheet.Cells.GetCell(item, 11).DisplayStringValue },\n                                            { \"Kolvovykhosht\", worksheet.Cells.GetCell(item, 15).DisplayStringValue.Equals(string.Empty) ?\n                                                null : worksheet.Cells.GetCell(item, 15).DisplayStringValue },\n                                            { \"_RADIOKhronometrazhirolikov\", worksheet.Cells.GetCell(item, 16).DisplayStringValue },\n                                            { \"Skidka\", worksheet.Cells.GetCell(item, 18).DisplayStringValue.Split('%')[0] },\n                                            { \"ItogovayaSummaRub\", worksheet.Cells.GetCell(item, 25).DisplayStringValue.Equals(string.Empty) ?\n                                                null : worksheet.Cells.GetCell(item, 25).DisplayStringValue },\n                                            { \"NDSrub\", worksheet.Cells.GetCell(item, 22).DisplayStringValue.Equals(string.Empty) ?\n                                                null : worksheet.Cells.GetCell(item, 22).DisplayStringValue },\n                                            { \"AgentskayaKomissiyaRub\", worksheet.Cells.GetCell(item, 21).DisplayStringValue.Equals(string.Empty) ?\n                                                null : worksheet.Cells.GetCell(item, 21).DisplayStringValue },\n                                            { \"Stoimost1oypublikatsiirubbezNDS\", worksheet.Cells.GetCell(item, 17).DisplayStringValue.Equals(string.Empty) ?\n                                                null : worksheet.Cells.GetCell(item, 17).DisplayStringValue },\n                                            { \"StoimostbezNDSvalyuta\",  worksheet.Cells.GetCell(item, 19).DisplayStringValue.Equals(string.Empty) ?\n                                                null : worksheet.Cells.GetCell(item, 19).DisplayStringValue },\n                                            { \"_RADIOPPdlyaPrilozheniya\", worksheet.Cells.GetCell(item, 36).DisplayStringValue.Equals(string.Empty) ?\n                                                null : worksheet.Cells.GetCell(item, 36).DisplayStringValue },\n                                            { \"_RADIOGeografiyadlyaPrilozheniya\", worksheet.Cells.GetCell(item, 37).DisplayStringValue },\n                                            { \"_RADIOObschiykhronometrazhchchmmss\", worksheet.Cells.GetCell(item, 38).DisplayStringValue },\n                                            { \"Period\", worksheet.Cells.GetCell(item, 39).DisplayStringValue },\n                                        });\n                    str = \"\";\n                }\n            }\n                }\n            }\n        }\n        catch\n        {\n        }\n        Api.TeamNetwork.ObjectService.EditWithAlias(\"Mediaplany\", MP_object_id,\n                                                    new Dictionary<string,object>\n                                        {{ \"OshibkipriproverkeMP\", str }});\n        \n        if (str == \"\" && localError == \"\") str = \"Ошибок нет\"; \n        var result = new UserCommandResult\n\t\t{\n\t\t\tSuccess = true,\n\t\t\tCommited = true,\n\t\t\tMessages = new[]\n\t\t\t{\n\t\t\t\tnew UserCommandMessage\n\t\t\t\t{\n\t\t\t\t\tSeverity = SeverityLevel.Normal,\n\t\t\t\t\tText = str + localError\n\t\t\t\t}\n\t\t\t}\n\t\t};\n\t\treturn result;\n\t}\n\n     class Job\n    {\n        public string Period { get; set; }\n        public string Month { get; set; }\n        public string Year { get; set; }\n        public string Kod_Bainga { get; set; }\n        public string K2_Proekt_link { get; set; }\n        public DateTime min_date { get; set; }\n        public DateTime max_date { get; set; }\n        public List<int> items { get; set; }\n        \n        public Job(string period_, string kod_bainga_)\n        {\n            Period = period_;\n            Kod_Bainga = kod_bainga_;\n        }\n    }\n    \n    public static string getValue(string key, IDictionary<string, object> dictionary = null)\n    {\n        if (dictionary == null || key == null)\n        {\n            return null;\n        }\n        if (dictionary.TryGetValue(key, out var result))\n        {\n            if (result == null) return null;\n            return result.ToString();\n        }\n        else\n        {\n            return null;\n        }\n    }\n    \n    public static string getByRef(string key, string objectId = null)\n    {\n        if (objectId == null || objectId.Contains(\"account\") || objectId == \"tempID\")\n        {\n            return null;\n        }\n        var container = Api.TeamNetwork.ObjectAppService.GetByObject(objectId);\n        var result = Api.TeamNetwork.ObjectService.GetWithAlias(container.Alias, objectId);\n        return getValue(key, result);\n    }\n}",
      "Type": "CSharpExpression"
    }
  },
  "ConditionRule": "$MediakanalRef->Kod == \"fm\"",
  "RelatedEntityGlobalAlias": {
    "$type": "Comindware.Platform.Contracts.GlobalAlias, Comindware.Platform.Contracts",
    "Type": "Undefined"
  },
  "LockStateChangeType": "Undefined",
  "LockStateVisibilityType": "Undefined",
  "IsConfirmationActive": false,
  "NavigationTarget": "Undefined"
}