{
  "$type": "Comindware.Platform.Contracts.UserCommandConfigurationModel, Comindware.Platform.Contracts",
  "GlobalAlias": {
    "$type": "Comindware.Platform.Contracts.GlobalAlias, Comindware.Platform.Contracts",
    "Type": "UserCommand",
    "Owner": "Mediaplany",
    "Alias": "Proveritmediaplaninternet"
  },
  "Name": "Проверить медиаплан (интернет)",
  "IsSystem": false,
  "IsDisabled": false,
  "IsPrepare": false,
  "SkipValidation": true,
  "Context": "Record",
  "Multiplicity": "OneByOne",
  "Kind": "Script",
  "ResultType": "Notificate",
  "ScriptRule": {
    "$type": "Comindware.Platform.Contracts.UserCommandScriptRuleModel, Comindware.Platform.Contracts",
    "Type": "UserCommandScript",
    "Definition": {
      "$type": "Comindware.Platform.Contracts.CSharpRuleDefinitionModel, Comindware.Platform.Contracts",
      "EntryPoint": "Script",
      "Code": "using Comindware.Platform.Api.Data;\nusing System;\nusing System.IO;\nusing System.Collections.Generic;\nusing System.Linq;\nusing Comindware.Data.Entity;\nusing Comindware.TeamNetwork.Api.Data.UserCommands;\nusing Comindware.TeamNetwork.Api.Data;\nusing Aspose.Cells;\nusing Aspose.Cells.Pivot;\n// v3: Тип договора для джоба теперь вытаскивается из экселя\n// АК вытаскивается из последней строки и проставляется одинковой для: Проекта, Джоба, Детализации\nclass Script\n{\n\tpublic static UserCommandResult Main(UserCommandContext userCommandContext, Comindware.Entities entities)\n    {\n        string localError = \"\";\n        string str = \"Ошибка при открытии документа\";\n        string MP_object_id = userCommandContext.ObjectIds[0];\n        var data = Api.TeamNetwork.ObjectService.GetWithAlias(\"Mediaplany\", MP_object_id) as Dictionary<string,object>;\n\t\tstring doc_id = getValue(\"Finalnyymediaplandootkrutki\", data);\n\n        try {\n        if (doc_id != null)\n        {\n            string date_start = \"\";\n            string date_end = \"\";\n            string SMI = \"\";\n            double Agentskayakomissiya_double = -1;\n            List<string> Kod_bainga = new List<string>();\n            List<Job> Jobs = new List<Job>();\n            var content = Api.TeamNetwork.DocumentService.GetContent(doc_id).Data;\n            using (MemoryStream ms = new MemoryStream(content))\n            {\n                var Medianositeli = Api.TeamNetwork.ObjectService.ListWithAlias(\"K2Medianositeli\");\n                \n                Workbook workbook = new Workbook(ms);\n                Worksheet worksheet = null;\n                foreach (Worksheet _worksheet in workbook.Worksheets)\n                {\n                    if (_worksheet.Name == \"для_К2\") worksheet = _worksheet;\n                }\n                date_start = worksheet.Cells.GetCell(9, 6).DisplayStringValue;\n                date_end = worksheet.Cells.GetCell(9, 7).DisplayStringValue;\n                SMI = worksheet.Cells.GetCell(6, 1).DisplayStringValue;\n                int i = 14;\n                while (i < 1000)\n                {\n                    str = \"Ошибка в строке \" + (i+1).ToString();\n                    try\n                    {\n                        if (worksheet.Cells.GetCell(i, 3).DisplayStringValue == String.Empty)\n                            break; // стоп по столбцу \"номер\"\n                    }\n                    catch\n                    {\n                        break;\n                    }\n                    \n                    if (worksheet.Cells.GetCell(i, 98).DisplayStringValue == \"\")\n                    {\n                        i++;\n                        //localError += \"[Строка \" + i.ToString() + \" пропущена (не указан код баинга)]\\r\\n\";\n                        continue;\n                    }\n                    \n                    if (!int.TryParse(worksheet.Cells.GetCell(i, 98).DisplayStringValue, out int _int))\n                    {\n                        i++;\n                        localError += \"[ ОШИБКА! Строка \" + i.ToString() + \" не обработана (код баинга некорректен)]\\r\\n\";\n                        continue;\n                    }\n                    \n                    if (!Kod_bainga.Contains(worksheet.Cells.GetCell(i, 98).DisplayStringValue))\n                        Kod_bainga.Add(worksheet.Cells.GetCell(i, 98).DisplayStringValue);\n                    \n                    bool exist = false;\n                    string Medianositel_id = worksheet.Cells.GetCell(i, 101).DisplayStringValue;\n                    if (Medianositel_id != \"0\")\n                    {\n                        foreach (var Medianositel in Medianositeli)\n                        {\n                            if (getValue(\"Kod\", Medianositel) == Medianositel_id)\n                            {\n                                Medianositel_id = getValue(\"id\", Medianositel);\n                                exist = true;\n                                break;\n                            }\n                        }\n                    }\n                    if (!exist)\n                    {\n                        str += \"[Будет создан медианоситель (\" + Medianositel_id + \") для строки \" + (i + 1).ToString() + \"]\";\n                    }\n                    \n                    for (int period_col = 82, j = 0; period_col <= 93; period_col++, j++)\n                    {\n                        string full_date_string = worksheet.Cells.GetCell(i, period_col).DisplayStringValue;\n                        if (full_date_string != \"\")\n                        {\n                            Job job_ = new Job(\n                                worksheet.Cells.GetCell(13, period_col).DisplayStringValue,\n                                worksheet.Cells.GetCell(i, 98).DisplayStringValue);\n                            DateTime.TryParse(full_date_string.Substring(0,10), out DateTime min_date);\n                            DateTime.TryParse(full_date_string.Substring(full_date_string.Length-12, 10), out DateTime max_date);\n                            int index = Jobs.FindIndex(x => x.Period == job_.Period && x.Kod_Bainga == job_.Kod_Bainga);\n                            \n                            Item item_ = new Item(\n                                i,\n                                worksheet.Cells.GetCell(i, 12+j).DisplayStringValue,\n                                worksheet.Cells.GetCell(i, 26+j).DisplayStringValue,\n                                worksheet.Cells.GetCell(i, 54+j).DisplayStringValue,\n                                worksheet.Cells.GetCell(i, 68+j).DisplayStringValue,\n                                full_date_string.Substring(0,10),\n                                full_date_string.Substring(full_date_string.Length-12, 10),\n                                Medianositel_id,\n                                full_date_string\n                                );\n                            \n                            if (index == -1)\n                            {\n                                job_.Month = job_.Period.Split(',')[1];\n                                job_.Year = job_.Period.Split(',')[0];\n                                job_.min_date = min_date;\n                                job_.max_date = max_date;\n                                job_.items = new List<Item>() {item_};\n                                Jobs.Add(job_);\n                            }\n                            else\n                            {\n                                // записать минимальную и максимальную даты\n                                if (Jobs[index].min_date > min_date)\n                                    Jobs[index].min_date = min_date;\n                                if (Jobs[index].max_date < max_date)\n                                    Jobs[index].max_date = max_date;\n                                Jobs[index].items.Add(item_);\n                            }\n                            \n                        }\n                    }\n                    i++;\n                }\n                \n            string K2_Activation = \"K2_Activation\";\n                \n                try\n                {\n                    Agentskayakomissiya_double = double.Parse(worksheet.Cells.GetCell(i-1, 170).DisplayStringValue.Split('%')[0]);\n                }\n                catch\n                {\n                    localError += \"[Проблема со считыванием АК]\";\n                }\n            var Baings = Api.TeamNetwork.ObjectService.ListWithAlias(\"Baingovyepodrazdeleniya\");\n            data.TryGetValue(\"RabochayagruppaKS\", out object RabochayagruppaKS);\n            data.TryGetValue(\"GKhKS\", out object GKhKS);\n            data.TryGetValue(\"DKSOtvetstvennyy\", out object DKSOtvetstvennyy);\n            data.TryGetValue(\"Rabochayagruppabaing\", out object Rabochayagruppabaing);\n            foreach (string Kod_bainga_item in Kod_bainga)\n            {\n                string Baing_id = \"\";\n                string Baing_Departament_id = \"\";\n                foreach (var Baing in Baings)\n                { // поиск ссылок на Тип проекта (Баинговое подразделение) и на Департамент\n                    var Baing_data = Baing as Dictionary<string,object>;\n                    if (Baing_data.TryGetValue(\"Kod\", out object Kod_object))\n                    {\n                        if (Kod_object.ToString() == Kod_bainga_item)\n                        {\n                            Baing_id = getValue(\"id\", Baing_data);\n                            if (Baing_data.TryGetValue(\"Departament\", out object Departament_object))\n                            {\n                                Baing_Departament_id = Departament_object.ToString();\n                            }\n                            break;\n                        }\n                    }\n                }\n                string proekt_id = \"proekt_id\";\n            }\n            RabochayagruppaKS = null;\n            GKhKS = null;\n            DKSOtvetstvennyy = null;\n            Rabochayagruppabaing = null;\n            \n                data.TryGetValue(\"OtvetstvennyyKS\", out object OtvetstvennyyKS);\n                var Periods = Api.TeamNetwork.ObjectService.ListWithAlias(\"Periody\");\n                var Vidy_Media = Api.TeamNetwork.ObjectService.ListWithAlias(\"K2Vidymedia\");\n                var Uslugi = Api.TeamNetwork.ObjectService.ListWithAlias(\"K2Uslugi\");\n                var SMIs = Api.TeamNetwork.ObjectService.ListWithAlias(\"K2SMI\");\n                var Goroda = Api.TeamNetwork.ObjectService.ListWithAlias(\"K2Goroda\");\n                \n                string Tip_dogovora = \"\";\n                try\n                {\n                    string tip_ = worksheet.Cells.GetCell(5, 7).DisplayStringValue;\n                    if (tip_ == \"агентский\" || tip_ == \"Агентский\")\n                        Tip_dogovora = \"445\";\n                    else if (tip_ == \"подрядный\" || tip_ == \"Подрядный\")\n                        Tip_dogovora = \"444\";\n                }\n                catch\n                {\n                    localError += \"[Проблема со считыванием типа договора]\";\n                }\n                \n            foreach (Job job_ in Jobs)\n            {\n                string Period_id = string.Empty;\n                foreach (var Period in Periods)\n                {\n                    var Period_data = Period as Dictionary<string,object>;\n                    if (int.Parse(getValue(\"Nomermesyatsa\", Period_data)) == int.Parse(job_.Month) &&\n                        getValue(\"Godtsifrytekstom\", Period_data) == job_.Year)\n                    {\n                        Period_id = getValue(\"id\", Period_data);\n                        break;\n                    }\n                }\n                \n                string job_id = \"job_id\";\n                \n                foreach (Item item in job_.items)\n                {\n                    str = \"Ошибка в строке \" + (item.row + 1).ToString() + \"при создании детализации\";\n                    string Vid_Media_id = worksheet.Cells.GetCell(item.row, 99).DisplayStringValue;\n                    foreach (var Vid_Media in Vidy_Media)\n                    {\n                        if (getValue(\"Kod\", Vid_Media) == Vid_Media_id)\n                        {\n                            Vid_Media_id = getValue(\"id\", Vid_Media);\n                            break;\n                        }\n                    }\n                    \n                    string Usluga_id = worksheet.Cells.GetCell(item.row, 100).DisplayStringValue;\n                    if (Usluga_id != \"0\" && Usluga_id != \"\")\n                    {\n                        foreach (var Usluga in Uslugi)\n                        {\n                            if (getValue(\"Kod\", Usluga) == Usluga_id)\n                            {\n                                Usluga_id = getValue(\"id\", Usluga);\n                                break;\n                            }\n                        }\n                    }\n                    else\n                    {\n                        Usluga_id = null;\n                        str += \"[Код услуги не указан в строке \" + (item.row + 1).ToString() + \"]\";\n                    }\n                    if (Usluga_id == worksheet.Cells.GetCell(item.row, 100).DisplayStringValue)\n                    {\n                        Usluga_id = null;\n                        str += \"[Услуга по коду не найдена (строка \" + (item.row + 1).ToString() + \")]\";\n                    }\n                    \n                    string SMI_id = worksheet.Cells.GetCell(item.row, 95).DisplayStringValue;\n                    foreach (var SMI_data in SMIs)\n                    {\n                        if (getValue(\"Kod\", SMI_data) == SMI_id)\n                        {\n                            SMI_id = getValue(\"id\", SMI_data);\n                            break;\n                        }\n                    }\n                    \n                    string Gorod_id = worksheet.Cells.GetCell(item.row, 96).DisplayStringValue;\n                    foreach (var Gorod in Goroda)\n                    {\n                        if (getValue(\"Kod\", Gorod) == Gorod_id)\n                        {\n                            Gorod_id = getValue(\"id\", Gorod);\n                            break;\n                        }\n                    }\n                    \n                    string NDS_link = string.Empty;\n                    try\n                    {\n                        NDS_link = worksheet.Cells.GetCell(item.row, 169).DisplayStringValue;\n                    }\n                    catch {}\n                    switch (NDS_link)\n                    {\n                        case \"20,00%\":\n                        case \"20%\":\n                            NDS_link = \"11283\";\n                            break;\n                        case \"18,00%\":\n                        case \"18%\":\n                            NDS_link = \"11280\";\n                            break;\n                        case \"15,00%\":\n                        case \"15%\":\n                            NDS_link = \"11284\";\n                            break;\n                        case \"10,00%\":\n                        case \"10%\":\n                            NDS_link = \"11281\";\n                            break;\n                        default:\n                            NDS_link = \"11282\";\n                            break;\n                    }\n                    double.TryParse(item.Stoimost1oypublikatsiirubbezNDS, out double Stoimost1oypublikatsiirubbezNDS);\n                    double.TryParse(item.ItogovayaSummaRub, out double ItogovayaSummaRub);\n                    double.TryParse(item.AgentskayaKomissiyaRub, out double AgentskayaKomissiyaRub);\n                    double.TryParse(item.NDSrub, out double NDSrub);\n                    var test_data = new Dictionary<string,object>\n                                        {\n                                            { \"Mediaplan\", MP_object_id },\n                                            { \"ProektK2\", job_.K2_Proekt_link },\n                                            { \"Dzhob\", job_id },\n                                            { \"Period\", item.PeriodString },\n                                            { \"Periods\", item.Periods},\n                                            { \"Periodpo\", item.Periodpo },\n                                            { \"Valyuta\", \"585\" },\n                                            { \"DeystvievK2\", \"51129\" },\n                                            { \"Kurs\", 1 },\n                                            { \"Vidmedia\", Vid_Media_id },\n                                            { \"Detaliuslugi\", Usluga_id },\n                                            { \"Medianositel\", item.Medianositel_id },\n                                            { \"SMI\", SMI_id },\n                                            { \"Geografiya\", Gorod_id },\n                                            { \"KolichestvoK2\", 1 },\n                                            { \"Agentskayakomissiya\", Agentskayakomissiya_double },\n                                            { \"NDS\", NDS_link },\n                                            { \"GEO\", worksheet.Cells.GetCell(item.row, 8).DisplayStringValue },\n                                            { \"_INTTrafiknaustroystvo\", worksheet.Cells.GetCell(item.row, 4).DisplayStringValue },\n                                            { \"_INTKanal\", worksheet.Cells.GetCell(item.row, 5).DisplayStringValue },\n                                            { \"_INTSegmentatsiya\", worksheet.Cells.GetCell(item.row, 9).DisplayStringValue },\n                                            { \"_INTFormat\", worksheet.Cells.GetCell(item.row, 10).DisplayStringValue },\n                                            { \"_INTTiprazmescheniya\", worksheet.Cells.GetCell(item.row, 11).DisplayStringValue },\n                                            { \"StoimostbezNDSvalyuta\", Stoimost1oypublikatsiirubbezNDS },\n                                            { \"Stoimost1oypublikatsiirubbezNDS\", Stoimost1oypublikatsiirubbezNDS },\n                                            { \"ItogovayaSummaRub\", ItogovayaSummaRub},\n                                            { \"NDSrub\", NDSrub},\n                                            { \"AgentskayaKomissiyaRub\", AgentskayaKomissiyaRub},\n                                        };\n                    if (ItogovayaSummaRub == 0 || Stoimost1oypublikatsiirubbezNDS == 0)\n                        localError += \"[В строке \" + (item.row + 1).ToString() + \" детализация без суммы]\";\n                    str = \"\";\n                }\n            }\n            \n}// using end\n        }\n        }\n        catch {}\n        \n        if (str == \"\" && localError == \"\") str = \"Ошибок нет\"; \n        var result = new UserCommandResult\n\t\t{\n\t\t\tSuccess = true,\n\t\t\tCommited = true,\n\t\t\tMessages = new[]\n\t\t\t{\n\t\t\t\tnew UserCommandMessage\n\t\t\t\t{\n\t\t\t\t\tSeverity = SeverityLevel.Normal,\n\t\t\t\t\tText = str + localError\n\t\t\t\t}\n\t\t\t}\n\t\t};\n\t\treturn result;\n\t}\n\n    class Item\n    {\n        public int row { get; set; }\n        public string Stoimost1oypublikatsiirubbezNDS { get; set; }\n        public string AgentskayaKomissiyaRub { get; set; }\n        public string NDSrub { get; set; }\n        public string ItogovayaSummaRub { get; set; }\n        public string Periods { get; set; }\n        public string Periodpo { get; set; }\n        public string Medianositel_id { get; set; }\n        public string PeriodString { get; set; }\n        \n        public Item(int row_, string Stoimost1oypublikatsiirubbezNDS_,\n                     string AgentskayaKomissiyaRub_,\n                     string NDSrub_,\n                     string ItogovayaSummaRub_, string Periods_, string Periodpo_, string Medianositel_id_, string PeriodString_)\n        {\n            row = row_;\n            Stoimost1oypublikatsiirubbezNDS = Stoimost1oypublikatsiirubbezNDS_;\n            AgentskayaKomissiyaRub = AgentskayaKomissiyaRub_;\n            NDSrub = NDSrub_;\n            ItogovayaSummaRub = ItogovayaSummaRub_;\n            Periods = Periods_;\n            Periodpo = Periodpo_;\n            Medianositel_id = Medianositel_id_;\n            PeriodString = PeriodString_;\n        }\n    }\n    \n    class Job\n    {\n        public string Period { get; set; }\n        public string Month { get; set; }\n        public string Year { get; set; }\n        public string Kod_Bainga { get; set; }\n        public string K2_Proekt_link { get; set; }\n        public DateTime min_date { get; set; }\n        public DateTime max_date { get; set; }\n        public List<Item> items { get; set; }\n        \n        public Job(string period_, string kod_bainga_)\n        {\n            Period = period_;\n            Kod_Bainga = kod_bainga_;\n        }\n    }\n    \n    public static string getValue(string key, IDictionary<string, object> dictionary = null)\n    {\n        if (dictionary == null || key == null)\n        {\n            return null;\n        }\n        if (dictionary.TryGetValue(key, out var result))\n        {\n            if (result == null) return null;\n            return result.ToString();\n        }\n        else\n        {\n            return null;\n        }\n    }\n    \n    public static string getByRef(string key, string objectId = null)\n    {\n        if (objectId == null || objectId.Contains(\"account\") || objectId == \"tempID\")\n        {\n            return null;\n        }\n        var container = Api.TeamNetwork.ObjectAppService.GetByObject(objectId);\n        var result = Api.TeamNetwork.ObjectService.GetWithAlias(container.Alias, objectId);\n        return getValue(key, result);\n    }\n}",
      "Type": "CSharpExpression"
    }
  },
  "ConditionRule": "OR($MediakanalRef->Kod == \"internet\",$MediakanalRef->Kod == \"internetcc\")",
  "RelatedEntityGlobalAlias": {
    "$type": "Comindware.Platform.Contracts.GlobalAlias, Comindware.Platform.Contracts",
    "Type": "Undefined"
  },
  "LockStateChangeType": "Undefined",
  "LockStateVisibilityType": "Undefined",
  "IsConfirmationActive": false,
  "NavigationTarget": "Undefined"
}