{
  "$type": "Comindware.Platform.Contracts.UserCommandConfigurationModel, Comindware.Platform.Contracts",
  "GlobalAlias": {
    "$type": "Comindware.Platform.Contracts.GlobalAlias, Comindware.Platform.Contracts",
    "Type": "UserCommand",
    "Owner": "Mediaplany",
    "Alias": "Skachatshablonbrifa"
  },
  "Name": "Скачать шаблон брифа",
  "IsSystem": false,
  "IsDisabled": false,
  "IsPrepare": false,
  "SkipValidation": true,
  "Context": "Record",
  "Multiplicity": "OneByOne",
  "Kind": "ExportObject",
  "ResultType": "File",
  "ConditionRule": "NOT(EMPTY($Shablonbrifa))",
  "RelatedEntityGlobalAlias": {
    "$type": "Comindware.Platform.Contracts.GlobalAlias, Comindware.Platform.Contracts",
    "Type": "ExportTemplate",
    "Owner": "Mediaplany",
    "Alias": "Shablonbrifa"
  },
  "LockStateChangeType": "Undefined",
  "LockStateVisibilityType": "Undefined",
  "IsConfirmationActive": false,
  "NavigationTarget": "Undefined"
}