{
  "$type": "Comindware.Platform.Contracts.AttributeModel, Comindware.Platform.Contracts",
  "GlobalAlias": {
    "$type": "Comindware.Platform.Contracts.GlobalAlias, Comindware.Platform.Contracts",
    "Type": "Attribute",
    "Owner": "Zadachi",
    "Alias": "Protsess"
  },
  "Type": "String",
  "Format": "HtmlText",
  "Name": "Процесс",
  "IsSystem": false,
  "IsDisabled": false,
  "IsUnique": false,
  "IsIndexed": false,
  "IsTracked": false,
  "IsMultiValue": false,
  "IsTitle": false,
  "IsMandatory": false,
  "IsOwnership": false,
  "IsCalculated": true,
  "Expression": "FORMAT(\"<a href=https://10.110.10.22/#process/{0}/map> {1}\",LIST($ProtsessID, $ProtsessNAME))",
  "InstanceGlobalAlias": {
    "$type": "Comindware.Platform.Contracts.GlobalAlias, Comindware.Platform.Contracts",
    "Type": "Undefined"
  },
  "ImageColorType": "Original",
  "ImagePreserveAspectRatio": false
}