{
  "$type": "Comindware.Platform.Contracts.AttributeModel, Comindware.Platform.Contracts",
  "GlobalAlias": {
    "$type": "Comindware.Platform.Contracts.GlobalAlias, Comindware.Platform.Contracts",
    "Type": "Attribute",
    "Owner": "Zadachi",
    "Alias": "Tsvet"
  },
  "Type": "String",
  "Format": "HtmlText",
  "Name": "Цвет",
  "Description": "Для выделения не выполненных задач",
  "IsSystem": false,
  "IsDisabled": true,
  "IsUnique": false,
  "IsIndexed": false,
  "IsTracked": false,
  "IsMultiValue": false,
  "IsTitle": false,
  "IsMandatory": false,
  "IsOwnership": false,
  "IsCalculated": false,
  "InstanceGlobalAlias": {
    "$type": "Comindware.Platform.Contracts.GlobalAlias, Comindware.Platform.Contracts",
    "Type": "Undefined"
  },
  "ImageColorType": "Original",
  "ImagePreserveAspectRatio": false
}