{
  "$type": "Comindware.Platform.Contracts.AttributeModel, Comindware.Platform.Contracts",
  "GlobalAlias": {
    "$type": "Comindware.Platform.Contracts.GlobalAlias, Comindware.Platform.Contracts",
    "Type": "Attribute",
    "Owner": "Dogovory",
    "Alias": "Komissiipodogovoru"
  },
  "Type": "Instance",
  "Format": "Undefined",
  "Name": "Комиссии по договору",
  "IsSystem": false,
  "IsDisabled": false,
  "IsUnique": false,
  "IsIndexed": false,
  "IsTracked": true,
  "IsMultiValue": true,
  "IsTitle": false,
  "IsMandatory": false,
  "IsOwnership": false,
  "IsCalculated": false,
  "InstanceGlobalAlias": {
    "$type": "Comindware.Platform.Contracts.GlobalAlias, Comindware.Platform.Contracts",
    "Type": "Attribute",
    "Owner": "Komissiipodogovoram",
    "Alias": "Dogovor"
  },
  "ImageColorType": "Original",
  "ImagePreserveAspectRatio": false
}