{
  "$type": "Comindware.Platform.Contracts.EndEventActivityModel, Comindware.Platform.Contracts",
  "GlobalAlias": {
    "$type": "Comindware.Platform.Contracts.GlobalAlias, Comindware.Platform.Contracts",
    "Type": "ClientActivity",
    "Owner": "Poluchenieelektronnogopisma",
    "Alias": "noneEndEvent2"
  },
  "Kind": "ThrowingMessage",
  "IsInterrupting": false,
  "MessageDefinition": {
    "$type": "Comindware.Platform.Contracts.MessageEventDefinitionModel, Comindware.Platform.Contracts",
    "IsThrowing": true,
    "MessageType": {
      "$type": "Comindware.Platform.Contracts.GlobalAlias, Comindware.Platform.Contracts",
      "Type": "MessageTemplate",
      "Alias": "Mezhprotsessnoevzaimodeystvie"
    },
    "MessageName": "Межпроцессное взаимодействие",
    "MessageReceiver": {
      "$type": "Comindware.Platform.Contracts.MessageReceiverProcessObjectDefinitionModel, Comindware.Platform.Contracts",
      "ProcessObjectId": {
        "$type": "Comindware.Platform.Contracts.CalculationRuleModel, Comindware.Platform.Contracts",
        "Type": "Calculation",
        "Definition": {
          "$type": "Comindware.Platform.Contracts.ExpressionRuleDefinitionModel, Comindware.Platform.Contracts",
          "Expression": "$RaschetRef->IDprotsessa",
          "Type": "Expression"
        }
      },
      "ReceiverAddressType": "ProcessObject",
      "Type": "ProcessObject"
    },
    "InputMapping": {
      "$type": "Comindware.Platform.Contracts.MessagePayloadDefinitionModel, Comindware.Platform.Contracts",
      "MessageType": {
        "$type": "Comindware.Platform.Contracts.GlobalAlias, Comindware.Platform.Contracts",
        "Type": "MessageTemplate",
        "Alias": "Mezhprotsessnoevzaimodeystvie"
      },
      "Data": {
        "$type": "Comindware.Platform.Contracts.MakeMessageRuleModel, Comindware.Platform.Contracts",
        "MessageType": {
          "$type": "Comindware.Platform.Contracts.GlobalAlias, Comindware.Platform.Contracts",
          "Type": "MessageTemplate",
          "Alias": "Mezhprotsessnoevzaimodeystvie"
        },
        "PropertyMap": {
          "$type": "Comindware.Platform.Contracts.PropertyMapKeyValueModel[], Comindware.Platform.Contracts",
          "$values": [
            {
              "$type": "Comindware.Platform.Contracts.PropertyMapKeyValueModel, Comindware.Platform.Contracts",
              "Key": {
                "$type": "Comindware.Platform.Contracts.ModificationActionModel, Comindware.Platform.Contracts",
                "PropertyPath": {
                  "$type": "Comindware.Platform.Contracts.GlobalAlias[], Comindware.Platform.Contracts",
                  "$values": [
                    {
                      "$type": "Comindware.Platform.Contracts.GlobalAlias, Comindware.Platform.Contracts",
                      "Type": "MessageTemplateProperty",
                      "Owner": "Mezhprotsessnoevzaimodeystvie",
                      "Alias": "from"
                    }
                  ]
                },
                "PropertyAction": "Replace"
              },
              "Value": {
                "$type": "Comindware.Platform.Contracts.CalculationRuleModel, Comindware.Platform.Contracts",
                "Type": "Calculation",
                "Definition": {
                  "$type": "Comindware.Platform.Contracts.PropertyRuleDefinitionModel, Comindware.Platform.Contracts",
                  "PropertyPath": {
                    "$type": "Comindware.Platform.Contracts.GlobalAlias[], Comindware.Platform.Contracts",
                    "$values": [
                      {
                        "$type": "Comindware.Platform.Contracts.GlobalAlias, Comindware.Platform.Contracts",
                        "Type": "Attribute",
                        "Owner": "Vkhodyaschieelektronnyepisma",
                        "Alias": "Ot"
                      }
                    ]
                  },
                  "Type": "Property"
                }
              }
            },
            {
              "$type": "Comindware.Platform.Contracts.PropertyMapKeyValueModel, Comindware.Platform.Contracts",
              "Key": {
                "$type": "Comindware.Platform.Contracts.ModificationActionModel, Comindware.Platform.Contracts",
                "PropertyPath": {
                  "$type": "Comindware.Platform.Contracts.GlobalAlias[], Comindware.Platform.Contracts",
                  "$values": [
                    {
                      "$type": "Comindware.Platform.Contracts.GlobalAlias, Comindware.Platform.Contracts",
                      "Type": "MessageTemplateProperty",
                      "Owner": "Mezhprotsessnoevzaimodeystvie",
                      "Alias": "attach"
                    }
                  ]
                },
                "PropertyAction": "Replace"
              },
              "Value": {
                "$type": "Comindware.Platform.Contracts.CalculationRuleModel, Comindware.Platform.Contracts",
                "Type": "Calculation",
                "Definition": {
                  "$type": "Comindware.Platform.Contracts.PropertyRuleDefinitionModel, Comindware.Platform.Contracts",
                  "PropertyPath": {
                    "$type": "Comindware.Platform.Contracts.GlobalAlias[], Comindware.Platform.Contracts",
                    "$values": [
                      {
                        "$type": "Comindware.Platform.Contracts.GlobalAlias, Comindware.Platform.Contracts",
                        "Type": "Attribute",
                        "Owner": "Vkhodyaschieelektronnyepisma",
                        "Alias": "Vlozhenie"
                      }
                    ]
                  },
                  "Type": "Property"
                }
              }
            }
          ]
        },
        "ContextObject": "task",
        "Type": "MakeMessage"
      }
    }
  },
  "BehaviourState": "Undefined",
  "IsTitleSet": false,
  "Position": {
    "$type": "Comindware.Platform.Contracts.VectorModel, Comindware.Platform.Contracts",
    "X": 1020.0,
    "Y": 280.0
  },
  "Size": {
    "$type": "Comindware.Platform.Contracts.DimensionsModel, Comindware.Platform.Contracts",
    "Width": 40.0,
    "Height": 40.0
  },
  "Owner": {
    "$type": "Comindware.Platform.Contracts.GlobalAlias, Comindware.Platform.Contracts",
    "Type": "ClientActivity",
    "Owner": "Poluchenieelektronnogopisma",
    "Alias": "pool1"
  },
  "OwnerEmbeddedProcessActivityAlias": {
    "$type": "Comindware.Platform.Contracts.GlobalAlias, Comindware.Platform.Contracts",
    "Type": "Undefined"
  },
  "MountedOnAlias": {
    "$type": "Comindware.Platform.Contracts.GlobalAlias, Comindware.Platform.Contracts",
    "Type": "Undefined"
  },
  "Type": "EndEvent",
  "OnEnterTrigger": {
    "$type": "Comindware.Platform.Contracts.GlobalAlias, Comindware.Platform.Contracts",
    "Type": "Undefined"
  },
  "OnExitTrigger": {
    "$type": "Comindware.Platform.Contracts.GlobalAlias, Comindware.Platform.Contracts",
    "Type": "Undefined"
  }
}