{
  "$type": "Comindware.Platform.Contracts.SubProcessActivityModel, Comindware.Platform.Contracts",
  "GlobalAlias": {
    "$type": "Comindware.Platform.Contracts.GlobalAlias, Comindware.Platform.Contracts",
    "Type": "ClientActivity",
    "Owner": "Poluchenieelektronnogopisma",
    "Alias": "subProcess2"
  },
  "ProcessTemplateAlias": {
    "$type": "Comindware.Platform.Contracts.GlobalAlias, Comindware.Platform.Contracts",
    "Type": "ProcessTemplate",
    "Alias": "Sozdaniepolzovatelya"
  },
  "Loop": {
    "$type": "Comindware.Platform.Contracts.LoopModel, Comindware.Platform.Contracts",
    "Kind": "ForEach",
    "LoopExecutionOrder": "Once",
    "TargetTemplate": {
      "$type": "Comindware.Platform.Contracts.GlobalAlias, Comindware.Platform.Contracts",
      "Type": "RecordTemplate",
      "Alias": "Sozdaniyapolzovateley"
    }
  },
  "Definition": {
    "$type": "Comindware.Platform.Contracts.SubProcessDefinitionModel, Comindware.Platform.Contracts",
    "InputMapping": {
      "$type": "Comindware.Platform.Contracts.MakeObjectRuleModel, Comindware.Platform.Contracts",
      "RecordTemplate": {
        "$type": "Comindware.Platform.Contracts.GlobalAlias, Comindware.Platform.Contracts",
        "Type": "Undefined"
      },
      "PropertyMap": {
        "$type": "Comindware.Platform.Contracts.PropertyMapKeyValueModel[], Comindware.Platform.Contracts",
        "$values": [
          {
            "$type": "Comindware.Platform.Contracts.PropertyMapKeyValueModel, Comindware.Platform.Contracts",
            "Key": {
              "$type": "Comindware.Platform.Contracts.ModificationActionModel, Comindware.Platform.Contracts",
              "PropertyPath": {
                "$type": "Comindware.Platform.Contracts.GlobalAlias[], Comindware.Platform.Contracts",
                "$values": [
                  {
                    "$type": "Comindware.Platform.Contracts.GlobalAlias, Comindware.Platform.Contracts",
                    "Type": "Attribute",
                    "Owner": "Sozdaniyapolzovateley",
                    "Alias": "Baing"
                  }
                ]
              },
              "PropertyAction": "Replace"
            },
            "Value": {
              "$type": "Comindware.Platform.Contracts.CalculationRuleModel, Comindware.Platform.Contracts",
              "Type": "Calculation",
              "Definition": {
                "$type": "Comindware.Platform.Contracts.ValuesRuleDefinitionModel, Comindware.Platform.Contracts",
                "Values": {
                  "$type": "System.Object[], mscorlib",
                  "$values": [
                    true
                  ]
                },
                "Type": "Values"
              }
            }
          },
          {
            "$type": "Comindware.Platform.Contracts.PropertyMapKeyValueModel, Comindware.Platform.Contracts",
            "Key": {
              "$type": "Comindware.Platform.Contracts.ModificationActionModel, Comindware.Platform.Contracts",
              "PropertyPath": {
                "$type": "Comindware.Platform.Contracts.GlobalAlias[], Comindware.Platform.Contracts",
                "$values": [
                  {
                    "$type": "Comindware.Platform.Contracts.GlobalAlias, Comindware.Platform.Contracts",
                    "Type": "Attribute",
                    "Owner": "Sozdaniyapolzovateley",
                    "Alias": "Email"
                  }
                ]
              },
              "PropertyAction": "Replace"
            },
            "Value": {
              "$type": "Comindware.Platform.Contracts.CalculationRuleModel, Comindware.Platform.Contracts",
              "Type": "Calculation",
              "Definition": {
                "$type": "Comindware.Platform.Contracts.PropertyRuleDefinitionModel, Comindware.Platform.Contracts",
                "PropertyPath": {
                  "$type": "Comindware.Platform.Contracts.GlobalAlias[], Comindware.Platform.Contracts",
                  "$values": [
                    {
                      "$type": "Comindware.Platform.Contracts.GlobalAlias, Comindware.Platform.Contracts",
                      "Type": "Attribute",
                      "Owner": "Vkhodyaschieelektronnyepisma",
                      "Alias": "Ot"
                    }
                  ]
                },
                "Type": "Property"
              }
            }
          },
          {
            "$type": "Comindware.Platform.Contracts.PropertyMapKeyValueModel, Comindware.Platform.Contracts",
            "Key": {
              "$type": "Comindware.Platform.Contracts.ModificationActionModel, Comindware.Platform.Contracts",
              "PropertyPath": {
                "$type": "Comindware.Platform.Contracts.GlobalAlias[], Comindware.Platform.Contracts",
                "$values": [
                  {
                    "$type": "Comindware.Platform.Contracts.GlobalAlias, Comindware.Platform.Contracts",
                    "Type": "Attribute",
                    "Owner": "Sozdaniyapolzovateley",
                    "Alias": "Login"
                  }
                ]
              },
              "PropertyAction": "Replace"
            },
            "Value": {
              "$type": "Comindware.Platform.Contracts.CalculationRuleModel, Comindware.Platform.Contracts",
              "Type": "Calculation",
              "Definition": {
                "$type": "Comindware.Platform.Contracts.ExpressionRuleDefinitionModel, Comindware.Platform.Contracts",
                "Expression": "SUBSTRING($Ot,0,INDEXOF($Ot,\"@\"))",
                "Type": "Expression"
              }
            }
          },
          {
            "$type": "Comindware.Platform.Contracts.PropertyMapKeyValueModel, Comindware.Platform.Contracts",
            "Key": {
              "$type": "Comindware.Platform.Contracts.ModificationActionModel, Comindware.Platform.Contracts",
              "PropertyPath": {
                "$type": "Comindware.Platform.Contracts.GlobalAlias[], Comindware.Platform.Contracts",
                "$values": [
                  {
                    "$type": "Comindware.Platform.Contracts.GlobalAlias, Comindware.Platform.Contracts",
                    "Type": "Attribute",
                    "Owner": "Sozdaniyapolzovateley",
                    "Alias": "FIO"
                  }
                ]
              },
              "PropertyAction": "Replace"
            },
            "Value": {
              "$type": "Comindware.Platform.Contracts.CalculationRuleModel, Comindware.Platform.Contracts",
              "Type": "Calculation",
              "Definition": {
                "$type": "Comindware.Platform.Contracts.ExpressionRuleDefinitionModel, Comindware.Platform.Contracts",
                "Expression": "SUBSTRING($Ot,0,INDEXOF($Ot,\"@\"))",
                "Type": "Expression"
              }
            }
          }
        ]
      },
      "Type": "MakeObject"
    },
    "ReturnMapping": {
      "$type": "Comindware.Platform.Contracts.MakeObjectRuleModel, Comindware.Platform.Contracts",
      "RecordTemplate": {
        "$type": "Comindware.Platform.Contracts.GlobalAlias, Comindware.Platform.Contracts",
        "Type": "Undefined"
      },
      "PropertyMap": {
        "$type": "Comindware.Platform.Contracts.PropertyMapKeyValueModel[], Comindware.Platform.Contracts",
        "$values": [
          {
            "$type": "Comindware.Platform.Contracts.PropertyMapKeyValueModel, Comindware.Platform.Contracts",
            "Key": {
              "$type": "Comindware.Platform.Contracts.ModificationActionModel, Comindware.Platform.Contracts",
              "PropertyPath": {
                "$type": "Comindware.Platform.Contracts.GlobalAlias[], Comindware.Platform.Contracts",
                "$values": [
                  {
                    "$type": "Comindware.Platform.Contracts.GlobalAlias, Comindware.Platform.Contracts",
                    "Type": "Attribute",
                    "Owner": "Vkhodyaschieelektronnyepisma",
                    "Alias": "Mediaplan"
                  },
                  {
                    "$type": "Comindware.Platform.Contracts.GlobalAlias, Comindware.Platform.Contracts",
                    "Type": "Attribute",
                    "Owner": "Mediaplany",
                    "Alias": "Baingrasschityval"
                  }
                ]
              },
              "PropertyAction": "Replace"
            },
            "Value": {
              "$type": "Comindware.Platform.Contracts.CalculationRuleModel, Comindware.Platform.Contracts",
              "Type": "Calculation",
              "Definition": {
                "$type": "Comindware.Platform.Contracts.PropertyRuleDefinitionModel, Comindware.Platform.Contracts",
                "PropertyPath": {
                  "$type": "Comindware.Platform.Contracts.GlobalAlias[], Comindware.Platform.Contracts",
                  "$values": [
                    {
                      "$type": "Comindware.Platform.Contracts.GlobalAlias, Comindware.Platform.Contracts",
                      "Type": "Attribute",
                      "Owner": "Sozdaniyapolzovateley",
                      "Alias": "Polzovatel"
                    }
                  ]
                },
                "Type": "Property"
              }
            }
          }
        ]
      },
      "Type": "MakeObject"
    },
    "ProcessObjectStrategy": "CreateNew",
    "ProcessRelation": "Contextual"
  },
  "BehaviourState": "Undefined",
  "AdvancedConfiguration": true,
  "Title": "Создание пользователя",
  "IsTitleSet": false,
  "Position": {
    "$type": "Comindware.Platform.Contracts.VectorModel, Comindware.Platform.Contracts",
    "X": 605.0,
    "Y": 410.0
  },
  "Size": {
    "$type": "Comindware.Platform.Contracts.DimensionsModel, Comindware.Platform.Contracts",
    "Width": 150.0,
    "Height": 100.0
  },
  "Owner": {
    "$type": "Comindware.Platform.Contracts.GlobalAlias, Comindware.Platform.Contracts",
    "Type": "ClientActivity",
    "Owner": "Poluchenieelektronnogopisma",
    "Alias": "pool1"
  },
  "OwnerEmbeddedProcessActivityAlias": {
    "$type": "Comindware.Platform.Contracts.GlobalAlias, Comindware.Platform.Contracts",
    "Type": "Undefined"
  },
  "MountedOnAlias": {
    "$type": "Comindware.Platform.Contracts.GlobalAlias, Comindware.Platform.Contracts",
    "Type": "Undefined"
  },
  "Type": "SubProcess",
  "OnEnterTrigger": {
    "$type": "Comindware.Platform.Contracts.GlobalAlias, Comindware.Platform.Contracts",
    "Type": "Undefined"
  },
  "OnExitTrigger": {
    "$type": "Comindware.Platform.Contracts.GlobalAlias, Comindware.Platform.Contracts",
    "Type": "Undefined"
  }
}