{
  "$type": "Comindware.Platform.Contracts.Desktop.ChartWidgetConfigModel, Comindware.Platform.Contracts",
  "GlobalAlias": {
    "$type": "Comindware.Platform.Contracts.GlobalAlias, Comindware.Platform.Contracts",
    "Type": "DesktopWidgetConfig",
    "Owner": "Ekosistemareklamnogorynka",
    "Alias": "WidgetConfig_dc9879ed-016b-4811-b4ef-05a284619b08"
  },
  "FieldType": "Chart",
  "DataContext": {
    "$type": "Comindware.Platform.Contracts.Desktop.DataContextModel, Comindware.Platform.Contracts",
    "Groupings": {
      "$type": "Comindware.Platform.Contracts.Desktop.GroupingConfigurationModel[], Comindware.Platform.Contracts",
      "$values": [
        {
          "$type": "Comindware.Platform.Contracts.Desktop.GroupingConfigurationModel, Comindware.Platform.Contracts",
          "QueryPredicate": {
            "$type": "Comindware.Platform.Contracts.GlobalAlias[], Comindware.Platform.Contracts",
            "$values": [
              {
                "$type": "Comindware.Platform.Contracts.GlobalAlias, Comindware.Platform.Contracts",
                "Type": "Attribute",
                "Owner": "Mediaplany",
                "Alias": "Status"
              }
            ]
          }
        },
        {
          "$type": "Comindware.Platform.Contracts.Desktop.GroupingConfigurationModel, Comindware.Platform.Contracts"
        }
      ]
    },
    "Aggregation": {
      "$type": "Comindware.Platform.Contracts.Desktop.AggregationConfigurationModel, Comindware.Platform.Contracts",
      "Method": "Count",
      "QueryPredicate": {
        "$type": "Comindware.Platform.Contracts.GlobalAlias[], Comindware.Platform.Contracts",
        "$values": [
          {
            "$type": "Comindware.Platform.Contracts.GlobalAlias, Comindware.Platform.Contracts",
            "Type": "Attribute",
            "Owner": "Mediaplany",
            "Alias": "Status"
          }
        ]
      }
    },
    "Sorting": {
      "$type": "Comindware.Platform.Contracts.Desktop.SortingConfigurationModel, Comindware.Platform.Contracts",
      "Direction": "Asc",
      "NullValuesOnTop": false
    }
  },
  "ChartType": "Pie",
  "Children": {
    "$type": "System.Collections.Generic.List`1[[Comindware.Platform.Contracts.Desktop.WidgetConfigModel, Comindware.Platform.Contracts]], mscorlib",
    "$values": []
  },
  "Type": "FieldComponent",
  "Name": "Клиенты",
  "TemplateId": {
    "$type": "Comindware.Platform.Contracts.GlobalAlias, Comindware.Platform.Contracts",
    "Type": "RecordTemplate",
    "Alias": "Mediaplany"
  },
  "Order": 0,
  "PropertyPath": {
    "$type": "Comindware.Platform.Contracts.GlobalAlias[], Comindware.Platform.Contracts",
    "$values": []
  }
}