{
  "$type": "Comindware.Platform.Contracts.AttributeModel, Comindware.Platform.Contracts",
  "GlobalAlias": {
    "$type": "Comindware.Platform.Contracts.GlobalAlias, Comindware.Platform.Contracts",
    "Type": "Attribute",
    "Owner": "Proekty",
    "Alias": "Tsvet"
  },
  "Type": "String",
  "Format": "HtmlText",
  "Name": "Цвет",
  "IsSystem": false,
  "IsDisabled": false,
  "IsUnique": false,
  "IsIndexed": false,
  "IsTracked": false,
  "IsMultiValue": false,
  "IsTitle": false,
  "IsMandatory": false,
  "IsOwnership": false,
  "IsCalculated": true,
  "Expression": "FORMAT(IF(EQUALS($Status->Kod, \"active\"),\n\"<p><span style='color:#000000'><span style='background-color:#3ee028'>{0}</span></span></p>\",\n\"<p><span style='color:#000000'><span style='background-color:#f02626'>{0}</span></span></p>\"),\nLIST($Status->Nazvanie))",
  "InstanceGlobalAlias": {
    "$type": "Comindware.Platform.Contracts.GlobalAlias, Comindware.Platform.Contracts",
    "Type": "Undefined"
  },
  "ImageColorType": "Original",
  "ImagePreserveAspectRatio": false
}