{
  "$type": "Comindware.Platform.Contracts.CommunicationRouteModel, Comindware.Platform.Contracts",
  "Name": "Обработка сообщения RPA",
  "CommunicationChannelName": "Обработка ответа (web)",
  "MessageType": {
    "$type": "Comindware.Platform.Contracts.GlobalAlias, Comindware.Platform.Contracts",
    "Type": "MessageTemplate",
    "Alias": "ObrabotkasoobscheniyaRPA"
  },
  "IsUsePersonalCommunicationChannel": false,
  "PersonalChannelAccountProperty": {
    "$type": "Comindware.Platform.Contracts.GlobalAlias, Comindware.Platform.Contracts",
    "Type": "Undefined"
  },
  "Map": {
    "$type": "Comindware.Platform.Contracts.ResultHandlingMapModel[], Comindware.Platform.Contracts",
    "$values": [
      {
        "$type": "Comindware.Platform.Contracts.ResultHandlingMapModel, Comindware.Platform.Contracts",
        "MessageTypeAlias": "Kodsoobscheniya",
        "MessageTypeName": "Код сообщения",
        "ResponseKey": "True"
      }
    ]
  },
  "Type": "Inbound",
  "DataSet": "UnrestrictedSet",
  "ResponseFormat": "AsIs",
  "IsDisabled": false,
  "MessageName": "Обработка сообщения RPA",
  "ProcessTemplate": {
    "$type": "Comindware.Platform.Contracts.GlobalAlias, Comindware.Platform.Contracts",
    "Type": "ProcessTemplate",
    "Alias": "ObrabotkasoobscheniyaRPA"
  },
  "RouteTarget": "NewProcessInstance",
  "IsInternal": false,
  "Severity": "Undefined"
}