{
  "$type": "Comindware.Platform.Contracts.CommunicationRouteModel, Comindware.Platform.Contracts",
  "Name": "Отправка сообщения ИТ администратору",
  "CommunicationChannelName": "Канал для отправки почты",
  "MessageType": {
    "$type": "Comindware.Platform.Contracts.GlobalAlias, Comindware.Platform.Contracts",
    "Type": "MessageTemplate",
    "Alias": "Otpravka_soobscheniya_IT_administratoru8065"
  },
  "IsUsePersonalCommunicationChannel": false,
  "PersonalChannelAccountProperty": {
    "$type": "Comindware.Platform.Contracts.GlobalAlias, Comindware.Platform.Contracts",
    "Type": "Undefined"
  },
  "Map": {
    "$type": "Comindware.Platform.Contracts.ResultHandlingMapModel[], Comindware.Platform.Contracts",
    "$values": [
      {
        "$type": "Comindware.Platform.Contracts.ResultHandlingMapModel, Comindware.Platform.Contracts",
        "MessageTypeAlias": "account.660",
        "ResponseKey": "ToAccount"
      },
      {
        "$type": "Comindware.Platform.Contracts.ResultHandlingMapModel, Comindware.Platform.Contracts",
        "MessageTypeAlias": "<p>Добрый день!&nbsp;</p>\n\n<p>Создана новая заявка в ИТ-поддержку от пользователя: {from}.</p>\n\n<p>Тема заявки: {subject}</p>\n\n<p>Описание заявки: {body}</p>\n\n<a href=\"mailto:CMW-notification@easy-media.group?subject= {Subject}=true &amp;body=СОГЛАСОВАТЬ\">СОГЛАСОВАТЬ</a><br />\n<a href=\"mailto:CMW-notification@easy-media.group?subject= {Subject}=false &amp;body=ОТКЛОНИТЬ\">ОТКЛОНИТЬ</a><br />\n",
        "ResponseKey": "Body"
      },
      {
        "$type": "Comindware.Platform.Contracts.ResultHandlingMapModel, Comindware.Platform.Contracts",
        "MessageTypeAlias": "Новая ИТ заявка",
        "ResponseKey": "Subject"
      },
      {
        "$type": "Comindware.Platform.Contracts.ResultHandlingMapModel, Comindware.Platform.Contracts",
        "MessageTypeAlias": "false",
        "ResponseKey": "MeetingEnabled"
      }
    ]
  },
  "Type": "Outbound",
  "DataSet": "MailSet",
  "ResponseFormat": "AsIs",
  "IsDisabled": false,
  "MessageName": "Отправка сообщения ИТ администратору",
  "ProcessTemplate": {
    "$type": "Comindware.Platform.Contracts.GlobalAlias, Comindware.Platform.Contracts",
    "Type": "Undefined"
  },
  "RouteTarget": "Undefined",
  "IsInternal": false,
  "Severity": "Undefined"
}