{
  "$type": "Comindware.Platform.Contracts.CommunicationRouteModel, Comindware.Platform.Contracts",
  "Name": "Отправка сообщения пользователю",
  "CommunicationChannelName": "Канал для отправки почты",
  "MessageType": {
    "$type": "Comindware.Platform.Contracts.GlobalAlias, Comindware.Platform.Contracts",
    "Type": "MessageTemplate",
    "Alias": "OtpravkasoobscheniyaITadministratoru"
  },
  "IsUsePersonalCommunicationChannel": false,
  "PersonalChannelAccountProperty": {
    "$type": "Comindware.Platform.Contracts.GlobalAlias, Comindware.Platform.Contracts",
    "Type": "Undefined"
  },
  "Map": {
    "$type": "Comindware.Platform.Contracts.ResultHandlingMapModel[], Comindware.Platform.Contracts",
    "$values": [
      {
        "$type": "Comindware.Platform.Contracts.ResultHandlingMapModel, Comindware.Platform.Contracts",
        "MessageTypeAlias": "account.660",
        "ResponseKey": "ToAccount"
      },
      {
        "$type": "Comindware.Platform.Contracts.ResultHandlingMapModel, Comindware.Platform.Contracts",
        "MessageTypeAlias": "false",
        "ResponseKey": "MeetingEnabled"
      }
    ]
  },
  "Type": "Outbound",
  "DataSet": "MailSet",
  "ResponseFormat": "AsIs",
  "IsDisabled": false,
  "MessageName": "Отправка сообщения пользователю",
  "ProcessTemplate": {
    "$type": "Comindware.Platform.Contracts.GlobalAlias, Comindware.Platform.Contracts",
    "Type": "Undefined"
  },
  "RouteTarget": "Undefined",
  "IsInternal": false,
  "Severity": "Undefined"
}