{
  "$type": "Comindware.Platform.Contracts.AttributeModel, Comindware.Platform.Contracts",
  "GlobalAlias": {
    "$type": "Comindware.Platform.Contracts.GlobalAlias, Comindware.Platform.Contracts",
    "Type": "Attribute",
    "Owner": "Detalizatsiimediaplanov",
    "Alias": "Razbivkapodatam"
  },
  "Type": "Instance",
  "Format": "Undefined",
  "Name": "Разбивка по датам",
  "IsSystem": false,
  "IsDisabled": false,
  "IsUnique": false,
  "IsIndexed": false,
  "IsTracked": true,
  "IsMultiValue": true,
  "IsTitle": false,
  "IsMandatory": false,
  "IsOwnership": false,
  "IsCalculated": false,
  "InstanceGlobalAlias": {
    "$type": "Comindware.Platform.Contracts.GlobalAlias, Comindware.Platform.Contracts",
    "Type": "Attribute",
    "Owner": "Detalizatsiimediaplanovpodatam",
    "Alias": "Izdanie"
  },
  "ImageColorType": "Original",
  "ImagePreserveAspectRatio": false
}