{
  "$type": "Comindware.Platform.Contracts.UserCommandConfigurationModel, Comindware.Platform.Contracts",
  "GlobalAlias": {
    "$type": "Comindware.Platform.Contracts.GlobalAlias, Comindware.Platform.Contracts",
    "Type": "UserCommand",
    "Owner": "Proekty",
    "Alias": "Otpravit"
  },
  "Name": "Отправить",
  "Description": "@prefix task: <http://comindware.com/ontology/task#>.\n \n{\nif {?task task:objectId ?item.}\nthen {false -> ?value.}\nelse {true -> ?value.}.\n}",
  "IsSystem": false,
  "IsDisabled": false,
  "IsPrepare": false,
  "SkipValidation": false,
  "Context": "Record",
  "Multiplicity": "OneByOne",
  "Kind": "StartProcess",
  "ResultType": "DataChange",
  "ConditionRule": "@prefix task: <http://comindware.com/ontology/task#>.\n@prefix process: <http://comindware.com/ontology/process#>.\n{\nif { ?processObject process:businessObject ?item.}\nthen {false -> ?value.}\nelse {true -> ?value.}.\n}",
  "RelatedAction": {
    "$type": "Comindware.Platform.Contracts.UserCommandRelatedActionModel, Comindware.Platform.Contracts",
    "ContainerGlobalAlias": {
      "$type": "Comindware.Platform.Contracts.GlobalAlias, Comindware.Platform.Contracts",
      "Type": "RecordTemplate",
      "Alias": "Proekty"
    },
    "TemplateGlobalAlias": {
      "$type": "Comindware.Platform.Contracts.GlobalAlias, Comindware.Platform.Contracts",
      "Type": "ProcessTemplate",
      "Alias": "Vedenieproekta"
    },
    "FormGlobalAlias": {
      "$type": "Comindware.Platform.Contracts.GlobalAlias, Comindware.Platform.Contracts",
      "Type": "Undefined"
    }
  },
  "RelatedEntityGlobalAlias": {
    "$type": "Comindware.Platform.Contracts.GlobalAlias, Comindware.Platform.Contracts",
    "Type": "Undefined"
  },
  "LockStateChangeType": "Undefined",
  "LockStateVisibilityType": "Undefined",
  "IsConfirmationActive": false,
  "NavigationTarget": "Undefined"
}