{
  "$type": "Comindware.Platform.Contracts.UserCommandConfigurationModel, Comindware.Platform.Contracts",
  "GlobalAlias": {
    "$type": "Comindware.Platform.Contracts.GlobalAlias, Comindware.Platform.Contracts",
    "Type": "UserCommand",
    "Owner": "Proekty",
    "Alias": "Sozdaniebrifavsistemetest"
  },
  "Name": "(тест)",
  "Description": "Создание брифа в системе сотрудником",
  "IsSystem": false,
  "IsDisabled": false,
  "IsPrepare": false,
  "SkipValidation": true,
  "Context": "Record",
  "Multiplicity": "OneByOne",
  "Kind": "CreateRelated",
  "ResultType": "Navigate",
  "ConfirmationModelConfiguration": {
    "$type": "Comindware.Platform.Contracts.UserCommandConfirmationModel, Comindware.Platform.Contracts",
    "Form": {
      "$type": "Comindware.Platform.Contracts.GlobalAlias, Comindware.Platform.Contracts",
      "Type": "Undefined"
    },
    "Template": {
      "$type": "Comindware.Platform.Contracts.GlobalAlias, Comindware.Platform.Contracts",
      "Type": "MessageTemplate",
      "Alias": "Sozdaniebrifavsistemetest3c78"
    }
  },
  "RelatedAction": {
    "$type": "Comindware.Platform.Contracts.UserCommandRelatedActionModel, Comindware.Platform.Contracts",
    "ContainerGlobalAlias": {
      "$type": "Comindware.Platform.Contracts.GlobalAlias, Comindware.Platform.Contracts",
      "Type": "RecordTemplate",
      "Alias": "Brify"
    },
    "TemplateGlobalAlias": {
      "$type": "Comindware.Platform.Contracts.GlobalAlias, Comindware.Platform.Contracts",
      "Type": "Undefined"
    },
    "FormGlobalAlias": {
      "$type": "Comindware.Platform.Contracts.GlobalAlias, Comindware.Platform.Contracts",
      "Type": "Form",
      "Owner": "Brify",
      "Alias": "form42037"
    },
    "PropertyPath": "$<-Proekty"
  },
  "RelatedEntityGlobalAlias": {
    "$type": "Comindware.Platform.Contracts.GlobalAlias, Comindware.Platform.Contracts",
    "Type": "Undefined"
  },
  "LockStateChangeType": "Undefined",
  "LockStateVisibilityType": "Undefined",
  "IsConfirmationActive": true,
  "NavigationTarget": "BusinessRecord"
}