{
  "$type": "Comindware.Platform.Contracts.IntermediateEventActivityModel, Comindware.Platform.Contracts",
  "GlobalAlias": {
    "$type": "Comindware.Platform.Contracts.GlobalAlias, Comindware.Platform.Contracts",
    "Type": "ClientActivity",
    "Owner": "ObrabotkasoobscheniyaRPA",
    "Alias": "timerIntermediateEvent1"
  },
  "Kind": "ThrowingMessage",
  "IsInterrupting": false,
  "MessageDefinition": {
    "$type": "Comindware.Platform.Contracts.MessageEventDefinitionModel, Comindware.Platform.Contracts",
    "IsThrowing": true,
    "MessageType": {
      "$type": "Comindware.Platform.Contracts.GlobalAlias, Comindware.Platform.Contracts",
      "Type": "MessageTemplate",
      "Alias": "timerIntermediateEvent16efb"
    },
    "MessageName": "Ответ RPA",
    "MessageReceiver": {
      "$type": "Comindware.Platform.Contracts.MessageReceiverProcessObjectDefinitionModel, Comindware.Platform.Contracts",
      "ProcessObjectId": {
        "$type": "Comindware.Platform.Contracts.CalculationRuleModel, Comindware.Platform.Contracts",
        "Type": "Calculation",
        "Definition": {
          "$type": "Comindware.Platform.Contracts.ExpressionRuleDefinitionModel, Comindware.Platform.Contracts",
          "Expression": "$IDekzemplyaraprotsessa",
          "Type": "Expression"
        }
      },
      "ReceiverAddressType": "ProcessObject",
      "Type": "ProcessObject"
    },
    "InputMapping": {
      "$type": "Comindware.Platform.Contracts.MessagePayloadDefinitionModel, Comindware.Platform.Contracts",
      "MessageType": {
        "$type": "Comindware.Platform.Contracts.GlobalAlias, Comindware.Platform.Contracts",
        "Type": "MessageTemplate",
        "Alias": "timerIntermediateEvent16efb"
      },
      "Data": {
        "$type": "Comindware.Platform.Contracts.MakeMessageRuleModel, Comindware.Platform.Contracts",
        "MessageType": {
          "$type": "Comindware.Platform.Contracts.GlobalAlias, Comindware.Platform.Contracts",
          "Type": "MessageTemplate",
          "Alias": "timerIntermediateEvent16efb"
        },
        "Type": "MakeMessage"
      }
    }
  },
  "BehaviourState": "Undefined",
  "Title": " Отправка в МП",
  "IsTitleSet": false,
  "Position": {
    "$type": "Comindware.Platform.Contracts.VectorModel, Comindware.Platform.Contracts",
    "X": 560.0,
    "Y": 180.0
  },
  "Size": {
    "$type": "Comindware.Platform.Contracts.DimensionsModel, Comindware.Platform.Contracts",
    "Width": 40.0,
    "Height": 40.0
  },
  "Owner": {
    "$type": "Comindware.Platform.Contracts.GlobalAlias, Comindware.Platform.Contracts",
    "Type": "ClientActivity",
    "Owner": "ObrabotkasoobscheniyaRPA",
    "Alias": "pool1"
  },
  "OwnerEmbeddedProcessActivityAlias": {
    "$type": "Comindware.Platform.Contracts.GlobalAlias, Comindware.Platform.Contracts",
    "Type": "Undefined"
  },
  "MountedOnAlias": {
    "$type": "Comindware.Platform.Contracts.GlobalAlias, Comindware.Platform.Contracts",
    "Type": "Undefined"
  },
  "Type": "IntermediateEvent",
  "OnEnterTrigger": {
    "$type": "Comindware.Platform.Contracts.GlobalAlias, Comindware.Platform.Contracts",
    "Type": "Undefined"
  },
  "OnExitTrigger": {
    "$type": "Comindware.Platform.Contracts.GlobalAlias, Comindware.Platform.Contracts",
    "Type": "Undefined"
  }
}