{
  "$type": "Comindware.Platform.Contracts.TaskActivityModel, Comindware.Platform.Contracts",
  "GlobalAlias": {
    "$type": "Comindware.Platform.Contracts.GlobalAlias, Comindware.Platform.Contracts",
    "Type": "ClientActivity",
    "Owner": "Sozdaniepolzovatelya",
    "Alias": "userTask1"
  },
  "Kind": "GlobalFunction",
  "GlobalFunctionDefinition": {
    "$type": "Comindware.Platform.Contracts.GlobalFunctionTaskDefinitionModel, Comindware.Platform.Contracts",
    "MaxExecutionTime": "03:00:00",
    "AttemptCount": 1,
    "AttemptInterval": "00:00:00",
    "GlobalFunction": {
      "$type": "Comindware.Platform.Contracts.GlobalAlias, Comindware.Platform.Contracts",
      "Type": "GlobalFunction",
      "Alias": "Sozdaniepolzovatelya"
    },
    "InputMessageType": {
      "$type": "Comindware.Platform.Contracts.GlobalAlias, Comindware.Platform.Contracts",
      "Type": "Undefined"
    },
    "ReturnMessageType": {
      "$type": "Comindware.Platform.Contracts.GlobalAlias, Comindware.Platform.Contracts",
      "Type": "Undefined"
    },
    "InputMappings": {
      "$type": "Comindware.Platform.Contracts.MakeMessageRuleModel, Comindware.Platform.Contracts",
      "MessageType": {
        "$type": "Comindware.Platform.Contracts.GlobalAlias, Comindware.Platform.Contracts",
        "Type": "MessageTemplate",
        "Alias": "Sozdaniepolzovatelya_input1b87"
      },
      "PropertyMap": {
        "$type": "Comindware.Platform.Contracts.PropertyMapKeyValueModel[], Comindware.Platform.Contracts",
        "$values": [
          {
            "$type": "Comindware.Platform.Contracts.PropertyMapKeyValueModel, Comindware.Platform.Contracts",
            "Key": {
              "$type": "Comindware.Platform.Contracts.ModificationActionModel, Comindware.Platform.Contracts",
              "PropertyPath": {
                "$type": "Comindware.Platform.Contracts.GlobalAlias[], Comindware.Platform.Contracts",
                "$values": [
                  {
                    "$type": "Comindware.Platform.Contracts.GlobalAlias, Comindware.Platform.Contracts",
                    "Type": "MessageTemplateProperty",
                    "Owner": "Sozdaniepolzovatelya_input1b87",
                    "Alias": "title"
                  }
                ]
              },
              "PropertyAction": "Replace"
            },
            "Value": {
              "$type": "Comindware.Platform.Contracts.CalculationRuleModel, Comindware.Platform.Contracts",
              "Type": "Calculation",
              "Definition": {
                "$type": "Comindware.Platform.Contracts.PropertyRuleDefinitionModel, Comindware.Platform.Contracts",
                "PropertyPath": {
                  "$type": "Comindware.Platform.Contracts.GlobalAlias[], Comindware.Platform.Contracts",
                  "$values": [
                    {
                      "$type": "Comindware.Platform.Contracts.GlobalAlias, Comindware.Platform.Contracts",
                      "Type": "Attribute",
                      "Owner": "Sozdaniyapolzovateley",
                      "Alias": "Dolzhnost"
                    }
                  ]
                },
                "Type": "Property"
              }
            }
          },
          {
            "$type": "Comindware.Platform.Contracts.PropertyMapKeyValueModel, Comindware.Platform.Contracts",
            "Key": {
              "$type": "Comindware.Platform.Contracts.ModificationActionModel, Comindware.Platform.Contracts",
              "PropertyPath": {
                "$type": "Comindware.Platform.Contracts.GlobalAlias[], Comindware.Platform.Contracts",
                "$values": [
                  {
                    "$type": "Comindware.Platform.Contracts.GlobalAlias, Comindware.Platform.Contracts",
                    "Type": "MessageTemplateProperty",
                    "Owner": "Sozdaniepolzovatelya_input1b87",
                    "Alias": "password"
                  }
                ]
              },
              "PropertyAction": "Replace"
            },
            "Value": {
              "$type": "Comindware.Platform.Contracts.CalculationRuleModel, Comindware.Platform.Contracts",
              "Type": "Calculation"
            }
          },
          {
            "$type": "Comindware.Platform.Contracts.PropertyMapKeyValueModel, Comindware.Platform.Contracts",
            "Key": {
              "$type": "Comindware.Platform.Contracts.ModificationActionModel, Comindware.Platform.Contracts",
              "PropertyPath": {
                "$type": "Comindware.Platform.Contracts.GlobalAlias[], Comindware.Platform.Contracts",
                "$values": [
                  {
                    "$type": "Comindware.Platform.Contracts.GlobalAlias, Comindware.Platform.Contracts",
                    "Type": "MessageTemplateProperty",
                    "Owner": "Sozdaniepolzovatelya_input1b87",
                    "Alias": "company"
                  }
                ]
              },
              "PropertyAction": "Replace"
            },
            "Value": {
              "$type": "Comindware.Platform.Contracts.CalculationRuleModel, Comindware.Platform.Contracts",
              "Type": "Calculation",
              "Definition": {
                "$type": "Comindware.Platform.Contracts.ExpressionRuleDefinitionModel, Comindware.Platform.Contracts",
                "Expression": "$KontragentRef->id",
                "Type": "Expression"
              }
            }
          },
          {
            "$type": "Comindware.Platform.Contracts.PropertyMapKeyValueModel, Comindware.Platform.Contracts",
            "Key": {
              "$type": "Comindware.Platform.Contracts.ModificationActionModel, Comindware.Platform.Contracts",
              "PropertyPath": {
                "$type": "Comindware.Platform.Contracts.GlobalAlias[], Comindware.Platform.Contracts",
                "$values": [
                  {
                    "$type": "Comindware.Platform.Contracts.GlobalAlias, Comindware.Platform.Contracts",
                    "Type": "MessageTemplateProperty",
                    "Owner": "Sozdaniepolzovatelya_input1b87",
                    "Alias": "phone"
                  }
                ]
              },
              "PropertyAction": "Replace"
            },
            "Value": {
              "$type": "Comindware.Platform.Contracts.CalculationRuleModel, Comindware.Platform.Contracts",
              "Type": "Calculation",
              "Definition": {
                "$type": "Comindware.Platform.Contracts.PropertyRuleDefinitionModel, Comindware.Platform.Contracts",
                "PropertyPath": {
                  "$type": "Comindware.Platform.Contracts.GlobalAlias[], Comindware.Platform.Contracts",
                  "$values": [
                    {
                      "$type": "Comindware.Platform.Contracts.GlobalAlias, Comindware.Platform.Contracts",
                      "Type": "Attribute",
                      "Owner": "Sozdaniyapolzovateley",
                      "Alias": "Tel"
                    }
                  ]
                },
                "Type": "Property"
              }
            }
          },
          {
            "$type": "Comindware.Platform.Contracts.PropertyMapKeyValueModel, Comindware.Platform.Contracts",
            "Key": {
              "$type": "Comindware.Platform.Contracts.ModificationActionModel, Comindware.Platform.Contracts",
              "PropertyPath": {
                "$type": "Comindware.Platform.Contracts.GlobalAlias[], Comindware.Platform.Contracts",
                "$values": [
                  {
                    "$type": "Comindware.Platform.Contracts.GlobalAlias, Comindware.Platform.Contracts",
                    "Type": "MessageTemplateProperty",
                    "Owner": "Sozdaniepolzovatelya_input1b87",
                    "Alias": "name"
                  }
                ]
              },
              "PropertyAction": "Replace"
            },
            "Value": {
              "$type": "Comindware.Platform.Contracts.CalculationRuleModel, Comindware.Platform.Contracts",
              "Type": "Calculation",
              "Definition": {
                "$type": "Comindware.Platform.Contracts.PropertyRuleDefinitionModel, Comindware.Platform.Contracts",
                "PropertyPath": {
                  "$type": "Comindware.Platform.Contracts.GlobalAlias[], Comindware.Platform.Contracts",
                  "$values": [
                    {
                      "$type": "Comindware.Platform.Contracts.GlobalAlias, Comindware.Platform.Contracts",
                      "Type": "Attribute",
                      "Owner": "Sozdaniyapolzovateley",
                      "Alias": "FIO"
                    }
                  ]
                },
                "Type": "Property"
              }
            }
          },
          {
            "$type": "Comindware.Platform.Contracts.PropertyMapKeyValueModel, Comindware.Platform.Contracts",
            "Key": {
              "$type": "Comindware.Platform.Contracts.ModificationActionModel, Comindware.Platform.Contracts",
              "PropertyPath": {
                "$type": "Comindware.Platform.Contracts.GlobalAlias[], Comindware.Platform.Contracts",
                "$values": [
                  {
                    "$type": "Comindware.Platform.Contracts.GlobalAlias, Comindware.Platform.Contracts",
                    "Type": "MessageTemplateProperty",
                    "Owner": "Sozdaniepolzovatelya_input1b87",
                    "Alias": "login"
                  }
                ]
              },
              "PropertyAction": "Replace"
            },
            "Value": {
              "$type": "Comindware.Platform.Contracts.CalculationRuleModel, Comindware.Platform.Contracts",
              "Type": "Calculation",
              "Definition": {
                "$type": "Comindware.Platform.Contracts.PropertyRuleDefinitionModel, Comindware.Platform.Contracts",
                "PropertyPath": {
                  "$type": "Comindware.Platform.Contracts.GlobalAlias[], Comindware.Platform.Contracts",
                  "$values": [
                    {
                      "$type": "Comindware.Platform.Contracts.GlobalAlias, Comindware.Platform.Contracts",
                      "Type": "Attribute",
                      "Owner": "Sozdaniyapolzovateley",
                      "Alias": "Login"
                    }
                  ]
                },
                "Type": "Property"
              }
            }
          },
          {
            "$type": "Comindware.Platform.Contracts.PropertyMapKeyValueModel, Comindware.Platform.Contracts",
            "Key": {
              "$type": "Comindware.Platform.Contracts.ModificationActionModel, Comindware.Platform.Contracts",
              "PropertyPath": {
                "$type": "Comindware.Platform.Contracts.GlobalAlias[], Comindware.Platform.Contracts",
                "$values": [
                  {
                    "$type": "Comindware.Platform.Contracts.GlobalAlias, Comindware.Platform.Contracts",
                    "Type": "MessageTemplateProperty",
                    "Owner": "Sozdaniepolzovatelya_input1b87",
                    "Alias": "email"
                  }
                ]
              },
              "PropertyAction": "Replace"
            },
            "Value": {
              "$type": "Comindware.Platform.Contracts.CalculationRuleModel, Comindware.Platform.Contracts",
              "Type": "Calculation",
              "Definition": {
                "$type": "Comindware.Platform.Contracts.PropertyRuleDefinitionModel, Comindware.Platform.Contracts",
                "PropertyPath": {
                  "$type": "Comindware.Platform.Contracts.GlobalAlias[], Comindware.Platform.Contracts",
                  "$values": [
                    {
                      "$type": "Comindware.Platform.Contracts.GlobalAlias, Comindware.Platform.Contracts",
                      "Type": "Attribute",
                      "Owner": "Sozdaniyapolzovateley",
                      "Alias": "Email"
                    }
                  ]
                },
                "Type": "Property"
              }
            }
          }
        ]
      },
      "Type": "MakeMessage"
    },
    "ReturnMappings": {
      "$type": "Comindware.Platform.Contracts.MakeObjectRuleModel, Comindware.Platform.Contracts",
      "RecordTemplate": {
        "$type": "Comindware.Platform.Contracts.GlobalAlias, Comindware.Platform.Contracts",
        "Type": "Undefined"
      },
      "PropertyMap": {
        "$type": "Comindware.Platform.Contracts.PropertyMapKeyValueModel[], Comindware.Platform.Contracts",
        "$values": [
          {
            "$type": "Comindware.Platform.Contracts.PropertyMapKeyValueModel, Comindware.Platform.Contracts",
            "Key": {
              "$type": "Comindware.Platform.Contracts.ModificationActionModel, Comindware.Platform.Contracts",
              "PropertyPath": {
                "$type": "Comindware.Platform.Contracts.GlobalAlias[], Comindware.Platform.Contracts",
                "$values": [
                  {
                    "$type": "Comindware.Platform.Contracts.GlobalAlias, Comindware.Platform.Contracts",
                    "Type": "Attribute",
                    "Owner": "Sozdaniyapolzovateley",
                    "Alias": "Parol"
                  }
                ]
              },
              "PropertyAction": "Replace"
            },
            "Value": {
              "$type": "Comindware.Platform.Contracts.CalculationRuleModel, Comindware.Platform.Contracts",
              "Type": "Calculation",
              "Definition": {
                "$type": "Comindware.Platform.Contracts.PropertyRuleDefinitionModel, Comindware.Platform.Contracts",
                "PropertyPath": {
                  "$type": "Comindware.Platform.Contracts.GlobalAlias[], Comindware.Platform.Contracts",
                  "$values": [
                    {
                      "$type": "Comindware.Platform.Contracts.GlobalAlias, Comindware.Platform.Contracts",
                      "Type": "MessageTemplateProperty",
                      "Owner": "Sozdaniepolzovatelya_outputa434",
                      "Alias": "StringData"
                    }
                  ]
                },
                "Type": "Property"
              }
            }
          }
        ]
      },
      "Type": "MakeObject"
    }
  },
  "FormAlias": {
    "$type": "Comindware.Platform.Contracts.GlobalAlias, Comindware.Platform.Contracts",
    "Type": "ProcessForm",
    "Owner": "Sozdaniepolzovatelya"
  },
  "BehaviourState": "Undefined",
  "Title": "Создание пользователя (клиент)",
  "IsTitleSet": false,
  "Position": {
    "$type": "Comindware.Platform.Contracts.VectorModel, Comindware.Platform.Contracts",
    "X": 720.0,
    "Y": 185.0
  },
  "Size": {
    "$type": "Comindware.Platform.Contracts.DimensionsModel, Comindware.Platform.Contracts",
    "Width": 120.0,
    "Height": 70.0
  },
  "Owner": {
    "$type": "Comindware.Platform.Contracts.GlobalAlias, Comindware.Platform.Contracts",
    "Type": "ClientActivity",
    "Owner": "Sozdaniepolzovatelya",
    "Alias": "lane1"
  },
  "OwnerEmbeddedProcessActivityAlias": {
    "$type": "Comindware.Platform.Contracts.GlobalAlias, Comindware.Platform.Contracts",
    "Type": "Undefined"
  },
  "MountedOnAlias": {
    "$type": "Comindware.Platform.Contracts.GlobalAlias, Comindware.Platform.Contracts",
    "Type": "Undefined"
  },
  "Type": "Task",
  "OnEnterTrigger": {
    "$type": "Comindware.Platform.Contracts.GlobalAlias, Comindware.Platform.Contracts",
    "Type": "Undefined"
  },
  "OnExitTrigger": {
    "$type": "Comindware.Platform.Contracts.GlobalAlias, Comindware.Platform.Contracts",
    "Type": "Trigger",
    "Alias": "TokenLeaves_userTask1_Process_Sozdaniepolzovatelya_V7_0_372071"
  }
}