{
  "$type": "Comindware.Platform.Contracts.FormModel, Comindware.Platform.Contracts",
  "GlobalAlias": {
    "$type": "Comindware.Platform.Contracts.GlobalAlias, Comindware.Platform.Contracts",
    "Type": "ProcessForm",
    "Owner": "Soglasovaniemediaplananaruzhnayareklama",
    "Alias": "form33e104dacdf8406c8fc1e332cbddcf66"
  },
  "Type": "PublicForm",
  "IsDefault": false,
  "Root": {
    "$type": "Comindware.Platform.Contracts.VerticalLayoutModel, Comindware.Platform.Contracts",
    "Rows": {
      "$type": "System.Collections.Generic.List`1[[Comindware.Platform.Contracts.FormComponentModel, Comindware.Platform.Contracts]], mscorlib",
      "$values": [
        {
          "$type": "Comindware.Platform.Contracts.SubFormModel, Comindware.Platform.Contracts",
          "Name": "Форма-инструкция для Клиента 1 (СМП)",
          "DataSourcePropertyPath": {
            "$type": "Comindware.Platform.Contracts.GlobalAlias[], Comindware.Platform.Contracts",
            "$values": [
              {
                "$type": "Comindware.Platform.Contracts.GlobalAlias, Comindware.Platform.Contracts",
                "Type": "Attribute",
                "Alias": "cmw.task.objectId"
              },
              {
                "$type": "Comindware.Platform.Contracts.GlobalAlias, Comindware.Platform.Contracts",
                "Type": "Form",
                "Owner": "Mediaplany",
                "Alias": "form48350"
              }
            ]
          },
          "GlobalAlias": {
            "$type": "Comindware.Platform.Contracts.GlobalAlias, Comindware.Platform.Contracts",
            "Type": "FormComponent",
            "Alias": "form48350"
          },
          "AccessType": "Editable",
          "Width": 0,
          "Type": "SubForm"
        },
        {
          "$type": "Comindware.Platform.Contracts.SubFormModel, Comindware.Platform.Contracts",
          "Name": "Форма-инструкция для Менеджера КС (СМП)",
          "DataSourcePropertyPath": {
            "$type": "Comindware.Platform.Contracts.GlobalAlias[], Comindware.Platform.Contracts",
            "$values": [
              {
                "$type": "Comindware.Platform.Contracts.GlobalAlias, Comindware.Platform.Contracts",
                "Type": "Attribute",
                "Alias": "cmw.task.objectId"
              },
              {
                "$type": "Comindware.Platform.Contracts.GlobalAlias, Comindware.Platform.Contracts",
                "Type": "Form",
                "Owner": "Mediaplany",
                "Alias": "form52835"
              }
            ]
          },
          "GlobalAlias": {
            "$type": "Comindware.Platform.Contracts.GlobalAlias, Comindware.Platform.Contracts",
            "Type": "FormComponent",
            "Alias": "form52835"
          },
          "AccessType": "Editable",
          "Width": 0,
          "Type": "SubForm"
        },
        {
          "$type": "Comindware.Platform.Contracts.SubFormModel, Comindware.Platform.Contracts",
          "Name": "Форма для согласования медиаплана клиентом",
          "DataSourcePropertyPath": {
            "$type": "Comindware.Platform.Contracts.GlobalAlias[], Comindware.Platform.Contracts",
            "$values": [
              {
                "$type": "Comindware.Platform.Contracts.GlobalAlias, Comindware.Platform.Contracts",
                "Type": "Attribute",
                "Alias": "cmw.task.objectId"
              },
              {
                "$type": "Comindware.Platform.Contracts.GlobalAlias, Comindware.Platform.Contracts",
                "Type": "Form",
                "Owner": "Mediaplany",
                "Alias": "form36986"
              }
            ]
          },
          "GlobalAlias": {
            "$type": "Comindware.Platform.Contracts.GlobalAlias, Comindware.Platform.Contracts",
            "Type": "FormComponent",
            "Alias": "form36986"
          },
          "AccessType": "Editable",
          "Width": 0,
          "Type": "SubForm"
        }
      ]
    },
    "GlobalAlias": {
      "$type": "Comindware.Platform.Contracts.GlobalAlias, Comindware.Platform.Contracts",
      "Type": "FormComponent",
      "Alias": "default_Root"
    },
    "AccessType": "Undefined",
    "Width": 0,
    "Type": "VerticalLayout"
  },
  "Name": "Новая форма",
  "Origination": "Undefined"
}