{
  "$type": "Comindware.Platform.Contracts.TaskActivityModel, Comindware.Platform.Contracts",
  "GlobalAlias": {
    "$type": "Comindware.Platform.Contracts.GlobalAlias, Comindware.Platform.Contracts",
    "Type": "ClientActivity",
    "Owner": "Kontroloplatyscheta",
    "Alias": "userTask1"
  },
  "Kind": "User",
  "UserDefinition": {
    "$type": "Comindware.Platform.Contracts.UserTaskDefinitionModel, Comindware.Platform.Contracts",
    "Modifiers": {
      "$type": "Comindware.Platform.Contracts.ModificationRuleModel[], Comindware.Platform.Contracts",
      "$values": [
        {
          "$type": "Comindware.Platform.Contracts.ModificationRuleModel, Comindware.Platform.Contracts",
          "Action": {
            "$type": "Comindware.Platform.Contracts.ModificationActionModel, Comindware.Platform.Contracts",
            "PropertyPath": {
              "$type": "Comindware.Platform.Contracts.GlobalAlias[], Comindware.Platform.Contracts",
              "$values": [
                {
                  "$type": "Comindware.Platform.Contracts.GlobalAlias, Comindware.Platform.Contracts",
                  "Type": "Attribute",
                  "Alias": "title"
                }
              ]
            },
            "PropertyAction": "Replace"
          },
          "Type": "Modification",
          "Definition": {
            "$type": "Comindware.Platform.Contracts.ValuesRuleDefinitionModel, Comindware.Platform.Contracts",
            "Values": {
              "$type": "System.Object[], mscorlib",
              "$values": [
                "Получить информацию по дате оплаты счета"
              ]
            },
            "Type": "Values"
          }
        },
        {
          "$type": "Comindware.Platform.Contracts.ModificationRuleModel, Comindware.Platform.Contracts",
          "Action": {
            "$type": "Comindware.Platform.Contracts.ModificationActionModel, Comindware.Platform.Contracts",
            "PropertyPath": {
              "$type": "Comindware.Platform.Contracts.GlobalAlias[], Comindware.Platform.Contracts",
              "$values": [
                {
                  "$type": "Comindware.Platform.Contracts.GlobalAlias, Comindware.Platform.Contracts",
                  "Type": "Attribute",
                  "Alias": "possibleAssignee"
                }
              ]
            },
            "PropertyAction": "Replace"
          },
          "Type": "Modification",
          "Definition": {
            "$type": "Comindware.Platform.Contracts.PropertyRuleDefinitionModel, Comindware.Platform.Contracts",
            "PropertyPath": {
              "$type": "Comindware.Platform.Contracts.GlobalAlias[], Comindware.Platform.Contracts",
              "$values": [
                {
                  "$type": "Comindware.Platform.Contracts.GlobalAlias, Comindware.Platform.Contracts",
                  "Type": "Attribute",
                  "Owner": "Scheta",
                  "Alias": "Prilozhenie"
                },
                {
                  "$type": "Comindware.Platform.Contracts.GlobalAlias, Comindware.Platform.Contracts",
                  "Type": "Attribute",
                  "Owner": "Prilozheniyakdogovoram",
                  "Alias": "Mediaplan"
                },
                {
                  "$type": "Comindware.Platform.Contracts.GlobalAlias, Comindware.Platform.Contracts",
                  "Type": "Attribute",
                  "Owner": "Mediaplany",
                  "Alias": "OtvetstvennyyKS"
                }
              ]
            },
            "Type": "Property"
          }
        },
        {
          "$type": "Comindware.Platform.Contracts.ModificationRuleModel, Comindware.Platform.Contracts",
          "Action": {
            "$type": "Comindware.Platform.Contracts.ModificationActionModel, Comindware.Platform.Contracts",
            "PropertyPath": {
              "$type": "Comindware.Platform.Contracts.GlobalAlias[], Comindware.Platform.Contracts",
              "$values": [
                {
                  "$type": "Comindware.Platform.Contracts.GlobalAlias, Comindware.Platform.Contracts",
                  "Type": "Attribute",
                  "Owner": "_UserTask",
                  "Alias": "isReassignProhibited"
                }
              ]
            },
            "PropertyAction": "Replace"
          },
          "Type": "Modification",
          "Definition": {
            "$type": "Comindware.Platform.Contracts.ValuesRuleDefinitionModel, Comindware.Platform.Contracts",
            "Values": {
              "$type": "System.Object[], mscorlib",
              "$values": [
                false
              ]
            },
            "Type": "Values"
          }
        },
        {
          "$type": "Comindware.Platform.Contracts.ModificationRuleModel, Comindware.Platform.Contracts",
          "Action": {
            "$type": "Comindware.Platform.Contracts.ModificationActionModel, Comindware.Platform.Contracts",
            "PropertyPath": {
              "$type": "Comindware.Platform.Contracts.GlobalAlias[], Comindware.Platform.Contracts",
              "$values": [
                {
                  "$type": "Comindware.Platform.Contracts.GlobalAlias, Comindware.Platform.Contracts",
                  "Type": "Attribute",
                  "Alias": "dueDate"
                }
              ]
            },
            "PropertyAction": "Replace"
          },
          "Type": "Modification"
        },
        {
          "$type": "Comindware.Platform.Contracts.ModificationRuleModel, Comindware.Platform.Contracts",
          "Action": {
            "$type": "Comindware.Platform.Contracts.ModificationActionModel, Comindware.Platform.Contracts",
            "PropertyPath": {
              "$type": "Comindware.Platform.Contracts.GlobalAlias[], Comindware.Platform.Contracts",
              "$values": [
                {
                  "$type": "Comindware.Platform.Contracts.GlobalAlias, Comindware.Platform.Contracts",
                  "Type": "Attribute",
                  "Owner": "_Case",
                  "Alias": "description"
                }
              ]
            },
            "PropertyAction": "Replace"
          },
          "Type": "Modification",
          "Definition": {
            "$type": "Comindware.Platform.Contracts.ValuesRuleDefinitionModel, Comindware.Platform.Contracts",
            "Type": "Values"
          }
        }
      ]
    },
    "MessageMapping": {
      "$type": "Comindware.Platform.Contracts.MessagePayloadDefinitionModel, Comindware.Platform.Contracts",
      "MessageType": {
        "$type": "Comindware.Platform.Contracts.GlobalAlias, Comindware.Platform.Contracts",
        "Type": "Undefined"
      },
      "Data": {
        "$type": "Comindware.Platform.Contracts.MakeMessageRuleModel, Comindware.Platform.Contracts",
        "MessageType": {
          "$type": "Comindware.Platform.Contracts.GlobalAlias, Comindware.Platform.Contracts",
          "Type": "Undefined"
        },
        "ContextObject": "task",
        "Type": "MakeMessage"
      }
    }
  },
  "FormAlias": {
    "$type": "Comindware.Platform.Contracts.GlobalAlias, Comindware.Platform.Contracts",
    "Type": "ProcessForm",
    "Owner": "Kontroloplatyscheta",
    "Alias": "form9ae33e847b534d44aec2af6c4621e86d"
  },
  "BehaviourState": "Undefined",
  "Title": "Получить информацию по дате оплаты счета",
  "IsTitleSet": false,
  "Position": {
    "$type": "Comindware.Platform.Contracts.VectorModel, Comindware.Platform.Contracts",
    "X": 460.0,
    "Y": 65.0
  },
  "Size": {
    "$type": "Comindware.Platform.Contracts.DimensionsModel, Comindware.Platform.Contracts",
    "Width": 120.0,
    "Height": 70.0
  },
  "Owner": {
    "$type": "Comindware.Platform.Contracts.GlobalAlias, Comindware.Platform.Contracts",
    "Type": "ClientActivity",
    "Owner": "Kontroloplatyscheta",
    "Alias": "lane1"
  },
  "OwnerEmbeddedProcessActivityAlias": {
    "$type": "Comindware.Platform.Contracts.GlobalAlias, Comindware.Platform.Contracts",
    "Type": "Undefined"
  },
  "MountedOnAlias": {
    "$type": "Comindware.Platform.Contracts.GlobalAlias, Comindware.Platform.Contracts",
    "Type": "Undefined"
  },
  "Type": "Task",
  "OnEnterTrigger": {
    "$type": "Comindware.Platform.Contracts.GlobalAlias, Comindware.Platform.Contracts",
    "Type": "Undefined"
  },
  "OnExitTrigger": {
    "$type": "Comindware.Platform.Contracts.GlobalAlias, Comindware.Platform.Contracts",
    "Type": "Undefined"
  }
}