{
  "$type": "Comindware.Platform.Contracts.MessageTypeConfigurationModel, Comindware.Platform.Contracts",
  "Name": "Pereparsing2b71b",
  "GlobalAlias": {
    "$type": "Comindware.Platform.Contracts.GlobalAlias, Comindware.Platform.Contracts",
    "Type": "MessageTemplate",
    "Alias": "Pereparsing2b71b"
  },
  "Kind": "InternalKind"
}