{
  "$type": "Comindware.Platform.Contracts.MessageTypeConfigurationModel, Comindware.Platform.Contracts",
  "Name": "Zakrasitshevron_input3a48",
  "GlobalAlias": {
    "$type": "Comindware.Platform.Contracts.GlobalAlias, Comindware.Platform.Contracts",
    "Type": "MessageTemplate",
    "Alias": "Zakrasitshevron_input3a48"
  },
  "Kind": "ExternalKind"
}