{
  "$type": "Comindware.Platform.Contracts.FlowActivityModel, Comindware.Platform.Contracts",
  "GlobalAlias": {
    "$type": "Comindware.Platform.Contracts.GlobalAlias, Comindware.Platform.Contracts",
    "Type": "ClientActivity",
    "Owner": "Formirovaniedopsoglasheniya",
    "Alias": "flow67"
  },
  "TargetActivity": {
    "$type": "Comindware.Platform.Contracts.ConnectorModel, Comindware.Platform.Contracts",
    "Target": {
      "$type": "Comindware.Platform.Contracts.GlobalAlias, Comindware.Platform.Contracts",
      "Type": "ClientActivity",
      "Owner": "Formirovaniedopsoglasheniya",
      "Alias": "exclusiveGate28"
    },
    "TargetConnectorIndex": 0
  },
  "SourceActivity": {
    "$type": "Comindware.Platform.Contracts.ConnectorModel, Comindware.Platform.Contracts",
    "Target": {
      "$type": "Comindware.Platform.Contracts.GlobalAlias, Comindware.Platform.Contracts",
      "Type": "ClientActivity",
      "Owner": "Formirovaniedopsoglasheniya",
      "Alias": "exclusiveGate27"
    },
    "TargetConnectorIndex": 0
  },
  "Points": {
    "$type": "Comindware.Platform.Contracts.VectorModel[], Comindware.Platform.Contracts",
    "$values": [
      {
        "$type": "Comindware.Platform.Contracts.VectorModel, Comindware.Platform.Contracts",
        "X": -380.0,
        "Y": -12.2815652562299
      },
      {
        "$type": "Comindware.Platform.Contracts.VectorModel, Comindware.Platform.Contracts",
        "X": -380.0,
        "Y": -32.2815652562299
      },
      {
        "$type": "Comindware.Platform.Contracts.VectorModel, Comindware.Platform.Contracts",
        "X": -380.0,
        "Y": -60.0
      },
      {
        "$type": "Comindware.Platform.Contracts.VectorModel, Comindware.Platform.Contracts",
        "X": 0.0,
        "Y": -60.0
      },
      {
        "$type": "Comindware.Platform.Contracts.VectorModel, Comindware.Platform.Contracts",
        "X": 0.0,
        "Y": -32.2815652562299
      },
      {
        "$type": "Comindware.Platform.Contracts.VectorModel, Comindware.Platform.Contracts",
        "X": 0.0,
        "Y": -12.2815652562299
      }
    ]
  },
  "SequenceDefinition": {
    "$type": "Comindware.Platform.Contracts.SequenceFlowDefinitionModel, Comindware.Platform.Contracts",
    "IsDefault": true
  },
  "Title": "Нет",
  "IsTitleSet": false,
  "Position": {
    "$type": "Comindware.Platform.Contracts.VectorModel, Comindware.Platform.Contracts",
    "X": 5040.0,
    "Y": 1537.58064674606
  },
  "Size": {
    "$type": "Comindware.Platform.Contracts.DimensionsModel, Comindware.Platform.Contracts",
    "Width": 0.0,
    "Height": 0.0
  },
  "Owner": {
    "$type": "Comindware.Platform.Contracts.GlobalAlias, Comindware.Platform.Contracts",
    "Type": "ClientActivity",
    "Owner": "Formirovaniedopsoglasheniya",
    "Alias": "lane1"
  },
  "OwnerEmbeddedProcessActivityAlias": {
    "$type": "Comindware.Platform.Contracts.GlobalAlias, Comindware.Platform.Contracts",
    "Type": "Undefined"
  },
  "MountedOnAlias": {
    "$type": "Comindware.Platform.Contracts.GlobalAlias, Comindware.Platform.Contracts",
    "Type": "Undefined"
  },
  "Type": "ExecutionFlow",
  "OnEnterTrigger": {
    "$type": "Comindware.Platform.Contracts.GlobalAlias, Comindware.Platform.Contracts",
    "Type": "Undefined"
  },
  "OnExitTrigger": {
    "$type": "Comindware.Platform.Contracts.GlobalAlias, Comindware.Platform.Contracts",
    "Type": "Undefined"
  }
}