{
  "$type": "Comindware.Platform.Contracts.FormModel, Comindware.Platform.Contracts",
  "GlobalAlias": {
    "$type": "Comindware.Platform.Contracts.GlobalAlias, Comindware.Platform.Contracts",
    "Type": "Form",
    "Owner": "RIM",
    "Alias": "defaultForm"
  },
  "Type": "PublicForm",
  "IsDefault": true,
  "Root": {
    "$type": "Comindware.Platform.Contracts.VerticalLayoutModel, Comindware.Platform.Contracts",
    "Rows": {
      "$type": "System.Collections.Generic.List`1[[Comindware.Platform.Contracts.FormComponentModel, Comindware.Platform.Contracts]], mscorlib",
      "$values": [
        {
          "$type": "Comindware.Platform.Contracts.PanelModel, Comindware.Platform.Contracts",
          "Text": {
            "$type": "Comindware.Platform.Contracts.LocalizedTextModel, Comindware.Platform.Contracts",
            "En": "Основная информация",
            "De": "Основная информация",
            "Ru": "Основная информация"
          },
          "OriginalType": "GroupPanel",
          "Rows": {
            "$type": "System.Collections.Generic.List`1[[Comindware.Platform.Contracts.FormComponentModel, Comindware.Platform.Contracts]], mscorlib",
            "$values": [
              {
                "$type": "Comindware.Platform.Contracts.VerticalLayoutModel, Comindware.Platform.Contracts",
                "Rows": {
                  "$type": "System.Collections.Generic.List`1[[Comindware.Platform.Contracts.FormComponentModel, Comindware.Platform.Contracts]], mscorlib",
                  "$values": [
                    {
                      "$type": "Comindware.Platform.Contracts.LayoutModel, Comindware.Platform.Contracts",
                      "Components": {
                        "$type": "System.Collections.Generic.List`1[[Comindware.Platform.Contracts.FormComponentModel, Comindware.Platform.Contracts]], mscorlib",
                        "$values": [
                          {
                            "$type": "Comindware.Platform.Contracts.VerticalLayoutModel, Comindware.Platform.Contracts",
                            "Rows": {
                              "$type": "System.Collections.Generic.List`1[[Comindware.Platform.Contracts.FormComponentModel, Comindware.Platform.Contracts]], mscorlib",
                              "$values": [
                                {
                                  "$type": "Comindware.Platform.Contracts.FieldComponentModel, Comindware.Platform.Contracts",
                                  "Label": {
                                    "$type": "Comindware.Platform.Contracts.LabelModel, Comindware.Platform.Contracts",
                                    "Hidden": false,
                                    "Alignment": "Top",
                                    "Text": {
                                      "$type": "Comindware.Platform.Contracts.LocalizedTextModel, Comindware.Platform.Contracts",
                                      "En": "Название РИМ",
                                      "De": "Название РИМ",
                                      "Ru": "Название РИМ"
                                    }
                                  },
                                  "FieldType": "Text",
                                  "Placeholder": {
                                    "$type": "Comindware.Platform.Contracts.LocalizedTextModel, Comindware.Platform.Contracts"
                                  },
                                  "HelpText": {
                                    "$type": "Comindware.Platform.Contracts.LocalizedTextModel, Comindware.Platform.Contracts"
                                  },
                                  "PropertyPath": {
                                    "$type": "Comindware.Platform.Contracts.GlobalAlias[], Comindware.Platform.Contracts",
                                    "$values": [
                                      {
                                        "$type": "Comindware.Platform.Contracts.GlobalAlias, Comindware.Platform.Contracts",
                                        "Type": "Attribute",
                                        "Owner": "RIM",
                                        "Alias": "Nazvanie"
                                      }
                                    ]
                                  },
                                  "TextHeight": 0,
                                  "TextHeightAuto": false,
                                  "MaxLength": 0,
                                  "EditorType": "Simple",
                                  "CreationType": "None",
                                  "RemovalType": "None",
                                  "EditType": "None",
                                  "ChildPropertyAlias": {
                                    "$type": "Comindware.Platform.Contracts.GlobalAlias, Comindware.Platform.Contracts",
                                    "Type": "Undefined"
                                  },
                                  "OrderPropertyAlias": {
                                    "$type": "Comindware.Platform.Contracts.GlobalAlias, Comindware.Platform.Contracts",
                                    "Type": "Undefined"
                                  },
                                  "NumberPropertyAlias": {
                                    "$type": "Comindware.Platform.Contracts.GlobalAlias, Comindware.Platform.Contracts",
                                    "Type": "Undefined"
                                  },
                                  "PrecedentPropertyAlias": {
                                    "$type": "Comindware.Platform.Contracts.GlobalAlias, Comindware.Platform.Contracts",
                                    "Type": "Undefined"
                                  },
                                  "SortingDirection": "Asc",
                                  "PopupFormAlias": {
                                    "$type": "Comindware.Platform.Contracts.GlobalAlias, Comindware.Platform.Contracts",
                                    "Type": "Undefined"
                                  },
                                  "DisplayFormat": "ShowAsPicture",
                                  "GlobalAlias": {
                                    "$type": "Comindware.Platform.Contracts.GlobalAlias, Comindware.Platform.Contracts",
                                    "Type": "FormComponent",
                                    "Alias": "Nazvanie"
                                  },
                                  "AccessType": "Readonly",
                                  "Width": 0,
                                  "Type": "FieldComponent"
                                },
                                {
                                  "$type": "Comindware.Platform.Contracts.FieldComponentModel, Comindware.Platform.Contracts",
                                  "Label": {
                                    "$type": "Comindware.Platform.Contracts.LabelModel, Comindware.Platform.Contracts",
                                    "Hidden": false,
                                    "Alignment": "Top",
                                    "Text": {
                                      "$type": "Comindware.Platform.Contracts.LocalizedTextModel, Comindware.Platform.Contracts",
                                      "En": "Описание РИМ",
                                      "De": "Описание РИМ",
                                      "Ru": "Описание РИМ"
                                    }
                                  },
                                  "FieldType": "Text",
                                  "Placeholder": {
                                    "$type": "Comindware.Platform.Contracts.LocalizedTextModel, Comindware.Platform.Contracts"
                                  },
                                  "HelpText": {
                                    "$type": "Comindware.Platform.Contracts.LocalizedTextModel, Comindware.Platform.Contracts"
                                  },
                                  "PropertyPath": {
                                    "$type": "Comindware.Platform.Contracts.GlobalAlias[], Comindware.Platform.Contracts",
                                    "$values": [
                                      {
                                        "$type": "Comindware.Platform.Contracts.GlobalAlias, Comindware.Platform.Contracts",
                                        "Type": "Attribute",
                                        "Owner": "RIM",
                                        "Alias": "Opisanie"
                                      }
                                    ]
                                  },
                                  "TextHeight": 5,
                                  "TextHeightAuto": false,
                                  "MaxLength": 0,
                                  "EditorType": "Multiline",
                                  "CreationType": "None",
                                  "RemovalType": "None",
                                  "EditType": "None",
                                  "ChildPropertyAlias": {
                                    "$type": "Comindware.Platform.Contracts.GlobalAlias, Comindware.Platform.Contracts",
                                    "Type": "Undefined"
                                  },
                                  "OrderPropertyAlias": {
                                    "$type": "Comindware.Platform.Contracts.GlobalAlias, Comindware.Platform.Contracts",
                                    "Type": "Undefined"
                                  },
                                  "NumberPropertyAlias": {
                                    "$type": "Comindware.Platform.Contracts.GlobalAlias, Comindware.Platform.Contracts",
                                    "Type": "Undefined"
                                  },
                                  "PrecedentPropertyAlias": {
                                    "$type": "Comindware.Platform.Contracts.GlobalAlias, Comindware.Platform.Contracts",
                                    "Type": "Undefined"
                                  },
                                  "SortingDirection": "Asc",
                                  "PopupFormAlias": {
                                    "$type": "Comindware.Platform.Contracts.GlobalAlias, Comindware.Platform.Contracts",
                                    "Type": "Undefined"
                                  },
                                  "DisplayFormat": "ShowAsPicture",
                                  "GlobalAlias": {
                                    "$type": "Comindware.Platform.Contracts.GlobalAlias, Comindware.Platform.Contracts",
                                    "Type": "FormComponent",
                                    "Alias": "Opisanie"
                                  },
                                  "AccessType": "Readonly",
                                  "Width": 0,
                                  "Type": "FieldComponent"
                                }
                              ]
                            },
                            "GlobalAlias": {
                              "$type": "Comindware.Platform.Contracts.GlobalAlias, Comindware.Platform.Contracts",
                              "Type": "FormComponent",
                              "Alias": "VerticalLayout2"
                            },
                            "AccessType": "Undefined",
                            "Width": 50,
                            "Type": "VerticalLayout"
                          },
                          {
                            "$type": "Comindware.Platform.Contracts.VerticalLayoutModel, Comindware.Platform.Contracts",
                            "Rows": {
                              "$type": "System.Collections.Generic.List`1[[Comindware.Platform.Contracts.FormComponentModel, Comindware.Platform.Contracts]], mscorlib",
                              "$values": [
                                {
                                  "$type": "Comindware.Platform.Contracts.FieldComponentModel, Comindware.Platform.Contracts",
                                  "Label": {
                                    "$type": "Comindware.Platform.Contracts.LabelModel, Comindware.Platform.Contracts",
                                    "Hidden": false,
                                    "Alignment": "Top",
                                    "Text": {
                                      "$type": "Comindware.Platform.Contracts.LocalizedTextModel, Comindware.Platform.Contracts",
                                      "En": "Клиент",
                                      "De": "Клиент",
                                      "Ru": "Клиент"
                                    }
                                  },
                                  "FieldType": "Reference",
                                  "Placeholder": {
                                    "$type": "Comindware.Platform.Contracts.LocalizedTextModel, Comindware.Platform.Contracts"
                                  },
                                  "HelpText": {
                                    "$type": "Comindware.Platform.Contracts.LocalizedTextModel, Comindware.Platform.Contracts"
                                  },
                                  "PropertyPath": {
                                    "$type": "Comindware.Platform.Contracts.GlobalAlias[], Comindware.Platform.Contracts",
                                    "$values": [
                                      {
                                        "$type": "Comindware.Platform.Contracts.GlobalAlias, Comindware.Platform.Contracts",
                                        "Type": "Attribute",
                                        "Owner": "RIM",
                                        "Alias": "Klient"
                                      }
                                    ]
                                  },
                                  "EditorType": "Radio",
                                  "CreationType": "None",
                                  "RemovalType": "None",
                                  "EditType": "None",
                                  "HideSearchBar": false,
                                  "ShowAsLink": false,
                                  "ChildPropertyAlias": {
                                    "$type": "Comindware.Platform.Contracts.GlobalAlias, Comindware.Platform.Contracts",
                                    "Type": "Undefined"
                                  },
                                  "OrderPropertyAlias": {
                                    "$type": "Comindware.Platform.Contracts.GlobalAlias, Comindware.Platform.Contracts",
                                    "Type": "Undefined"
                                  },
                                  "NumberPropertyAlias": {
                                    "$type": "Comindware.Platform.Contracts.GlobalAlias, Comindware.Platform.Contracts",
                                    "Type": "Undefined"
                                  },
                                  "PrecedentPropertyAlias": {
                                    "$type": "Comindware.Platform.Contracts.GlobalAlias, Comindware.Platform.Contracts",
                                    "Type": "Undefined"
                                  },
                                  "SortingDirection": "Asc",
                                  "PopupFormAlias": {
                                    "$type": "Comindware.Platform.Contracts.GlobalAlias, Comindware.Platform.Contracts",
                                    "Type": "Undefined"
                                  },
                                  "AllowEdit": false,
                                  "DisplayFormat": "ShowAsPicture",
                                  "GlobalAlias": {
                                    "$type": "Comindware.Platform.Contracts.GlobalAlias, Comindware.Platform.Contracts",
                                    "Type": "FormComponent",
                                    "Alias": "Klient"
                                  },
                                  "AccessType": "Readonly",
                                  "Width": 0,
                                  "Type": "FieldComponent"
                                },
                                {
                                  "$type": "Comindware.Platform.Contracts.FieldComponentModel, Comindware.Platform.Contracts",
                                  "Label": {
                                    "$type": "Comindware.Platform.Contracts.LabelModel, Comindware.Platform.Contracts",
                                    "Hidden": false,
                                    "Alignment": "Top",
                                    "Text": {
                                      "$type": "Comindware.Platform.Contracts.LocalizedTextModel, Comindware.Platform.Contracts",
                                      "En": "Проект",
                                      "De": "Проект",
                                      "Ru": "Проект"
                                    }
                                  },
                                  "FieldType": "Reference",
                                  "Placeholder": {
                                    "$type": "Comindware.Platform.Contracts.LocalizedTextModel, Comindware.Platform.Contracts"
                                  },
                                  "HelpText": {
                                    "$type": "Comindware.Platform.Contracts.LocalizedTextModel, Comindware.Platform.Contracts"
                                  },
                                  "PropertyPath": {
                                    "$type": "Comindware.Platform.Contracts.GlobalAlias[], Comindware.Platform.Contracts",
                                    "$values": [
                                      {
                                        "$type": "Comindware.Platform.Contracts.GlobalAlias, Comindware.Platform.Contracts",
                                        "Type": "Attribute",
                                        "Owner": "RIM",
                                        "Alias": "Proekt"
                                      }
                                    ]
                                  },
                                  "EditorType": "Radio",
                                  "CreationType": "None",
                                  "RemovalType": "None",
                                  "EditType": "None",
                                  "HideSearchBar": false,
                                  "ShowAsLink": false,
                                  "ChildPropertyAlias": {
                                    "$type": "Comindware.Platform.Contracts.GlobalAlias, Comindware.Platform.Contracts",
                                    "Type": "Undefined"
                                  },
                                  "OrderPropertyAlias": {
                                    "$type": "Comindware.Platform.Contracts.GlobalAlias, Comindware.Platform.Contracts",
                                    "Type": "Undefined"
                                  },
                                  "NumberPropertyAlias": {
                                    "$type": "Comindware.Platform.Contracts.GlobalAlias, Comindware.Platform.Contracts",
                                    "Type": "Undefined"
                                  },
                                  "PrecedentPropertyAlias": {
                                    "$type": "Comindware.Platform.Contracts.GlobalAlias, Comindware.Platform.Contracts",
                                    "Type": "Undefined"
                                  },
                                  "SortingDirection": "Asc",
                                  "PopupFormAlias": {
                                    "$type": "Comindware.Platform.Contracts.GlobalAlias, Comindware.Platform.Contracts",
                                    "Type": "Undefined"
                                  },
                                  "AllowEdit": false,
                                  "DisplayFormat": "ShowAsPicture",
                                  "GlobalAlias": {
                                    "$type": "Comindware.Platform.Contracts.GlobalAlias, Comindware.Platform.Contracts",
                                    "Type": "FormComponent",
                                    "Alias": "Proekt"
                                  },
                                  "AccessType": "Readonly",
                                  "Width": 0,
                                  "Type": "FieldComponent"
                                },
                                {
                                  "$type": "Comindware.Platform.Contracts.FieldComponentModel, Comindware.Platform.Contracts",
                                  "Label": {
                                    "$type": "Comindware.Platform.Contracts.LabelModel, Comindware.Platform.Contracts",
                                    "Hidden": false,
                                    "Alignment": "Top",
                                    "Text": {
                                      "$type": "Comindware.Platform.Contracts.LocalizedTextModel, Comindware.Platform.Contracts",
                                      "En": "Медиаплан",
                                      "De": "Медиаплан",
                                      "Ru": "Медиаплан"
                                    }
                                  },
                                  "FieldType": "Reference",
                                  "Placeholder": {
                                    "$type": "Comindware.Platform.Contracts.LocalizedTextModel, Comindware.Platform.Contracts"
                                  },
                                  "HelpText": {
                                    "$type": "Comindware.Platform.Contracts.LocalizedTextModel, Comindware.Platform.Contracts"
                                  },
                                  "PropertyPath": {
                                    "$type": "Comindware.Platform.Contracts.GlobalAlias[], Comindware.Platform.Contracts",
                                    "$values": [
                                      {
                                        "$type": "Comindware.Platform.Contracts.GlobalAlias, Comindware.Platform.Contracts",
                                        "Type": "Attribute",
                                        "Owner": "RIM",
                                        "Alias": "Mediaplan"
                                      }
                                    ]
                                  },
                                  "EditorType": "Radio",
                                  "CreationType": "None",
                                  "RemovalType": "None",
                                  "EditType": "None",
                                  "HideSearchBar": false,
                                  "ShowAsLink": false,
                                  "ChildPropertyAlias": {
                                    "$type": "Comindware.Platform.Contracts.GlobalAlias, Comindware.Platform.Contracts",
                                    "Type": "Undefined"
                                  },
                                  "OrderPropertyAlias": {
                                    "$type": "Comindware.Platform.Contracts.GlobalAlias, Comindware.Platform.Contracts",
                                    "Type": "Undefined"
                                  },
                                  "NumberPropertyAlias": {
                                    "$type": "Comindware.Platform.Contracts.GlobalAlias, Comindware.Platform.Contracts",
                                    "Type": "Undefined"
                                  },
                                  "PrecedentPropertyAlias": {
                                    "$type": "Comindware.Platform.Contracts.GlobalAlias, Comindware.Platform.Contracts",
                                    "Type": "Undefined"
                                  },
                                  "SortingDirection": "Asc",
                                  "PopupFormAlias": {
                                    "$type": "Comindware.Platform.Contracts.GlobalAlias, Comindware.Platform.Contracts",
                                    "Type": "Undefined"
                                  },
                                  "AllowEdit": false,
                                  "DisplayFormat": "ShowAsPicture",
                                  "GlobalAlias": {
                                    "$type": "Comindware.Platform.Contracts.GlobalAlias, Comindware.Platform.Contracts",
                                    "Type": "FormComponent",
                                    "Alias": "Mediaplan"
                                  },
                                  "AccessType": "Readonly",
                                  "Width": 0,
                                  "Type": "FieldComponent"
                                }
                              ]
                            },
                            "GlobalAlias": {
                              "$type": "Comindware.Platform.Contracts.GlobalAlias, Comindware.Platform.Contracts",
                              "Type": "FormComponent",
                              "Alias": "VerticalLayout3"
                            },
                            "AccessType": "Undefined",
                            "Width": 25,
                            "Type": "VerticalLayout"
                          },
                          {
                            "$type": "Comindware.Platform.Contracts.VerticalLayoutModel, Comindware.Platform.Contracts",
                            "Rows": {
                              "$type": "System.Collections.Generic.List`1[[Comindware.Platform.Contracts.FormComponentModel, Comindware.Platform.Contracts]], mscorlib",
                              "$values": [
                                {
                                  "$type": "Comindware.Platform.Contracts.FieldComponentModel, Comindware.Platform.Contracts",
                                  "Label": {
                                    "$type": "Comindware.Platform.Contracts.LabelModel, Comindware.Platform.Contracts",
                                    "Hidden": false,
                                    "Alignment": "Top",
                                    "Text": {
                                      "$type": "Comindware.Platform.Contracts.LocalizedTextModel, Comindware.Platform.Contracts",
                                      "En": "Статус",
                                      "De": "Статус",
                                      "Ru": "Статус"
                                    }
                                  },
                                  "FieldType": "Reference",
                                  "Placeholder": {
                                    "$type": "Comindware.Platform.Contracts.LocalizedTextModel, Comindware.Platform.Contracts"
                                  },
                                  "HelpText": {
                                    "$type": "Comindware.Platform.Contracts.LocalizedTextModel, Comindware.Platform.Contracts"
                                  },
                                  "PropertyPath": {
                                    "$type": "Comindware.Platform.Contracts.GlobalAlias[], Comindware.Platform.Contracts",
                                    "$values": [
                                      {
                                        "$type": "Comindware.Platform.Contracts.GlobalAlias, Comindware.Platform.Contracts",
                                        "Type": "Attribute",
                                        "Owner": "RIM",
                                        "Alias": "Status"
                                      }
                                    ]
                                  },
                                  "EditorType": "Radio",
                                  "CreationType": "None",
                                  "RemovalType": "None",
                                  "EditType": "None",
                                  "HideSearchBar": false,
                                  "ShowAsLink": false,
                                  "ChildPropertyAlias": {
                                    "$type": "Comindware.Platform.Contracts.GlobalAlias, Comindware.Platform.Contracts",
                                    "Type": "Undefined"
                                  },
                                  "OrderPropertyAlias": {
                                    "$type": "Comindware.Platform.Contracts.GlobalAlias, Comindware.Platform.Contracts",
                                    "Type": "Undefined"
                                  },
                                  "NumberPropertyAlias": {
                                    "$type": "Comindware.Platform.Contracts.GlobalAlias, Comindware.Platform.Contracts",
                                    "Type": "Undefined"
                                  },
                                  "PrecedentPropertyAlias": {
                                    "$type": "Comindware.Platform.Contracts.GlobalAlias, Comindware.Platform.Contracts",
                                    "Type": "Undefined"
                                  },
                                  "SortingDirection": "Asc",
                                  "PopupFormAlias": {
                                    "$type": "Comindware.Platform.Contracts.GlobalAlias, Comindware.Platform.Contracts",
                                    "Type": "Undefined"
                                  },
                                  "AllowEdit": false,
                                  "DisplayFormat": "ShowAsPicture",
                                  "GlobalAlias": {
                                    "$type": "Comindware.Platform.Contracts.GlobalAlias, Comindware.Platform.Contracts",
                                    "Type": "FormComponent",
                                    "Alias": "Status"
                                  },
                                  "AccessType": "Readonly",
                                  "Width": 0,
                                  "Type": "FieldComponent"
                                },
                                {
                                  "$type": "Comindware.Platform.Contracts.FieldComponentModel, Comindware.Platform.Contracts",
                                  "Label": {
                                    "$type": "Comindware.Platform.Contracts.LabelModel, Comindware.Platform.Contracts",
                                    "Hidden": false,
                                    "Alignment": "Top",
                                    "Text": {
                                      "$type": "Comindware.Platform.Contracts.LocalizedTextModel, Comindware.Platform.Contracts",
                                      "En": "Создан",
                                      "De": "Создан",
                                      "Ru": "Создан"
                                    }
                                  },
                                  "FieldType": "Member",
                                  "Placeholder": {
                                    "$type": "Comindware.Platform.Contracts.LocalizedTextModel, Comindware.Platform.Contracts"
                                  },
                                  "HelpText": {
                                    "$type": "Comindware.Platform.Contracts.LocalizedTextModel, Comindware.Platform.Contracts"
                                  },
                                  "PropertyPath": {
                                    "$type": "Comindware.Platform.Contracts.GlobalAlias[], Comindware.Platform.Contracts",
                                    "$values": [
                                      {
                                        "$type": "Comindware.Platform.Contracts.GlobalAlias, Comindware.Platform.Contracts",
                                        "Type": "Attribute",
                                        "Alias": "creator"
                                      }
                                    ]
                                  },
                                  "EditorType": "Radio",
                                  "CreationType": "None",
                                  "RemovalType": "None",
                                  "EditType": "None",
                                  "HideSearchBar": false,
                                  "ChildPropertyAlias": {
                                    "$type": "Comindware.Platform.Contracts.GlobalAlias, Comindware.Platform.Contracts",
                                    "Type": "Undefined"
                                  },
                                  "OrderPropertyAlias": {
                                    "$type": "Comindware.Platform.Contracts.GlobalAlias, Comindware.Platform.Contracts",
                                    "Type": "Undefined"
                                  },
                                  "NumberPropertyAlias": {
                                    "$type": "Comindware.Platform.Contracts.GlobalAlias, Comindware.Platform.Contracts",
                                    "Type": "Undefined"
                                  },
                                  "PrecedentPropertyAlias": {
                                    "$type": "Comindware.Platform.Contracts.GlobalAlias, Comindware.Platform.Contracts",
                                    "Type": "Undefined"
                                  },
                                  "SortingDirection": "Asc",
                                  "MaxCount": 0,
                                  "PopupFormAlias": {
                                    "$type": "Comindware.Platform.Contracts.GlobalAlias, Comindware.Platform.Contracts",
                                    "Type": "Undefined"
                                  },
                                  "DisplayFormat": "ShowAsPicture",
                                  "GlobalAlias": {
                                    "$type": "Comindware.Platform.Contracts.GlobalAlias, Comindware.Platform.Contracts",
                                    "Type": "FormComponent",
                                    "Alias": "_creator"
                                  },
                                  "AccessType": "Readonly",
                                  "Width": 0,
                                  "Type": "FieldComponent"
                                },
                                {
                                  "$type": "Comindware.Platform.Contracts.LayoutModel, Comindware.Platform.Contracts",
                                  "Components": {
                                    "$type": "System.Collections.Generic.List`1[[Comindware.Platform.Contracts.FormComponentModel, Comindware.Platform.Contracts]], mscorlib",
                                    "$values": [
                                      {
                                        "$type": "Comindware.Platform.Contracts.VerticalLayoutModel, Comindware.Platform.Contracts",
                                        "Rows": {
                                          "$type": "System.Collections.Generic.List`1[[Comindware.Platform.Contracts.FormComponentModel, Comindware.Platform.Contracts]], mscorlib",
                                          "$values": [
                                            {
                                              "$type": "Comindware.Platform.Contracts.FieldComponentModel, Comindware.Platform.Contracts",
                                              "Label": {
                                                "$type": "Comindware.Platform.Contracts.LabelModel, Comindware.Platform.Contracts",
                                                "Hidden": false,
                                                "Alignment": "Top",
                                                "Text": {
                                                  "$type": "Comindware.Platform.Contracts.LocalizedTextModel, Comindware.Platform.Contracts",
                                                  "En": "Дата начала",
                                                  "De": "Дата начала",
                                                  "Ru": "Дата начала"
                                                }
                                              },
                                              "FieldType": "Date",
                                              "Placeholder": {
                                                "$type": "Comindware.Platform.Contracts.LocalizedTextModel, Comindware.Platform.Contracts"
                                              },
                                              "HelpText": {
                                                "$type": "Comindware.Platform.Contracts.LocalizedTextModel, Comindware.Platform.Contracts"
                                              },
                                              "PropertyPath": {
                                                "$type": "Comindware.Platform.Contracts.GlobalAlias[], Comindware.Platform.Contracts",
                                                "$values": [
                                                  {
                                                    "$type": "Comindware.Platform.Contracts.GlobalAlias, Comindware.Platform.Contracts",
                                                    "Type": "Attribute",
                                                    "Owner": "RIM",
                                                    "Alias": "Datanachala"
                                                  }
                                                ]
                                              },
                                              "EditorType": "Radio",
                                              "CreationType": "None",
                                              "RemovalType": "None",
                                              "EditType": "None",
                                              "DisplayTime": false,
                                              "ChildPropertyAlias": {
                                                "$type": "Comindware.Platform.Contracts.GlobalAlias, Comindware.Platform.Contracts",
                                                "Type": "Undefined"
                                              },
                                              "OrderPropertyAlias": {
                                                "$type": "Comindware.Platform.Contracts.GlobalAlias, Comindware.Platform.Contracts",
                                                "Type": "Undefined"
                                              },
                                              "NumberPropertyAlias": {
                                                "$type": "Comindware.Platform.Contracts.GlobalAlias, Comindware.Platform.Contracts",
                                                "Type": "Undefined"
                                              },
                                              "PrecedentPropertyAlias": {
                                                "$type": "Comindware.Platform.Contracts.GlobalAlias, Comindware.Platform.Contracts",
                                                "Type": "Undefined"
                                              },
                                              "SortingDirection": "Asc",
                                              "PopupFormAlias": {
                                                "$type": "Comindware.Platform.Contracts.GlobalAlias, Comindware.Platform.Contracts",
                                                "Type": "Undefined"
                                              },
                                              "DisplayFormat": "ShowAsPicture",
                                              "GlobalAlias": {
                                                "$type": "Comindware.Platform.Contracts.GlobalAlias, Comindware.Platform.Contracts",
                                                "Type": "FormComponent",
                                                "Alias": "Datanachala"
                                              },
                                              "AccessType": "Editable",
                                              "Width": 0,
                                              "Type": "FieldComponent"
                                            }
                                          ]
                                        },
                                        "GlobalAlias": {
                                          "$type": "Comindware.Platform.Contracts.GlobalAlias, Comindware.Platform.Contracts",
                                          "Type": "FormComponent",
                                          "Alias": "VerticalLayout4"
                                        },
                                        "AccessType": "Undefined",
                                        "Width": 50,
                                        "Type": "VerticalLayout"
                                      },
                                      {
                                        "$type": "Comindware.Platform.Contracts.VerticalLayoutModel, Comindware.Platform.Contracts",
                                        "Rows": {
                                          "$type": "System.Collections.Generic.List`1[[Comindware.Platform.Contracts.FormComponentModel, Comindware.Platform.Contracts]], mscorlib",
                                          "$values": [
                                            {
                                              "$type": "Comindware.Platform.Contracts.FieldComponentModel, Comindware.Platform.Contracts",
                                              "Label": {
                                                "$type": "Comindware.Platform.Contracts.LabelModel, Comindware.Platform.Contracts",
                                                "Hidden": false,
                                                "Alignment": "Top",
                                                "Text": {
                                                  "$type": "Comindware.Platform.Contracts.LocalizedTextModel, Comindware.Platform.Contracts",
                                                  "En": "Дата завершения",
                                                  "De": "Дата завершения",
                                                  "Ru": "Дата завершения"
                                                }
                                              },
                                              "FieldType": "Date",
                                              "Placeholder": {
                                                "$type": "Comindware.Platform.Contracts.LocalizedTextModel, Comindware.Platform.Contracts"
                                              },
                                              "HelpText": {
                                                "$type": "Comindware.Platform.Contracts.LocalizedTextModel, Comindware.Platform.Contracts"
                                              },
                                              "PropertyPath": {
                                                "$type": "Comindware.Platform.Contracts.GlobalAlias[], Comindware.Platform.Contracts",
                                                "$values": [
                                                  {
                                                    "$type": "Comindware.Platform.Contracts.GlobalAlias, Comindware.Platform.Contracts",
                                                    "Type": "Attribute",
                                                    "Owner": "RIM",
                                                    "Alias": "Datazaversheniya"
                                                  }
                                                ]
                                              },
                                              "EditorType": "Radio",
                                              "CreationType": "None",
                                              "RemovalType": "None",
                                              "EditType": "None",
                                              "DisplayTime": false,
                                              "ChildPropertyAlias": {
                                                "$type": "Comindware.Platform.Contracts.GlobalAlias, Comindware.Platform.Contracts",
                                                "Type": "Undefined"
                                              },
                                              "OrderPropertyAlias": {
                                                "$type": "Comindware.Platform.Contracts.GlobalAlias, Comindware.Platform.Contracts",
                                                "Type": "Undefined"
                                              },
                                              "NumberPropertyAlias": {
                                                "$type": "Comindware.Platform.Contracts.GlobalAlias, Comindware.Platform.Contracts",
                                                "Type": "Undefined"
                                              },
                                              "PrecedentPropertyAlias": {
                                                "$type": "Comindware.Platform.Contracts.GlobalAlias, Comindware.Platform.Contracts",
                                                "Type": "Undefined"
                                              },
                                              "SortingDirection": "Asc",
                                              "PopupFormAlias": {
                                                "$type": "Comindware.Platform.Contracts.GlobalAlias, Comindware.Platform.Contracts",
                                                "Type": "Undefined"
                                              },
                                              "DisplayFormat": "ShowAsPicture",
                                              "GlobalAlias": {
                                                "$type": "Comindware.Platform.Contracts.GlobalAlias, Comindware.Platform.Contracts",
                                                "Type": "FormComponent",
                                                "Alias": "Datazaversheniya"
                                              },
                                              "AccessType": "Editable",
                                              "Width": 0,
                                              "Type": "FieldComponent"
                                            }
                                          ]
                                        },
                                        "GlobalAlias": {
                                          "$type": "Comindware.Platform.Contracts.GlobalAlias, Comindware.Platform.Contracts",
                                          "Type": "FormComponent",
                                          "Alias": "VerticalLayout8"
                                        },
                                        "AccessType": "Undefined",
                                        "Width": 50,
                                        "Type": "VerticalLayout"
                                      }
                                    ]
                                  },
                                  "OriginalType": "HorizontalLayout",
                                  "GlobalAlias": {
                                    "$type": "Comindware.Platform.Contracts.GlobalAlias, Comindware.Platform.Contracts",
                                    "Type": "FormComponent",
                                    "Alias": "HorizontalLayout2"
                                  },
                                  "AccessType": "Undefined",
                                  "Width": 0,
                                  "Type": "LayoutModel"
                                }
                              ]
                            },
                            "GlobalAlias": {
                              "$type": "Comindware.Platform.Contracts.GlobalAlias, Comindware.Platform.Contracts",
                              "Type": "FormComponent",
                              "Alias": "VerticalLayout13"
                            },
                            "AccessType": "Undefined",
                            "Width": 25,
                            "Type": "VerticalLayout"
                          }
                        ]
                      },
                      "OriginalType": "HorizontalLayout",
                      "GlobalAlias": {
                        "$type": "Comindware.Platform.Contracts.GlobalAlias, Comindware.Platform.Contracts",
                        "Type": "FormComponent",
                        "Alias": "HorizontalLayout"
                      },
                      "AccessType": "Undefined",
                      "Width": 0,
                      "Type": "LayoutModel"
                    }
                  ]
                },
                "GlobalAlias": {
                  "$type": "Comindware.Platform.Contracts.GlobalAlias, Comindware.Platform.Contracts",
                  "Type": "FormComponent",
                  "Alias": "VerticalLayout"
                },
                "AccessType": "Undefined",
                "Width": 0,
                "Type": "VerticalLayout"
              }
            ]
          },
          "GlobalAlias": {
            "$type": "Comindware.Platform.Contracts.GlobalAlias, Comindware.Platform.Contracts",
            "Type": "FormComponent",
            "Alias": "GroupPanelComponent"
          },
          "AccessType": "Editable",
          "Width": 100,
          "Type": "PanelModel"
        },
        {
          "$type": "Comindware.Platform.Contracts.PanelModel, Comindware.Platform.Contracts",
          "Text": {
            "$type": "Comindware.Platform.Contracts.LocalizedTextModel, Comindware.Platform.Contracts",
            "En": "Доп. информация",
            "De": "Доп. информация",
            "Ru": "Доп. информация"
          },
          "OriginalType": "GroupPanel",
          "Rows": {
            "$type": "System.Collections.Generic.List`1[[Comindware.Platform.Contracts.FormComponentModel, Comindware.Platform.Contracts]], mscorlib",
            "$values": [
              {
                "$type": "Comindware.Platform.Contracts.VerticalLayoutModel, Comindware.Platform.Contracts",
                "Rows": {
                  "$type": "System.Collections.Generic.List`1[[Comindware.Platform.Contracts.FormComponentModel, Comindware.Platform.Contracts]], mscorlib",
                  "$values": [
                    {
                      "$type": "Comindware.Platform.Contracts.LayoutModel, Comindware.Platform.Contracts",
                      "Components": {
                        "$type": "System.Collections.Generic.List`1[[Comindware.Platform.Contracts.FormComponentModel, Comindware.Platform.Contracts]], mscorlib",
                        "$values": [
                          {
                            "$type": "Comindware.Platform.Contracts.PanelModel, Comindware.Platform.Contracts",
                            "Text": {
                              "$type": "Comindware.Platform.Contracts.LocalizedTextModel, Comindware.Platform.Contracts",
                              "En": "Материалы",
                              "De": "Материалы",
                              "Ru": "Материалы"
                            },
                            "OriginalType": "TabPanel",
                            "Rows": {
                              "$type": "System.Collections.Generic.List`1[[Comindware.Platform.Contracts.FormComponentModel, Comindware.Platform.Contracts]], mscorlib",
                              "$values": [
                                {
                                  "$type": "Comindware.Platform.Contracts.LayoutModel, Comindware.Platform.Contracts",
                                  "Components": {
                                    "$type": "System.Collections.Generic.List`1[[Comindware.Platform.Contracts.FormComponentModel, Comindware.Platform.Contracts]], mscorlib",
                                    "$values": [
                                      {
                                        "$type": "Comindware.Platform.Contracts.VerticalLayoutModel, Comindware.Platform.Contracts",
                                        "Rows": {
                                          "$type": "System.Collections.Generic.List`1[[Comindware.Platform.Contracts.FormComponentModel, Comindware.Platform.Contracts]], mscorlib",
                                          "$values": [
                                            {
                                              "$type": "Comindware.Platform.Contracts.FieldComponentModel, Comindware.Platform.Contracts",
                                              "Label": {
                                                "$type": "Comindware.Platform.Contracts.LabelModel, Comindware.Platform.Contracts",
                                                "Hidden": false,
                                                "Alignment": "Top",
                                                "Text": {
                                                  "$type": "Comindware.Platform.Contracts.LocalizedTextModel, Comindware.Platform.Contracts",
                                                  "En": "РИМ - вложение",
                                                  "De": "РИМ - вложение",
                                                  "Ru": "РИМ - вложение"
                                                }
                                              },
                                              "FieldType": "Document",
                                              "Placeholder": {
                                                "$type": "Comindware.Platform.Contracts.LocalizedTextModel, Comindware.Platform.Contracts"
                                              },
                                              "HelpText": {
                                                "$type": "Comindware.Platform.Contracts.LocalizedTextModel, Comindware.Platform.Contracts"
                                              },
                                              "PropertyPath": {
                                                "$type": "Comindware.Platform.Contracts.GlobalAlias[], Comindware.Platform.Contracts",
                                                "$values": [
                                                  {
                                                    "$type": "Comindware.Platform.Contracts.GlobalAlias, Comindware.Platform.Contracts",
                                                    "Type": "Attribute",
                                                    "Owner": "RIM",
                                                    "Alias": "RIMvlozhenie"
                                                  }
                                                ]
                                              },
                                              "EditorType": "Radio",
                                              "CreationType": "None",
                                              "RemovalType": "None",
                                              "EditType": "None",
                                              "ChildPropertyAlias": {
                                                "$type": "Comindware.Platform.Contracts.GlobalAlias, Comindware.Platform.Contracts",
                                                "Type": "Undefined"
                                              },
                                              "OrderPropertyAlias": {
                                                "$type": "Comindware.Platform.Contracts.GlobalAlias, Comindware.Platform.Contracts",
                                                "Type": "Undefined"
                                              },
                                              "NumberPropertyAlias": {
                                                "$type": "Comindware.Platform.Contracts.GlobalAlias, Comindware.Platform.Contracts",
                                                "Type": "Undefined"
                                              },
                                              "PrecedentPropertyAlias": {
                                                "$type": "Comindware.Platform.Contracts.GlobalAlias, Comindware.Platform.Contracts",
                                                "Type": "Undefined"
                                              },
                                              "SortingDirection": "Asc",
                                              "MaxCount": 0,
                                              "PopupFormAlias": {
                                                "$type": "Comindware.Platform.Contracts.GlobalAlias, Comindware.Platform.Contracts",
                                                "Type": "Undefined"
                                              },
                                              "DisplayFormat": "ShowAsPicture",
                                              "GlobalAlias": {
                                                "$type": "Comindware.Platform.Contracts.GlobalAlias, Comindware.Platform.Contracts",
                                                "Type": "FormComponent",
                                                "Alias": "RIMvlozhenie"
                                              },
                                              "AccessType": "Readonly",
                                              "Width": 0,
                                              "Type": "FieldComponent"
                                            }
                                          ]
                                        },
                                        "GlobalAlias": {
                                          "$type": "Comindware.Platform.Contracts.GlobalAlias, Comindware.Platform.Contracts",
                                          "Type": "FormComponent",
                                          "Alias": "VerticalLayout6"
                                        },
                                        "AccessType": "Undefined",
                                        "Width": 50,
                                        "Type": "VerticalLayout"
                                      },
                                      {
                                        "$type": "Comindware.Platform.Contracts.VerticalLayoutModel, Comindware.Platform.Contracts",
                                        "Rows": {
                                          "$type": "System.Collections.Generic.List`1[[Comindware.Platform.Contracts.FormComponentModel, Comindware.Platform.Contracts]], mscorlib",
                                          "$values": [
                                            {
                                              "$type": "Comindware.Platform.Contracts.FieldComponentModel, Comindware.Platform.Contracts",
                                              "Label": {
                                                "$type": "Comindware.Platform.Contracts.LabelModel, Comindware.Platform.Contracts",
                                                "Hidden": false,
                                                "Alignment": "Top",
                                                "Text": {
                                                  "$type": "Comindware.Platform.Contracts.LocalizedTextModel, Comindware.Platform.Contracts",
                                                  "En": "РИМ - ссылка",
                                                  "De": "РИМ - ссылка",
                                                  "Ru": "РИМ - ссылка"
                                                }
                                              },
                                              "FieldType": "Text",
                                              "Placeholder": {
                                                "$type": "Comindware.Platform.Contracts.LocalizedTextModel, Comindware.Platform.Contracts"
                                              },
                                              "HelpText": {
                                                "$type": "Comindware.Platform.Contracts.LocalizedTextModel, Comindware.Platform.Contracts"
                                              },
                                              "PropertyPath": {
                                                "$type": "Comindware.Platform.Contracts.GlobalAlias[], Comindware.Platform.Contracts",
                                                "$values": [
                                                  {
                                                    "$type": "Comindware.Platform.Contracts.GlobalAlias, Comindware.Platform.Contracts",
                                                    "Type": "Attribute",
                                                    "Owner": "RIM",
                                                    "Alias": "RIMssylka"
                                                  }
                                                ]
                                              },
                                              "TextHeight": 0,
                                              "TextHeightAuto": false,
                                              "MaxLength": 0,
                                              "EditorType": "Multiline",
                                              "CreationType": "None",
                                              "RemovalType": "None",
                                              "EditType": "None",
                                              "ChildPropertyAlias": {
                                                "$type": "Comindware.Platform.Contracts.GlobalAlias, Comindware.Platform.Contracts",
                                                "Type": "Undefined"
                                              },
                                              "OrderPropertyAlias": {
                                                "$type": "Comindware.Platform.Contracts.GlobalAlias, Comindware.Platform.Contracts",
                                                "Type": "Undefined"
                                              },
                                              "NumberPropertyAlias": {
                                                "$type": "Comindware.Platform.Contracts.GlobalAlias, Comindware.Platform.Contracts",
                                                "Type": "Undefined"
                                              },
                                              "PrecedentPropertyAlias": {
                                                "$type": "Comindware.Platform.Contracts.GlobalAlias, Comindware.Platform.Contracts",
                                                "Type": "Undefined"
                                              },
                                              "SortingDirection": "Asc",
                                              "PopupFormAlias": {
                                                "$type": "Comindware.Platform.Contracts.GlobalAlias, Comindware.Platform.Contracts",
                                                "Type": "Undefined"
                                              },
                                              "DisplayFormat": "ShowAsPicture",
                                              "GlobalAlias": {
                                                "$type": "Comindware.Platform.Contracts.GlobalAlias, Comindware.Platform.Contracts",
                                                "Type": "FormComponent",
                                                "Alias": "RIMssylka"
                                              },
                                              "AccessType": "Editable",
                                              "Width": 0,
                                              "Type": "FieldComponent"
                                            }
                                          ]
                                        },
                                        "GlobalAlias": {
                                          "$type": "Comindware.Platform.Contracts.GlobalAlias, Comindware.Platform.Contracts",
                                          "Type": "FormComponent",
                                          "Alias": "VerticalLayout7"
                                        },
                                        "AccessType": "Undefined",
                                        "Width": 50,
                                        "Type": "VerticalLayout"
                                      }
                                    ]
                                  },
                                  "OriginalType": "HorizontalLayout",
                                  "GlobalAlias": {
                                    "$type": "Comindware.Platform.Contracts.GlobalAlias, Comindware.Platform.Contracts",
                                    "Type": "FormComponent",
                                    "Alias": "HorizontalLayout3"
                                  },
                                  "AccessType": "Undefined",
                                  "Width": 0,
                                  "Type": "LayoutModel"
                                }
                              ]
                            },
                            "GlobalAlias": {
                              "$type": "Comindware.Platform.Contracts.GlobalAlias, Comindware.Platform.Contracts",
                              "Type": "FormComponent",
                              "Alias": "TabLayout_tabs1"
                            },
                            "AccessType": "Editable",
                            "Width": 0,
                            "Type": "PanelModel"
                          },
                          {
                            "$type": "Comindware.Platform.Contracts.PanelModel, Comindware.Platform.Contracts",
                            "Text": {
                              "$type": "Comindware.Platform.Contracts.LocalizedTextModel, Comindware.Platform.Contracts",
                              "En": "История согласования",
                              "De": "История согласования",
                              "Ru": "История согласования"
                            },
                            "OriginalType": "TabPanel",
                            "Rows": {
                              "$type": "System.Collections.Generic.List`1[[Comindware.Platform.Contracts.FormComponentModel, Comindware.Platform.Contracts]], mscorlib",
                              "$values": [
                                {
                                  "$type": "Comindware.Platform.Contracts.LayoutModel, Comindware.Platform.Contracts",
                                  "Components": {
                                    "$type": "System.Collections.Generic.List`1[[Comindware.Platform.Contracts.FormComponentModel, Comindware.Platform.Contracts]], mscorlib",
                                    "$values": [
                                      {
                                        "$type": "Comindware.Platform.Contracts.VerticalLayoutModel, Comindware.Platform.Contracts",
                                        "Rows": {
                                          "$type": "System.Collections.Generic.List`1[[Comindware.Platform.Contracts.FormComponentModel, Comindware.Platform.Contracts]], mscorlib",
                                          "$values": [
                                            {
                                              "$type": "Comindware.Platform.Contracts.FieldComponentModel, Comindware.Platform.Contracts",
                                              "Label": {
                                                "$type": "Comindware.Platform.Contracts.LabelModel, Comindware.Platform.Contracts",
                                                "Hidden": false,
                                                "Alignment": "Top",
                                                "Text": {
                                                  "$type": "Comindware.Platform.Contracts.LocalizedTextModel, Comindware.Platform.Contracts",
                                                  "En": "Подтверждение от клиента",
                                                  "De": "Подтверждение от клиента",
                                                  "Ru": "Подтверждение от клиента"
                                                }
                                              },
                                              "FieldType": "Document",
                                              "Placeholder": {
                                                "$type": "Comindware.Platform.Contracts.LocalizedTextModel, Comindware.Platform.Contracts"
                                              },
                                              "HelpText": {
                                                "$type": "Comindware.Platform.Contracts.LocalizedTextModel, Comindware.Platform.Contracts"
                                              },
                                              "PropertyPath": {
                                                "$type": "Comindware.Platform.Contracts.GlobalAlias[], Comindware.Platform.Contracts",
                                                "$values": [
                                                  {
                                                    "$type": "Comindware.Platform.Contracts.GlobalAlias, Comindware.Platform.Contracts",
                                                    "Type": "Attribute",
                                                    "Owner": "RIM",
                                                    "Alias": "Podtverzhdenieotklienta"
                                                  }
                                                ]
                                              },
                                              "EditorType": "Radio",
                                              "CreationType": "None",
                                              "RemovalType": "None",
                                              "EditType": "None",
                                              "ChildPropertyAlias": {
                                                "$type": "Comindware.Platform.Contracts.GlobalAlias, Comindware.Platform.Contracts",
                                                "Type": "Undefined"
                                              },
                                              "OrderPropertyAlias": {
                                                "$type": "Comindware.Platform.Contracts.GlobalAlias, Comindware.Platform.Contracts",
                                                "Type": "Undefined"
                                              },
                                              "NumberPropertyAlias": {
                                                "$type": "Comindware.Platform.Contracts.GlobalAlias, Comindware.Platform.Contracts",
                                                "Type": "Undefined"
                                              },
                                              "PrecedentPropertyAlias": {
                                                "$type": "Comindware.Platform.Contracts.GlobalAlias, Comindware.Platform.Contracts",
                                                "Type": "Undefined"
                                              },
                                              "SortingDirection": "Asc",
                                              "MaxCount": 0,
                                              "PopupFormAlias": {
                                                "$type": "Comindware.Platform.Contracts.GlobalAlias, Comindware.Platform.Contracts",
                                                "Type": "Undefined"
                                              },
                                              "DisplayFormat": "ShowAsPicture",
                                              "GlobalAlias": {
                                                "$type": "Comindware.Platform.Contracts.GlobalAlias, Comindware.Platform.Contracts",
                                                "Type": "FormComponent",
                                                "Alias": "Podtverzhdenieotklienta"
                                              },
                                              "AccessType": "Editable",
                                              "Width": 0,
                                              "Type": "FieldComponent"
                                            }
                                          ]
                                        },
                                        "GlobalAlias": {
                                          "$type": "Comindware.Platform.Contracts.GlobalAlias, Comindware.Platform.Contracts",
                                          "Type": "FormComponent",
                                          "Alias": "VerticalLayout11"
                                        },
                                        "AccessType": "Undefined",
                                        "Width": 50,
                                        "Type": "VerticalLayout"
                                      },
                                      {
                                        "$type": "Comindware.Platform.Contracts.VerticalLayoutModel, Comindware.Platform.Contracts",
                                        "GlobalAlias": {
                                          "$type": "Comindware.Platform.Contracts.GlobalAlias, Comindware.Platform.Contracts",
                                          "Type": "FormComponent",
                                          "Alias": "VerticalLayout12"
                                        },
                                        "AccessType": "Undefined",
                                        "Width": 50,
                                        "Type": "VerticalLayout"
                                      }
                                    ]
                                  },
                                  "OriginalType": "HorizontalLayout",
                                  "GlobalAlias": {
                                    "$type": "Comindware.Platform.Contracts.GlobalAlias, Comindware.Platform.Contracts",
                                    "Type": "FormComponent",
                                    "Alias": "HorizontalLayout5"
                                  },
                                  "AccessType": "Undefined",
                                  "Width": 0,
                                  "Type": "LayoutModel"
                                }
                              ]
                            },
                            "GlobalAlias": {
                              "$type": "Comindware.Platform.Contracts.GlobalAlias, Comindware.Platform.Contracts",
                              "Type": "FormComponent",
                              "Alias": "TabLayout_tabs2"
                            },
                            "AccessType": "Readonly",
                            "Width": 0,
                            "Type": "PanelModel"
                          },
                          {
                            "$type": "Comindware.Platform.Contracts.PanelModel, Comindware.Platform.Contracts",
                            "Text": {
                              "$type": "Comindware.Platform.Contracts.LocalizedTextModel, Comindware.Platform.Contracts",
                              "En": "Тех.требования",
                              "De": "Тех.требования",
                              "Ru": "Тех.требования"
                            },
                            "OriginalType": "TabPanel",
                            "Rows": {
                              "$type": "System.Collections.Generic.List`1[[Comindware.Platform.Contracts.FormComponentModel, Comindware.Platform.Contracts]], mscorlib",
                              "$values": [
                                {
                                  "$type": "Comindware.Platform.Contracts.FieldComponentModel, Comindware.Platform.Contracts",
                                  "Label": {
                                    "$type": "Comindware.Platform.Contracts.LabelModel, Comindware.Platform.Contracts",
                                    "Hidden": false,
                                    "Alignment": "Top",
                                    "Text": {
                                      "$type": "Comindware.Platform.Contracts.LocalizedTextModel, Comindware.Platform.Contracts",
                                      "En": "Предоставить тех.требования?",
                                      "De": "Предоставить тех.требования?",
                                      "Ru": "Предоставить тех.требования?"
                                    }
                                  },
                                  "FieldType": "Boolean",
                                  "Placeholder": {
                                    "$type": "Comindware.Platform.Contracts.LocalizedTextModel, Comindware.Platform.Contracts"
                                  },
                                  "HelpText": {
                                    "$type": "Comindware.Platform.Contracts.LocalizedTextModel, Comindware.Platform.Contracts"
                                  },
                                  "PropertyPath": {
                                    "$type": "Comindware.Platform.Contracts.GlobalAlias[], Comindware.Platform.Contracts",
                                    "$values": [
                                      {
                                        "$type": "Comindware.Platform.Contracts.GlobalAlias, Comindware.Platform.Contracts",
                                        "Type": "Attribute",
                                        "Owner": "RIM",
                                        "Alias": "Predostavittekhtrebovaniya"
                                      }
                                    ]
                                  },
                                  "TrueText": {
                                    "$type": "Comindware.Platform.Contracts.LocalizedTextModel, Comindware.Platform.Contracts"
                                  },
                                  "FalseText": {
                                    "$type": "Comindware.Platform.Contracts.LocalizedTextModel, Comindware.Platform.Contracts"
                                  },
                                  "UseTrueFalseText": false,
                                  "EditorType": "Checkbox",
                                  "CreationType": "None",
                                  "RemovalType": "None",
                                  "EditType": "None",
                                  "ChildPropertyAlias": {
                                    "$type": "Comindware.Platform.Contracts.GlobalAlias, Comindware.Platform.Contracts",
                                    "Type": "Undefined"
                                  },
                                  "OrderPropertyAlias": {
                                    "$type": "Comindware.Platform.Contracts.GlobalAlias, Comindware.Platform.Contracts",
                                    "Type": "Undefined"
                                  },
                                  "NumberPropertyAlias": {
                                    "$type": "Comindware.Platform.Contracts.GlobalAlias, Comindware.Platform.Contracts",
                                    "Type": "Undefined"
                                  },
                                  "PrecedentPropertyAlias": {
                                    "$type": "Comindware.Platform.Contracts.GlobalAlias, Comindware.Platform.Contracts",
                                    "Type": "Undefined"
                                  },
                                  "SortingDirection": "Asc",
                                  "PopupFormAlias": {
                                    "$type": "Comindware.Platform.Contracts.GlobalAlias, Comindware.Platform.Contracts",
                                    "Type": "Undefined"
                                  },
                                  "DisplayFormat": "ShowAsPicture",
                                  "GlobalAlias": {
                                    "$type": "Comindware.Platform.Contracts.GlobalAlias, Comindware.Platform.Contracts",
                                    "Type": "FormComponent",
                                    "Alias": "Predostavittekhtrebovaniya"
                                  },
                                  "AccessType": "Editable",
                                  "Width": 0,
                                  "Type": "FieldComponent"
                                },
                                {
                                  "$type": "Comindware.Platform.Contracts.LayoutModel, Comindware.Platform.Contracts",
                                  "Components": {
                                    "$type": "System.Collections.Generic.List`1[[Comindware.Platform.Contracts.FormComponentModel, Comindware.Platform.Contracts]], mscorlib",
                                    "$values": [
                                      {
                                        "$type": "Comindware.Platform.Contracts.VerticalLayoutModel, Comindware.Platform.Contracts",
                                        "Rows": {
                                          "$type": "System.Collections.Generic.List`1[[Comindware.Platform.Contracts.FormComponentModel, Comindware.Platform.Contracts]], mscorlib",
                                          "$values": [
                                            {
                                              "$type": "Comindware.Platform.Contracts.FieldComponentModel, Comindware.Platform.Contracts",
                                              "Label": {
                                                "$type": "Comindware.Platform.Contracts.LabelModel, Comindware.Platform.Contracts",
                                                "Hidden": false,
                                                "Alignment": "Top",
                                                "Text": {
                                                  "$type": "Comindware.Platform.Contracts.LocalizedTextModel, Comindware.Platform.Contracts",
                                                  "En": "Тех. требования - вложение",
                                                  "De": "Тех. требования - вложение",
                                                  "Ru": "Тех. требования - вложение"
                                                }
                                              },
                                              "FieldType": "Document",
                                              "Placeholder": {
                                                "$type": "Comindware.Platform.Contracts.LocalizedTextModel, Comindware.Platform.Contracts"
                                              },
                                              "HelpText": {
                                                "$type": "Comindware.Platform.Contracts.LocalizedTextModel, Comindware.Platform.Contracts"
                                              },
                                              "PropertyPath": {
                                                "$type": "Comindware.Platform.Contracts.GlobalAlias[], Comindware.Platform.Contracts",
                                                "$values": [
                                                  {
                                                    "$type": "Comindware.Platform.Contracts.GlobalAlias, Comindware.Platform.Contracts",
                                                    "Type": "Attribute",
                                                    "Owner": "RIM",
                                                    "Alias": "Tekhtrebovaniyavlozhenie"
                                                  }
                                                ]
                                              },
                                              "EditorType": "Radio",
                                              "CreationType": "None",
                                              "RemovalType": "None",
                                              "EditType": "None",
                                              "ChildPropertyAlias": {
                                                "$type": "Comindware.Platform.Contracts.GlobalAlias, Comindware.Platform.Contracts",
                                                "Type": "Undefined"
                                              },
                                              "OrderPropertyAlias": {
                                                "$type": "Comindware.Platform.Contracts.GlobalAlias, Comindware.Platform.Contracts",
                                                "Type": "Undefined"
                                              },
                                              "NumberPropertyAlias": {
                                                "$type": "Comindware.Platform.Contracts.GlobalAlias, Comindware.Platform.Contracts",
                                                "Type": "Undefined"
                                              },
                                              "PrecedentPropertyAlias": {
                                                "$type": "Comindware.Platform.Contracts.GlobalAlias, Comindware.Platform.Contracts",
                                                "Type": "Undefined"
                                              },
                                              "SortingDirection": "Asc",
                                              "MaxCount": 0,
                                              "PopupFormAlias": {
                                                "$type": "Comindware.Platform.Contracts.GlobalAlias, Comindware.Platform.Contracts",
                                                "Type": "Undefined"
                                              },
                                              "DisplayFormat": "ShowAsPicture",
                                              "GlobalAlias": {
                                                "$type": "Comindware.Platform.Contracts.GlobalAlias, Comindware.Platform.Contracts",
                                                "Type": "FormComponent",
                                                "Alias": "Tekhtrebovaniyavlozhenie"
                                              },
                                              "AccessType": "Editable",
                                              "Width": 0,
                                              "Type": "FieldComponent"
                                            }
                                          ]
                                        },
                                        "GlobalAlias": {
                                          "$type": "Comindware.Platform.Contracts.GlobalAlias, Comindware.Platform.Contracts",
                                          "Type": "FormComponent",
                                          "Alias": "VerticalLayout14"
                                        },
                                        "AccessType": "Undefined",
                                        "Width": 50,
                                        "Type": "VerticalLayout"
                                      },
                                      {
                                        "$type": "Comindware.Platform.Contracts.VerticalLayoutModel, Comindware.Platform.Contracts",
                                        "Rows": {
                                          "$type": "System.Collections.Generic.List`1[[Comindware.Platform.Contracts.FormComponentModel, Comindware.Platform.Contracts]], mscorlib",
                                          "$values": [
                                            {
                                              "$type": "Comindware.Platform.Contracts.FieldComponentModel, Comindware.Platform.Contracts",
                                              "Label": {
                                                "$type": "Comindware.Platform.Contracts.LabelModel, Comindware.Platform.Contracts",
                                                "Hidden": false,
                                                "Alignment": "Top",
                                                "Text": {
                                                  "$type": "Comindware.Platform.Contracts.LocalizedTextModel, Comindware.Platform.Contracts",
                                                  "En": "Тех. требования - ссылка",
                                                  "De": "Тех. требования - ссылка",
                                                  "Ru": "Тех. требования - ссылка"
                                                }
                                              },
                                              "FieldType": "Text",
                                              "Placeholder": {
                                                "$type": "Comindware.Platform.Contracts.LocalizedTextModel, Comindware.Platform.Contracts"
                                              },
                                              "HelpText": {
                                                "$type": "Comindware.Platform.Contracts.LocalizedTextModel, Comindware.Platform.Contracts"
                                              },
                                              "PropertyPath": {
                                                "$type": "Comindware.Platform.Contracts.GlobalAlias[], Comindware.Platform.Contracts",
                                                "$values": [
                                                  {
                                                    "$type": "Comindware.Platform.Contracts.GlobalAlias, Comindware.Platform.Contracts",
                                                    "Type": "Attribute",
                                                    "Owner": "RIM",
                                                    "Alias": "Tekhtrebovaniyassylka"
                                                  }
                                                ]
                                              },
                                              "TextHeight": 0,
                                              "TextHeightAuto": false,
                                              "MaxLength": 0,
                                              "EditorType": "Multiline",
                                              "CreationType": "None",
                                              "RemovalType": "None",
                                              "EditType": "None",
                                              "ChildPropertyAlias": {
                                                "$type": "Comindware.Platform.Contracts.GlobalAlias, Comindware.Platform.Contracts",
                                                "Type": "Undefined"
                                              },
                                              "OrderPropertyAlias": {
                                                "$type": "Comindware.Platform.Contracts.GlobalAlias, Comindware.Platform.Contracts",
                                                "Type": "Undefined"
                                              },
                                              "NumberPropertyAlias": {
                                                "$type": "Comindware.Platform.Contracts.GlobalAlias, Comindware.Platform.Contracts",
                                                "Type": "Undefined"
                                              },
                                              "PrecedentPropertyAlias": {
                                                "$type": "Comindware.Platform.Contracts.GlobalAlias, Comindware.Platform.Contracts",
                                                "Type": "Undefined"
                                              },
                                              "SortingDirection": "Asc",
                                              "PopupFormAlias": {
                                                "$type": "Comindware.Platform.Contracts.GlobalAlias, Comindware.Platform.Contracts",
                                                "Type": "Undefined"
                                              },
                                              "DisplayFormat": "ShowAsPicture",
                                              "GlobalAlias": {
                                                "$type": "Comindware.Platform.Contracts.GlobalAlias, Comindware.Platform.Contracts",
                                                "Type": "FormComponent",
                                                "Alias": "Tekhtrebovaniyassylka"
                                              },
                                              "AccessType": "Editable",
                                              "Width": 0,
                                              "Type": "FieldComponent"
                                            }
                                          ]
                                        },
                                        "GlobalAlias": {
                                          "$type": "Comindware.Platform.Contracts.GlobalAlias, Comindware.Platform.Contracts",
                                          "Type": "FormComponent",
                                          "Alias": "VerticalLayout15"
                                        },
                                        "AccessType": "Undefined",
                                        "Width": 50,
                                        "Type": "VerticalLayout"
                                      }
                                    ]
                                  },
                                  "OriginalType": "HorizontalLayout",
                                  "GlobalAlias": {
                                    "$type": "Comindware.Platform.Contracts.GlobalAlias, Comindware.Platform.Contracts",
                                    "Type": "FormComponent",
                                    "Alias": "HorizontalLayout6"
                                  },
                                  "AccessType": "Undefined",
                                  "Width": 0,
                                  "Type": "LayoutModel"
                                }
                              ]
                            },
                            "GlobalAlias": {
                              "$type": "Comindware.Platform.Contracts.GlobalAlias, Comindware.Platform.Contracts",
                              "Type": "FormComponent",
                              "Alias": "TabLayout_tabs3"
                            },
                            "AccessType": "Readonly",
                            "Width": 0,
                            "Type": "PanelModel"
                          }
                        ]
                      },
                      "OriginalType": "TabLayout",
                      "GlobalAlias": {
                        "$type": "Comindware.Platform.Contracts.GlobalAlias, Comindware.Platform.Contracts",
                        "Type": "FormComponent",
                        "Alias": "TabLayout"
                      },
                      "AccessType": "Editable",
                      "Width": 0,
                      "Type": "LayoutModel"
                    }
                  ]
                },
                "GlobalAlias": {
                  "$type": "Comindware.Platform.Contracts.GlobalAlias, Comindware.Platform.Contracts",
                  "Type": "FormComponent",
                  "Alias": "VerticalLayout5"
                },
                "AccessType": "Undefined",
                "Width": 0,
                "Type": "VerticalLayout"
              }
            ]
          },
          "GlobalAlias": {
            "$type": "Comindware.Platform.Contracts.GlobalAlias, Comindware.Platform.Contracts",
            "Type": "FormComponent",
            "Alias": "GroupPanelComponent3"
          },
          "AccessType": "Editable",
          "Width": 100,
          "Type": "PanelModel"
        }
      ]
    },
    "GlobalAlias": {
      "$type": "Comindware.Platform.Contracts.GlobalAlias, Comindware.Platform.Contracts",
      "Type": "FormComponent",
      "Alias": "default_Root"
    },
    "AccessType": "Undefined",
    "Width": 0,
    "Type": "VerticalLayout"
  },
  "Name": "РИМ - Основная форма",
  "Origination": "Undefined"
}