{
  "$type": "Comindware.Platform.Contracts.AttributeModel, Comindware.Platform.Contracts",
  "GlobalAlias": {
    "$type": "Comindware.Platform.Contracts.GlobalAlias, Comindware.Platform.Contracts",
    "Type": "Attribute",
    "Owner": "Kontragenty",
    "Alias": "Vsesotrudnikipoyurlitsu"
  },
  "Type": "Account",
  "Format": "Undefined",
  "Name": "Все сотрудники по юр.лицу",
  "Description": "Создано для ограничения списка ЮЛ для КС",
  "IsSystem": false,
  "IsDisabled": false,
  "IsUnique": false,
  "IsIndexed": false,
  "IsTracked": false,
  "IsMultiValue": true,
  "IsTitle": false,
  "IsMandatory": false,
  "IsOwnership": false,
  "IsCalculated": true,
  "Expression": "$KlientAgentstvodlyaYuL->Vsesotrudnikipoklientu",
  "InstanceGlobalAlias": {
    "$type": "Comindware.Platform.Contracts.GlobalAlias, Comindware.Platform.Contracts",
    "Type": "RecordTemplate",
    "Alias": "_Account"
  },
  "ImageColorType": "Original",
  "ImagePreserveAspectRatio": false
}