{
  "$type": "Comindware.Platform.Contracts.AttributeModel, Comindware.Platform.Contracts",
  "GlobalAlias": {
    "$type": "Comindware.Platform.Contracts.GlobalAlias, Comindware.Platform.Contracts",
    "Type": "Attribute",
    "Owner": "Kontragenty",
    "Alias": "Vsesotrudnikipoklientu"
  },
  "Type": "Account",
  "Format": "Undefined",
  "Name": "Все сотрудники по клиенту",
  "IsSystem": false,
  "IsDisabled": false,
  "IsUnique": false,
  "IsIndexed": false,
  "IsTracked": false,
  "IsMultiValue": true,
  "IsTitle": false,
  "IsMandatory": false,
  "IsOwnership": false,
  "IsCalculated": true,
  "Expression": "UNION(\n    UNION(\n        UNION(\n            UNION(\n                UNION(\n                    UNION(\n                        UNION(\n                            UNION(\n                                IF (\n                        EMPTY(\n                            $Mediagruppa),\n                        \"null\",\n                        $Mediagruppa),\n                    IF (\n                        EMPTY(\n                            $MenedzherKS),\n                        \"null\",\n                        $MenedzherKS)),\n                IF (\n                    EMPTY(\n                        $Rabochayagruppa),\n                    \"null\",\n                    $Rabochayagruppa)),\n            IF (\n                EMPTY(\n                    $DidzhitalGH),\n                \"null\",\n                $DidzhitalGH)),\n        IF (\n            EMPTY(\n                $DidzhitalKS),\n            \"null\",\n            $DidzhitalKS)),\n    IF (\n        EMPTY(\n            $Rabochayagruppadidzhital),\n        \"null\",\n        $Rabochayagruppadidzhital)),\n            IF (\n                EMPTY(\n                    $DirektorKS),\n                \"null\",\n                $DirektorKS)),\n        IF (\n            EMPTY(\n                $AkkauntDirektor),\n            \"null\",\n            $AkkauntDirektor)),\n    IF (\n        EMPTY(\n            $DigitalGroupAccountDirector),\n        \"null\",\n        $DigitalGroupAccountDirector))",
  "InstanceGlobalAlias": {
    "$type": "Comindware.Platform.Contracts.GlobalAlias, Comindware.Platform.Contracts",
    "Type": "RecordTemplate",
    "Alias": "_Account"
  },
  "ImageColorType": "Original",
  "ImagePreserveAspectRatio": false
}