{
  "$type": "Comindware.Platform.Contracts.DatasetModel, Comindware.Platform.Contracts",
  "GlobalAlias": {
    "$type": "Comindware.Platform.Contracts.GlobalAlias, Comindware.Platform.Contracts",
    "Type": "Dataset",
    "Owner": "Detalizatsiimediaplanov",
    "Alias": "Moe"
  },
  "IsLazyLoading": false,
  "Name": "Мое",
  "Columns": {
    "$type": "System.Collections.Generic.List`1[[Comindware.Platform.Contracts.ColumnConfigurationModel, Comindware.Platform.Contracts]], mscorlib",
    "$values": [
      {
        "$type": "Comindware.Platform.Contracts.ColumnConfigurationModel, Comindware.Platform.Contracts",
        "PropertyPath": {
          "$type": "Comindware.Platform.Contracts.GlobalAlias[], Comindware.Platform.Contracts",
          "$values": [
            {
              "$type": "Comindware.Platform.Contracts.GlobalAlias, Comindware.Platform.Contracts",
              "Type": "Attribute",
              "Owner": "Detalizatsiimediaplanov",
              "Alias": "Otvetstvennyyzarazmeschenie"
            }
          ]
        },
        "Name": "Ответственный за размещение",
        "Layout": {
          "$type": "Comindware.Platform.Contracts.ColumnLayoutModel, Comindware.Platform.Contracts",
          "Flex": 1.0
        },
        "IsHidden": false
      },
      {
        "$type": "Comindware.Platform.Contracts.ColumnConfigurationModel, Comindware.Platform.Contracts",
        "PropertyPath": {
          "$type": "Comindware.Platform.Contracts.GlobalAlias[], Comindware.Platform.Contracts",
          "$values": [
            {
              "$type": "Comindware.Platform.Contracts.GlobalAlias, Comindware.Platform.Contracts",
              "Type": "Attribute",
              "Owner": "Detalizatsiimediaplanov",
              "Alias": "StoimostbezNDSvalyuta"
            }
          ]
        },
        "Name": "Стоимость без НДС, валюта",
        "Layout": {
          "$type": "Comindware.Platform.Contracts.ColumnLayoutModel, Comindware.Platform.Contracts",
          "Flex": 1.0
        },
        "IsHidden": false
      },
      {
        "$type": "Comindware.Platform.Contracts.ColumnConfigurationModel, Comindware.Platform.Contracts",
        "PropertyPath": {
          "$type": "Comindware.Platform.Contracts.GlobalAlias[], Comindware.Platform.Contracts",
          "$values": [
            {
              "$type": "Comindware.Platform.Contracts.GlobalAlias, Comindware.Platform.Contracts",
              "Type": "Attribute",
              "Owner": "Detalizatsiimediaplanov",
              "Alias": "Stoimost1oypublikatsiirubbezNDS"
            }
          ]
        },
        "Name": "Стоимость ед. (без НДС)",
        "Layout": {
          "$type": "Comindware.Platform.Contracts.ColumnLayoutModel, Comindware.Platform.Contracts",
          "Flex": 1.0
        },
        "IsHidden": false
      },
      {
        "$type": "Comindware.Platform.Contracts.ColumnConfigurationModel, Comindware.Platform.Contracts",
        "PropertyPath": {
          "$type": "Comindware.Platform.Contracts.GlobalAlias[], Comindware.Platform.Contracts",
          "$values": [
            {
              "$type": "Comindware.Platform.Contracts.GlobalAlias, Comindware.Platform.Contracts",
              "Type": "Attribute",
              "Owner": "Detalizatsiimediaplanov",
              "Alias": "DeystvievK2"
            }
          ]
        },
        "Name": "Действие в К2",
        "Layout": {
          "$type": "Comindware.Platform.Contracts.ColumnLayoutModel, Comindware.Platform.Contracts",
          "Flex": 1.0
        },
        "IsHidden": false
      },
      {
        "$type": "Comindware.Platform.Contracts.ColumnConfigurationModel, Comindware.Platform.Contracts",
        "PropertyPath": {
          "$type": "Comindware.Platform.Contracts.GlobalAlias[], Comindware.Platform.Contracts",
          "$values": [
            {
              "$type": "Comindware.Platform.Contracts.GlobalAlias, Comindware.Platform.Contracts",
              "Type": "Attribute",
              "Alias": "id"
            }
          ]
        },
        "Name": "ИД",
        "Layout": {
          "$type": "Comindware.Platform.Contracts.ColumnLayoutModel, Comindware.Platform.Contracts",
          "Flex": 1.0
        },
        "IsHidden": false
      },
      {
        "$type": "Comindware.Platform.Contracts.ColumnConfigurationModel, Comindware.Platform.Contracts",
        "PropertyPath": {
          "$type": "Comindware.Platform.Contracts.GlobalAlias[], Comindware.Platform.Contracts",
          "$values": [
            {
              "$type": "Comindware.Platform.Contracts.GlobalAlias, Comindware.Platform.Contracts",
              "Type": "Attribute",
              "Owner": "Detalizatsiimediaplanov",
              "Alias": "ProektK2"
            }
          ]
        },
        "Name": "Проект К2",
        "Layout": {
          "$type": "Comindware.Platform.Contracts.ColumnLayoutModel, Comindware.Platform.Contracts",
          "Flex": 1.0
        },
        "IsHidden": false
      },
      {
        "$type": "Comindware.Platform.Contracts.ColumnConfigurationModel, Comindware.Platform.Contracts",
        "PropertyPath": {
          "$type": "Comindware.Platform.Contracts.GlobalAlias[], Comindware.Platform.Contracts",
          "$values": [
            {
              "$type": "Comindware.Platform.Contracts.GlobalAlias, Comindware.Platform.Contracts",
              "Type": "Attribute",
              "Owner": "Detalizatsiimediaplanov",
              "Alias": "Dzhob"
            }
          ]
        },
        "Name": "Джоб",
        "Layout": {
          "$type": "Comindware.Platform.Contracts.ColumnLayoutModel, Comindware.Platform.Contracts",
          "Flex": 1.0
        },
        "IsHidden": false
      },
      {
        "$type": "Comindware.Platform.Contracts.ColumnConfigurationModel, Comindware.Platform.Contracts",
        "PropertyPath": {
          "$type": "Comindware.Platform.Contracts.GlobalAlias[], Comindware.Platform.Contracts",
          "$values": [
            {
              "$type": "Comindware.Platform.Contracts.GlobalAlias, Comindware.Platform.Contracts",
              "Type": "Attribute",
              "Owner": "Detalizatsiimediaplanov",
              "Alias": "Mediaplan"
            }
          ]
        },
        "Name": "Медиаплан",
        "Layout": {
          "$type": "Comindware.Platform.Contracts.ColumnLayoutModel, Comindware.Platform.Contracts",
          "Flex": 1.0
        },
        "IsHidden": false
      },
      {
        "$type": "Comindware.Platform.Contracts.ColumnConfigurationModel, Comindware.Platform.Contracts",
        "PropertyPath": {
          "$type": "Comindware.Platform.Contracts.GlobalAlias[], Comindware.Platform.Contracts",
          "$values": [
            {
              "$type": "Comindware.Platform.Contracts.GlobalAlias, Comindware.Platform.Contracts",
              "Type": "Attribute",
              "Owner": "Detalizatsiimediaplanov",
              "Alias": "Prilozhenie"
            }
          ]
        },
        "Name": "Приложение",
        "Layout": {
          "$type": "Comindware.Platform.Contracts.ColumnLayoutModel, Comindware.Platform.Contracts",
          "Flex": 1.0
        },
        "IsHidden": false
      },
      {
        "$type": "Comindware.Platform.Contracts.ColumnConfigurationModel, Comindware.Platform.Contracts",
        "PropertyPath": {
          "$type": "Comindware.Platform.Contracts.GlobalAlias[], Comindware.Platform.Contracts",
          "$values": [
            {
              "$type": "Comindware.Platform.Contracts.GlobalAlias, Comindware.Platform.Contracts",
              "Type": "Attribute",
              "Owner": "Detalizatsiimediaplanov",
              "Alias": "Vidmedia"
            }
          ]
        },
        "Name": "Вид медиа",
        "Layout": {
          "$type": "Comindware.Platform.Contracts.ColumnLayoutModel, Comindware.Platform.Contracts",
          "Flex": 1.0
        },
        "IsHidden": false
      },
      {
        "$type": "Comindware.Platform.Contracts.ColumnConfigurationModel, Comindware.Platform.Contracts",
        "PropertyPath": {
          "$type": "Comindware.Platform.Contracts.GlobalAlias[], Comindware.Platform.Contracts",
          "$values": [
            {
              "$type": "Comindware.Platform.Contracts.GlobalAlias, Comindware.Platform.Contracts",
              "Type": "Attribute",
              "Owner": "Detalizatsiimediaplanov",
              "Alias": "Detaliuslugi"
            }
          ]
        },
        "Name": "Детали услуги",
        "Layout": {
          "$type": "Comindware.Platform.Contracts.ColumnLayoutModel, Comindware.Platform.Contracts",
          "Flex": 1.0
        },
        "IsHidden": false
      },
      {
        "$type": "Comindware.Platform.Contracts.ColumnConfigurationModel, Comindware.Platform.Contracts",
        "PropertyPath": {
          "$type": "Comindware.Platform.Contracts.GlobalAlias[], Comindware.Platform.Contracts",
          "$values": [
            {
              "$type": "Comindware.Platform.Contracts.GlobalAlias, Comindware.Platform.Contracts",
              "Type": "Attribute",
              "Owner": "Detalizatsiimediaplanov",
              "Alias": "Medianositel"
            }
          ]
        },
        "Name": "Медианоситель",
        "Layout": {
          "$type": "Comindware.Platform.Contracts.ColumnLayoutModel, Comindware.Platform.Contracts",
          "Flex": 1.0
        },
        "IsHidden": false
      },
      {
        "$type": "Comindware.Platform.Contracts.ColumnConfigurationModel, Comindware.Platform.Contracts",
        "PropertyPath": {
          "$type": "Comindware.Platform.Contracts.GlobalAlias[], Comindware.Platform.Contracts",
          "$values": [
            {
              "$type": "Comindware.Platform.Contracts.GlobalAlias, Comindware.Platform.Contracts",
              "Type": "Attribute",
              "Owner": "Detalizatsiimediaplanov",
              "Alias": "Geografiya"
            }
          ]
        },
        "Name": "География",
        "Layout": {
          "$type": "Comindware.Platform.Contracts.ColumnLayoutModel, Comindware.Platform.Contracts",
          "Flex": 1.0
        },
        "IsHidden": false
      },
      {
        "$type": "Comindware.Platform.Contracts.ColumnConfigurationModel, Comindware.Platform.Contracts",
        "PropertyPath": {
          "$type": "Comindware.Platform.Contracts.GlobalAlias[], Comindware.Platform.Contracts",
          "$values": [
            {
              "$type": "Comindware.Platform.Contracts.GlobalAlias, Comindware.Platform.Contracts",
              "Type": "Attribute",
              "Owner": "Detalizatsiimediaplanov",
              "Alias": "SMI"
            }
          ]
        },
        "Name": "СМИ",
        "Layout": {
          "$type": "Comindware.Platform.Contracts.ColumnLayoutModel, Comindware.Platform.Contracts",
          "Flex": 1.0
        },
        "IsHidden": false
      },
      {
        "$type": "Comindware.Platform.Contracts.ColumnConfigurationModel, Comindware.Platform.Contracts",
        "PropertyPath": {
          "$type": "Comindware.Platform.Contracts.GlobalAlias[], Comindware.Platform.Contracts",
          "$values": [
            {
              "$type": "Comindware.Platform.Contracts.GlobalAlias, Comindware.Platform.Contracts",
              "Type": "Attribute",
              "Owner": "Detalizatsiimediaplanov",
              "Alias": "Periods"
            }
          ]
        },
        "Name": "Период с",
        "Layout": {
          "$type": "Comindware.Platform.Contracts.ColumnLayoutModel, Comindware.Platform.Contracts",
          "Flex": 1.0
        },
        "IsHidden": false
      },
      {
        "$type": "Comindware.Platform.Contracts.ColumnConfigurationModel, Comindware.Platform.Contracts",
        "PropertyPath": {
          "$type": "Comindware.Platform.Contracts.GlobalAlias[], Comindware.Platform.Contracts",
          "$values": [
            {
              "$type": "Comindware.Platform.Contracts.GlobalAlias, Comindware.Platform.Contracts",
              "Type": "Attribute",
              "Owner": "Detalizatsiimediaplanov",
              "Alias": "Periodpo"
            }
          ]
        },
        "Name": "Период по",
        "Layout": {
          "$type": "Comindware.Platform.Contracts.ColumnLayoutModel, Comindware.Platform.Contracts",
          "Flex": 1.0
        },
        "IsHidden": false
      },
      {
        "$type": "Comindware.Platform.Contracts.ColumnConfigurationModel, Comindware.Platform.Contracts",
        "PropertyPath": {
          "$type": "Comindware.Platform.Contracts.GlobalAlias[], Comindware.Platform.Contracts",
          "$values": [
            {
              "$type": "Comindware.Platform.Contracts.GlobalAlias, Comindware.Platform.Contracts",
              "Type": "Attribute",
              "Owner": "Detalizatsiimediaplanov",
              "Alias": "StoimostbezNDSvalyuta"
            }
          ]
        },
        "Name": "Стоимость без НДС, валюта",
        "Layout": {
          "$type": "Comindware.Platform.Contracts.ColumnLayoutModel, Comindware.Platform.Contracts",
          "Flex": 1.0
        },
        "IsHidden": false
      },
      {
        "$type": "Comindware.Platform.Contracts.ColumnConfigurationModel, Comindware.Platform.Contracts",
        "PropertyPath": {
          "$type": "Comindware.Platform.Contracts.GlobalAlias[], Comindware.Platform.Contracts",
          "$values": [
            {
              "$type": "Comindware.Platform.Contracts.GlobalAlias, Comindware.Platform.Contracts",
              "Type": "Attribute",
              "Owner": "Detalizatsiimediaplanov",
              "Alias": "Itogofakt"
            }
          ]
        },
        "Name": "Итого (факт)",
        "Layout": {
          "$type": "Comindware.Platform.Contracts.ColumnLayoutModel, Comindware.Platform.Contracts",
          "Flex": 1.0
        },
        "IsHidden": false
      },
      {
        "$type": "Comindware.Platform.Contracts.ColumnConfigurationModel, Comindware.Platform.Contracts",
        "PropertyPath": {
          "$type": "Comindware.Platform.Contracts.GlobalAlias[], Comindware.Platform.Contracts",
          "$values": [
            {
              "$type": "Comindware.Platform.Contracts.GlobalAlias, Comindware.Platform.Contracts",
              "Type": "Attribute",
              "Owner": "Detalizatsiimediaplanov",
              "Alias": "K2_nomer"
            }
          ]
        },
        "Name": "К2_номер",
        "Layout": {
          "$type": "Comindware.Platform.Contracts.ColumnLayoutModel, Comindware.Platform.Contracts",
          "Flex": 1.0
        },
        "IsHidden": false
      },
      {
        "$type": "Comindware.Platform.Contracts.ColumnConfigurationModel, Comindware.Platform.Contracts",
        "PropertyPath": {
          "$type": "Comindware.Platform.Contracts.GlobalAlias[], Comindware.Platform.Contracts",
          "$values": [
            {
              "$type": "Comindware.Platform.Contracts.GlobalAlias, Comindware.Platform.Contracts",
              "Type": "Attribute",
              "Owner": "Detalizatsiimediaplanov",
              "Alias": "K2_kommentariy"
            }
          ]
        },
        "Name": "К2_комментарий",
        "Layout": {
          "$type": "Comindware.Platform.Contracts.ColumnLayoutModel, Comindware.Platform.Contracts",
          "Flex": 1.0
        },
        "IsHidden": false
      }
    ]
  },
  "Paging": {
    "$type": "Comindware.Platform.Contracts.PagingConfigurationModel, Comindware.Platform.Contracts",
    "Page": 0,
    "Size": 25
  },
  "Sorting": {
    "$type": "System.Collections.Generic.List`1[[Comindware.Platform.Contracts.SortingConfigurationModel, Comindware.Platform.Contracts]], mscorlib",
    "$values": []
  },
  "ViewType": "General"
}