{
  "$type": "Comindware.Platform.Contracts.SubProcessActivityModel, Comindware.Platform.Contracts",
  "GlobalAlias": {
    "$type": "Comindware.Platform.Contracts.GlobalAlias, Comindware.Platform.Contracts",
    "Type": "ClientActivity",
    "Owner": "ZakrytieMPzaperiod",
    "Alias": "subProcess1"
  },
  "ProcessTemplateAlias": {
    "$type": "Comindware.Platform.Contracts.GlobalAlias, Comindware.Platform.Contracts",
    "Type": "ProcessTemplate",
    "Alias": "Podpisaniedogovora"
  },
  "Loop": {
    "$type": "Comindware.Platform.Contracts.LoopModel, Comindware.Platform.Contracts",
    "Kind": "ForEach",
    "LoopExecutionOrder": "Once",
    "TargetTemplate": {
      "$type": "Comindware.Platform.Contracts.GlobalAlias, Comindware.Platform.Contracts",
      "Type": "RecordTemplate",
      "Alias": "Podpisaniya"
    }
  },
  "Definition": {
    "$type": "Comindware.Platform.Contracts.SubProcessDefinitionModel, Comindware.Platform.Contracts",
    "InputMapping": {
      "$type": "Comindware.Platform.Contracts.MakeObjectRuleModel, Comindware.Platform.Contracts",
      "RecordTemplate": {
        "$type": "Comindware.Platform.Contracts.GlobalAlias, Comindware.Platform.Contracts",
        "Type": "Undefined"
      },
      "PropertyMap": {
        "$type": "Comindware.Platform.Contracts.PropertyMapKeyValueModel[], Comindware.Platform.Contracts",
        "$values": [
          {
            "$type": "Comindware.Platform.Contracts.PropertyMapKeyValueModel, Comindware.Platform.Contracts",
            "Key": {
              "$type": "Comindware.Platform.Contracts.ModificationActionModel, Comindware.Platform.Contracts",
              "PropertyPath": {
                "$type": "Comindware.Platform.Contracts.GlobalAlias[], Comindware.Platform.Contracts",
                "$values": [
                  {
                    "$type": "Comindware.Platform.Contracts.GlobalAlias, Comindware.Platform.Contracts",
                    "Type": "Attribute",
                    "Owner": "Podpisaniya",
                    "Alias": "EDO"
                  }
                ]
              },
              "PropertyAction": "Replace"
            },
            "Value": {
              "$type": "Comindware.Platform.Contracts.CalculationRuleModel, Comindware.Platform.Contracts",
              "Type": "Calculation",
              "Definition": {
                "$type": "Comindware.Platform.Contracts.PropertyRuleDefinitionModel, Comindware.Platform.Contracts",
                "PropertyPath": {
                  "$type": "Comindware.Platform.Contracts.GlobalAlias[], Comindware.Platform.Contracts",
                  "$values": [
                    {
                      "$type": "Comindware.Platform.Contracts.GlobalAlias, Comindware.Platform.Contracts",
                      "Type": "Attribute",
                      "Owner": "ZakrytiyaMPzaperiod",
                      "Alias": "EDO"
                    }
                  ]
                },
                "Type": "Property"
              }
            }
          },
          {
            "$type": "Comindware.Platform.Contracts.PropertyMapKeyValueModel, Comindware.Platform.Contracts",
            "Key": {
              "$type": "Comindware.Platform.Contracts.ModificationActionModel, Comindware.Platform.Contracts",
              "PropertyPath": {
                "$type": "Comindware.Platform.Contracts.GlobalAlias[], Comindware.Platform.Contracts",
                "$values": [
                  {
                    "$type": "Comindware.Platform.Contracts.GlobalAlias, Comindware.Platform.Contracts",
                    "Type": "Attribute",
                    "Owner": "Podpisaniya",
                    "Alias": "Klient"
                  }
                ]
              },
              "PropertyAction": "Replace"
            },
            "Value": {
              "$type": "Comindware.Platform.Contracts.CalculationRuleModel, Comindware.Platform.Contracts",
              "Type": "Calculation",
              "Definition": {
                "$type": "Comindware.Platform.Contracts.PropertyRuleDefinitionModel, Comindware.Platform.Contracts",
                "PropertyPath": {
                  "$type": "Comindware.Platform.Contracts.GlobalAlias[], Comindware.Platform.Contracts",
                  "$values": [
                    {
                      "$type": "Comindware.Platform.Contracts.GlobalAlias, Comindware.Platform.Contracts",
                      "Type": "Attribute",
                      "Owner": "ZakrytiyaMPzaperiod",
                      "Alias": "Mediaplan"
                    },
                    {
                      "$type": "Comindware.Platform.Contracts.GlobalAlias, Comindware.Platform.Contracts",
                      "Type": "Attribute",
                      "Owner": "Mediaplany",
                      "Alias": "Kontragent"
                    }
                  ]
                },
                "Type": "Property"
              }
            }
          },
          {
            "$type": "Comindware.Platform.Contracts.PropertyMapKeyValueModel, Comindware.Platform.Contracts",
            "Key": {
              "$type": "Comindware.Platform.Contracts.ModificationActionModel, Comindware.Platform.Contracts",
              "PropertyPath": {
                "$type": "Comindware.Platform.Contracts.GlobalAlias[], Comindware.Platform.Contracts",
                "$values": [
                  {
                    "$type": "Comindware.Platform.Contracts.GlobalAlias, Comindware.Platform.Contracts",
                    "Type": "Attribute",
                    "Owner": "Podpisaniya",
                    "Alias": "Ktopodpisyvaet"
                  }
                ]
              },
              "PropertyAction": "Replace"
            },
            "Value": {
              "$type": "Comindware.Platform.Contracts.CalculationRuleModel, Comindware.Platform.Contracts",
              "Type": "Calculation",
              "Definition": {
                "$type": "Comindware.Platform.Contracts.PropertyRuleDefinitionModel, Comindware.Platform.Contracts",
                "PropertyPath": {
                  "$type": "Comindware.Platform.Contracts.GlobalAlias[], Comindware.Platform.Contracts",
                  "$values": [
                    {
                      "$type": "Comindware.Platform.Contracts.GlobalAlias, Comindware.Platform.Contracts",
                      "Type": "Attribute",
                      "Owner": "ZakrytiyaMPzaperiod",
                      "Alias": "Ktopodpisyvaet"
                    }
                  ]
                },
                "Type": "Property"
              }
            }
          },
          {
            "$type": "Comindware.Platform.Contracts.PropertyMapKeyValueModel, Comindware.Platform.Contracts",
            "Key": {
              "$type": "Comindware.Platform.Contracts.ModificationActionModel, Comindware.Platform.Contracts",
              "PropertyPath": {
                "$type": "Comindware.Platform.Contracts.GlobalAlias[], Comindware.Platform.Contracts",
                "$values": [
                  {
                    "$type": "Comindware.Platform.Contracts.GlobalAlias, Comindware.Platform.Contracts",
                    "Type": "Attribute",
                    "Owner": "Podpisaniya",
                    "Alias": "Agentstvopodpisyvaetpervym"
                  }
                ]
              },
              "PropertyAction": "Replace"
            },
            "Value": {
              "$type": "Comindware.Platform.Contracts.CalculationRuleModel, Comindware.Platform.Contracts",
              "Type": "Calculation",
              "Definition": {
                "$type": "Comindware.Platform.Contracts.PropertyRuleDefinitionModel, Comindware.Platform.Contracts",
                "PropertyPath": {
                  "$type": "Comindware.Platform.Contracts.GlobalAlias[], Comindware.Platform.Contracts",
                  "$values": [
                    {
                      "$type": "Comindware.Platform.Contracts.GlobalAlias, Comindware.Platform.Contracts",
                      "Type": "Attribute",
                      "Owner": "ZakrytiyaMPzaperiod",
                      "Alias": "Agentstvopodpisyvaetpervym"
                    }
                  ]
                },
                "Type": "Property"
              }
            }
          },
          {
            "$type": "Comindware.Platform.Contracts.PropertyMapKeyValueModel, Comindware.Platform.Contracts",
            "Key": {
              "$type": "Comindware.Platform.Contracts.ModificationActionModel, Comindware.Platform.Contracts",
              "PropertyPath": {
                "$type": "Comindware.Platform.Contracts.GlobalAlias[], Comindware.Platform.Contracts",
                "$values": [
                  {
                    "$type": "Comindware.Platform.Contracts.GlobalAlias, Comindware.Platform.Contracts",
                    "Type": "Attribute",
                    "Owner": "Podpisaniya",
                    "Alias": "Agentstvo"
                  }
                ]
              },
              "PropertyAction": "Replace"
            },
            "Value": {
              "$type": "Comindware.Platform.Contracts.CalculationRuleModel, Comindware.Platform.Contracts",
              "Type": "Calculation",
              "Definition": {
                "$type": "Comindware.Platform.Contracts.PropertyRuleDefinitionModel, Comindware.Platform.Contracts",
                "PropertyPath": {
                  "$type": "Comindware.Platform.Contracts.GlobalAlias[], Comindware.Platform.Contracts",
                  "$values": [
                    {
                      "$type": "Comindware.Platform.Contracts.GlobalAlias, Comindware.Platform.Contracts",
                      "Type": "Attribute",
                      "Owner": "ZakrytiyaMPzaperiod",
                      "Alias": "Mediaplan"
                    },
                    {
                      "$type": "Comindware.Platform.Contracts.GlobalAlias, Comindware.Platform.Contracts",
                      "Type": "Attribute",
                      "Owner": "Mediaplany",
                      "Alias": "Agentstvo"
                    }
                  ]
                },
                "Type": "Property"
              }
            }
          },
          {
            "$type": "Comindware.Platform.Contracts.PropertyMapKeyValueModel, Comindware.Platform.Contracts",
            "Key": {
              "$type": "Comindware.Platform.Contracts.ModificationActionModel, Comindware.Platform.Contracts",
              "PropertyPath": {
                "$type": "Comindware.Platform.Contracts.GlobalAlias[], Comindware.Platform.Contracts",
                "$values": [
                  {
                    "$type": "Comindware.Platform.Contracts.GlobalAlias, Comindware.Platform.Contracts",
                    "Type": "Attribute",
                    "Owner": "Podpisaniya",
                    "Alias": "UPD"
                  }
                ]
              },
              "PropertyAction": "Replace"
            },
            "Value": {
              "$type": "Comindware.Platform.Contracts.CalculationRuleModel, Comindware.Platform.Contracts",
              "Type": "Calculation",
              "Definition": {
                "$type": "Comindware.Platform.Contracts.PropertyRuleDefinitionModel, Comindware.Platform.Contracts",
                "PropertyPath": {
                  "$type": "Comindware.Platform.Contracts.GlobalAlias[], Comindware.Platform.Contracts",
                  "$values": [
                    {
                      "$type": "Comindware.Platform.Contracts.GlobalAlias, Comindware.Platform.Contracts",
                      "Type": "Attribute",
                      "Alias": "id"
                    }
                  ]
                },
                "Type": "Property"
              }
            }
          }
        ]
      },
      "Type": "MakeObject"
    },
    "ReturnMapping": {
      "$type": "Comindware.Platform.Contracts.MakeObjectRuleModel, Comindware.Platform.Contracts",
      "RecordTemplate": {
        "$type": "Comindware.Platform.Contracts.GlobalAlias, Comindware.Platform.Contracts",
        "Type": "Undefined"
      },
      "Type": "MakeObject"
    },
    "ProcessObjectStrategy": "CreateNew",
    "ProcessRelation": "Contextual"
  },
  "BehaviourState": "Undefined",
  "AdvancedConfiguration": true,
  "Title": "Подписание",
  "IsTitleSet": false,
  "Position": {
    "$type": "Comindware.Platform.Contracts.VectorModel, Comindware.Platform.Contracts",
    "X": 2325.0,
    "Y": 430.9020079262
  },
  "Size": {
    "$type": "Comindware.Platform.Contracts.DimensionsModel, Comindware.Platform.Contracts",
    "Width": 150.0,
    "Height": 100.0
  },
  "Owner": {
    "$type": "Comindware.Platform.Contracts.GlobalAlias, Comindware.Platform.Contracts",
    "Type": "ClientActivity",
    "Owner": "ZakrytieMPzaperiod",
    "Alias": "lane2"
  },
  "OwnerEmbeddedProcessActivityAlias": {
    "$type": "Comindware.Platform.Contracts.GlobalAlias, Comindware.Platform.Contracts",
    "Type": "Undefined"
  },
  "MountedOnAlias": {
    "$type": "Comindware.Platform.Contracts.GlobalAlias, Comindware.Platform.Contracts",
    "Type": "Undefined"
  },
  "Type": "SubProcess",
  "OnEnterTrigger": {
    "$type": "Comindware.Platform.Contracts.GlobalAlias, Comindware.Platform.Contracts",
    "Type": "Trigger",
    "Alias": "TokenEnters_subProcess1_Process_ZakrytieMPzaperiod_V72_1_d0cd1d"
  },
  "OnExitTrigger": {
    "$type": "Comindware.Platform.Contracts.GlobalAlias, Comindware.Platform.Contracts",
    "Type": "Undefined"
  }
}