{
  "$type": "Comindware.Platform.Contracts.AttributeModel, Comindware.Platform.Contracts",
  "GlobalAlias": {
    "$type": "Comindware.Platform.Contracts.GlobalAlias, Comindware.Platform.Contracts",
    "Type": "Attribute",
    "Owner": "Prilozheniyakdogovoram",
    "Alias": "NuzhnosoglasovanieGroupHead"
  },
  "Type": "Boolean",
  "Format": "Undefined",
  "Name": "Нужно согласование Group Head?",
  "IsSystem": false,
  "IsDisabled": false,
  "IsUnique": false,
  "IsIndexed": false,
  "IsTracked": false,
  "IsMultiValue": false,
  "IsTitle": false,
  "IsMandatory": false,
  "IsOwnership": false,
  "IsCalculated": true,
  "Expression": "@prefix account: <http://comindware.com/ontology/account#>.\n@prefix object: <http://comindware.com/ontology/object#>.\n@prefix container: <http://comindware.com/ontology/container#>.\n\n{\n    (\"Prilozheniyakdogovoram\" \"MenedzherKS\") object:findProperty ?assigneeProp.\n    (\"Sotrudnikikontragentov\" \"SamostoyatelnootpravlyaetMP\") object:findProperty ?checkboxProp.\n    ?item ?assigneeProp ?assignee.\n    ?polz container:alias \"Sotrudnikikontragentov\".\n    ?assignee account:extendedBy ?polz.\n\tif{not {?assignee ?checkboxProp ?.}.}\n\tthen{true -> ?value.}\n\telse{?assignee ?checkboxProp ?checkbox.\n\t\tif {?checkbox == true}\n          then {false -> ?value.}\n\t\telse {true -> ?value.}.\n}.\n}",
  "InstanceGlobalAlias": {
    "$type": "Comindware.Platform.Contracts.GlobalAlias, Comindware.Platform.Contracts",
    "Type": "Undefined"
  },
  "ImageColorType": "Original",
  "ImagePreserveAspectRatio": false
}