{
  "$type": "Comindware.Platform.Contracts.DocumentExportTemplateModel, Comindware.Platform.Contracts",
  "GlobalAlias": {
    "$type": "Comindware.Platform.Contracts.GlobalAlias, Comindware.Platform.Contracts",
    "Type": "ExportTemplate",
    "Owner": "Brify",
    "Alias": "BrifEasyMedia"
  },
  "Name": "Бриф Easy Media.docx",
  "ExportSourceTemplate": {
    "$type": "Comindware.Platform.Contracts.ExportSourceTemplateFromDocument, Comindware.Platform.Contracts",
    "Type": "Document",
    "FileName": "Бриф Easy Media.docx",
    "FileType": "Word",
    "StreamId": "cmw.xmlns:.stream:///.a5b2ef9f-e56e-496c-900f-ff23c59033dc"
  },
  "OutputFileNameTemplate": {
    "$type": "Comindware.Platform.Contracts.OutputFileNameTemplateFromAttribute, Comindware.Platform.Contracts",
    "Type": "Attribute",
    "PropertyPath": {
      "$type": "Comindware.Platform.Contracts.GlobalAlias[], Comindware.Platform.Contracts",
      "$values": [
        {
          "$type": "Comindware.Platform.Contracts.GlobalAlias, Comindware.Platform.Contracts",
          "Type": "Attribute",
          "Alias": "Nazvanie"
        }
      ]
    }
  },
  "ExportAsPdf": false
}