{
  "$type": "Comindware.Platform.Contracts.ADConfigurationModel, Comindware.Platform.Contracts",
  "Name": "AD",
  "Container": "sln.2_ad",
  "Channel": {
    "$type": "Comindware.Platform.Contracts.GlobalAlias, Comindware.Platform.Contracts",
    "Type": "CommunicationChannel",
    "Alias": "AD Groups"
  },
  "Template": {
    "$type": "Comindware.Platform.Contracts.GlobalAlias, Comindware.Platform.Contracts",
    "Type": "AccountTemplate",
    "Alias": "Sotrudnikikontragentov"
  },
  "TemplateMap": {
    "$type": "System.Collections.Generic.List`1[[Comindware.Platform.Contracts.ADAttributeMapModel, Comindware.Platform.Contracts]], mscorlib",
    "$values": [
      {
        "$type": "Comindware.Platform.Contracts.ADAttributeMapModel, Comindware.Platform.Contracts",
        "Alias": {
          "$type": "Comindware.Platform.Contracts.GlobalAlias, Comindware.Platform.Contracts",
          "Type": "Undefined"
        },
        "Property": {
          "$type": "Comindware.Platform.Contracts.ReferenceModel, Comindware.Platform.Contracts",
          "Alias": {
            "$type": "Comindware.Platform.Contracts.GlobalAlias, Comindware.Platform.Contracts",
            "Type": "Attribute",
            "Owner": "Sotrudnikikontragentov",
            "Alias": "Proverochnyykod"
          },
          "Id": "op.881",
          "Name": "Проверочный код"
        },
        "IsMandatory": false
      },
      {
        "$type": "Comindware.Platform.Contracts.ADAttributeMapModel, Comindware.Platform.Contracts",
        "Alias": {
          "$type": "Comindware.Platform.Contracts.GlobalAlias, Comindware.Platform.Contracts",
          "Type": "Undefined"
        },
        "Property": {
          "$type": "Comindware.Platform.Contracts.ReferenceModel, Comindware.Platform.Contracts",
          "Alias": {
            "$type": "Comindware.Platform.Contracts.GlobalAlias, Comindware.Platform.Contracts",
            "Type": "Attribute",
            "Owner": "Sotrudnikikontragentov",
            "Alias": "telegramid"
          },
          "Id": "op.880",
          "Name": "Telegram ID"
        },
        "IsMandatory": false
      },
      {
        "$type": "Comindware.Platform.Contracts.ADAttributeMapModel, Comindware.Platform.Contracts",
        "Alias": {
          "$type": "Comindware.Platform.Contracts.GlobalAlias, Comindware.Platform.Contracts",
          "Type": "Undefined"
        },
        "Property": {
          "$type": "Comindware.Platform.Contracts.ReferenceModel, Comindware.Platform.Contracts",
          "Alias": {
            "$type": "Comindware.Platform.Contracts.GlobalAlias, Comindware.Platform.Contracts",
            "Type": "Attribute",
            "Owner": "Sotrudnikikontragentov",
            "Alias": "Podpisant"
          },
          "Id": "op.451",
          "Name": "Подписант"
        },
        "IsMandatory": false
      },
      {
        "$type": "Comindware.Platform.Contracts.ADAttributeMapModel, Comindware.Platform.Contracts",
        "Alias": {
          "$type": "Comindware.Platform.Contracts.GlobalAlias, Comindware.Platform.Contracts",
          "Type": "Undefined"
        },
        "Property": {
          "$type": "Comindware.Platform.Contracts.ReferenceModel, Comindware.Platform.Contracts",
          "Alias": {
            "$type": "Comindware.Platform.Contracts.GlobalAlias, Comindware.Platform.Contracts",
            "Type": "Attribute",
            "Owner": "Sotrudnikikontragentov",
            "Alias": "Bukhgalter"
          },
          "Id": "op.450",
          "Name": "Бухгалтер"
        },
        "IsMandatory": false
      },
      {
        "$type": "Comindware.Platform.Contracts.ADAttributeMapModel, Comindware.Platform.Contracts",
        "Alias": {
          "$type": "Comindware.Platform.Contracts.GlobalAlias, Comindware.Platform.Contracts",
          "Type": "Undefined"
        },
        "Property": {
          "$type": "Comindware.Platform.Contracts.ReferenceModel, Comindware.Platform.Contracts",
          "Alias": {
            "$type": "Comindware.Platform.Contracts.GlobalAlias, Comindware.Platform.Contracts",
            "Type": "Attribute",
            "Owner": "Sotrudnikikontragentov",
            "Alias": "Yurist"
          },
          "Id": "op.449",
          "Name": "Юрист"
        },
        "IsMandatory": false
      },
      {
        "$type": "Comindware.Platform.Contracts.ADAttributeMapModel, Comindware.Platform.Contracts",
        "Alias": {
          "$type": "Comindware.Platform.Contracts.GlobalAlias, Comindware.Platform.Contracts",
          "Type": "Undefined"
        },
        "Property": {
          "$type": "Comindware.Platform.Contracts.ReferenceModel, Comindware.Platform.Contracts",
          "Alias": {
            "$type": "Comindware.Platform.Contracts.GlobalAlias, Comindware.Platform.Contracts",
            "Type": "Attribute",
            "Owner": "Sotrudnikikontragentov",
            "Alias": "SamostoyatelnootpravlyaetMP"
          },
          "Id": "op.370",
          "Name": "Самостоятельно отправляет МП"
        },
        "IsMandatory": false
      },
      {
        "$type": "Comindware.Platform.Contracts.ADAttributeMapModel, Comindware.Platform.Contracts",
        "Alias": {
          "$type": "Comindware.Platform.Contracts.GlobalAlias, Comindware.Platform.Contracts",
          "Type": "Undefined"
        },
        "Property": {
          "$type": "Comindware.Platform.Contracts.ReferenceModel, Comindware.Platform.Contracts",
          "Alias": {
            "$type": "Comindware.Platform.Contracts.GlobalAlias, Comindware.Platform.Contracts",
            "Type": "Attribute",
            "Owner": "Sotrudnikikontragentov",
            "Alias": "Kommentariy"
          },
          "Id": "op.369",
          "Name": "Комментарий"
        },
        "IsMandatory": false
      }
    ]
  },
  "SelectedGroups": {
    "$type": "System.Collections.Generic.List`1[[Comindware.Platform.Contracts.ReferenceModel, Comindware.Platform.Contracts]], mscorlib",
    "$values": [
      {
        "$type": "Comindware.Platform.Contracts.ReferenceModel, Comindware.Platform.Contracts",
        "Alias": {
          "$type": "Comindware.Platform.Contracts.GlobalAlias, Comindware.Platform.Contracts",
          "Type": "Undefined",
          "Alias": "CN=~!EasyMedia!,OU=Distribution Groups,OU=All Groups,OU=Users Enterprise,DC=easy-media,DC=ru"
        },
        "Id": "S-1-5-21-1441219597-2895608048-511720015-1854",
        "Name": "~!EasyMedia!"
      }
    ]
  },
  "BehaviourState": "Undefined",
  "AllUsers": false
}