{
  "$type": "Comindware.Platform.Contracts.AttributeModel, Comindware.Platform.Contracts",
  "GlobalAlias": {
    "$type": "Comindware.Platform.Contracts.GlobalAlias, Comindware.Platform.Contracts",
    "Type": "Attribute",
    "Owner": "Aktysverok",
    "Alias": "Naimenovanieaktasverki"
  },
  "Type": "String",
  "Format": "PlainText",
  "Name": "Наименование акта сверки",
  "IsSystem": false,
  "IsDisabled": false,
  "IsUnique": false,
  "IsIndexed": false,
  "IsTracked": false,
  "IsMultiValue": false,
  "IsTitle": true,
  "IsMandatory": false,
  "IsOwnership": false,
  "IsCalculated": true,
  "Expression": "FORMAT(\"Акт сверки для клиента {2} юр.лицо: {0} за {1:dd}.{1:MM}.{1:yy}-{3:dd}.{3:MM}.{3:yy}\",LIST($Yurlitsoklienta->Kratkoenazvanie, $Period, $Klient->Kratkoenazvanie, $Periodpo))",
  "InstanceGlobalAlias": {
    "$type": "Comindware.Platform.Contracts.GlobalAlias, Comindware.Platform.Contracts",
    "Type": "Undefined"
  },
  "ImageColorType": "Original",
  "ImagePreserveAspectRatio": false
}