{
  "$type": "Comindware.Platform.Contracts.IntermediateEventActivityModel, Comindware.Platform.Contracts",
  "GlobalAlias": {
    "$type": "Comindware.Platform.Contracts.GlobalAlias, Comindware.Platform.Contracts",
    "Type": "ClientActivity",
    "Owner": "Formirovaniedogovora",
    "Alias": "timerIntermediateEvent1"
  },
  "Kind": "CatchingMessage",
  "IsInterrupting": false,
  "MessageDefinition": {
    "$type": "Comindware.Platform.Contracts.MessageEventDefinitionModel, Comindware.Platform.Contracts",
    "IsThrowing": false,
    "MessageType": {
      "$type": "Comindware.Platform.Contracts.GlobalAlias, Comindware.Platform.Contracts",
      "Type": "MessageTemplate",
      "Alias": "Otmenadogovora"
    },
    "MessageName": "Отмена договора",
    "ReturnMapping": {
      "$type": "Comindware.Platform.Contracts.MakeObjectRuleModel, Comindware.Platform.Contracts",
      "RecordTemplate": {
        "$type": "Comindware.Platform.Contracts.GlobalAlias, Comindware.Platform.Contracts",
        "Type": "Undefined"
      },
      "PropertyMap": {
        "$type": "Comindware.Platform.Contracts.PropertyMapKeyValueModel[], Comindware.Platform.Contracts",
        "$values": [
          {
            "$type": "Comindware.Platform.Contracts.PropertyMapKeyValueModel, Comindware.Platform.Contracts",
            "Key": {
              "$type": "Comindware.Platform.Contracts.ModificationActionModel, Comindware.Platform.Contracts",
              "PropertyPath": {
                "$type": "Comindware.Platform.Contracts.GlobalAlias[], Comindware.Platform.Contracts",
                "$values": [
                  {
                    "$type": "Comindware.Platform.Contracts.GlobalAlias, Comindware.Platform.Contracts",
                    "Type": "Attribute",
                    "Owner": "Dogovory",
                    "Alias": "Prichinaotmeny"
                  }
                ]
              },
              "PropertyAction": "Replace"
            },
            "Value": {
              "$type": "Comindware.Platform.Contracts.CalculationRuleModel, Comindware.Platform.Contracts",
              "Type": "Calculation",
              "Definition": {
                "$type": "Comindware.Platform.Contracts.PropertyRuleDefinitionModel, Comindware.Platform.Contracts",
                "PropertyPath": {
                  "$type": "Comindware.Platform.Contracts.GlobalAlias[], Comindware.Platform.Contracts",
                  "$values": [
                    {
                      "$type": "Comindware.Platform.Contracts.GlobalAlias, Comindware.Platform.Contracts",
                      "Type": "MessageTemplateProperty",
                      "Owner": "Otmenadogovora",
                      "Alias": "Kommentariy"
                    }
                  ]
                },
                "Type": "Property"
              }
            }
          }
        ]
      },
      "Type": "MakeObject"
    }
  },
  "BehaviourState": "Undefined",
  "IsTitleSet": false,
  "Position": {
    "$type": "Comindware.Platform.Contracts.VectorModel, Comindware.Platform.Contracts",
    "X": 440.0,
    "Y": 1346.19922037886
  },
  "Size": {
    "$type": "Comindware.Platform.Contracts.DimensionsModel, Comindware.Platform.Contracts",
    "Width": 40.0,
    "Height": 40.0
  },
  "Owner": {
    "$type": "Comindware.Platform.Contracts.GlobalAlias, Comindware.Platform.Contracts",
    "Type": "ClientActivity",
    "Owner": "Formirovaniedogovora",
    "Alias": "lane5"
  },
  "OwnerEmbeddedProcessActivityAlias": {
    "$type": "Comindware.Platform.Contracts.GlobalAlias, Comindware.Platform.Contracts",
    "Type": "Undefined"
  },
  "MountedOnAlias": {
    "$type": "Comindware.Platform.Contracts.GlobalAlias, Comindware.Platform.Contracts",
    "Type": "Undefined"
  },
  "Type": "IntermediateEvent",
  "OnEnterTrigger": {
    "$type": "Comindware.Platform.Contracts.GlobalAlias, Comindware.Platform.Contracts",
    "Type": "Undefined"
  },
  "OnExitTrigger": {
    "$type": "Comindware.Platform.Contracts.GlobalAlias, Comindware.Platform.Contracts",
    "Type": "Undefined"
  }
}