{
  "$type": "Comindware.Platform.Contracts.TemplateInfoModel, Comindware.Platform.Contracts",
  "Name": "НЕ ИСПОЛЬЗУЕТСЯ",
  "GlobalAlias": {
    "$type": "Comindware.Platform.Contracts.GlobalAlias, Comindware.Platform.Contracts",
    "Type": "ProcessTemplate",
    "Alias": "Razrabotkaisoglasovaniestrategii"
  },
  "IsDisabled": true,
  "RelatedTemplate": {
    "$type": "System.Nullable`1[[Comindware.Platform.Contracts.GlobalAlias, Comindware.Platform.Contracts]], mscorlib",
    "Type": "RecordTemplate",
    "Alias": "Proekty"
  },
  "IsReferenceData": false,
  "IsTransferable": false
}